<?xml version="1.0" encoding="UTF-8" standalone="no"?>
<!-- Created with Inkscape (http://www.inkscape.org/) -->

<svg
   xmlns:dc="http://purl.org/dc/elements/1.1/"
   xmlns:cc="http://creativecommons.org/ns#"
   xmlns:rdf="http://www.w3.org/1999/02/22-rdf-syntax-ns#"
   xmlns:svg="http://www.w3.org/2000/svg"
   xmlns="http://www.w3.org/2000/svg"
   xmlns:xlink="http://www.w3.org/1999/xlink"
   xmlns:sodipodi="http://sodipodi.sourceforge.net/DTD/sodipodi-0.dtd"
   xmlns:inkscape="http://www.inkscape.org/namespaces/inkscape"
   height="100"
   id="svg1714"
   inkscape:version="0.48.3.1 r9886"
   sodipodi:docname="invoicebook.svg"
   sodipodi:version="0.32"
   width="100"
   version="1.1">
  <metadata
     id="metadata3">
    <rdf:RDF>
      <cc:Work
         rdf:about="">
        <dc:title></dc:title>
        <dc:description />
        <dc:subject>
          <rdf:Bag>
            <rdf:li>en</rdf:li>
            <rdf:li>gold</rdf:li>
            <rdf:li>money</rdf:li>
            <rdf:li>coins</rdf:li>
          </rdf:Bag>
        </dc:subject>
        <dc:publisher>
          <cc:Agent
             rdf:about="http://www.openclipart.org">
            <dc:title>Jonadab the Unsightly One</dc:title>
          </cc:Agent>
        </dc:publisher>
        <dc:creator>
          <cc:Agent>
            <dc:title>Jonadab the Unsightly One</dc:title>
          </cc:Agent>
        </dc:creator>
        <dc:rights>
          <cc:Agent>
            <dc:title>Jonadab the Unsightly One</dc:title>
          </cc:Agent>
        </dc:rights>
        <dc:date />
        <dc:format>image/svg+xml</dc:format>
        <dc:type
           rdf:resource="http://purl.org/dc/dcmitype/StillImage" />
        <cc:license
           rdf:resource="http://web.resource.org/cc/PublicDomain" />
        <dc:language>en</dc:language>
      </cc:Work>
      <cc:License
         rdf:about="http://web.resource.org/cc/PublicDomain">
        <cc:permits
           rdf:resource="http://web.resource.org/cc/Reproduction" />
        <cc:permits
           rdf:resource="http://web.resource.org/cc/Distribution" />
        <cc:permits
           rdf:resource="http://web.resource.org/cc/DerivativeWorks" />
      </cc:License>
    </rdf:RDF>
  </metadata>
  <defs
     id="defs3">
    <radialGradient
       cx="170.20071"
       cy="1005.7717"
       fx="170.20071"
       fy="1005.7717"
       gradientTransform="matrix(1.81901,0,0,0.549749,0,7.8893329)"
       gradientUnits="userSpaceOnUse"
       id="radialGradient14530"
       inkscape:collect="always"
       r="2.6936707"
       xlink:href="#linearGradient14418" />
    <linearGradient
       gradientTransform="matrix(2.260479,0,0,0.442384,0,7.8893329)"
       gradientUnits="userSpaceOnUse"
       id="linearGradient14529"
       inkscape:collect="always"
       spreadMethod="reflect"
       x1="134.78203"
       x2="137.12508"
       xlink:href="#linearGradient13628"
       y1="1251.5984"
       y2="1251.5985" />
    <radialGradient
       cx="170.20071"
       cy="1005.7717"
       fx="170.20071"
       fy="1005.7717"
       gradientTransform="matrix(1.81901,0,0,0.549749,0,7.8893329)"
       gradientUnits="userSpaceOnUse"
       id="radialGradient14528"
       inkscape:collect="always"
       r="2.6936707"
       xlink:href="#linearGradient14418" />
    <linearGradient
       gradientTransform="matrix(2.260479,0,0,0.442384,0,7.8893329)"
       gradientUnits="userSpaceOnUse"
       id="linearGradient14527"
       inkscape:collect="always"
       spreadMethod="reflect"
       x1="134.78203"
       x2="137.12508"
       xlink:href="#linearGradient13628"
       y1="1251.5984"
       y2="1251.5985" />
    <radialGradient
       cx="170.20071"
       cy="1005.7717"
       fx="170.20071"
       fy="1005.7717"
       gradientTransform="matrix(1.81901,0,0,0.549749,0,7.8893329)"
       gradientUnits="userSpaceOnUse"
       id="radialGradient14526"
       inkscape:collect="always"
       r="2.6936707"
       xlink:href="#linearGradient14418" />
    <linearGradient
       gradientTransform="matrix(2.260479,0,0,0.442384,0,7.8893329)"
       gradientUnits="userSpaceOnUse"
       id="linearGradient14525"
       inkscape:collect="always"
       spreadMethod="reflect"
       x1="134.78203"
       x2="137.12508"
       xlink:href="#linearGradient13628"
       y1="1251.5984"
       y2="1251.5985" />
    <radialGradient
       cx="170.20071"
       cy="1005.7717"
       fx="170.20071"
       fy="1005.7717"
       gradientTransform="matrix(1.81901,0,0,0.549749,0,7.8893329)"
       gradientUnits="userSpaceOnUse"
       id="radialGradient14524"
       inkscape:collect="always"
       r="2.6936707"
       xlink:href="#linearGradient14418" />
    <linearGradient
       gradientTransform="matrix(2.260479,0,0,0.442384,0,7.8893329)"
       gradientUnits="userSpaceOnUse"
       id="linearGradient14523"
       inkscape:collect="always"
       spreadMethod="reflect"
       x1="134.78203"
       x2="137.12508"
       xlink:href="#linearGradient13628"
       y1="1251.5984"
       y2="1251.5985" />
    <radialGradient
       cx="170.20071"
       cy="1005.7717"
       fx="170.20071"
       fy="1005.7717"
       gradientTransform="matrix(1.81901,0,0,0.549749,0,7.8893329)"
       gradientUnits="userSpaceOnUse"
       id="radialGradient14522"
       inkscape:collect="always"
       r="2.6936707"
       xlink:href="#linearGradient14418" />
    <linearGradient
       gradientTransform="matrix(2.260479,0,0,0.442384,0,7.8893329)"
       gradientUnits="userSpaceOnUse"
       id="linearGradient14521"
       inkscape:collect="always"
       spreadMethod="reflect"
       x1="134.78203"
       x2="137.12508"
       xlink:href="#linearGradient13628"
       y1="1251.5984"
       y2="1251.5985" />
    <linearGradient
       id="linearGradient14418">
      <stop
         id="stop14419"
         offset="0.0000000"
         style="stop-color:#e0b524;stop-opacity:1.0000000;" />
      <stop
         id="stop14420"
         offset="1.0000000"
         style="stop-color:#f3d727;stop-opacity:1.0000000;" />
    </linearGradient>
    <radialGradient
       cx="170.20071"
       cy="1005.7717"
       fx="170.20071"
       fy="1005.7717"
       gradientTransform="matrix(1.81901,0,0,0.549749,0,7.8893329)"
       gradientUnits="userSpaceOnUse"
       id="radialGradient14520"
       inkscape:collect="always"
       r="2.6936707"
       xlink:href="#linearGradient14418" />
    <linearGradient
       id="linearGradient13628">
      <stop
         id="stop13629"
         offset="0.0000000"
         style="stop-color:#f3d727;stop-opacity:1.0000000;" />
      <stop
         id="stop13630"
         offset="1.0000000"
         style="stop-color:#e0b524;stop-opacity:1.0000000;" />
    </linearGradient>
    <linearGradient
       gradientTransform="matrix(2.260479,0,0,0.442384,0,7.8893329)"
       gradientUnits="userSpaceOnUse"
       id="linearGradient14519"
       inkscape:collect="always"
       spreadMethod="reflect"
       x1="134.78203"
       x2="137.12508"
       xlink:href="#linearGradient13628"
       y1="1251.5984"
       y2="1251.5985" />
    <linearGradient
       inkscape:collect="always"
       xlink:href="#linearGradient13628"
       id="linearGradient3039"
       gradientUnits="userSpaceOnUse"
       gradientTransform="matrix(6.4542079,0,0,1.2631121,-585.34259,-1008.6753)"
       spreadMethod="reflect"
       x1="134.78203"
       y1="1251.5984"
       x2="137.12508"
       y2="1251.5985" />
    <radialGradient
       inkscape:collect="always"
       xlink:href="#linearGradient14418"
       id="radialGradient3041"
       gradientUnits="userSpaceOnUse"
       gradientTransform="matrix(5.1937084,0,0,1.5696648,-585.34259,-1008.6753)"
       cx="170.20071"
       cy="1005.7717"
       fx="170.20071"
       fy="1005.7717"
       r="2.6936707" />
    <linearGradient
       inkscape:collect="always"
       xlink:href="#linearGradient13628"
       id="linearGradient3043"
       gradientUnits="userSpaceOnUse"
       gradientTransform="matrix(6.4542079,0,0,1.2631121,-584.19876,-1011.4236)"
       spreadMethod="reflect"
       x1="134.78203"
       y1="1251.5984"
       x2="137.12508"
       y2="1251.5985" />
    <radialGradient
       inkscape:collect="always"
       xlink:href="#linearGradient14418"
       id="radialGradient3045"
       gradientUnits="userSpaceOnUse"
       gradientTransform="matrix(5.1937084,0,0,1.5696648,-584.19876,-1011.4236)"
       cx="170.20071"
       cy="1005.7717"
       fx="170.20071"
       fy="1005.7717"
       r="2.6936707" />
    <linearGradient
       inkscape:collect="always"
       xlink:href="#linearGradient13628"
       id="linearGradient3047"
       gradientUnits="userSpaceOnUse"
       gradientTransform="matrix(6.4542079,0,0,1.2631121,-584.90692,-1014.0206)"
       spreadMethod="reflect"
       x1="134.78203"
       y1="1251.5984"
       x2="137.12508"
       y2="1251.5985" />
    <radialGradient
       inkscape:collect="always"
       xlink:href="#linearGradient14418"
       id="radialGradient3049"
       gradientUnits="userSpaceOnUse"
       gradientTransform="matrix(5.1937084,0,0,1.5696648,-584.90692,-1014.0206)"
       cx="170.20071"
       cy="1005.7717"
       fx="170.20071"
       fy="1005.7717"
       r="2.6936707" />
    <linearGradient
       inkscape:collect="always"
       xlink:href="#linearGradient13628"
       id="linearGradient3051"
       gradientUnits="userSpaceOnUse"
       gradientTransform="matrix(6.4542079,0,0,1.2631121,-584.67089,-1016.6175)"
       spreadMethod="reflect"
       x1="134.78203"
       y1="1251.5984"
       x2="137.12508"
       y2="1251.5985" />
    <radialGradient
       inkscape:collect="always"
       xlink:href="#linearGradient14418"
       id="radialGradient3053"
       gradientUnits="userSpaceOnUse"
       gradientTransform="matrix(5.1937084,0,0,1.5696648,-584.67089,-1016.6175)"
       cx="170.20071"
       cy="1005.7717"
       fx="170.20071"
       fy="1005.7717"
       r="2.6936707" />
    <linearGradient
       inkscape:collect="always"
       xlink:href="#linearGradient13628"
       id="linearGradient3055"
       gradientUnits="userSpaceOnUse"
       gradientTransform="matrix(6.4542079,0,0,1.2631121,-584.67089,-1019.4503)"
       spreadMethod="reflect"
       x1="134.78203"
       y1="1251.5984"
       x2="137.12508"
       y2="1251.5985" />
    <radialGradient
       inkscape:collect="always"
       xlink:href="#linearGradient14418"
       id="radialGradient3057"
       gradientUnits="userSpaceOnUse"
       gradientTransform="matrix(5.1937084,0,0,1.5696648,-584.67089,-1019.4503)"
       cx="170.20071"
       cy="1005.7717"
       fx="170.20071"
       fy="1005.7717"
       r="2.6936707" />
    <linearGradient
       inkscape:collect="always"
       xlink:href="#linearGradient13628"
       id="linearGradient3059"
       gradientUnits="userSpaceOnUse"
       gradientTransform="matrix(6.4542079,0,0,1.2631121,-584.19876,-1022.0465)"
       spreadMethod="reflect"
       x1="134.78203"
       y1="1251.5984"
       x2="137.12508"
       y2="1251.5985" />
    <radialGradient
       inkscape:collect="always"
       xlink:href="#linearGradient14418"
       id="radialGradient3061"
       gradientUnits="userSpaceOnUse"
       gradientTransform="matrix(5.1937084,0,0,1.5696648,-584.19876,-1022.0465)"
       cx="170.20071"
       cy="1005.7717"
       fx="170.20071"
       fy="1005.7717"
       r="2.6936707" />
  </defs>
  <sodipodi:namedview
     bordercolor="#666666"
     borderopacity="1.0"
     id="base"
     inkscape:current-layer="layer1"
     inkscape:cx="50"
     inkscape:cy="50"
     inkscape:pageopacity="0.0"
     inkscape:pageshadow="2"
     inkscape:window-height="536"
     inkscape:window-width="640"
     inkscape:window-x="216"
     inkscape:window-y="40"
     inkscape:zoom="3.43"
     pagecolor="#ffffff"
     showgrid="false"
     inkscape:window-maximized="0" />
  <g
     id="layer1"
     inkscape:groupmode="layer"
     inkscape:label="Layer 1"
     transform="translate(0,-175)">
    <g
       id="g3019"
       transform="matrix(0.35023337,0,0,0.35023337,3.4879271,174.86668)">
      <g
         transform="matrix(-22.18185,0,0,22.18185,7003.917,-12060.26)"
         id="g14451">
        <path
           inkscape:connector-curvature="0"
           style="fill:url(#linearGradient3039);fill-opacity:1;fill-rule:evenodd;stroke:#000000;stroke-width:0.25pt;stroke-linecap:butt;stroke-linejoin:miter;stroke-opacity:1"
           sodipodi:nodetypes="cccc"
           id="path14452"
           d="m 304.82829,552.94494 0.045,1.55203 c 2.24182,1.25212 6.643,1.35709 9.46965,-0.0675 l 0.0225,-1.55203" />
        <path
           style="fill:url(#radialGradient3041);fill-opacity:1;fill-rule:nonzero;stroke:#000000;stroke-width:0.26249999;stroke-linecap:butt;stroke-linejoin:round;stroke-miterlimit:4;stroke-opacity:1"
           sodipodi:type="arc"
           sodipodi:ry="1.349594"
           sodipodi:rx="4.7685652"
           sodipodi:cy="552.92242"
           sodipodi:cx="309.59686"
           id="path14453"
           d="m 314.36543,552.92242 c 0,0.74536 -2.13496,1.3496 -4.76857,1.3496 -2.6336,0 -4.76856,-0.60424 -4.76856,-1.3496 0,-0.74536 2.13496,-1.34959 4.76856,-1.34959 2.63361,0 4.76857,0.60423 4.76857,1.34959 z" />
      </g>
      <g
         transform="matrix(-22.18185,0,0,22.18185,6990.241,-12093.12)"
         id="g14454">
        <path
           inkscape:connector-curvature="0"
           style="fill:url(#linearGradient3043);fill-opacity:1;fill-rule:evenodd;stroke:#000000;stroke-width:0.25pt;stroke-linecap:butt;stroke-linejoin:miter;stroke-opacity:1"
           sodipodi:nodetypes="cccc"
           id="path14455"
           d="m 304.82829,552.94494 0.045,1.55203 c 2.24182,1.25212 6.643,1.35709 9.46965,-0.0675 l 0.0225,-1.55203" />
        <path
           style="fill:url(#radialGradient3045);fill-opacity:1;fill-rule:nonzero;stroke:#000000;stroke-width:0.26249999;stroke-linecap:butt;stroke-linejoin:round;stroke-miterlimit:4;stroke-opacity:1"
           sodipodi:type="arc"
           sodipodi:ry="1.349594"
           sodipodi:rx="4.7685652"
           sodipodi:cy="552.92242"
           sodipodi:cx="309.59686"
           id="path14456"
           d="m 314.36543,552.92242 c 0,0.74536 -2.13496,1.3496 -4.76857,1.3496 -2.6336,0 -4.76856,-0.60424 -4.76856,-1.3496 0,-0.74536 2.13496,-1.34959 4.76856,-1.34959 2.63361,0 4.76857,0.60423 4.76857,1.34959 z" />
      </g>
      <g
         transform="matrix(-22.18185,0,0,22.18185,6998.708,-12124.17)"
         id="g14457">
        <path
           inkscape:connector-curvature="0"
           style="fill:url(#linearGradient3047);fill-opacity:1;fill-rule:evenodd;stroke:#000000;stroke-width:0.25pt;stroke-linecap:butt;stroke-linejoin:miter;stroke-opacity:1"
           sodipodi:nodetypes="cccc"
           id="path14458"
           d="m 304.82829,552.94494 0.045,1.55203 c 2.24182,1.25212 6.643,1.35709 9.46965,-0.0675 l 0.0225,-1.55203" />
        <path
           style="fill:url(#radialGradient3049);fill-opacity:1;fill-rule:nonzero;stroke:#000000;stroke-width:0.26249999;stroke-linecap:butt;stroke-linejoin:round;stroke-miterlimit:4;stroke-opacity:1"
           sodipodi:type="arc"
           sodipodi:ry="1.349594"
           sodipodi:rx="4.7685652"
           sodipodi:cy="552.92242"
           sodipodi:cx="309.59686"
           id="path14459"
           d="m 314.36543,552.92242 c 0,0.74536 -2.13496,1.3496 -4.76857,1.3496 -2.6336,0 -4.76856,-0.60424 -4.76856,-1.3496 0,-0.74536 2.13496,-1.34959 4.76856,-1.34959 2.63361,0 4.76857,0.60423 4.76857,1.34959 z" />
      </g>
      <g
         transform="matrix(-22.18185,0,0,22.18185,6995.886,-12155.22)"
         id="g14460">
        <path
           inkscape:connector-curvature="0"
           style="fill:url(#linearGradient3051);fill-opacity:1;fill-rule:evenodd;stroke:#000000;stroke-width:0.25pt;stroke-linecap:butt;stroke-linejoin:miter;stroke-opacity:1"
           sodipodi:nodetypes="cccc"
           id="path14461"
           d="m 304.82829,552.94494 0.045,1.55203 c 2.24182,1.25212 6.643,1.35709 9.46965,-0.0675 l 0.0225,-1.55203" />
        <path
           style="fill:url(#radialGradient3053);fill-opacity:1;fill-rule:nonzero;stroke:#000000;stroke-width:0.26249999;stroke-linecap:butt;stroke-linejoin:round;stroke-miterlimit:4;stroke-opacity:1"
           sodipodi:type="arc"
           sodipodi:ry="1.349594"
           sodipodi:rx="4.7685652"
           sodipodi:cy="552.92242"
           sodipodi:cx="309.59686"
           id="path14462"
           d="m 314.36543,552.92242 c 0,0.74536 -2.13496,1.3496 -4.76857,1.3496 -2.6336,0 -4.76856,-0.60424 -4.76856,-1.3496 0,-0.74536 2.13496,-1.34959 4.76856,-1.34959 2.63361,0 4.76857,0.60423 4.76857,1.34959 z" />
      </g>
      <g
         transform="matrix(-22.18185,0,0,22.18185,6995.886,-12189.09)"
         id="g14463">
        <path
           inkscape:connector-curvature="0"
           style="fill:url(#linearGradient3055);fill-opacity:1;fill-rule:evenodd;stroke:#000000;stroke-width:0.25pt;stroke-linecap:butt;stroke-linejoin:miter;stroke-opacity:1"
           sodipodi:nodetypes="cccc"
           id="path14464"
           d="m 304.82829,552.94494 0.045,1.55203 c 2.24182,1.25212 6.643,1.35709 9.46965,-0.0675 l 0.0225,-1.55203" />
        <path
           style="fill:url(#radialGradient3057);fill-opacity:1;fill-rule:nonzero;stroke:#000000;stroke-width:0.26249999;stroke-linecap:butt;stroke-linejoin:round;stroke-miterlimit:4;stroke-opacity:1"
           sodipodi:type="arc"
           sodipodi:ry="1.349594"
           sodipodi:rx="4.7685652"
           sodipodi:cy="552.92242"
           sodipodi:cx="309.59686"
           id="path14465"
           d="m 314.36543,552.92242 c 0,0.74536 -2.13496,1.3496 -4.76857,1.3496 -2.6336,0 -4.76856,-0.60424 -4.76856,-1.3496 0,-0.74536 2.13496,-1.34959 4.76856,-1.34959 2.63361,0 4.76857,0.60423 4.76857,1.34959 z" />
      </g>
      <g
         transform="matrix(-22.18185,0,0,22.18185,6990.241,-12220.13)"
         id="g14466">
        <path
           inkscape:connector-curvature="0"
           style="fill:url(#linearGradient3059);fill-opacity:1;fill-rule:evenodd;stroke:#000000;stroke-width:0.25pt;stroke-linecap:butt;stroke-linejoin:miter;stroke-opacity:1"
           sodipodi:nodetypes="cccc"
           id="path14467"
           d="m 304.82829,552.94494 0.045,1.55203 c 2.24182,1.25212 6.643,1.35709 9.46965,-0.0675 l 0.0225,-1.55203" />
        <path
           style="fill:url(#radialGradient3061);fill-opacity:1;fill-rule:nonzero;stroke:#000000;stroke-width:0.26249999;stroke-linecap:butt;stroke-linejoin:round;stroke-miterlimit:4;stroke-opacity:1"
           sodipodi:type="arc"
           sodipodi:ry="1.349594"
           sodipodi:rx="4.7685652"
           sodipodi:cy="552.92242"
           sodipodi:cx="309.59686"
           id="path14468"
           d="m 314.36543,552.92242 c 0,0.74536 -2.13496,1.3496 -4.76857,1.3496 -2.6336,0 -4.76856,-0.60424 -4.76856,-1.3496 0,-0.74536 2.13496,-1.34959 4.76856,-1.34959 2.63361,0 4.76857,0.60423 4.76857,1.34959 z" />
      </g>
    </g>
  </g>
</svg>
