digraph "cuon/Addresses/SingleAddress.hpp"
{
  edge [fontname="Helvetica",fontsize="10",labelfontname="Helvetica",labelfontsize="10"];
  node [fontname="Helvetica",fontsize="10",shape=record];
  Node1 [label="cuon/Addresses/SingleAddress.hpp",height=0.2,width=0.4,color="black", fillcolor="grey75", style="filled", fontcolor="black"];
  Node1 -> Node2 [dir="back",color="midnightblue",fontsize="10",style="solid"];
  Node2 [label="cuon/Addresses/addresses.hpp",height=0.2,width=0.4,color="black", fillcolor="white", style="filled",URL="$de/d2d/addresses_8hpp.html"];
  Node2 -> Node3 [dir="back",color="midnightblue",fontsize="10",style="solid"];
  Node3 [label="cuon/Addresses/addresses.cpp",height=0.2,width=0.4,color="black", fillcolor="white", style="filled",URL="$d3/dec/addresses_8cpp.html"];
  Node2 -> Node4 [dir="back",color="midnightblue",fontsize="10",style="solid"];
  Node4 [label="cuon/Garden/hibernation.cpp",height=0.2,width=0.4,color="black", fillcolor="white", style="filled",URL="$da/d73/hibernation_8cpp.html"];
  Node2 -> Node5 [dir="back",color="midnightblue",fontsize="10",style="solid"];
  Node5 [label="cuon/Order/order.cpp",height=0.2,width=0.4,color="black", fillcolor="white", style="filled",URL="$de/d4f/order_8cpp.html"];
  Node2 -> Node6 [dir="back",color="midnightblue",fontsize="10",style="solid"];
  Node6 [label="cuonClient.cpp",height=0.2,width=0.4,color="black", fillcolor="white", style="filled",URL="$d4/d14/cuonClient_8cpp.html",tooltip="CPP Client Mainprogram. "];
  Node1 -> Node3 [dir="back",color="midnightblue",fontsize="10",style="solid"];
  Node1 -> Node7 [dir="back",color="midnightblue",fontsize="10",style="solid"];
  Node7 [label="cuon/Addresses/lists\l_addresses.hpp",height=0.2,width=0.4,color="black", fillcolor="white", style="filled",URL="$d3/d3b/lists__addresses_8hpp.html"];
  Node7 -> Node3 [dir="back",color="midnightblue",fontsize="10",style="solid"];
  Node7 -> Node8 [dir="back",color="midnightblue",fontsize="10",style="solid"];
  Node8 [label="cuon/Addresses/lists\l_addresses.cpp",height=0.2,width=0.4,color="black", fillcolor="white", style="filled",URL="$d1/dd7/lists__addresses_8cpp.html"];
  Node1 -> Node9 [dir="back",color="midnightblue",fontsize="10",style="solid"];
  Node9 [label="cuon/Addresses/contact.hpp",height=0.2,width=0.4,color="black", fillcolor="white", style="filled",URL="$da/d75/contact_8hpp.html"];
  Node9 -> Node10 [dir="back",color="midnightblue",fontsize="10",style="solid"];
  Node10 [label="cuon/Addresses/contact.cpp",height=0.2,width=0.4,color="black", fillcolor="white", style="filled",URL="$d0/dfd/contact_8cpp.html"];
  Node1 -> Node10 [dir="back",color="midnightblue",fontsize="10",style="solid"];
  Node1 -> Node11 [dir="back",color="midnightblue",fontsize="10",style="solid"];
  Node11 [label="cuon/Addresses/SingleAddress.cpp",height=0.2,width=0.4,color="black", fillcolor="white", style="filled",URL="$d1/da9/SingleAddress_8cpp.html"];
  Node1 -> Node12 [dir="back",color="midnightblue",fontsize="10",style="solid"];
  Node12 [label="cuon/Articles/articles.hpp",height=0.2,width=0.4,color="black", fillcolor="white", style="filled",URL="$d4/d00/articles_8hpp.html"];
  Node12 -> Node13 [dir="back",color="midnightblue",fontsize="10",style="solid"];
  Node13 [label="cuon/Articles/articles.cpp",height=0.2,width=0.4,color="black", fillcolor="white", style="filled",URL="$d7/d64/articles_8cpp.html"];
  Node12 -> Node4 [dir="back",color="midnightblue",fontsize="10",style="solid"];
  Node12 -> Node5 [dir="back",color="midnightblue",fontsize="10",style="solid"];
  Node12 -> Node14 [dir="back",color="midnightblue",fontsize="10",style="solid"];
  Node14 [label="cuon/Stock/stock.cpp",height=0.2,width=0.4,color="black", fillcolor="white", style="filled",URL="$d4/d14/stock_8cpp.html"];
  Node12 -> Node6 [dir="back",color="midnightblue",fontsize="10",style="solid"];
  Node1 -> Node15 [dir="back",color="midnightblue",fontsize="10",style="solid"];
  Node15 [label="cuon/Articles/lists\l_articles.hpp",height=0.2,width=0.4,color="black", fillcolor="white", style="filled",URL="$de/db8/lists__articles_8hpp.html"];
  Node15 -> Node13 [dir="back",color="midnightblue",fontsize="10",style="solid"];
  Node15 -> Node16 [dir="back",color="midnightblue",fontsize="10",style="solid"];
  Node16 [label="cuon/Articles/lists\l_articles.cpp",height=0.2,width=0.4,color="black", fillcolor="white", style="filled",URL="$dc/d39/lists__articles_8cpp.html"];
  Node1 -> Node17 [dir="back",color="midnightblue",fontsize="10",style="solid"];
  Node17 [label="cuon/Order/order.hpp",height=0.2,width=0.4,color="black", fillcolor="white", style="filled",URL="$d6/d6f/order_8hpp.html"];
  Node17 -> Node18 [dir="back",color="midnightblue",fontsize="10",style="solid"];
  Node18 [label="cuon/Cashdesk/cashdesk.cpp",height=0.2,width=0.4,color="black", fillcolor="white", style="filled",URL="$d7/df9/cashdesk_8cpp.html"];
  Node17 -> Node4 [dir="back",color="midnightblue",fontsize="10",style="solid"];
  Node17 -> Node5 [dir="back",color="midnightblue",fontsize="10",style="solid"];
  Node1 -> Node19 [dir="back",color="midnightblue",fontsize="10",style="solid"];
  Node19 [label="cuon/Clients/cuonclients.hpp",height=0.2,width=0.4,color="black", fillcolor="white", style="filled",URL="$df/d8d/cuonclients_8hpp.html"];
  Node19 -> Node20 [dir="back",color="midnightblue",fontsize="10",style="solid"];
  Node20 [label="cuon/Clients/clients.cpp",height=0.2,width=0.4,color="black", fillcolor="white", style="filled",URL="$d1/df2/clients_8cpp.html"];
  Node19 -> Node21 [dir="back",color="midnightblue",fontsize="10",style="solid"];
  Node21 [label="cuon/Clients/cuonclients.cpp",height=0.2,width=0.4,color="black", fillcolor="white", style="filled",URL="$d6/d19/cuonclients_8cpp.html"];
  Node19 -> Node6 [dir="back",color="midnightblue",fontsize="10",style="solid"];
  Node1 -> Node22 [dir="back",color="midnightblue",fontsize="10",style="solid"];
  Node22 [label="cuon/Clients/clients.hpp",height=0.2,width=0.4,color="black", fillcolor="white", style="filled",URL="$d6/d92/clients_8hpp.html"];
  Node1 -> Node4 [dir="back",color="midnightblue",fontsize="10",style="solid"];
  Node1 -> Node23 [dir="back",color="midnightblue",fontsize="10",style="solid"];
  Node23 [label="cuon/Garden/hibernation.hpp",height=0.2,width=0.4,color="black", fillcolor="white", style="filled",URL="$df/d90/hibernation_8hpp.html"];
  Node23 -> Node4 [dir="back",color="midnightblue",fontsize="10",style="solid"];
  Node23 -> Node23 [dir="back",color="midnightblue",fontsize="10",style="solid"];
  Node1 -> Node5 [dir="back",color="midnightblue",fontsize="10",style="solid"];
  Node1 -> Node24 [dir="back",color="midnightblue",fontsize="10",style="solid"];
  Node24 [label="cuon/Project/project.hpp",height=0.2,width=0.4,color="black", fillcolor="white", style="filled",URL="$d1/d8e/project_8hpp.html"];
  Node24 -> Node25 [dir="back",color="midnightblue",fontsize="10",style="solid"];
  Node25 [label="cuon/Project/project.cpp",height=0.2,width=0.4,color="black", fillcolor="white", style="filled",URL="$df/d18/project_8cpp.html"];
  Node1 -> Node25 [dir="back",color="midnightblue",fontsize="10",style="solid"];
  Node1 -> Node26 [dir="back",color="midnightblue",fontsize="10",style="solid"];
  Node26 [label="cuon/Sourcenavigator\l/sourcenavigator.hpp",height=0.2,width=0.4,color="black", fillcolor="white", style="filled",URL="$d7/d60/sourcenavigator_8hpp.html"];
  Node26 -> Node27 [dir="back",color="midnightblue",fontsize="10",style="solid"];
  Node27 [label="cuon/Sourcenavigator\l/sourcenavigator.cpp",height=0.2,width=0.4,color="black", fillcolor="white", style="filled",URL="$dd/da6/sourcenavigator_8cpp.html"];
  Node1 -> Node27 [dir="back",color="midnightblue",fontsize="10",style="solid"];
}
