digraph "order"
{
  edge [fontname="Helvetica",fontsize="10",labelfontname="Helvetica",labelfontsize="10"];
  node [fontname="Helvetica",fontsize="10",shape=record];
  Node1 [label="{order\n|+ singleOrder\l+ singleArticle\l+ singleOrderPosition\l+ singleAddress\l+ singleOrderPayment\l+ singleOrderGet\l+ singleDMS\l+ dT\l+ cashUser\l+ cashDeskPrinter\l|+ order()\l+ ~order()\l+ initOrder()\l+ on_new_activate()\l+ on_save_activate()\l+ on_delete_activate()\l+ on_bSearch_clicked()\l+ tabChanged()\l+ on_PositionSave1_activate()\l+ on_PositionEdit1_activate()\l+ on_PositionNew1_activate()\l+ on_PositionDelete1\l_activate()\l+ order()\l+ ~order()\l+ initOrder()\l+ on_new_activate()\l+ on_save_activate()\l+ on_delete_activate()\l+ on_print_invoice1_activate()\l+ printInvoice()\l+ on_bSearch_clicked()\l+ tabChanged()\l+ on_PositionSave1_activate()\l+ on_PositionEdit1_activate()\l+ on_PositionNew1_activate()\l+ on_PositionDelete1\l_activate()\l+ on_JournalAccount_activate()\l+ on_order_dup_activate()\l+ on_bArticleSearch_clicked()\l+ on_eArticleID_changed()\l+ on_bSearchCustom_clicked()\l+ on_eAddressNumber_changed()\l+ on_all_open_invoice1\l_activate()\l+ on_print_delivery_note1\l_activate()\l+ on_print_pickup_note1\l_activate()\l+ on_DMS_activate()\l+ on_bSearchStaff_clicked()\l+ on_eStaffNumber_changed()\l}",height=0.2,width=0.4,color="black", fillcolor="grey75", style="filled", fontcolor="black"];
  Node2 -> Node1 [dir="back",color="midnightblue",fontsize="10",style="solid",arrowtail="onormal",fontname="Helvetica"];
  Node2 [label="{windows\n|+ ModulNumber\l+ liModule\l+ oldTab\l+ currentID\l+ sWhereStandard\l+ chooseEntry\l+ chooseMenuItem\l+ pMenuItem\l+ chooseButton\l+ m_ClipboardStore\l|+ windows()\l+ ~windows()\l+ tabChanged()\l+ tabChanged2()\l+ onKeyPressAction()\l+ setNotebookPages()\l+ doKeyAction()\l+ doNormalKeyEvents()\l+ initKeys()\l+ closeWindow()\l+ getList()\l+ setChooseButton()\l+ setChooseValue()\l+ setChooseEntry()\l}",height=0.2,width=0.4,color="black", fillcolor="white", style="filled",URL="$d2/d19/classwindows.html"];
  Node3 -> Node2 [dir="back",color="midnightblue",fontsize="10",style="solid",arrowtail="onormal",fontname="Helvetica"];
  Node3 [label="{gladeXml\n|+ ItemFunc\l+ oEntries\l+ tabOption\l+ x1\l+ Cache\l+ window\l+ dialog\l+ pWindow\l+ pDialog\l+ tree1Name\l+ menuItems\l+ toolbarItems\l+ v_new\l+ v_save\l+ v_delete\l+ v_end\l+ v_tnew\l+ v_tsave\l+ v_tdelete\l+ v_tend\l+ pWin\l+ pMainWindow\l+ pDia\l+ pNotebook\l+ pNotebook2\l+ pTree1\l+ pTreeAll\l+ pTreeView\l+ pMenuItem\l+ pEnd\l+ pNew\l+ pEdit\l+ pSave\l+ pDelete\l+ pItem\l+ pButton\l+ pToolButton\l+ pFileChooser\l+ pEntry\l+ pTextview\l+ pStatusbar\l+ pToolbar\l+ pScrollWindow\l|+ gladeXml()\l+ ~gladeXml()\l+ loadGlade()\l+ loadGlade()\l+ init()\l+ setTitle()\l+ loadEntries()\l+ fetchDefaultGUI()\l+ setText()\l+ setText()\l+ setText()\l+ setText()\l+ setText()\l+ setRawTextline()\l+ setRawTextline()\l+ setRawTextline()\l+ getText()\l+ getText()\l+ initKeys()\l+ onNotebook1PageSwitch()\l+ onNotebook2PageSwitch()\l+ on_tree1_row_activated()\l+ on_end_activate()\l+ on_edit_activate()\l+ on_new_activate()\l+ on_save_activate()\l+ on_delete_activate()\l+ tabChanged()\l+ tabChanged2()\l+ on_signal_connect()\l+ connectMenuItem()\l+ connectSignal()\l+ connectToolbarSignal()\l+ expandEditMenu()\l+ on_new1_activate()\l+ on_save1_activate()\l+ on_edit1_activate()\l+ on_delete1_activate()\l+ getWidget()\l+ getWidget()\l+ getWidget()\l+ getWidget()\l+ getWidget()\l+ getWidget()\l+ getWidget()\l+ getFilename()\l+ setComboBoxEntries()\l+ getCBActive()\l+ getCBState()\l+ enableMenuItem()\l+ getPrefix()\l+ QuestionMsg()\l+ InfoMsg()\l+ ErrorMsg()\l}",height=0.2,width=0.4,color="black", fillcolor="white", style="filled",URL="$d9/d64/classgladeXml.html"];
  Node4 -> Node3 [dir="back",color="midnightblue",fontsize="10",style="solid",arrowtail="onormal",fontname="Helvetica"];
  Node4 [label="{basics\n|+ MN\l+ mime_type\l|+ basics()\l+ ~basics()\l+ printlog()\l+ printlog()\l+ printlog()\l+ printlog()\l+ printlog()\l+ printlog()\l+ printlog()\l+ file_exists()\l+ stripchars()\l+ replaceAll()\l+ getNullUUID()\l+ getNewUUID()\l+ executePrg()\l+ getRandomFilename()\l+ writeFile()\l+ readFile()\l+ getDateTime()\l+ getDate()\l+ getDate()\l+ String2Int()\l+ Int2String()\l+ getActualDateTime()\l+ map2vector()\l+ split()\l+ deleteCache()\l}",height=0.2,width=0.4,color="black", fillcolor="white", style="filled",URL="$d3/d15/classbasics.html"];
  Node5 -> Node1 [dir="back",color="midnightblue",fontsize="10",style="solid",arrowtail="onormal",fontname="Helvetica"];
  Node5 [label="{cuon_window\n||+ cuon_window()\l+ ~cuon_window()\l+ initAll()\l+ initOrder()\l+ initHibernation()\l}",height=0.2,width=0.4,color="black", fillcolor="white", style="filled",URL="$db/d37/classcuon__window.html"];
  Node2 -> Node1 [dir="back",color="midnightblue",fontsize="10",style="solid",arrowtail="onormal",fontname="Helvetica"];
  Node5 -> Node1 [dir="back",color="midnightblue",fontsize="10",style="solid",arrowtail="onormal",fontname="Helvetica"];
}
