digraph "Pluma/include/Pluma/Pluma.hpp"
{
  edge [fontname="Helvetica",fontsize="10",labelfontname="Helvetica",labelfontsize="10"];
  node [fontname="Helvetica",fontsize="10",shape=record];
  Node1 [label="Pluma/include/Pluma\l/Pluma.hpp",height=0.2,width=0.4,color="black", fillcolor="grey75", style="filled", fontcolor="black"];
  Node1 -> Node2 [dir="back",color="midnightblue",fontsize="10",style="solid",fontname="Helvetica"];
  Node2 [label="cuon/Order/order.hpp",height=0.2,width=0.4,color="black", fillcolor="white", style="filled",URL="$d6/d6f/order_8hpp.html"];
  Node2 -> Node3 [dir="back",color="midnightblue",fontsize="10",style="solid",fontname="Helvetica"];
  Node3 [label="cuon/Cashdesk/cashdesk.cpp",height=0.2,width=0.4,color="black", fillcolor="white", style="filled",URL="$d7/df9/cashdesk_8cpp.html"];
  Node2 -> Node4 [dir="back",color="midnightblue",fontsize="10",style="solid",fontname="Helvetica"];
  Node4 [label="cuon/Garden/hibernation.cpp",height=0.2,width=0.4,color="black", fillcolor="white", style="filled",URL="$da/d73/hibernation_8cpp.html"];
  Node2 -> Node5 [dir="back",color="midnightblue",fontsize="10",style="solid",fontname="Helvetica"];
  Node5 [label="cuon/Order/order.cpp",height=0.2,width=0.4,color="black", fillcolor="white", style="filled",URL="$de/d4f/order_8cpp.html"];
  Node1 -> Node6 [dir="back",color="midnightblue",fontsize="10",style="solid",fontname="Helvetica"];
  Node6 [label="cuon_window.hpp",height=0.2,width=0.4,color="black", fillcolor="white", style="filled",URL="$d5/d18/cuon__window_8hpp.html"];
  Node6 -> Node2 [dir="back",color="midnightblue",fontsize="10",style="solid",fontname="Helvetica"];
  Node6 -> Node7 [dir="back",color="midnightblue",fontsize="10",style="solid",fontname="Helvetica"];
  Node7 [label="cuon/Cashdesk/cashdesk.hpp",height=0.2,width=0.4,color="black", fillcolor="white", style="filled",URL="$d3/d08/cashdesk_8hpp.html"];
  Node6 -> Node8 [dir="back",color="midnightblue",fontsize="10",style="solid",fontname="Helvetica"];
  Node8 [label="cuon/Enquiry/enquiry.hpp",height=0.2,width=0.4,color="black", fillcolor="white", style="filled",URL="$dc/d50/enquiry_8hpp.html"];
  Node8 -> Node9 [dir="back",color="midnightblue",fontsize="10",style="solid",fontname="Helvetica"];
  Node9 [label="cuon/Enquiry/enquiry.cpp",height=0.2,width=0.4,color="black", fillcolor="white", style="filled",URL="$db/d47/enquiry_8cpp.html"];
  Node6 -> Node10 [dir="back",color="midnightblue",fontsize="10",style="solid",fontname="Helvetica"];
  Node10 [label="cuon/Garden/botany.hpp",height=0.2,width=0.4,color="black", fillcolor="white", style="filled",URL="$d1/ddd/botany_8hpp.html"];
  Node10 -> Node11 [dir="back",color="midnightblue",fontsize="10",style="solid",fontname="Helvetica"];
  Node11 [label="cuon/Garden/botany.cpp",height=0.2,width=0.4,color="black", fillcolor="white", style="filled",URL="$db/df7/botany_8cpp.html"];
  Node6 -> Node12 [dir="back",color="midnightblue",fontsize="10",style="solid",fontname="Helvetica"];
  Node12 [label="cuon/Garden/hibernation.hpp",height=0.2,width=0.4,color="black", fillcolor="white", style="filled",URL="$df/d90/hibernation_8hpp.html"];
  Node12 -> Node4 [dir="back",color="midnightblue",fontsize="10",style="solid",fontname="Helvetica"];
  Node12 -> Node12 [dir="back",color="midnightblue",fontsize="10",style="solid",fontname="Helvetica"];
  Node6 -> Node13 [dir="back",color="midnightblue",fontsize="10",style="solid",fontname="Helvetica"];
  Node13 [label="cuon/Graves/grave.hpp",height=0.2,width=0.4,color="black", fillcolor="white", style="filled",URL="$dd/d2c/grave_8hpp.html"];
  Node13 -> Node14 [dir="back",color="midnightblue",fontsize="10",style="solid",fontname="Helvetica"];
  Node14 [label="cuon/Graves/grave.cpp",height=0.2,width=0.4,color="black", fillcolor="white", style="filled",URL="$dd/d6e/grave_8cpp.html"];
  Node6 -> Node15 [dir="back",color="midnightblue",fontsize="10",style="solid",fontname="Helvetica"];
  Node15 [label="cuon/Project/project.hpp",height=0.2,width=0.4,color="black", fillcolor="white", style="filled",URL="$d1/d8e/project_8hpp.html"];
  Node15 -> Node16 [dir="back",color="midnightblue",fontsize="10",style="solid",fontname="Helvetica"];
  Node16 [label="cuon/Project/project.cpp",height=0.2,width=0.4,color="black", fillcolor="white", style="filled",URL="$df/d18/project_8cpp.html"];
  Node6 -> Node17 [dir="back",color="midnightblue",fontsize="10",style="solid",fontname="Helvetica"];
  Node17 [label="cuon/Proposal/proposal.hpp",height=0.2,width=0.4,color="black", fillcolor="white", style="filled",URL="$d1/d37/proposal_8hpp.html"];
  Node17 -> Node18 [dir="back",color="midnightblue",fontsize="10",style="solid",fontname="Helvetica"];
  Node18 [label="cuon/Proposal/proposal.cpp",height=0.2,width=0.4,color="black", fillcolor="white", style="filled",URL="$d7/df6/proposal_8cpp.html"];
  Node6 -> Node19 [dir="back",color="midnightblue",fontsize="10",style="solid",fontname="Helvetica"];
  Node19 [label="cuon/Sourcenavigator\l/sourcenavigator.hpp",height=0.2,width=0.4,color="black", fillcolor="white", style="filled",URL="$d7/d60/sourcenavigator_8hpp.html"];
  Node19 -> Node20 [dir="back",color="midnightblue",fontsize="10",style="solid",fontname="Helvetica"];
  Node20 [label="cuon/Sourcenavigator\l/sourcenavigator.cpp",height=0.2,width=0.4,color="black", fillcolor="white", style="filled",URL="$dd/da6/sourcenavigator_8cpp.html"];
  Node6 -> Node21 [dir="back",color="midnightblue",fontsize="10",style="solid",fontname="Helvetica"];
  Node21 [label="cuon/Staff/staff.hpp",height=0.2,width=0.4,color="black", fillcolor="white", style="filled",URL="$d8/d5f/staff_8hpp.html"];
  Node21 -> Node22 [dir="back",color="midnightblue",fontsize="10",style="solid",fontname="Helvetica"];
  Node22 [label="cuon/Staff/staff.cpp",height=0.2,width=0.4,color="black", fillcolor="white", style="filled",URL="$de/db2/staff_8cpp.html"];
  Node6 -> Node23 [dir="back",color="midnightblue",fontsize="10",style="solid",fontname="Helvetica"];
  Node23 [label="cuon/Stock/stock.hpp",height=0.2,width=0.4,color="black", fillcolor="white", style="filled",URL="$dd/dd5/stock_8hpp.html"];
  Node23 -> Node24 [dir="back",color="midnightblue",fontsize="10",style="solid",fontname="Helvetica"];
  Node24 [label="cuon/Stock/stock.cpp",height=0.2,width=0.4,color="black", fillcolor="white", style="filled",URL="$d4/d14/stock_8cpp.html"];
  Node6 -> Node25 [dir="back",color="midnightblue",fontsize="10",style="solid",fontname="Helvetica"];
  Node25 [label="cuon_window.cpp",height=0.2,width=0.4,color="black", fillcolor="white", style="filled",URL="$de/d98/cuon__window_8cpp.html"];
  Node6 -> Node26 [dir="back",color="midnightblue",fontsize="10",style="solid",fontname="Helvetica"];
  Node26 [label="cuonClient.hpp",height=0.2,width=0.4,color="black", fillcolor="white", style="filled",URL="$d4/d51/cuonClient_8hpp.html"];
  Node26 -> Node27 [dir="back",color="midnightblue",fontsize="10",style="solid",fontname="Helvetica"];
  Node27 [label="cuonClient.cpp",height=0.2,width=0.4,color="black", fillcolor="white", style="filled",URL="$d4/d14/cuonClient_8cpp.html",tooltip="CPP Client Mainprogram. "];
  Node6 -> Node27 [dir="back",color="midnightblue",fontsize="10",style="solid",fontname="Helvetica"];
  Node1 -> Node7 [dir="back",color="midnightblue",fontsize="10",style="solid",fontname="Helvetica"];
  Node1 -> Node8 [dir="back",color="midnightblue",fontsize="10",style="solid",fontname="Helvetica"];
  Node1 -> Node10 [dir="back",color="midnightblue",fontsize="10",style="solid",fontname="Helvetica"];
  Node1 -> Node12 [dir="back",color="midnightblue",fontsize="10",style="solid",fontname="Helvetica"];
  Node1 -> Node13 [dir="back",color="midnightblue",fontsize="10",style="solid",fontname="Helvetica"];
  Node1 -> Node15 [dir="back",color="midnightblue",fontsize="10",style="solid",fontname="Helvetica"];
  Node1 -> Node17 [dir="back",color="midnightblue",fontsize="10",style="solid",fontname="Helvetica"];
  Node1 -> Node19 [dir="back",color="midnightblue",fontsize="10",style="solid",fontname="Helvetica"];
  Node1 -> Node21 [dir="back",color="midnightblue",fontsize="10",style="solid",fontname="Helvetica"];
  Node1 -> Node23 [dir="back",color="midnightblue",fontsize="10",style="solid",fontname="Helvetica"];
  Node1 -> Node27 [dir="back",color="midnightblue",fontsize="10",style="solid",fontname="Helvetica"];
  Node1 -> Node28 [dir="back",color="midnightblue",fontsize="10",style="solid",fontname="Helvetica"];
  Node28 [label="Pluma/include/Pluma\l/Connector.hpp",height=0.2,width=0.4,color="black", fillcolor="white", style="filled",URL="$dd/d44/Connector_8hpp.html"];
  Node28 -> Node3 [dir="back",color="midnightblue",fontsize="10",style="solid",fontname="Helvetica"];
  Node28 -> Node9 [dir="back",color="midnightblue",fontsize="10",style="solid",fontname="Helvetica"];
  Node28 -> Node11 [dir="back",color="midnightblue",fontsize="10",style="solid",fontname="Helvetica"];
  Node28 -> Node4 [dir="back",color="midnightblue",fontsize="10",style="solid",fontname="Helvetica"];
  Node28 -> Node14 [dir="back",color="midnightblue",fontsize="10",style="solid",fontname="Helvetica"];
  Node28 -> Node5 [dir="back",color="midnightblue",fontsize="10",style="solid",fontname="Helvetica"];
  Node28 -> Node16 [dir="back",color="midnightblue",fontsize="10",style="solid",fontname="Helvetica"];
  Node28 -> Node18 [dir="back",color="midnightblue",fontsize="10",style="solid",fontname="Helvetica"];
  Node28 -> Node20 [dir="back",color="midnightblue",fontsize="10",style="solid",fontname="Helvetica"];
  Node28 -> Node22 [dir="back",color="midnightblue",fontsize="10",style="solid",fontname="Helvetica"];
  Node28 -> Node24 [dir="back",color="midnightblue",fontsize="10",style="solid",fontname="Helvetica"];
  Node28 -> Node25 [dir="back",color="midnightblue",fontsize="10",style="solid",fontname="Helvetica"];
}
