digraph "gtk_extensions"
{
  edge [fontname="Helvetica",fontsize="10",labelfontname="Helvetica",labelfontsize="10"];
  node [fontname="Helvetica",fontsize="10",shape=record];
  Node1 [label="{gtk_extensions\n|+ m_ClipboardStore\l|+ gtk_extensions()\l+ ~gtk_extensions()\l+ on_button_copy()\l+ on_button_paste()\l+ set_text2clipboard()\l+ on_clipboard_owner\l_change()\l+ on_clipboard_get()\l+ on_clipboard_clear()\l+ on_clipboard_received()\l+ on_clipboard_received\l_targets()\l+ update_paste_status()\l}",height=0.2,width=0.4,color="black", fillcolor="grey75", style="filled", fontcolor="black"];
}
