digraph "cuon_window"
{
  edge [fontname="Helvetica",fontsize="10",labelfontname="Helvetica",labelfontsize="10"];
  node [fontname="Helvetica",fontsize="10",shape=record];
  Node1 [label="{cuon_window\n||+ cuon_window()\l+ ~cuon_window()\l+ initAll()\l+ initOrder()\l+ initHibernation()\l}",height=0.2,width=0.4,color="black", fillcolor="grey75", style="filled", fontcolor="black"];
  Node1 -> Node2 [dir="back",color="midnightblue",fontsize="10",style="solid",arrowtail="onormal",fontname="Helvetica"];
  Node2 [label="{botany\n|+ singleBotanyDivisio\l|+ botany()\l+ ~botany()\l+ on_new_activate()\l+ on_save_activate()\l+ on_delete_activate()\l+ initAll()\l+ on_bSearch_clicked()\l+ tabChanged()\l}",height=0.2,width=0.4,color="black", fillcolor="white", style="filled",URL="$d2/dd4/classbotany.html"];
  Node1 -> Node3 [dir="back",color="midnightblue",fontsize="10",style="solid",arrowtail="onormal",fontname="Helvetica"];
  Node3 [label="{enquiry\n|+ singleEnquiry\l+ singleArticle\l|+ enquiry()\l+ ~enquiry()\l+ initOrder()\l+ on_new_activate()\l+ on_save_activate()\l+ on_delete_activate()\l+ on_bSearch_clicked()\l+ tabChanged()\l}",height=0.2,width=0.4,color="black", fillcolor="white", style="filled",URL="$d2/dab/classenquiry.html"];
  Node1 -> Node4 [dir="back",color="midnightblue",fontsize="10",style="solid",arrowtail="onormal",fontname="Helvetica"];
  Node4 [label="{grave\n|+ singleGrave\l|+ grave()\l+ ~grave()\l+ on_new_activate()\l+ on_save_activate()\l+ on_delete_activate()\l+ initAll()\l+ on_bSearch_clicked()\l+ tabChanged()\l}",height=0.2,width=0.4,color="black", fillcolor="white", style="filled",URL="$d5/d90/classgrave.html"];
  Node1 -> Node5 [dir="back",color="midnightblue",fontsize="10",style="solid",arrowtail="onormal",fontname="Helvetica"];
  Node5 [label="{hibernation\n|+ addressid\l+ newHibernation\l+ hibernation_id\l+ allInvoices\l+ singleHibernation\l+ singleOrder\l+ singleArticle\l+ singleAddress\l+ singleOrderPosition\l+ singleOrderPayment\l+ singleOrderGet\l+ singleDMS\l+ dT\l|+ hibernation()\l+ ~hibernation()\l+ tabChanged()\l+ initHibernation()\l+ on_new_activate()\l+ on_save_activate()\l+ on_delete_activate()\l}",height=0.2,width=0.4,color="black", fillcolor="white", style="filled",URL="$d6/d7a/classhibernation.html"];
  Node1 -> Node6 [dir="back",color="midnightblue",fontsize="10",style="solid",arrowtail="onormal",fontname="Helvetica"];
  Node6 [label="{order\n|+ singleOrder\l+ singleArticle\l+ singleOrderPosition\l+ singleAddress\l+ singleOrderPayment\l+ singleOrderGet\l+ singleDMS\l+ dT\l+ cashUser\l+ cashDeskPrinter\l|+ order()\l+ ~order()\l+ initOrder()\l+ on_new_activate()\l+ on_save_activate()\l+ on_delete_activate()\l+ on_bSearch_clicked()\l+ tabChanged()\l+ on_PositionSave1_activate()\l+ on_PositionEdit1_activate()\l+ on_PositionNew1_activate()\l+ on_PositionDelete1\l_activate()\l+ order()\l+ ~order()\l+ initOrder()\l+ on_new_activate()\l+ on_save_activate()\l+ on_delete_activate()\l+ on_print_invoice1_activate()\l+ printInvoice()\l+ on_bSearch_clicked()\l+ tabChanged()\l+ on_PositionSave1_activate()\l+ on_PositionEdit1_activate()\l+ on_PositionNew1_activate()\l+ on_PositionDelete1\l_activate()\l+ on_JournalAccount_activate()\l+ on_order_dup_activate()\l+ on_bArticleSearch_clicked()\l+ on_eArticleID_changed()\l+ on_bSearchCustom_clicked()\l+ on_eAddressNumber_changed()\l+ on_all_open_invoice1\l_activate()\l+ on_print_delivery_note1\l_activate()\l+ on_print_pickup_note1\l_activate()\l+ on_DMS_activate()\l+ on_bSearchStaff_clicked()\l+ on_eStaffNumber_changed()\l}",height=0.2,width=0.4,color="black", fillcolor="white", style="filled",URL="$de/d48/classorder.html"];
  Node1 -> Node6 [dir="back",color="midnightblue",fontsize="10",style="solid",arrowtail="onormal",fontname="Helvetica"];
  Node1 -> Node7 [dir="back",color="midnightblue",fontsize="10",style="solid",arrowtail="onormal",fontname="Helvetica"];
  Node7 [label="{project\n|+ addressID\l+ singleProject\l+ singleProjectPhases\l+ singleProjectTasks\l+ singleProjectProgramming\l+ singleSourcefile\l+ singleDMS\l+ singleAddress\l|+ project()\l+ ~project()\l+ initAll()\l+ on_new_activate()\l+ on_save_activate()\l+ on_delete_activate()\l+ on_bSearch_clicked()\l+ tabChanged()\l+ on_eAddressNumber_changed()\l}",height=0.2,width=0.4,color="black", fillcolor="white", style="filled",URL="$d1/dee/classproject.html"];
  Node1 -> Node8 [dir="back",color="midnightblue",fontsize="10",style="solid",arrowtail="onormal",fontname="Helvetica"];
  Node8 [label="{proposal\n|+ singleProposal\l+ singleArticle\l|+ proposal()\l+ ~proposal()\l+ initAll()\l+ on_new_activate()\l+ on_save_activate()\l+ on_delete_activate()\l+ on_bSearch_clicked()\l+ tabChanged()\l}",height=0.2,width=0.4,color="black", fillcolor="white", style="filled",URL="$d5/de1/classproposal.html"];
  Node1 -> Node9 [dir="back",color="midnightblue",fontsize="10",style="solid",arrowtail="onormal",fontname="Helvetica"];
  Node9 [label="{sourcenavigator\n|+ addressID\l+ singleSourcenavigator\l+ singleSourcenavigatorPart\l+ singleSourcenavigatorModule\l+ singleSourcenavigatorFile\l+ singleDMS\l+ singleAddress\l|+ sourcenavigator()\l+ ~sourcenavigator()\l+ on_new_activate()\l+ on_save_activate()\l+ on_delete_activate()\l+ on_bSearch_clicked()\l+ on_bEdit_clicked()\l+ tabChanged()\l+ on_eAddressNumber_changed()\l+ on_bProjectDMS_clicked()\l+ initAll()\l+ on_tvProject_activated()\l+ on_tvPart_activated()\l+ on_tvModul_activated()\l+ on_tvFiles_activated()\l}",height=0.2,width=0.4,color="black", fillcolor="white", style="filled",URL="$d6/d69/classsourcenavigator.html"];
  Node1 -> Node10 [dir="back",color="midnightblue",fontsize="10",style="solid",arrowtail="onormal",fontname="Helvetica"];
  Node10 [label="{staff\n|+ singleStaff\l|+ staff()\l+ ~staff()\l+ initAll()\l+ tabChanged()\l}",height=0.2,width=0.4,color="black", fillcolor="white", style="filled",URL="$dd/db7/classstaff.html"];
  Node1 -> Node11 [dir="back",color="midnightblue",fontsize="10",style="solid",arrowtail="onormal",fontname="Helvetica"];
  Node11 [label="{stock\n|+ singleStock\l+ singleStockGoods\l+ singleArticle\l+ pButton1\l|+ stock()\l+ ~stock()\l+ initAll()\l+ on_new_activate()\l+ on_save_activate()\l+ on_delete_activate()\l+ on_reorganize_stock\l_activate()\l+ on_bArticleSearch_clicked()\l+ on_eArticleID_changed()\l+ on_bSearch_clicked()\l+ tabChanged()\l}",height=0.2,width=0.4,color="black", fillcolor="white", style="filled",URL="$da/d69/classstock.html"];
}
