digraph "cuon/Sourcenavigator/sourcenavigator.cpp"
{
  edge [fontname="Helvetica",fontsize="10",labelfontname="Helvetica",labelfontsize="10"];
  node [fontname="Helvetica",fontsize="10",shape=record];
  Node1 [label="cuon/Sourcenavigator\l/sourcenavigator.cpp",height=0.2,width=0.4,color="black", fillcolor="grey75", style="filled", fontcolor="black"];
  Node1 -> Node2 [color="midnightblue",fontsize="10",style="solid",fontname="Helvetica"];
  Node2 [label="cuon/Sourcenavigator\l/sourcenavigator.hpp",height=0.2,width=0.4,color="black", fillcolor="white", style="filled",URL="$d7/d60/sourcenavigator_8hpp.html"];
  Node2 -> Node3 [color="midnightblue",fontsize="10",style="solid",fontname="Helvetica"];
  Node3 [label="gtkmm.h",height=0.2,width=0.4,color="grey75", fillcolor="white", style="filled"];
  Node2 -> Node4 [color="midnightblue",fontsize="10",style="solid",fontname="Helvetica"];
  Node4 [label="iostream",height=0.2,width=0.4,color="grey75", fillcolor="white", style="filled"];
  Node2 -> Node5 [color="midnightblue",fontsize="10",style="solid",fontname="Helvetica"];
  Node5 [label="ctype.h",height=0.2,width=0.4,color="grey75", fillcolor="white", style="filled"];
  Node2 -> Node6 [color="midnightblue",fontsize="10",style="solid",fontname="Helvetica"];
  Node6 [label="stdio.h",height=0.2,width=0.4,color="grey75", fillcolor="white", style="filled"];
  Node2 -> Node7 [color="midnightblue",fontsize="10",style="solid",fontname="Helvetica"];
  Node7 [label="stdlib.h",height=0.2,width=0.4,color="grey75", fillcolor="white", style="filled"];
  Node2 -> Node8 [color="midnightblue",fontsize="10",style="solid",fontname="Helvetica"];
  Node8 [label="unistd.h",height=0.2,width=0.4,color="grey75", fillcolor="white", style="filled"];
  Node2 -> Node9 [color="midnightblue",fontsize="10",style="solid",fontname="Helvetica"];
  Node9 [label="global.hpp",height=0.2,width=0.4,color="black", fillcolor="white", style="filled",URL="$d9/d3a/global_8hpp.html"];
  Node9 -> Node10 [color="midnightblue",fontsize="10",style="solid",fontname="Helvetica"];
  Node10 [label="time.h",height=0.2,width=0.4,color="grey75", fillcolor="white", style="filled"];
  Node9 -> Node11 [color="midnightblue",fontsize="10",style="solid",fontname="Helvetica"];
  Node11 [label="map",height=0.2,width=0.4,color="grey75", fillcolor="white", style="filled"];
  Node9 -> Node12 [color="midnightblue",fontsize="10",style="solid",fontname="Helvetica"];
  Node12 [label="cuon/User/User.hpp",height=0.2,width=0.4,color="black", fillcolor="white", style="filled",URL="$de/dfd/User_8hpp.html"];
  Node12 -> Node4 [color="midnightblue",fontsize="10",style="solid",fontname="Helvetica"];
  Node12 -> Node13 [color="midnightblue",fontsize="10",style="solid",fontname="Helvetica"];
  Node13 [label="string",height=0.2,width=0.4,color="grey75", fillcolor="white", style="filled"];
  Node12 -> Node11 [color="midnightblue",fontsize="10",style="solid",fontname="Helvetica"];
  Node12 -> Node14 [color="midnightblue",fontsize="10",style="solid",fontname="Helvetica"];
  Node14 [label="vector",height=0.2,width=0.4,color="grey75", fillcolor="white", style="filled"];
  Node12 -> Node15 [color="midnightblue",fontsize="10",style="solid",fontname="Helvetica"];
  Node15 [label="ctime",height=0.2,width=0.4,color="grey75", fillcolor="white", style="filled"];
  Node12 -> Node3 [color="midnightblue",fontsize="10",style="solid",fontname="Helvetica"];
  Node12 -> Node16 [color="midnightblue",fontsize="10",style="solid",fontname="Helvetica"];
  Node16 [label="cuon/Databases/datatypes.hpp",height=0.2,width=0.4,color="black", fillcolor="white", style="filled",URL="$d2/df0/datatypes_8hpp.html"];
  Node16 -> Node4 [color="midnightblue",fontsize="10",style="solid",fontname="Helvetica"];
  Node16 -> Node13 [color="midnightblue",fontsize="10",style="solid",fontname="Helvetica"];
  Node16 -> Node11 [color="midnightblue",fontsize="10",style="solid",fontname="Helvetica"];
  Node16 -> Node14 [color="midnightblue",fontsize="10",style="solid",fontname="Helvetica"];
  Node16 -> Node15 [color="midnightblue",fontsize="10",style="solid",fontname="Helvetica"];
  Node16 -> Node3 [color="midnightblue",fontsize="10",style="solid",fontname="Helvetica"];
  Node16 -> Node17 [color="midnightblue",fontsize="10",style="solid",fontname="Helvetica"];
  Node17 [label="cuon/TypeDefs/basics.hpp",height=0.2,width=0.4,color="black", fillcolor="white", style="filled",URL="$de/df9/basics_8hpp.html"];
  Node17 -> Node4 [color="midnightblue",fontsize="10",style="solid",fontname="Helvetica"];
  Node17 -> Node18 [color="midnightblue",fontsize="10",style="solid",fontname="Helvetica"];
  Node18 [label="sstream",height=0.2,width=0.4,color="grey75", fillcolor="white", style="filled"];
  Node17 -> Node7 [color="midnightblue",fontsize="10",style="solid",fontname="Helvetica"];
  Node17 -> Node6 [color="midnightblue",fontsize="10",style="solid",fontname="Helvetica"];
  Node17 -> Node5 [color="midnightblue",fontsize="10",style="solid",fontname="Helvetica"];
  Node17 -> Node8 [color="midnightblue",fontsize="10",style="solid",fontname="Helvetica"];
  Node17 -> Node13 [color="midnightblue",fontsize="10",style="solid",fontname="Helvetica"];
  Node17 -> Node11 [color="midnightblue",fontsize="10",style="solid",fontname="Helvetica"];
  Node17 -> Node14 [color="midnightblue",fontsize="10",style="solid",fontname="Helvetica"];
  Node17 -> Node19 [color="midnightblue",fontsize="10",style="solid",fontname="Helvetica"];
  Node19 [label="locale.h",height=0.2,width=0.4,color="grey75", fillcolor="white", style="filled"];
  Node17 -> Node15 [color="midnightblue",fontsize="10",style="solid",fontname="Helvetica"];
  Node16 -> Node20 [color="midnightblue",fontsize="10",style="solid",fontname="Helvetica"];
  Node20 [label="libintl.h",height=0.2,width=0.4,color="grey75", fillcolor="white", style="filled"];
  Node16 -> Node19 [color="midnightblue",fontsize="10",style="solid",fontname="Helvetica"];
  Node9 -> Node6 [color="midnightblue",fontsize="10",style="solid",fontname="Helvetica"];
  Node9 -> Node8 [color="midnightblue",fontsize="10",style="solid",fontname="Helvetica"];
  Node2 -> Node21 [color="midnightblue",fontsize="10",style="solid",fontname="Helvetica"];
  Node21 [label="Pluma/Pluma.hpp",height=0.2,width=0.4,color="black", fillcolor="white", style="filled",URL="$d3/da1/Pluma_8hpp.html"];
  Node21 -> Node22 [color="midnightblue",fontsize="10",style="solid",fontname="Helvetica"];
  Node22 [label="Pluma/Config.hpp",height=0.2,width=0.4,color="black", fillcolor="white", style="filled",URL="$df/db4/Config_8hpp.html"];
  Node21 -> Node23 [color="midnightblue",fontsize="10",style="solid",fontname="Helvetica"];
  Node23 [label="Pluma/Provider.hpp",height=0.2,width=0.4,color="black", fillcolor="white", style="filled",URL="$d1/d9e/Provider_8hpp.html"];
  Node23 -> Node22 [color="midnightblue",fontsize="10",style="solid",fontname="Helvetica"];
  Node23 -> Node13 [color="midnightblue",fontsize="10",style="solid",fontname="Helvetica"];
  Node21 -> Node24 [color="midnightblue",fontsize="10",style="solid",fontname="Helvetica"];
  Node24 [label="Pluma/PluginManager.hpp",height=0.2,width=0.4,color="black", fillcolor="white", style="filled",URL="$da/daa/PluginManager_8hpp.html"];
  Node24 -> Node22 [color="midnightblue",fontsize="10",style="solid",fontname="Helvetica"];
  Node24 -> Node25 [color="midnightblue",fontsize="10",style="solid",fontname="Helvetica"];
  Node25 [label="Pluma/Host.hpp",height=0.2,width=0.4,color="black", fillcolor="white", style="filled",URL="$d6/d32/Host_8hpp.html"];
  Node25 -> Node22 [color="midnightblue",fontsize="10",style="solid",fontname="Helvetica"];
  Node25 -> Node23 [color="midnightblue",fontsize="10",style="solid",fontname="Helvetica"];
  Node25 -> Node14 [color="midnightblue",fontsize="10",style="solid",fontname="Helvetica"];
  Node25 -> Node26 [color="midnightblue",fontsize="10",style="solid",fontname="Helvetica"];
  Node26 [label="list",height=0.2,width=0.4,color="grey75", fillcolor="white", style="filled"];
  Node25 -> Node11 [color="midnightblue",fontsize="10",style="solid",fontname="Helvetica"];
  Node24 -> Node13 [color="midnightblue",fontsize="10",style="solid",fontname="Helvetica"];
  Node24 -> Node11 [color="midnightblue",fontsize="10",style="solid",fontname="Helvetica"];
  Node21 -> Node27 [color="midnightblue",fontsize="10",style="solid",fontname="Helvetica"];
  Node27 [label="Pluma/Pluma.inl",height=0.2,width=0.4,color="grey75", fillcolor="white", style="filled"];
  Node2 -> Node28 [color="midnightblue",fontsize="10",style="solid",fontname="Helvetica"];
  Node28 [label="cuon_window.hpp",height=0.2,width=0.4,color="black", fillcolor="white", style="filled",URL="$d5/d18/cuon__window_8hpp.html"];
  Node28 -> Node21 [color="midnightblue",fontsize="10",style="solid",fontname="Helvetica"];
  Node28 -> Node4 [color="midnightblue",fontsize="10",style="solid",fontname="Helvetica"];
  Node28 -> Node5 [color="midnightblue",fontsize="10",style="solid",fontname="Helvetica"];
  Node28 -> Node6 [color="midnightblue",fontsize="10",style="solid",fontname="Helvetica"];
  Node28 -> Node13 [color="midnightblue",fontsize="10",style="solid",fontname="Helvetica"];
  Node28 -> Node7 [color="midnightblue",fontsize="10",style="solid",fontname="Helvetica"];
  Node2 -> Node29 [color="midnightblue",fontsize="10",style="solid",fontname="Helvetica"];
  Node29 [label="cuon/Windows/windows.hpp",height=0.2,width=0.4,color="black", fillcolor="white", style="filled",URL="$d5/d34/windows_8hpp.html"];
  Node29 -> Node4 [color="midnightblue",fontsize="10",style="solid",fontname="Helvetica"];
  Node29 -> Node13 [color="midnightblue",fontsize="10",style="solid",fontname="Helvetica"];
  Node29 -> Node11 [color="midnightblue",fontsize="10",style="solid",fontname="Helvetica"];
  Node29 -> Node14 [color="midnightblue",fontsize="10",style="solid",fontname="Helvetica"];
  Node29 -> Node15 [color="midnightblue",fontsize="10",style="solid",fontname="Helvetica"];
  Node29 -> Node3 [color="midnightblue",fontsize="10",style="solid",fontname="Helvetica"];
  Node29 -> Node30 [color="midnightblue",fontsize="10",style="solid",fontname="Helvetica"];
  Node30 [label="cuon/Windows/gladeXml.hpp",height=0.2,width=0.4,color="black", fillcolor="white", style="filled",URL="$d3/d72/gladeXml_8hpp.html"];
  Node30 -> Node4 [color="midnightblue",fontsize="10",style="solid",fontname="Helvetica"];
  Node30 -> Node13 [color="midnightblue",fontsize="10",style="solid",fontname="Helvetica"];
  Node30 -> Node11 [color="midnightblue",fontsize="10",style="solid",fontname="Helvetica"];
  Node30 -> Node14 [color="midnightblue",fontsize="10",style="solid",fontname="Helvetica"];
  Node30 -> Node15 [color="midnightblue",fontsize="10",style="solid",fontname="Helvetica"];
  Node30 -> Node3 [color="midnightblue",fontsize="10",style="solid",fontname="Helvetica"];
  Node30 -> Node31 [color="midnightblue",fontsize="10",style="solid",fontname="Helvetica"];
  Node31 [label="cuon/XMLRPC/xmlrpc.hpp",height=0.2,width=0.4,color="black", fillcolor="white", style="filled",URL="$dc/df8/xmlrpc_8hpp.html"];
  Node31 -> Node32 [color="midnightblue",fontsize="10",style="solid",fontname="Helvetica"];
  Node32 [label="xmlrpc-c/girerr.hpp",height=0.2,width=0.4,color="grey75", fillcolor="white", style="filled"];
  Node31 -> Node33 [color="midnightblue",fontsize="10",style="solid",fontname="Helvetica"];
  Node33 [label="xmlrpc-c/base.hpp",height=0.2,width=0.4,color="grey75", fillcolor="white", style="filled"];
  Node31 -> Node34 [color="midnightblue",fontsize="10",style="solid",fontname="Helvetica"];
  Node34 [label="xmlrpc-c/client_simple.hpp",height=0.2,width=0.4,color="grey75", fillcolor="white", style="filled"];
  Node31 -> Node4 [color="midnightblue",fontsize="10",style="solid",fontname="Helvetica"];
  Node31 -> Node13 [color="midnightblue",fontsize="10",style="solid",fontname="Helvetica"];
  Node31 -> Node11 [color="midnightblue",fontsize="10",style="solid",fontname="Helvetica"];
  Node31 -> Node16 [color="midnightblue",fontsize="10",style="solid",fontname="Helvetica"];
  Node31 -> Node9 [color="midnightblue",fontsize="10",style="solid",fontname="Helvetica"];
  Node30 -> Node35 [color="midnightblue",fontsize="10",style="solid",fontname="Helvetica"];
  Node35 [label="cuon/Windows/setOfEntries.hpp",height=0.2,width=0.4,color="black", fillcolor="white", style="filled",URL="$d6/db9/setOfEntries_8hpp.html"];
  Node35 -> Node3 [color="midnightblue",fontsize="10",style="solid",fontname="Helvetica"];
  Node35 -> Node4 [color="midnightblue",fontsize="10",style="solid",fontname="Helvetica"];
  Node35 -> Node5 [color="midnightblue",fontsize="10",style="solid",fontname="Helvetica"];
  Node35 -> Node6 [color="midnightblue",fontsize="10",style="solid",fontname="Helvetica"];
  Node35 -> Node7 [color="midnightblue",fontsize="10",style="solid",fontname="Helvetica"];
  Node35 -> Node8 [color="midnightblue",fontsize="10",style="solid",fontname="Helvetica"];
  Node35 -> Node9 [color="midnightblue",fontsize="10",style="solid",fontname="Helvetica"];
  Node35 -> Node36 [color="midnightblue",fontsize="10",style="solid",fontname="Helvetica"];
  Node36 [label="cuon/Windows/dataEntry.hpp",height=0.2,width=0.4,color="black", fillcolor="white", style="filled",URL="$d0/d46/dataEntry_8hpp.html"];
  Node36 -> Node3 [color="midnightblue",fontsize="10",style="solid",fontname="Helvetica"];
  Node36 -> Node4 [color="midnightblue",fontsize="10",style="solid",fontname="Helvetica"];
  Node36 -> Node5 [color="midnightblue",fontsize="10",style="solid",fontname="Helvetica"];
  Node36 -> Node6 [color="midnightblue",fontsize="10",style="solid",fontname="Helvetica"];
  Node36 -> Node7 [color="midnightblue",fontsize="10",style="solid",fontname="Helvetica"];
  Node36 -> Node8 [color="midnightblue",fontsize="10",style="solid",fontname="Helvetica"];
  Node36 -> Node9 [color="midnightblue",fontsize="10",style="solid",fontname="Helvetica"];
  Node30 -> Node16 [color="midnightblue",fontsize="10",style="solid",fontname="Helvetica"];
  Node30 -> Node17 [color="midnightblue",fontsize="10",style="solid",fontname="Helvetica"];
  Node30 -> Node37 [color="midnightblue",fontsize="10",style="solid",fontname="Helvetica"];
  Node37 [label="cuon/Databases/localCache.hpp",height=0.2,width=0.4,color="red", fillcolor="white", style="filled",URL="$d1/d7f/localCache_8hpp.html"];
  Node37 -> Node4 [color="midnightblue",fontsize="10",style="solid",fontname="Helvetica"];
  Node37 -> Node13 [color="midnightblue",fontsize="10",style="solid",fontname="Helvetica"];
  Node37 -> Node11 [color="midnightblue",fontsize="10",style="solid",fontname="Helvetica"];
  Node37 -> Node14 [color="midnightblue",fontsize="10",style="solid",fontname="Helvetica"];
  Node37 -> Node15 [color="midnightblue",fontsize="10",style="solid",fontname="Helvetica"];
  Node37 -> Node16 [color="midnightblue",fontsize="10",style="solid",fontname="Helvetica"];
  Node29 -> Node31 [color="midnightblue",fontsize="10",style="solid",fontname="Helvetica"];
  Node29 -> Node35 [color="midnightblue",fontsize="10",style="solid",fontname="Helvetica"];
  Node2 -> Node38 [color="midnightblue",fontsize="10",style="solid",fontname="Helvetica"];
  Node38 [label="cuon/Sourcenavigator\l/SingleSourcenavigatorProject.hpp",height=0.2,width=0.4,color="black", fillcolor="white", style="filled",URL="$d8/d12/SingleSourcenavigatorProject_8hpp.html"];
  Node38 -> Node3 [color="midnightblue",fontsize="10",style="solid",fontname="Helvetica"];
  Node38 -> Node4 [color="midnightblue",fontsize="10",style="solid",fontname="Helvetica"];
  Node38 -> Node5 [color="midnightblue",fontsize="10",style="solid",fontname="Helvetica"];
  Node38 -> Node6 [color="midnightblue",fontsize="10",style="solid",fontname="Helvetica"];
  Node38 -> Node7 [color="midnightblue",fontsize="10",style="solid",fontname="Helvetica"];
  Node38 -> Node8 [color="midnightblue",fontsize="10",style="solid",fontname="Helvetica"];
  Node38 -> Node9 [color="midnightblue",fontsize="10",style="solid",fontname="Helvetica"];
  Node38 -> Node39 [color="midnightblue",fontsize="10",style="solid",fontname="Helvetica"];
  Node39 [label="cuon/Databases/Singledata.hpp",height=0.2,width=0.4,color="black", fillcolor="white", style="filled",URL="$dd/d56/Singledata_8hpp.html"];
  Node39 -> Node4 [color="midnightblue",fontsize="10",style="solid",fontname="Helvetica"];
  Node39 -> Node13 [color="midnightblue",fontsize="10",style="solid",fontname="Helvetica"];
  Node39 -> Node11 [color="midnightblue",fontsize="10",style="solid",fontname="Helvetica"];
  Node39 -> Node14 [color="midnightblue",fontsize="10",style="solid",fontname="Helvetica"];
  Node39 -> Node15 [color="midnightblue",fontsize="10",style="solid",fontname="Helvetica"];
  Node39 -> Node3 [color="midnightblue",fontsize="10",style="solid",fontname="Helvetica"];
  Node39 -> Node16 [color="midnightblue",fontsize="10",style="solid",fontname="Helvetica"];
  Node39 -> Node35 [color="midnightblue",fontsize="10",style="solid",fontname="Helvetica"];
  Node39 -> Node31 [color="midnightblue",fontsize="10",style="solid",fontname="Helvetica"];
  Node39 -> Node36 [color="midnightblue",fontsize="10",style="solid",fontname="Helvetica"];
  Node39 -> Node30 [color="midnightblue",fontsize="10",style="solid",fontname="Helvetica"];
  Node39 -> Node40 [color="midnightblue",fontsize="10",style="solid",fontname="Helvetica"];
  Node40 [label="cuon/Encoder/smallBase64.hpp",height=0.2,width=0.4,color="grey75", fillcolor="white", style="filled"];
  Node2 -> Node41 [color="midnightblue",fontsize="10",style="solid",fontname="Helvetica"];
  Node41 [label="cuon/Sourcenavigator\l/SingleSourcenavigatorPart.hpp",height=0.2,width=0.4,color="black", fillcolor="white", style="filled",URL="$d0/d2a/SingleSourcenavigatorPart_8hpp.html"];
  Node41 -> Node3 [color="midnightblue",fontsize="10",style="solid",fontname="Helvetica"];
  Node41 -> Node4 [color="midnightblue",fontsize="10",style="solid",fontname="Helvetica"];
  Node41 -> Node5 [color="midnightblue",fontsize="10",style="solid",fontname="Helvetica"];
  Node41 -> Node6 [color="midnightblue",fontsize="10",style="solid",fontname="Helvetica"];
  Node41 -> Node7 [color="midnightblue",fontsize="10",style="solid",fontname="Helvetica"];
  Node41 -> Node8 [color="midnightblue",fontsize="10",style="solid",fontname="Helvetica"];
  Node41 -> Node9 [color="midnightblue",fontsize="10",style="solid",fontname="Helvetica"];
  Node41 -> Node39 [color="midnightblue",fontsize="10",style="solid",fontname="Helvetica"];
  Node2 -> Node42 [color="midnightblue",fontsize="10",style="solid",fontname="Helvetica"];
  Node42 [label="cuon/Sourcenavigator\l/SingleSourcenavigatorModule.hpp",height=0.2,width=0.4,color="black", fillcolor="white", style="filled",URL="$d1/d4f/SingleSourcenavigatorModule_8hpp.html"];
  Node42 -> Node3 [color="midnightblue",fontsize="10",style="solid",fontname="Helvetica"];
  Node42 -> Node4 [color="midnightblue",fontsize="10",style="solid",fontname="Helvetica"];
  Node42 -> Node5 [color="midnightblue",fontsize="10",style="solid",fontname="Helvetica"];
  Node42 -> Node6 [color="midnightblue",fontsize="10",style="solid",fontname="Helvetica"];
  Node42 -> Node7 [color="midnightblue",fontsize="10",style="solid",fontname="Helvetica"];
  Node42 -> Node8 [color="midnightblue",fontsize="10",style="solid",fontname="Helvetica"];
  Node42 -> Node9 [color="midnightblue",fontsize="10",style="solid",fontname="Helvetica"];
  Node42 -> Node39 [color="midnightblue",fontsize="10",style="solid",fontname="Helvetica"];
  Node2 -> Node43 [color="midnightblue",fontsize="10",style="solid",fontname="Helvetica"];
  Node43 [label="cuon/Sourcenavigator\l/SingleSourcenavigatorFile.hpp",height=0.2,width=0.4,color="black", fillcolor="white", style="filled",URL="$dd/dae/SingleSourcenavigatorFile_8hpp.html"];
  Node43 -> Node3 [color="midnightblue",fontsize="10",style="solid",fontname="Helvetica"];
  Node43 -> Node4 [color="midnightblue",fontsize="10",style="solid",fontname="Helvetica"];
  Node43 -> Node5 [color="midnightblue",fontsize="10",style="solid",fontname="Helvetica"];
  Node43 -> Node6 [color="midnightblue",fontsize="10",style="solid",fontname="Helvetica"];
  Node43 -> Node7 [color="midnightblue",fontsize="10",style="solid",fontname="Helvetica"];
  Node43 -> Node8 [color="midnightblue",fontsize="10",style="solid",fontname="Helvetica"];
  Node43 -> Node9 [color="midnightblue",fontsize="10",style="solid",fontname="Helvetica"];
  Node43 -> Node39 [color="midnightblue",fontsize="10",style="solid",fontname="Helvetica"];
  Node2 -> Node44 [color="midnightblue",fontsize="10",style="solid",fontname="Helvetica"];
  Node44 [label="cuon/Sourcenavigator\l/SingleSourcenavigatorMaterial\lResources.hpp",height=0.2,width=0.4,color="black", fillcolor="white", style="filled",URL="$d3/d71/SingleSourcenavigatorMaterialResources_8hpp.html"];
  Node44 -> Node3 [color="midnightblue",fontsize="10",style="solid",fontname="Helvetica"];
  Node44 -> Node4 [color="midnightblue",fontsize="10",style="solid",fontname="Helvetica"];
  Node44 -> Node5 [color="midnightblue",fontsize="10",style="solid",fontname="Helvetica"];
  Node44 -> Node6 [color="midnightblue",fontsize="10",style="solid",fontname="Helvetica"];
  Node44 -> Node7 [color="midnightblue",fontsize="10",style="solid",fontname="Helvetica"];
  Node44 -> Node8 [color="midnightblue",fontsize="10",style="solid",fontname="Helvetica"];
  Node44 -> Node9 [color="midnightblue",fontsize="10",style="solid",fontname="Helvetica"];
  Node44 -> Node39 [color="midnightblue",fontsize="10",style="solid",fontname="Helvetica"];
  Node2 -> Node45 [color="midnightblue",fontsize="10",style="solid",fontname="Helvetica"];
  Node45 [label="cuon/Sourcenavigator\l/SingleSourcenavigatorStaff\lResources.hpp",height=0.2,width=0.4,color="black", fillcolor="white", style="filled",URL="$dd/d50/SingleSourcenavigatorStaffResources_8hpp.html"];
  Node45 -> Node3 [color="midnightblue",fontsize="10",style="solid",fontname="Helvetica"];
  Node45 -> Node4 [color="midnightblue",fontsize="10",style="solid",fontname="Helvetica"];
  Node45 -> Node5 [color="midnightblue",fontsize="10",style="solid",fontname="Helvetica"];
  Node45 -> Node6 [color="midnightblue",fontsize="10",style="solid",fontname="Helvetica"];
  Node45 -> Node7 [color="midnightblue",fontsize="10",style="solid",fontname="Helvetica"];
  Node45 -> Node8 [color="midnightblue",fontsize="10",style="solid",fontname="Helvetica"];
  Node45 -> Node9 [color="midnightblue",fontsize="10",style="solid",fontname="Helvetica"];
  Node45 -> Node39 [color="midnightblue",fontsize="10",style="solid",fontname="Helvetica"];
  Node2 -> Node46 [color="midnightblue",fontsize="10",style="solid",fontname="Helvetica"];
  Node46 [label="cuon/DMS/dms.hpp",height=0.2,width=0.4,color="black", fillcolor="white", style="filled",URL="$d7/d32/dms_8hpp.html"];
  Node46 -> Node3 [color="midnightblue",fontsize="10",style="solid",fontname="Helvetica"];
  Node46 -> Node4 [color="midnightblue",fontsize="10",style="solid",fontname="Helvetica"];
  Node46 -> Node5 [color="midnightblue",fontsize="10",style="solid",fontname="Helvetica"];
  Node46 -> Node6 [color="midnightblue",fontsize="10",style="solid",fontname="Helvetica"];
  Node46 -> Node7 [color="midnightblue",fontsize="10",style="solid",fontname="Helvetica"];
  Node46 -> Node8 [color="midnightblue",fontsize="10",style="solid",fontname="Helvetica"];
  Node46 -> Node9 [color="midnightblue",fontsize="10",style="solid",fontname="Helvetica"];
  Node46 -> Node29 [color="midnightblue",fontsize="10",style="solid",fontname="Helvetica"];
  Node46 -> Node47 [color="midnightblue",fontsize="10",style="solid",fontname="Helvetica"];
  Node47 [label="cuon/DMS/SingleDMS.hpp",height=0.2,width=0.4,color="black", fillcolor="white", style="filled",URL="$db/d51/SingleDMS_8hpp.html"];
  Node47 -> Node3 [color="midnightblue",fontsize="10",style="solid",fontname="Helvetica"];
  Node47 -> Node4 [color="midnightblue",fontsize="10",style="solid",fontname="Helvetica"];
  Node47 -> Node5 [color="midnightblue",fontsize="10",style="solid",fontname="Helvetica"];
  Node47 -> Node6 [color="midnightblue",fontsize="10",style="solid",fontname="Helvetica"];
  Node47 -> Node7 [color="midnightblue",fontsize="10",style="solid",fontname="Helvetica"];
  Node47 -> Node8 [color="midnightblue",fontsize="10",style="solid",fontname="Helvetica"];
  Node47 -> Node9 [color="midnightblue",fontsize="10",style="solid",fontname="Helvetica"];
  Node47 -> Node39 [color="midnightblue",fontsize="10",style="solid",fontname="Helvetica"];
  Node47 -> Node40 [color="midnightblue",fontsize="10",style="solid",fontname="Helvetica"];
  Node46 -> Node48 [color="midnightblue",fontsize="10",style="solid",fontname="Helvetica"];
  Node48 [label="cuon/DMS/documentTools.hpp",height=0.2,width=0.4,color="black", fillcolor="white", style="filled",URL="$df/d9c/documentTools_8hpp.html"];
  Node48 -> Node3 [color="midnightblue",fontsize="10",style="solid",fontname="Helvetica"];
  Node48 -> Node4 [color="midnightblue",fontsize="10",style="solid",fontname="Helvetica"];
  Node48 -> Node5 [color="midnightblue",fontsize="10",style="solid",fontname="Helvetica"];
  Node48 -> Node6 [color="midnightblue",fontsize="10",style="solid",fontname="Helvetica"];
  Node48 -> Node7 [color="midnightblue",fontsize="10",style="solid",fontname="Helvetica"];
  Node48 -> Node8 [color="midnightblue",fontsize="10",style="solid",fontname="Helvetica"];
  Node48 -> Node9 [color="midnightblue",fontsize="10",style="solid",fontname="Helvetica"];
  Node48 -> Node47 [color="midnightblue",fontsize="10",style="solid",fontname="Helvetica"];
  Node48 -> Node17 [color="midnightblue",fontsize="10",style="solid",fontname="Helvetica"];
  Node2 -> Node49 [color="midnightblue",fontsize="10",style="solid",fontname="Helvetica"];
  Node49 [label="cuon/Addresses/SingleAddress.hpp",height=0.2,width=0.4,color="black", fillcolor="white", style="filled",URL="$d5/dbe/SingleAddress_8hpp.html"];
  Node49 -> Node39 [color="midnightblue",fontsize="10",style="solid",fontname="Helvetica"];
  Node1 -> Node3 [color="midnightblue",fontsize="10",style="solid",fontname="Helvetica"];
  Node1 -> Node4 [color="midnightblue",fontsize="10",style="solid",fontname="Helvetica"];
  Node1 -> Node5 [color="midnightblue",fontsize="10",style="solid",fontname="Helvetica"];
  Node1 -> Node6 [color="midnightblue",fontsize="10",style="solid",fontname="Helvetica"];
  Node1 -> Node7 [color="midnightblue",fontsize="10",style="solid",fontname="Helvetica"];
  Node1 -> Node8 [color="midnightblue",fontsize="10",style="solid",fontname="Helvetica"];
  Node1 -> Node9 [color="midnightblue",fontsize="10",style="solid",fontname="Helvetica"];
  Node1 -> Node20 [color="midnightblue",fontsize="10",style="solid",fontname="Helvetica"];
  Node1 -> Node19 [color="midnightblue",fontsize="10",style="solid",fontname="Helvetica"];
  Node1 -> Node50 [color="midnightblue",fontsize="10",style="solid",fontname="Helvetica"];
  Node50 [label="Pluma/Connector.hpp",height=0.2,width=0.4,color="black", fillcolor="white", style="filled",URL="$dd/d44/Connector_8hpp.html"];
  Node50 -> Node22 [color="midnightblue",fontsize="10",style="solid",fontname="Helvetica"];
  Node50 -> Node21 [color="midnightblue",fontsize="10",style="solid",fontname="Helvetica"];
  Node1 -> Node38 [color="midnightblue",fontsize="10",style="solid",fontname="Helvetica"];
  Node1 -> Node49 [color="midnightblue",fontsize="10",style="solid",fontname="Helvetica"];
  Node1 -> Node46 [color="midnightblue",fontsize="10",style="solid",fontname="Helvetica"];
}
