<?xml version="1.0" encoding="UTF-8" standalone="no"?>
<!-- Created with Inkscape (http://www.inkscape.org/) -->

<svg
   xmlns:dc="http://purl.org/dc/elements/1.1/"
   xmlns:cc="http://creativecommons.org/ns#"
   xmlns:rdf="http://www.w3.org/1999/02/22-rdf-syntax-ns#"
   xmlns:svg="http://www.w3.org/2000/svg"
   xmlns="http://www.w3.org/2000/svg"
   xmlns:sodipodi="http://sodipodi.sourceforge.net/DTD/sodipodi-0.dtd"
   xmlns:inkscape="http://www.inkscape.org/namespaces/inkscape"
   version="1.1"
   width="60"
   height="60"
   id="svg2"
   inkscape:version="0.48.3.1 r9886"
   sodipodi:docname="barcode.svg">
  <sodipodi:namedview
     pagecolor="#ffffff"
     bordercolor="#666666"
     borderopacity="1"
     objecttolerance="10"
     gridtolerance="10"
     guidetolerance="10"
     inkscape:pageopacity="0"
     inkscape:pageshadow="2"
     inkscape:window-width="1229"
     inkscape:window-height="797"
     id="namedview8"
     showgrid="false"
     inkscape:zoom="1.5789631"
     inkscape:cx="94.826464"
     inkscape:cy="74.732592"
     inkscape:window-x="0"
     inkscape:window-y="0"
     inkscape:window-maximized="0"
     inkscape:current-layer="layer1"
     fit-margin-top="0"
     fit-margin-left="0"
     fit-margin-right="0"
     fit-margin-bottom="0" />
  <defs
     id="defs4" />
  <metadata
     id="metadata7">
    <rdf:RDF>
      <cc:Work
         rdf:about="">
        <dc:format>image/svg+xml</dc:format>
        <dc:type
           rdf:resource="http://purl.org/dc/dcmitype/StillImage" />
        <dc:title />
      </cc:Work>
    </rdf:RDF>
  </metadata>
  <g
     transform="translate(-260.00003,-368.42332)"
     id="layer1">
    <g
       transform="matrix(0.23019593,0,0,0.55170293,177.7445,256.44079)"
       style="font-size:123.73809052px;font-style:italic;font-variant:normal;font-weight:normal;font-stretch:normal;text-align:start;line-height:110.00000238%;letter-spacing:0px;word-spacing:0px;writing-mode:lr-tb;text-anchor:start;fill:#000000;fill-opacity:1;stroke:none;font-family:Dutch801 ItHd BT;-inkscape-font-specification:Dutch801 ItHd BT Italic"
       id="text2985">
      <path
         d="m 387.53783,311.73032 -6.0419,0 0,-108.75418 6.0419,0 0,108.75418 m -27.18854,0 -3.02095,0 0,-108.75418 3.02095,0 0,108.75418 m 15.10475,0 -9.06285,0 0,-108.75418 9.06285,0 0,108.75418"
         style="font-style:normal;font-family:Code 128;-inkscape-font-specification:'Code 128,'"
         id="path2986"
         inkscape:connector-curvature="0" />
      <path
         d="m 408.80532,311.73032 -6.0419,0 0,-108.75418 6.0419,0 0,108.75418 m -9.06285,0 -9.06285,0 0,-108.75418 9.06285,0 0,108.75418 m 21.14665,0 -9.06285,0 0,-108.75418 9.06285,0 0,108.75418"
         style="font-style:normal;font-family:Code 128;-inkscape-font-specification:'Code 128,'"
         id="path2988"
         inkscape:connector-curvature="0" />
      <path
         d="m 454.2404,311.73032 -6.0419,0 0,-108.75418 6.0419,0 0,108.75418 m -27.18854,0 -3.02095,0 0,-108.75418 3.02095,0 0,108.75418 m 15.10474,0 -9.06284,0 0,-108.75418 9.06284,0 0,108.75418"
         style="font-style:normal;font-family:Code 128;-inkscape-font-specification:'Code 128,'"
         id="path2990"
         inkscape:connector-curvature="0" />
      <path
         d="m 463.42409,311.73032 -6.0419,0 0,-108.75418 6.0419,0 0,108.75418 m 24.16759,0 -3.02095,0 0,-108.75418 3.02095,0 0,108.75418 m -9.06285,0 -9.06285,0 0,-108.75418 9.06285,0 0,108.75418"
         style="font-style:normal;font-family:Code 128;-inkscape-font-specification:'Code 128,'"
         id="path2992"
         inkscape:connector-curvature="0" />
      <path
         d="m 520.94297,311.73032 -6.0419,0 0,-108.75418 6.0419,0 0,108.75418 m -27.18855,0 -3.02095,0 0,-108.75418 3.02095,0 0,108.75418 m 15.10475,0 -9.06285,0 0,-108.75418 9.06285,0 0,108.75418"
         style="font-style:normal;font-family:Code 128;-inkscape-font-specification:'Code 128,'"
         id="path2994"
         inkscape:connector-curvature="0" />
      <path
         d="m 551.27331,311.73032 -6.0419,0 0,-108.75418 6.0419,0 0,108.75418 m -9.00243,0 -3.08137,0 0,-108.75418 3.08137,0 0,108.75418 m -9.12327,0 -9.06285,0 0,-108.75418 9.06285,0 0,108.75418"
         style="font-style:normal;font-family:Code 128;-inkscape-font-specification:'Code 128,'"
         id="path2996"
         inkscape:connector-curvature="0" />
      <path
         d="m 563.47793,311.73032 -6.04189,0 0,-108.75418 6.04189,0 0,108.75418 m 21.20707,0 -3.08137,0 0,-108.75418 3.08137,0 0,108.75418 m -6.10232,0 -9.06285,0 0,-108.75418 9.06285,0 0,108.75418"
         style="font-style:normal;font-family:Code 128;-inkscape-font-specification:'Code 128,'"
         id="path2998"
         inkscape:connector-curvature="0" />
      <path
         d="m 617.97587,311.73032 -6.0419,0 0,-108.75418 6.0419,0 0,108.75418 m -9.00243,0 -3.08137,0 0,-108.75418 3.08137,0 0,108.75418 m -9.12327,0 -9.06285,0 0,-108.75418 9.06285,0 0,108.75418"
         style="font-style:normal;font-family:Code 128;-inkscape-font-specification:'Code 128,'"
         id="path3000"
         inkscape:connector-curvature="0" />
    </g>
  </g>
</svg>
