digraph "cuon/XMLRPC/xmlrpc.hpp"
{
  edge [fontname="Helvetica",fontsize="10",labelfontname="Helvetica",labelfontsize="10"];
  node [fontname="Helvetica",fontsize="10",shape=record];
  Node1 [label="cuon/XMLRPC/xmlrpc.hpp",height=0.2,width=0.4,color="black", fillcolor="grey75", style="filled", fontcolor="black"];
  Node1 -> Node2 [dir="back",color="midnightblue",fontsize="10",style="solid",fontname="Helvetica"];
  Node2 [label="cuon/Addresses/addresses.hpp",height=0.2,width=0.4,color="black", fillcolor="white", style="filled",URL="$de/d2d/addresses_8hpp.html"];
  Node2 -> Node3 [dir="back",color="midnightblue",fontsize="10",style="solid",fontname="Helvetica"];
  Node3 [label="cuon/Addresses/addresses.cpp",height=0.2,width=0.4,color="black", fillcolor="white", style="filled",URL="$d3/dec/addresses_8cpp.html"];
  Node2 -> Node4 [dir="back",color="midnightblue",fontsize="10",style="solid",fontname="Helvetica"];
  Node4 [label="cuon/Garden/hibernation.cpp",height=0.2,width=0.4,color="black", fillcolor="white", style="filled",URL="$da/d73/hibernation_8cpp.html"];
  Node2 -> Node5 [dir="back",color="midnightblue",fontsize="10",style="solid",fontname="Helvetica"];
  Node5 [label="cuon/Order/order.cpp",height=0.2,width=0.4,color="black", fillcolor="white", style="filled",URL="$de/d4f/order_8cpp.html"];
  Node2 -> Node6 [dir="back",color="midnightblue",fontsize="10",style="solid",fontname="Helvetica"];
  Node6 [label="cuonClient.cpp",height=0.2,width=0.4,color="black", fillcolor="white", style="filled",URL="$d4/d14/cuonClient_8cpp.html",tooltip="CPP Client Mainprogram. "];
  Node1 -> Node7 [dir="back",color="midnightblue",fontsize="10",style="solid",fontname="Helvetica"];
  Node7 [label="cuon/Windows/gladeXml.hpp",height=0.2,width=0.4,color="black", fillcolor="white", style="filled",URL="$d3/d72/gladeXml_8hpp.html"];
  Node7 -> Node8 [dir="back",color="midnightblue",fontsize="10",style="solid",fontname="Helvetica"];
  Node8 [label="cuon/Windows/windows.hpp",height=0.2,width=0.4,color="black", fillcolor="white", style="filled",URL="$d5/d34/windows_8hpp.html"];
  Node8 -> Node2 [dir="back",color="midnightblue",fontsize="10",style="solid",fontname="Helvetica"];
  Node8 -> Node9 [dir="back",color="midnightblue",fontsize="10",style="solid",fontname="Helvetica"];
  Node9 [label="cuon/DMS/dms.hpp",height=0.2,width=0.4,color="red", fillcolor="white", style="filled",URL="$d7/d32/dms_8hpp.html"];
  Node9 -> Node3 [dir="back",color="midnightblue",fontsize="10",style="solid",fontname="Helvetica"];
  Node9 -> Node4 [dir="back",color="midnightblue",fontsize="10",style="solid",fontname="Helvetica"];
  Node9 -> Node5 [dir="back",color="midnightblue",fontsize="10",style="solid",fontname="Helvetica"];
  Node9 -> Node10 [dir="back",color="midnightblue",fontsize="10",style="solid",fontname="Helvetica"];
  Node10 [label="cuon/Project/project.hpp",height=0.2,width=0.4,color="red", fillcolor="white", style="filled",URL="$d1/d8e/project_8hpp.html"];
  Node9 -> Node11 [dir="back",color="midnightblue",fontsize="10",style="solid",fontname="Helvetica"];
  Node11 [label="cuon/Sourcenavigator\l/sourcenavigator.hpp",height=0.2,width=0.4,color="red", fillcolor="white", style="filled",URL="$d7/d60/sourcenavigator_8hpp.html"];
  Node9 -> Node6 [dir="back",color="midnightblue",fontsize="10",style="solid",fontname="Helvetica"];
  Node8 -> Node12 [dir="back",color="midnightblue",fontsize="10",style="solid",fontname="Helvetica"];
  Node12 [label="cuon/Email/send_email.hpp",height=0.2,width=0.4,color="red", fillcolor="white", style="filled",URL="$d6/d20/send__email_8hpp.html"];
  Node12 -> Node3 [dir="back",color="midnightblue",fontsize="10",style="solid",fontname="Helvetica"];
  Node8 -> Node13 [dir="back",color="midnightblue",fontsize="10",style="solid",fontname="Helvetica"];
  Node13 [label="cuon/Addresses/lists\l_addresses.hpp",height=0.2,width=0.4,color="red", fillcolor="white", style="filled",URL="$d3/d3b/lists__addresses_8hpp.html"];
  Node13 -> Node3 [dir="back",color="midnightblue",fontsize="10",style="solid",fontname="Helvetica"];
  Node8 -> Node14 [dir="back",color="midnightblue",fontsize="10",style="solid",fontname="Helvetica"];
  Node14 [label="cuon/Addresses/contact.hpp",height=0.2,width=0.4,color="black", fillcolor="white", style="filled",URL="$da/d75/contact_8hpp.html"];
  Node14 -> Node15 [dir="back",color="midnightblue",fontsize="10",style="solid",fontname="Helvetica"];
  Node15 [label="cuon/Addresses/contact.cpp",height=0.2,width=0.4,color="black", fillcolor="white", style="filled",URL="$d0/dfd/contact_8cpp.html"];
  Node8 -> Node16 [dir="back",color="midnightblue",fontsize="10",style="solid",fontname="Helvetica"];
  Node16 [label="cuon/Articles/articles.hpp",height=0.2,width=0.4,color="red", fillcolor="white", style="filled",URL="$d4/d00/articles_8hpp.html"];
  Node16 -> Node4 [dir="back",color="midnightblue",fontsize="10",style="solid",fontname="Helvetica"];
  Node16 -> Node5 [dir="back",color="midnightblue",fontsize="10",style="solid",fontname="Helvetica"];
  Node16 -> Node6 [dir="back",color="midnightblue",fontsize="10",style="solid",fontname="Helvetica"];
  Node8 -> Node17 [dir="back",color="midnightblue",fontsize="10",style="solid",fontname="Helvetica"];
  Node17 [label="cuon/Articles/lists\l_articles.hpp",height=0.2,width=0.4,color="red", fillcolor="white", style="filled",URL="$de/db8/lists__articles_8hpp.html"];
  Node8 -> Node18 [dir="back",color="midnightblue",fontsize="10",style="solid",fontname="Helvetica"];
  Node18 [label="cuon/Order/order.hpp",height=0.2,width=0.4,color="red", fillcolor="white", style="filled",URL="$d6/d6f/order_8hpp.html"];
  Node18 -> Node4 [dir="back",color="midnightblue",fontsize="10",style="solid",fontname="Helvetica"];
  Node18 -> Node5 [dir="back",color="midnightblue",fontsize="10",style="solid",fontname="Helvetica"];
  Node8 -> Node19 [dir="back",color="midnightblue",fontsize="10",style="solid",fontname="Helvetica"];
  Node19 [label="cuon/Cashdesk/cashdesk.hpp",height=0.2,width=0.4,color="black", fillcolor="white", style="filled",URL="$d3/d08/cashdesk_8hpp.html"];
  Node8 -> Node20 [dir="back",color="midnightblue",fontsize="10",style="solid",fontname="Helvetica"];
  Node20 [label="cuon/Clients/cuonclients.hpp",height=0.2,width=0.4,color="red", fillcolor="white", style="filled",URL="$df/d8d/cuonclients_8hpp.html"];
  Node20 -> Node6 [dir="back",color="midnightblue",fontsize="10",style="solid",fontname="Helvetica"];
  Node8 -> Node21 [dir="back",color="midnightblue",fontsize="10",style="solid",fontname="Helvetica"];
  Node21 [label="cuon/Clients/clients.hpp",height=0.2,width=0.4,color="black", fillcolor="white", style="filled",URL="$d6/d92/clients_8hpp.html"];
  Node8 -> Node22 [dir="back",color="midnightblue",fontsize="10",style="solid",fontname="Helvetica"];
  Node22 [label="cuon/Databases/data.hpp",height=0.2,width=0.4,color="red", fillcolor="white", style="filled",URL="$da/d85/data_8hpp.html"];
  Node22 -> Node6 [dir="back",color="midnightblue",fontsize="10",style="solid",fontname="Helvetica"];
  Node8 -> Node23 [dir="back",color="midnightblue",fontsize="10",style="solid",fontname="Helvetica"];
  Node23 [label="cuon/Enquiry/enquiry.hpp",height=0.2,width=0.4,color="red", fillcolor="white", style="filled",URL="$dc/d50/enquiry_8hpp.html"];
  Node8 -> Node24 [dir="back",color="midnightblue",fontsize="10",style="solid",fontname="Helvetica"];
  Node24 [label="cuon/Garden/botany.hpp",height=0.2,width=0.4,color="red", fillcolor="white", style="filled",URL="$d1/ddd/botany_8hpp.html"];
  Node8 -> Node25 [dir="back",color="midnightblue",fontsize="10",style="solid",fontname="Helvetica"];
  Node25 [label="cuon/Garden/hibernation.hpp",height=0.2,width=0.4,color="black", fillcolor="white", style="filled",URL="$df/d90/hibernation_8hpp.html"];
  Node25 -> Node4 [dir="back",color="midnightblue",fontsize="10",style="solid",fontname="Helvetica"];
  Node25 -> Node25 [dir="back",color="midnightblue",fontsize="10",style="solid",fontname="Helvetica"];
  Node8 -> Node26 [dir="back",color="midnightblue",fontsize="10",style="solid",fontname="Helvetica"];
  Node26 [label="cuon/Graves/grave.hpp",height=0.2,width=0.4,color="red", fillcolor="white", style="filled",URL="$dd/d2c/grave_8hpp.html"];
  Node8 -> Node27 [dir="back",color="midnightblue",fontsize="10",style="solid",fontname="Helvetica"];
  Node27 [label="cuon/Login/login.hpp",height=0.2,width=0.4,color="red", fillcolor="white", style="filled",URL="$d3/d6e/login_8hpp.html"];
  Node27 -> Node6 [dir="back",color="midnightblue",fontsize="10",style="solid",fontname="Helvetica"];
  Node8 -> Node10 [dir="back",color="midnightblue",fontsize="10",style="solid",fontname="Helvetica"];
  Node8 -> Node28 [dir="back",color="midnightblue",fontsize="10",style="solid",fontname="Helvetica"];
  Node28 [label="cuon/Proposal/proposal.hpp",height=0.2,width=0.4,color="red", fillcolor="white", style="filled",URL="$d1/d37/proposal_8hpp.html"];
  Node8 -> Node11 [dir="back",color="midnightblue",fontsize="10",style="solid",fontname="Helvetica"];
  Node8 -> Node29 [dir="back",color="midnightblue",fontsize="10",style="solid",fontname="Helvetica"];
  Node29 [label="cuon/Staff/staff.hpp",height=0.2,width=0.4,color="red", fillcolor="white", style="filled",URL="$d8/d5f/staff_8hpp.html"];
  Node8 -> Node30 [dir="back",color="midnightblue",fontsize="10",style="solid",fontname="Helvetica"];
  Node30 [label="cuon/Stock/stock.hpp",height=0.2,width=0.4,color="red", fillcolor="white", style="filled",URL="$dd/dd5/stock_8hpp.html"];
  Node8 -> Node31 [dir="back",color="midnightblue",fontsize="10",style="solid",fontname="Helvetica"];
  Node31 [label="cuon/Windows/windows.cpp",height=0.2,width=0.4,color="black", fillcolor="white", style="filled",URL="$d1/d55/windows_8cpp.html"];
  Node8 -> Node32 [dir="back",color="midnightblue",fontsize="10",style="solid",fontname="Helvetica"];
  Node32 [label="cuonClient.hpp",height=0.2,width=0.4,color="black", fillcolor="white", style="filled",URL="$d4/d51/cuonClient_8hpp.html"];
  Node32 -> Node6 [dir="back",color="midnightblue",fontsize="10",style="solid",fontname="Helvetica"];
  Node7 -> Node33 [dir="back",color="midnightblue",fontsize="10",style="solid",fontname="Helvetica"];
  Node33 [label="cuon/Databases/Singledata.hpp",height=0.2,width=0.4,color="red", fillcolor="white", style="filled",URL="$dd/d56/Singledata_8hpp.html"];
  Node33 -> Node34 [dir="back",color="midnightblue",fontsize="10",style="solid",fontname="Helvetica"];
  Node34 [label="cuon/Addresses/SingleAddress.hpp",height=0.2,width=0.4,color="red", fillcolor="white", style="filled",URL="$d5/dbe/SingleAddress_8hpp.html"];
  Node34 -> Node2 [dir="back",color="midnightblue",fontsize="10",style="solid",fontname="Helvetica"];
  Node34 -> Node3 [dir="back",color="midnightblue",fontsize="10",style="solid",fontname="Helvetica"];
  Node34 -> Node13 [dir="back",color="midnightblue",fontsize="10",style="solid",fontname="Helvetica"];
  Node34 -> Node14 [dir="back",color="midnightblue",fontsize="10",style="solid",fontname="Helvetica"];
  Node34 -> Node15 [dir="back",color="midnightblue",fontsize="10",style="solid",fontname="Helvetica"];
  Node34 -> Node16 [dir="back",color="midnightblue",fontsize="10",style="solid",fontname="Helvetica"];
  Node34 -> Node17 [dir="back",color="midnightblue",fontsize="10",style="solid",fontname="Helvetica"];
  Node34 -> Node18 [dir="back",color="midnightblue",fontsize="10",style="solid",fontname="Helvetica"];
  Node34 -> Node20 [dir="back",color="midnightblue",fontsize="10",style="solid",fontname="Helvetica"];
  Node34 -> Node21 [dir="back",color="midnightblue",fontsize="10",style="solid",fontname="Helvetica"];
  Node34 -> Node4 [dir="back",color="midnightblue",fontsize="10",style="solid",fontname="Helvetica"];
  Node34 -> Node25 [dir="back",color="midnightblue",fontsize="10",style="solid",fontname="Helvetica"];
  Node34 -> Node5 [dir="back",color="midnightblue",fontsize="10",style="solid",fontname="Helvetica"];
  Node34 -> Node10 [dir="back",color="midnightblue",fontsize="10",style="solid",fontname="Helvetica"];
  Node34 -> Node11 [dir="back",color="midnightblue",fontsize="10",style="solid",fontname="Helvetica"];
  Node33 -> Node35 [dir="back",color="midnightblue",fontsize="10",style="solid",fontname="Helvetica"];
  Node35 [label="cuon/Addresses/SinglePartner.hpp",height=0.2,width=0.4,color="red", fillcolor="white", style="filled",URL="$dd/d64/SinglePartner_8hpp.html"];
  Node35 -> Node2 [dir="back",color="midnightblue",fontsize="10",style="solid",fontname="Helvetica"];
  Node35 -> Node3 [dir="back",color="midnightblue",fontsize="10",style="solid",fontname="Helvetica"];
  Node35 -> Node14 [dir="back",color="midnightblue",fontsize="10",style="solid",fontname="Helvetica"];
  Node35 -> Node15 [dir="back",color="midnightblue",fontsize="10",style="solid",fontname="Helvetica"];
  Node33 -> Node36 [dir="back",color="midnightblue",fontsize="10",style="solid",fontname="Helvetica"];
  Node36 [label="cuon/Addresses/SingleMisc.hpp",height=0.2,width=0.4,color="red", fillcolor="white", style="filled",URL="$de/d30/SingleMisc_8hpp.html"];
  Node36 -> Node2 [dir="back",color="midnightblue",fontsize="10",style="solid",fontname="Helvetica"];
  Node36 -> Node3 [dir="back",color="midnightblue",fontsize="10",style="solid",fontname="Helvetica"];
  Node36 -> Node14 [dir="back",color="midnightblue",fontsize="10",style="solid",fontname="Helvetica"];
  Node36 -> Node15 [dir="back",color="midnightblue",fontsize="10",style="solid",fontname="Helvetica"];
  Node33 -> Node37 [dir="back",color="midnightblue",fontsize="10",style="solid",fontname="Helvetica"];
  Node37 [label="cuon/Addresses/SingleBank.hpp",height=0.2,width=0.4,color="red", fillcolor="white", style="filled",URL="$d5/d65/SingleBank_8hpp.html"];
  Node37 -> Node2 [dir="back",color="midnightblue",fontsize="10",style="solid",fontname="Helvetica"];
  Node37 -> Node3 [dir="back",color="midnightblue",fontsize="10",style="solid",fontname="Helvetica"];
  Node37 -> Node14 [dir="back",color="midnightblue",fontsize="10",style="solid",fontname="Helvetica"];
  Node37 -> Node15 [dir="back",color="midnightblue",fontsize="10",style="solid",fontname="Helvetica"];
  Node33 -> Node38 [dir="back",color="midnightblue",fontsize="10",style="solid",fontname="Helvetica"];
  Node38 [label="cuon/Addresses/SingleNote.hpp",height=0.2,width=0.4,color="red", fillcolor="white", style="filled",URL="$d3/d24/SingleNote_8hpp.html"];
  Node38 -> Node2 [dir="back",color="midnightblue",fontsize="10",style="solid",fontname="Helvetica"];
  Node38 -> Node3 [dir="back",color="midnightblue",fontsize="10",style="solid",fontname="Helvetica"];
  Node38 -> Node14 [dir="back",color="midnightblue",fontsize="10",style="solid",fontname="Helvetica"];
  Node38 -> Node15 [dir="back",color="midnightblue",fontsize="10",style="solid",fontname="Helvetica"];
  Node33 -> Node39 [dir="back",color="midnightblue",fontsize="10",style="solid",fontname="Helvetica"];
  Node39 [label="cuon/Addresses/SingleSchedul.hpp",height=0.2,width=0.4,color="red", fillcolor="white", style="filled",URL="$de/dfc/SingleSchedul_8hpp.html"];
  Node39 -> Node2 [dir="back",color="midnightblue",fontsize="10",style="solid",fontname="Helvetica"];
  Node39 -> Node3 [dir="back",color="midnightblue",fontsize="10",style="solid",fontname="Helvetica"];
  Node33 -> Node40 [dir="back",color="midnightblue",fontsize="10",style="solid",fontname="Helvetica"];
  Node40 [label="cuon/DMS/SingleDMS.hpp",height=0.2,width=0.4,color="red", fillcolor="white", style="filled",URL="$db/d51/SingleDMS_8hpp.html"];
  Node40 -> Node2 [dir="back",color="midnightblue",fontsize="10",style="solid",fontname="Helvetica"];
  Node40 -> Node9 [dir="back",color="midnightblue",fontsize="10",style="solid",fontname="Helvetica"];
  Node40 -> Node3 [dir="back",color="midnightblue",fontsize="10",style="solid",fontname="Helvetica"];
  Node40 -> Node18 [dir="back",color="midnightblue",fontsize="10",style="solid",fontname="Helvetica"];
  Node40 -> Node4 [dir="back",color="midnightblue",fontsize="10",style="solid",fontname="Helvetica"];
  Node40 -> Node25 [dir="back",color="midnightblue",fontsize="10",style="solid",fontname="Helvetica"];
  Node40 -> Node5 [dir="back",color="midnightblue",fontsize="10",style="solid",fontname="Helvetica"];
  Node40 -> Node29 [dir="back",color="midnightblue",fontsize="10",style="solid",fontname="Helvetica"];
  Node40 -> Node6 [dir="back",color="midnightblue",fontsize="10",style="solid",fontname="Helvetica"];
  Node33 -> Node41 [dir="back",color="midnightblue",fontsize="10",style="solid",fontname="Helvetica"];
  Node41 [label="cuon/Addresses/SingleContact.hpp",height=0.2,width=0.4,color="red", fillcolor="white", style="filled",URL="$d9/df8/SingleContact_8hpp.html"];
  Node41 -> Node14 [dir="back",color="midnightblue",fontsize="10",style="solid",fontname="Helvetica"];
  Node41 -> Node15 [dir="back",color="midnightblue",fontsize="10",style="solid",fontname="Helvetica"];
  Node33 -> Node42 [dir="back",color="midnightblue",fontsize="10",style="solid",fontname="Helvetica"];
  Node42 [label="cuon/Articles/SingleArticle.hpp",height=0.2,width=0.4,color="red", fillcolor="white", style="filled",URL="$db/d95/SingleArticle_8hpp.html"];
  Node42 -> Node16 [dir="back",color="midnightblue",fontsize="10",style="solid",fontname="Helvetica"];
  Node42 -> Node18 [dir="back",color="midnightblue",fontsize="10",style="solid",fontname="Helvetica"];
  Node42 -> Node19 [dir="back",color="midnightblue",fontsize="10",style="solid",fontname="Helvetica"];
  Node42 -> Node23 [dir="back",color="midnightblue",fontsize="10",style="solid",fontname="Helvetica"];
  Node42 -> Node4 [dir="back",color="midnightblue",fontsize="10",style="solid",fontname="Helvetica"];
  Node42 -> Node25 [dir="back",color="midnightblue",fontsize="10",style="solid",fontname="Helvetica"];
  Node42 -> Node5 [dir="back",color="midnightblue",fontsize="10",style="solid",fontname="Helvetica"];
  Node42 -> Node28 [dir="back",color="midnightblue",fontsize="10",style="solid",fontname="Helvetica"];
  Node42 -> Node30 [dir="back",color="midnightblue",fontsize="10",style="solid",fontname="Helvetica"];
  Node33 -> Node43 [dir="back",color="midnightblue",fontsize="10",style="solid",fontname="Helvetica"];
  Node43 [label="cuon/Articles/SingleArticle\lParts.hpp",height=0.2,width=0.4,color="red", fillcolor="white", style="filled",URL="$de/d45/SingleArticleParts_8hpp.html"];
  Node33 -> Node44 [dir="back",color="midnightblue",fontsize="10",style="solid",fontname="Helvetica"];
  Node44 [label="cuon/Articles/SingleArticle\lPurchase.hpp",height=0.2,width=0.4,color="red", fillcolor="white", style="filled",URL="$d4/d63/SingleArticlePurchase_8hpp.html"];
  Node33 -> Node45 [dir="back",color="midnightblue",fontsize="10",style="solid",fontname="Helvetica"];
  Node45 [label="cuon/Articles/SingleArticle\lSale.hpp",height=0.2,width=0.4,color="red", fillcolor="white", style="filled",URL="$d2/dfe/SingleArticleSale_8hpp.html"];
  Node33 -> Node46 [dir="back",color="midnightblue",fontsize="10",style="solid",fontname="Helvetica"];
  Node46 [label="cuon/Articles/SingleArticle\lStock.hpp",height=0.2,width=0.4,color="red", fillcolor="white", style="filled",URL="$db/df9/SingleArticleStock_8hpp.html"];
  Node33 -> Node47 [dir="back",color="midnightblue",fontsize="10",style="solid",fontname="Helvetica"];
  Node47 [label="cuon/Articles/SingleArticle\lWebshop.hpp",height=0.2,width=0.4,color="red", fillcolor="white", style="filled",URL="$de/d0f/SingleArticleWebshop_8hpp.html"];
  Node7 -> Node48 [dir="back",color="midnightblue",fontsize="10",style="solid",fontname="Helvetica"];
  Node48 [label="cuon/Windows/gladeXml.cpp",height=0.2,width=0.4,color="black", fillcolor="white", style="filled",URL="$dc/dc4/gladeXml_8cpp.html"];
  Node7 -> Node6 [dir="back",color="midnightblue",fontsize="10",style="solid",fontname="Helvetica"];
  Node1 -> Node8 [dir="back",color="midnightblue",fontsize="10",style="solid",fontname="Helvetica"];
  Node1 -> Node33 [dir="back",color="midnightblue",fontsize="10",style="solid",fontname="Helvetica"];
  Node1 -> Node3 [dir="back",color="midnightblue",fontsize="10",style="solid",fontname="Helvetica"];
  Node1 -> Node13 [dir="back",color="midnightblue",fontsize="10",style="solid",fontname="Helvetica"];
  Node1 -> Node14 [dir="back",color="midnightblue",fontsize="10",style="solid",fontname="Helvetica"];
  Node1 -> Node15 [dir="back",color="midnightblue",fontsize="10",style="solid",fontname="Helvetica"];
  Node1 -> Node17 [dir="back",color="midnightblue",fontsize="10",style="solid",fontname="Helvetica"];
  Node1 -> Node49 [dir="back",color="midnightblue",fontsize="10",style="solid",fontname="Helvetica"];
  Node49 [label="cuon/User/User.cpp",height=0.2,width=0.4,color="black", fillcolor="white", style="filled",URL="$d4/dd1/User_8cpp.html"];
  Node1 -> Node48 [dir="back",color="midnightblue",fontsize="10",style="solid",fontname="Helvetica"];
  Node1 -> Node50 [dir="back",color="midnightblue",fontsize="10",style="solid",fontname="Helvetica"];
  Node50 [label="cuon/XMLRPC/xmlrpc.cpp",height=0.2,width=0.4,color="black", fillcolor="white", style="filled",URL="$dd/d1a/xmlrpc_8cpp.html"];
  Node1 -> Node6 [dir="back",color="midnightblue",fontsize="10",style="solid",fontname="Helvetica"];
}
