digraph "CMakeFiles/3.4.1" {
  compound=true
  node [ fontsize="10", fontname="Helvetica"];
  edge [ labelfontsize="10", labelfontname="Helvetica"];
  subgraph clusterdir_017ad5e908c41501f6a06b5119b37293 {
    graph [ bgcolor="#ddddee", pencolor="black", label="CMakeFiles" fontname="Helvetica", fontsize="10", URL="dir_017ad5e908c41501f6a06b5119b37293.html"]
  subgraph clusterdir_1f19bb8ddff583f5e2b71ab96b8357b2 {
    graph [ bgcolor="#eeeeff", pencolor="black", label="" URL="dir_1f19bb8ddff583f5e2b71ab96b8357b2.html"];
    dir_1f19bb8ddff583f5e2b71ab96b8357b2 [shape=plaintext label="3.4.1"];
    dir_c2c75336ad59a44cc0d193ad43d8139d [shape=box label="CompilerIdCXX" color="black" fillcolor="white" style="filled" URL="dir_c2c75336ad59a44cc0d193ad43d8139d.html"];
  }
  }
}
