digraph "CMakeFiles/3.3.1" {
  compound=true
  node [ fontsize="10", fontname="Helvetica"];
  edge [ labelfontsize="10", labelfontname="Helvetica"];
  subgraph clusterdir_017ad5e908c41501f6a06b5119b37293 {
    graph [ bgcolor="#ddddee", pencolor="black", label="CMakeFiles" fontname="Helvetica", fontsize="10", URL="dir_017ad5e908c41501f6a06b5119b37293.html"]
  subgraph clusterdir_562c9c3b291610cc7e123280ccbb2960 {
    graph [ bgcolor="#eeeeff", pencolor="black", label="" URL="dir_562c9c3b291610cc7e123280ccbb2960.html"];
    dir_562c9c3b291610cc7e123280ccbb2960 [shape=plaintext label="3.3.1"];
    dir_6f76ba7d3ae6370ed29b637ceff53a63 [shape=box label="CompilerIdCXX" color="black" fillcolor="white" style="filled" URL="dir_6f76ba7d3ae6370ed29b637ceff53a63.html"];
  }
  }
}
