digraph "cuon/Garden" {
  compound=true
  node [ fontsize="10", fontname="Helvetica"];
  edge [ labelfontsize="10", labelfontname="Helvetica"];
  subgraph clusterdir_7dd51dae3eff17d6b1d69ff1243e6faa {
    graph [ bgcolor="#ddddee", pencolor="black", label="cuon" fontname="Helvetica", fontsize="10", URL="dir_7dd51dae3eff17d6b1d69ff1243e6faa.html"]
  dir_d5d8348b2528be070a41b259dad38ee6 [shape=box, label="Garden", style="filled", fillcolor="#eeeeff", pencolor="black", URL="dir_d5d8348b2528be070a41b259dad38ee6.html"];
  }
  dir_1d4014fdca724aa9b4cf8145646d6761 [shape=box label="DMS" URL="dir_1d4014fdca724aa9b4cf8145646d6761.html"];
  dir_317f75867e6dafb66f3bda00ea85c505 [shape=box label="Pluma" fillcolor="white" style="filled" color="red" URL="dir_317f75867e6dafb66f3bda00ea85c505.html"];
  dir_b1317c68c2b30eaddb1fbcbd1bb672f2 [shape=box label="Order" URL="dir_b1317c68c2b30eaddb1fbcbd1bb672f2.html"];
  dir_e851883a7612ddb00cd7d252a9b14001 [shape=box label="Databases" URL="dir_e851883a7612ddb00cd7d252a9b14001.html"];
  dir_ec1e95372960351665d3e99e7fc8d213 [shape=box label="Articles" URL="dir_ec1e95372960351665d3e99e7fc8d213.html"];
  dir_65dfe220c26cc3c1ae6942d58d3b773e [shape=box label="Windows" URL="dir_65dfe220c26cc3c1ae6942d58d3b773e.html"];
  dir_31bc62e788475d06990b5111cf5f611c [shape=box label="Addresses" URL="dir_31bc62e788475d06990b5111cf5f611c.html"];
  dir_d5d8348b2528be070a41b259dad38ee6->dir_1d4014fdca724aa9b4cf8145646d6761 [headlabel="5", labeldistance=1.5 headhref="dir_000031_000027.html"];
  dir_d5d8348b2528be070a41b259dad38ee6->dir_317f75867e6dafb66f3bda00ea85c505 [headlabel="4", labeldistance=1.5 headhref="dir_000031_000071.html"];
  dir_d5d8348b2528be070a41b259dad38ee6->dir_b1317c68c2b30eaddb1fbcbd1bb672f2 [headlabel="9", labeldistance=1.5 headhref="dir_000031_000034.html"];
  dir_d5d8348b2528be070a41b259dad38ee6->dir_e851883a7612ddb00cd7d252a9b14001 [headlabel="3", labeldistance=1.5 headhref="dir_000031_000026.html"];
  dir_d5d8348b2528be070a41b259dad38ee6->dir_ec1e95372960351665d3e99e7fc8d213 [headlabel="4", labeldistance=1.5 headhref="dir_000031_000023.html"];
  dir_d5d8348b2528be070a41b259dad38ee6->dir_65dfe220c26cc3c1ae6942d58d3b773e [headlabel="2", labeldistance=1.5 headhref="dir_000031_000042.html"];
  dir_d5d8348b2528be070a41b259dad38ee6->dir_31bc62e788475d06990b5111cf5f611c [headlabel="3", labeldistance=1.5 headhref="dir_000031_000022.html"];
  dir_1d4014fdca724aa9b4cf8145646d6761->dir_e851883a7612ddb00cd7d252a9b14001 [headlabel="1", labeldistance=1.5 headhref="dir_000027_000026.html"];
  dir_1d4014fdca724aa9b4cf8145646d6761->dir_65dfe220c26cc3c1ae6942d58d3b773e [headlabel="1", labeldistance=1.5 headhref="dir_000027_000042.html"];
  dir_b1317c68c2b30eaddb1fbcbd1bb672f2->dir_1d4014fdca724aa9b4cf8145646d6761 [headlabel="5", labeldistance=1.5 headhref="dir_000034_000027.html"];
  dir_b1317c68c2b30eaddb1fbcbd1bb672f2->dir_317f75867e6dafb66f3bda00ea85c505 [headlabel="2", labeldistance=1.5 headhref="dir_000034_000071.html"];
  dir_b1317c68c2b30eaddb1fbcbd1bb672f2->dir_e851883a7612ddb00cd7d252a9b14001 [headlabel="5", labeldistance=1.5 headhref="dir_000034_000026.html"];
  dir_b1317c68c2b30eaddb1fbcbd1bb672f2->dir_ec1e95372960351665d3e99e7fc8d213 [headlabel="3", labeldistance=1.5 headhref="dir_000034_000023.html"];
  dir_b1317c68c2b30eaddb1fbcbd1bb672f2->dir_65dfe220c26cc3c1ae6942d58d3b773e [headlabel="1", labeldistance=1.5 headhref="dir_000034_000042.html"];
  dir_b1317c68c2b30eaddb1fbcbd1bb672f2->dir_31bc62e788475d06990b5111cf5f611c [headlabel="3", labeldistance=1.5 headhref="dir_000034_000022.html"];
  dir_e851883a7612ddb00cd7d252a9b14001->dir_65dfe220c26cc3c1ae6942d58d3b773e [headlabel="6", labeldistance=1.5 headhref="dir_000026_000042.html"];
  dir_ec1e95372960351665d3e99e7fc8d213->dir_e851883a7612ddb00cd7d252a9b14001 [headlabel="8", labeldistance=1.5 headhref="dir_000023_000026.html"];
  dir_ec1e95372960351665d3e99e7fc8d213->dir_65dfe220c26cc3c1ae6942d58d3b773e [headlabel="2", labeldistance=1.5 headhref="dir_000023_000042.html"];
  dir_ec1e95372960351665d3e99e7fc8d213->dir_31bc62e788475d06990b5111cf5f611c [headlabel="2", labeldistance=1.5 headhref="dir_000023_000022.html"];
  dir_65dfe220c26cc3c1ae6942d58d3b773e->dir_e851883a7612ddb00cd7d252a9b14001 [headlabel="3", labeldistance=1.5 headhref="dir_000042_000026.html"];
  dir_31bc62e788475d06990b5111cf5f611c->dir_1d4014fdca724aa9b4cf8145646d6761 [headlabel="3", labeldistance=1.5 headhref="dir_000022_000027.html"];
  dir_31bc62e788475d06990b5111cf5f611c->dir_e851883a7612ddb00cd7d252a9b14001 [headlabel="7", labeldistance=1.5 headhref="dir_000022_000026.html"];
  dir_31bc62e788475d06990b5111cf5f611c->dir_65dfe220c26cc3c1ae6942d58d3b773e [headlabel="4", labeldistance=1.5 headhref="dir_000022_000042.html"];
}
