digraph "Pluma" {
  compound=true
  node [ fontsize="10", fontname="Helvetica"];
  edge [ labelfontsize="10", labelfontname="Helvetica"];
  subgraph clusterdir_317f75867e6dafb66f3bda00ea85c505 {
    graph [ bgcolor="#eeeeff", pencolor="black", label="" URL="dir_317f75867e6dafb66f3bda00ea85c505.html"];
    dir_317f75867e6dafb66f3bda00ea85c505 [shape=plaintext label="Pluma"];
    dir_e5a3f3e97e23f36b15287640042688b6 [shape=box label="include" color="red" fillcolor="white" style="filled" URL="dir_e5a3f3e97e23f36b15287640042688b6.html"];
    dir_512afd389bb6de731a75c9e7b3e48d40 [shape=box label="src" color="red" fillcolor="white" style="filled" URL="dir_512afd389bb6de731a75c9e7b3e48d40.html"];
  }
  dir_512afd389bb6de731a75c9e7b3e48d40->dir_e5a3f3e97e23f36b15287640042688b6 [headlabel="6", labeldistance=1.5 headhref="dir_000074_000072.html"];
}
