digraph "cuon/Stock" {
  compound=true
  node [ fontsize="10", fontname="Helvetica"];
  edge [ labelfontsize="10", labelfontname="Helvetica"];
  subgraph clusterdir_7dd51dae3eff17d6b1d69ff1243e6faa {
    graph [ bgcolor="#ddddee", pencolor="black", label="cuon" fontname="Helvetica", fontsize="10", URL="dir_7dd51dae3eff17d6b1d69ff1243e6faa.html"]
  dir_bcd9261640165dcfd77751b25e3cdf2e [shape=box, label="Stock", style="filled", fillcolor="#eeeeff", pencolor="black", URL="dir_bcd9261640165dcfd77751b25e3cdf2e.html"];
  }
  dir_317f75867e6dafb66f3bda00ea85c505 [shape=box label="Pluma" fillcolor="white" style="filled" color="red" URL="dir_317f75867e6dafb66f3bda00ea85c505.html"];
  dir_e851883a7612ddb00cd7d252a9b14001 [shape=box label="Databases" URL="dir_e851883a7612ddb00cd7d252a9b14001.html"];
  dir_ec1e95372960351665d3e99e7fc8d213 [shape=box label="Articles" URL="dir_ec1e95372960351665d3e99e7fc8d213.html"];
  dir_65dfe220c26cc3c1ae6942d58d3b773e [shape=box label="Windows" URL="dir_65dfe220c26cc3c1ae6942d58d3b773e.html"];
  dir_bcd9261640165dcfd77751b25e3cdf2e->dir_317f75867e6dafb66f3bda00ea85c505 [headlabel="2", labeldistance=1.5 headhref="dir_000039_000071.html"];
  dir_bcd9261640165dcfd77751b25e3cdf2e->dir_e851883a7612ddb00cd7d252a9b14001 [headlabel="2", labeldistance=1.5 headhref="dir_000039_000026.html"];
  dir_bcd9261640165dcfd77751b25e3cdf2e->dir_ec1e95372960351665d3e99e7fc8d213 [headlabel="3", labeldistance=1.5 headhref="dir_000039_000023.html"];
  dir_bcd9261640165dcfd77751b25e3cdf2e->dir_65dfe220c26cc3c1ae6942d58d3b773e [headlabel="1", labeldistance=1.5 headhref="dir_000039_000042.html"];
  dir_e851883a7612ddb00cd7d252a9b14001->dir_65dfe220c26cc3c1ae6942d58d3b773e [headlabel="6", labeldistance=1.5 headhref="dir_000026_000042.html"];
  dir_ec1e95372960351665d3e99e7fc8d213->dir_e851883a7612ddb00cd7d252a9b14001 [headlabel="8", labeldistance=1.5 headhref="dir_000023_000026.html"];
  dir_ec1e95372960351665d3e99e7fc8d213->dir_65dfe220c26cc3c1ae6942d58d3b773e [headlabel="2", labeldistance=1.5 headhref="dir_000023_000042.html"];
  dir_65dfe220c26cc3c1ae6942d58d3b773e->dir_e851883a7612ddb00cd7d252a9b14001 [headlabel="3", labeldistance=1.5 headhref="dir_000042_000026.html"];
}
