digraph "cuon/Order/SingleOrder.hpp"
{
  edge [fontname="Helvetica",fontsize="10",labelfontname="Helvetica",labelfontsize="10"];
  node [fontname="Helvetica",fontsize="10",shape=record];
  Node1 [label="cuon/Order/SingleOrder.hpp",height=0.2,width=0.4,color="black", fillcolor="grey75", style="filled", fontcolor="black"];
  Node1 -> Node2 [dir="back",color="midnightblue",fontsize="10",style="solid"];
  Node2 [label="cuon/Order/order.hpp",height=0.2,width=0.4,color="black", fillcolor="white", style="filled",URL="$d6/d6f/order_8hpp.html"];
  Node2 -> Node3 [dir="back",color="midnightblue",fontsize="10",style="solid"];
  Node3 [label="cuon/Cashdesk/cashdesk.cpp",height=0.2,width=0.4,color="black", fillcolor="white", style="filled",URL="$d7/df9/cashdesk_8cpp.html"];
  Node2 -> Node4 [dir="back",color="midnightblue",fontsize="10",style="solid"];
  Node4 [label="cuon/Garden/hibernation.cpp",height=0.2,width=0.4,color="black", fillcolor="white", style="filled",URL="$da/d73/hibernation_8cpp.html"];
  Node2 -> Node5 [dir="back",color="midnightblue",fontsize="10",style="solid"];
  Node5 [label="cuon/Order/order.cpp",height=0.2,width=0.4,color="black", fillcolor="white", style="filled",URL="$de/d4f/order_8cpp.html"];
  Node1 -> Node3 [dir="back",color="midnightblue",fontsize="10",style="solid"];
  Node1 -> Node6 [dir="back",color="midnightblue",fontsize="10",style="solid"];
  Node6 [label="cuon/Cashdesk/cashdesk.hpp",height=0.2,width=0.4,color="black", fillcolor="white", style="filled",URL="$d3/d08/cashdesk_8hpp.html"];
  Node1 -> Node4 [dir="back",color="midnightblue",fontsize="10",style="solid"];
  Node1 -> Node7 [dir="back",color="midnightblue",fontsize="10",style="solid"];
  Node7 [label="cuon/Garden/hibernation.hpp",height=0.2,width=0.4,color="black", fillcolor="white", style="filled",URL="$df/d90/hibernation_8hpp.html"];
  Node7 -> Node4 [dir="back",color="midnightblue",fontsize="10",style="solid"];
  Node7 -> Node7 [dir="back",color="midnightblue",fontsize="10",style="solid"];
  Node1 -> Node5 [dir="back",color="midnightblue",fontsize="10",style="solid"];
  Node1 -> Node8 [dir="back",color="midnightblue",fontsize="10",style="solid"];
  Node8 [label="cuon/Order/SingleOrder.cpp",height=0.2,width=0.4,color="black", fillcolor="white", style="filled",URL="$db/df7/SingleOrder_8cpp.html"];
}
