<?xml version="1.0" standalone="no" ?>
 <!DOCTYPE svg PUBLIC "-//W3C//DTD SVG 20010904//EN" 
   "http://www.w3.org/TR/2001/REC-SVG-20010904/DTD/svg10.dtd"> 
 <svg height="550" width="450"  xmlns="http://www.w3.org/2000/svg"  xmlns:xlink="http://www.w3.org/1999/xlink" > 
  <g style="fill-opacity:1.0; stroke:blue;
  stroke-width:2;">
  <rect x="10" y="10" height="530"
    width="430" style="fill:#71d;" />
  <line x1="30" y1="30" x2="30" y2="500" />
  <line x1="30" y1="500" x2="400" y2="500" />
  <rect x="76" y="500" height="-180"
    width="28" style="fill:#0ff;" />
  <rect x="114" y="500" height="-360"
    width="28" style="fill:#0ff;" />
  <rect x="152" y="500" height="-120"
    width="28" style="fill:#0ff;" />
  <rect x="190" y="500" height="-270"
    width="28" style="fill:#0ff;" />
  <rect x="228" y="500" height="-360"
    width="28" style="fill:#0ff;" />
 </g>
</svg>
