digraph "datatypes"
{
  edge [fontname="Helvetica",fontsize="10",labelfontname="Helvetica",labelfontsize="10"];
  node [fontname="Helvetica",fontsize="10",shape=record];
  Node1 [label="{datatypes\n|+ dicValues\l+ dicValuesBE\l+ ResultSet\l|+ datatypes()\l+ ~datatypes()\l}",height=0.2,width=0.4,color="black", fillcolor="grey75", style="filled", fontcolor="black"];
  Node2 -> Node1 [dir="back",color="midnightblue",fontsize="10",style="solid",arrowtail="onormal",fontname="Helvetica"];
  Node2 [label="{basics\n|+ MN\l+ mime_type\l|+ basics()\l+ ~basics()\l+ printlog()\l+ printlog()\l+ printlog()\l+ printlog()\l+ printlog()\l+ printlog()\l+ printlog()\l+ file_exists()\l+ stripchars()\l+ replaceAll()\l+ getNullUUID()\l+ getNewUUID()\l+ executePrg()\l+ getRandomFilename()\l+ writeFile()\l+ readFile()\l+ getDateTime()\l+ getDate()\l+ getDate()\l+ String2Int()\l+ Int2String()\l+ getActualDateTime()\l+ map2vector()\l+ split()\l+ deleteCache()\l}",height=0.2,width=0.4,color="black", fillcolor="white", style="filled",URL="$d3/d15/classbasics.html"];
  Node1 -> Node3 [dir="back",color="midnightblue",fontsize="10",style="solid",arrowtail="onormal",fontname="Helvetica"];
  Node3 [label="{localCache\n|+ cacheOK\l+ options\l+ dbStatusKeys\l+ dbStatus\l+ path2CacheKeys\l+ path2Cache\l+ rO\l+ wO\l+ rOKeys\l+ wOKeys\l|+ localCache()\l+ ~localCache()\l+ getCache()\l+ writeCache()\l+ getKCache()\l+ writeKCache()\l+ getSCache()\l+ writeSCache()\l}",height=0.2,width=0.4,color="black", fillcolor="white", style="filled",URL="$da/d70/classlocalCache.html"];
  Node1 -> Node4 [dir="back",color="midnightblue",fontsize="10",style="solid",arrowtail="onormal",fontname="Helvetica"];
  Node4 [label="{mXmlRpc\n|+ serverUrl\l+ a1\l+ v1\l|+ mXmlRpc()\l+ callrp()\l}",height=0.2,width=0.4,color="black", fillcolor="white", style="filled",URL="$da/d06/classmXmlRpc.html"];
  Node4 -> Node5 [dir="back",color="midnightblue",fontsize="10",style="solid",arrowtail="onormal",fontname="Helvetica"];
  Node5 [label="{myXmlRpc\n||+ myXmlRpc()\l+ ~myXmlRpc()\l+ addUser()\l+ add()\l+ add()\l+ add()\l+ add()\l+ add()\l+ add()\l+ add()\l+ add()\l+ add()\l+ add()\l+ add()\l+ add()\l+ add()\l+ add()\l+ add()\l+ callRP()\l+ callRP()\l+ callRP()\l+ callRP()\l+ callRP()\l+ callRP()\l+ callRP()\l+ callRP()\l+ callRP()\l+ callRP()\l+ callRP()\l}",height=0.2,width=0.4,color="black", fillcolor="white", style="filled",URL="$da/d2a/classmyXmlRpc.html"];
  Node1 -> Node6 [dir="back",color="midnightblue",fontsize="10",style="solid",arrowtail="onormal",fontname="Helvetica"];
  Node6 [label="{Singledata\n|+ sNameOfTable\l+ sSort\l+ sWhere\l+ sep_info_1\l+ sep_info_2\l+ sep_info_3\l+ tmp_ID\l+ ModulNumber\l+ selection_signal_handler\l+ base64\l+ a1\l+ h1\l+ t1\l+ c1\l+ liSearchfields\l+ sData\l+ x1\l+ firstRecord\l+ ID\l+ sTree\l+ dicFields\l+ dicEntries\l+ liHeader\l+ renderer\l+ glx\l+ view\l+ pTree1\l+ oEntries\l+ dataEntries\l+ newEntry\l+ _entry\l+ listStore\l+ selection\l+ row\l+ cols\l+ iter\l+ path\l+ pStatusbar\l+ pColumn\l+ aFields\l|+ Singledata()\l+ ~Singledata()\l+ loadEntryField()\l+ load()\l+ newData()\l+ save()\l+ newRecord()\l+ init()\l+ saveValues()\l+ saveValuesBE()\l+ deleteRecord()\l+ setDicEntries()\l+ getListEntries()\l+ setLiFields()\l+ setTree1()\l+ setListEntries()\l+ clearAllFields()\l+ clearAllOtherFields()\l+ fillEntries()\l+ fillOtherEntries()\l+ fillExtraEntries()\l+ treeSelectRow()\l+ setNullIter()\l+ readEntries()\l+ readExtraEntries()\l+ on_selection_changed()\l+ setWindow()\l+ setTreeFields()\l+ setStatusbar()\l+ getStatusbar()\l+ setSearchString()\l+ postFindData()\l+ readNonWidgetEntries()\l+ showPDF()\l+ setListstore()\l+ getFileExe()\l+ decodeData()\l}",height=0.2,width=0.4,color="red", fillcolor="white", style="filled",URL="$d2/d58/classSingledata.html"];
  Node6 -> Node7 [dir="back",color="midnightblue",fontsize="10",style="solid",arrowtail="onormal",fontname="Helvetica"];
  Node7 [label="{SingleAddress\n||+ SingleAddress()\l+ ~SingleAddress()\l+ getAddress()\l+ getEmail()\l+ getLetterAddress()\l+ getCountry()\l+ getZip()\l+ getCity()\l+ getStreet()\l+ getFirstname()\l+ getLastname()\l+ getPhone()\l+ getPhonelist1()\l}",height=0.2,width=0.4,color="black", fillcolor="white", style="filled",URL="$d8/de0/classSingleAddress.html"];
  Node6 -> Node8 [dir="back",color="midnightblue",fontsize="10",style="solid",arrowtail="onormal",fontname="Helvetica"];
  Node8 [label="{SingleArticle\n||+ SingleArticle()\l+ ~SingleArticle()\l+ getArticlelist1()\l+ getArticle()\l}",height=0.2,width=0.4,color="black", fillcolor="white", style="filled",URL="$d1/d55/classSingleArticle.html"];
  Node6 -> Node9 [dir="back",color="midnightblue",fontsize="10",style="solid",arrowtail="onormal",fontname="Helvetica"];
  Node9 [label="{SingleArticleParts\n||+ SingleArticleParts()\l+ ~SingleArticleParts()\l}",height=0.2,width=0.4,color="black", fillcolor="white", style="filled",URL="$d8/dd3/classSingleArticleParts.html"];
  Node6 -> Node10 [dir="back",color="midnightblue",fontsize="10",style="solid",arrowtail="onormal",fontname="Helvetica"];
  Node10 [label="{SingleArticlePurchase\n||+ SingleArticlePurchase()\l+ ~SingleArticlePurchase()\l}",height=0.2,width=0.4,color="black", fillcolor="white", style="filled",URL="$d5/d9a/classSingleArticlePurchase.html"];
  Node6 -> Node11 [dir="back",color="midnightblue",fontsize="10",style="solid",arrowtail="onormal",fontname="Helvetica"];
  Node11 [label="{SingleArticleSale\n||+ SingleArticleSale()\l+ ~SingleArticleSale()\l}",height=0.2,width=0.4,color="black", fillcolor="white", style="filled",URL="$d8/d16/classSingleArticleSale.html"];
  Node6 -> Node12 [dir="back",color="midnightblue",fontsize="10",style="solid",arrowtail="onormal",fontname="Helvetica"];
  Node12 [label="{SingleArticleStock\n||+ SingleArticleStock()\l+ ~SingleArticleStock()\l}",height=0.2,width=0.4,color="black", fillcolor="white", style="filled",URL="$d0/da0/classSingleArticleStock.html"];
  Node6 -> Node13 [dir="back",color="midnightblue",fontsize="10",style="solid",arrowtail="onormal",fontname="Helvetica"];
  Node13 [label="{SingleArticleWebshop\n||+ SingleArticleWebshop()\l+ ~SingleArticleWebshop()\l}",height=0.2,width=0.4,color="black", fillcolor="white", style="filled",URL="$da/d5a/classSingleArticleWebshop.html"];
  Node6 -> Node14 [dir="back",color="midnightblue",fontsize="10",style="solid",arrowtail="onormal",fontname="Helvetica"];
  Node14 [label="{SingleBank\n|+ addressID\l|+ SingleBank()\l+ ~SingleBank()\l+ readExtraEntries()\l}",height=0.2,width=0.4,color="black", fillcolor="white", style="filled",URL="$db/d43/classSingleBank.html"];
  Node6 -> Node15 [dir="back",color="midnightblue",fontsize="10",style="solid",arrowtail="onormal",fontname="Helvetica"];
  Node15 [label="{SingleBotanyDivisio\n||+ SingleBotanyDivisio()\l+ ~SingleBotanyDivisio()\l}",height=0.2,width=0.4,color="black", fillcolor="white", style="filled",URL="$dd/d37/classSingleBotanyDivisio.html"];
  Node6 -> Node16 [dir="back",color="midnightblue",fontsize="10",style="solid",arrowtail="onormal",fontname="Helvetica"];
  Node16 [label="{SingleClient\n||+ SingleClient()\l+ ~SingleClient()\l}",height=0.2,width=0.4,color="black", fillcolor="white", style="filled",URL="$d0/d0a/classSingleClient.html"];
  Node6 -> Node17 [dir="back",color="midnightblue",fontsize="10",style="solid",arrowtail="onormal",fontname="Helvetica"];
  Node17 [label="{SingleContact\n||+ SingleContact()\l+ ~SingleContact()\l+ getAddress()\l}",height=0.2,width=0.4,color="black", fillcolor="white", style="filled",URL="$db/d40/classSingleContact.html"];
  Node6 -> Node18 [dir="back",color="midnightblue",fontsize="10",style="solid",arrowtail="onormal",fontname="Helvetica"];
  Node18 [label="{SingleDMS\n|+ imageData\l+ fileFormat\l+ fileSuffix\l+ newCategory\l+ newDate\l+ newTitle\l+ Rights\l+ imageDataZ\l+ liUserData\l|+ SingleDMS()\l+ ~SingleDMS()\l+ loadDocument()\l+ loadMainLogo()\l+ getFileFormatType()\l+ getFileExePrg()\l+ getFileSuffix()\l+ saveBE()\l+ loadNotes0SaveDocument()\l}",height=0.2,width=0.4,color="black", fillcolor="white", style="filled",URL="$d5/db3/classSingleDMS.html"];
  Node6 -> Node19 [dir="back",color="midnightblue",fontsize="10",style="solid",arrowtail="onormal",fontname="Helvetica"];
  Node19 [label="{SingleEnquiry\n||+ SingleEnquiry()\l+ ~SingleEnquiry()\l}",height=0.2,width=0.4,color="black", fillcolor="white", style="filled",URL="$d2/d99/classSingleEnquiry.html"];
  Node6 -> Node20 [dir="back",color="midnightblue",fontsize="10",style="solid",arrowtail="onormal",fontname="Helvetica"];
  Node20 [label="{SingleGrave\n||+ SingleGrave()\l+ ~SingleGrave()\l}",height=0.2,width=0.4,color="black", fillcolor="white", style="filled",URL="$d2/ded/classSingleGrave.html"];
  Node6 -> Node21 [dir="back",color="midnightblue",fontsize="10",style="solid",arrowtail="onormal",fontname="Helvetica"];
  Node21 [label="{SingleHibernation\n||+ SingleHibernation()\l+ ~SingleHibernation()\l}",height=0.2,width=0.4,color="black", fillcolor="white", style="filled",URL="$dd/d84/classSingleHibernation.html"];
  Node6 -> Node22 [dir="back",color="midnightblue",fontsize="10",style="solid",arrowtail="onormal",fontname="Helvetica"];
  Node22 [label="{SingleHibernationPlant\n||+ SingleHibernationPlant()\l+ ~SingleHibernationPlant()\l}",height=0.2,width=0.4,color="black", fillcolor="white", style="filled",URL="$d9/de1/classSingleHibernationPlant.html"];
  Node6 -> Node23 [dir="back",color="midnightblue",fontsize="10",style="solid",arrowtail="onormal",fontname="Helvetica"];
  Node23 [label="{SingleMaterialgroups\n||+ SingleMaterialgroups()\l+ ~SingleMaterialgroups()\l}",height=0.2,width=0.4,color="black", fillcolor="white", style="filled",URL="$d9/dee/classSingleMaterialgroups.html"];
  Node6 -> Node24 [dir="back",color="midnightblue",fontsize="10",style="solid",arrowtail="onormal",fontname="Helvetica"];
  Node24 [label="{SingleMaterialgroupsAccount\n||+ SingleMaterialgroupsAccount()\l+ ~SingleMaterialgroupsAccount()\l}",height=0.2,width=0.4,color="black", fillcolor="white", style="filled",URL="$d2/d21/classSingleMaterialgroupsAccount.html"];
  Node6 -> Node25 [dir="back",color="midnightblue",fontsize="10",style="solid",arrowtail="onormal",fontname="Helvetica"];
  Node25 [label="{SingleMisc\n|+ addressID\l|+ SingleMisc()\l+ ~SingleMisc()\l}",height=0.2,width=0.4,color="black", fillcolor="white", style="filled",URL="$de/d94/classSingleMisc.html"];
  Node6 -> Node26 [dir="back",color="midnightblue",fontsize="10",style="solid",arrowtail="onormal",fontname="Helvetica"];
  Node26 [label="{SingleNote\n|+ addressID\l+ NotesMisc\l+ NotesContacter\l+ NotesRep\l+ NotesSalesman\l+ NotesCompany\l+ svMisc\l+ svContacter\l+ svRep\l+ svSalesman\l+ svCompany\l|+ readBuffer()\l+ SingleNote()\l+ ~SingleNote()\l+ readNonWidgetEntries()\l+ fillOtherEntries()\l+ clearAllOtherFields()\l}",height=0.2,width=0.4,color="black", fillcolor="white", style="filled",URL="$de/d82/classSingleNote.html"];
  Node6 -> Node27 [dir="back",color="midnightblue",fontsize="10",style="solid",arrowtail="onormal",fontname="Helvetica"];
  Node27 [label="{SingleOrder\n|+ supplyNumber\l+ deliveryNumber\l+ pickupNumber\l|+ SingleOrder()\l+ ~SingleOrder()\l+ getOrderNumber()\l+ getInvoiceNumber()\l+ getProposalNumber()\l+ getPickupNumber()\l+ getDeliveryNumber()\l}",height=0.2,width=0.4,color="black", fillcolor="white", style="filled",URL="$d4/da6/classSingleOrder.html"];
  Node6 -> Node28 [dir="back",color="midnightblue",fontsize="10",style="solid",arrowtail="onormal",fontname="Helvetica"];
  Node28 [label="{SingleOrderGet\n|+ orderID\l+ pickupNumber\l+ addressNumber\l+ partnerNumber\l+ forwardingAgencyNumber\l+ contactPersonNumber\l|+ SingleOrderGet()\l+ ~SingleOrderGet()\l+ readNonWidgetEntries()\l+ getPickupNumber()\l+ getAddressNumber()\l+ getPartnerNumber()\l+ getForwardingAgencyNumber()\l+ getContactPersonNumber()\l}",height=0.2,width=0.4,color="black", fillcolor="white", style="filled",URL="$d7/d3c/classSingleOrderGet.html"];
  Node6 -> Node29 [dir="back",color="midnightblue",fontsize="10",style="solid",arrowtail="onormal",fontname="Helvetica"];
  Node29 [label="{SingleOrderInvoice\n|+ orderID\l|+ SingleOrderInvoice()\l+ ~SingleOrderInvoice()\l+ readNonWidgetEntries()\l}",height=0.2,width=0.4,color="black", fillcolor="white", style="filled",URL="$dd/d39/classSingleOrderInvoice.html"];
  Node6 -> Node30 [dir="back",color="midnightblue",fontsize="10",style="solid",arrowtail="onormal",fontname="Helvetica"];
  Node30 [label="{SingleOrderPayment\n|+ orderID\l+ invoiceNumber\l|+ SingleOrderPayment()\l+ ~SingleOrderPayment()\l+ readNonWidgetEntries()\l+ fillOtherEntries()\l}",height=0.2,width=0.4,color="black", fillcolor="white", style="filled",URL="$dd/d0c/classSingleOrderPayment.html"];
  Node6 -> Node31 [dir="back",color="midnightblue",fontsize="10",style="solid",arrowtail="onormal",fontname="Helvetica"];
  Node31 [label="{SingleOrderPosition\n|+ orderID\l|+ SingleOrderPosition()\l+ ~SingleOrderPosition()\l+ readNonWidgetEntries()\l}",height=0.2,width=0.4,color="black", fillcolor="white", style="filled",URL="$d8/d3c/classSingleOrderPosition.html"];
  Node6 -> Node32 [dir="back",color="midnightblue",fontsize="10",style="solid",arrowtail="onormal",fontname="Helvetica"];
  Node32 [label="{SinglePartner\n|+ addressID\l|+ SinglePartner()\l+ ~SinglePartner()\l+ readExtraEntries()\l}",height=0.2,width=0.4,color="black", fillcolor="white", style="filled",URL="$da/d18/classSinglePartner.html"];
  Node6 -> Node33 [dir="back",color="midnightblue",fontsize="10",style="solid",arrowtail="onormal",fontname="Helvetica"];
  Node33 [label="{SingleProject\n||+ SingleProject()\l+ ~SingleProject()\l}",height=0.2,width=0.4,color="black", fillcolor="white", style="filled",URL="$d7/d1e/classSingleProject.html"];
  Node6 -> Node34 [dir="back",color="midnightblue",fontsize="10",style="solid",arrowtail="onormal",fontname="Helvetica"];
  Node34 [label="{SingleProjectMaterialResources\n||+ SingleProjectMaterialResources()\l+ ~SingleProjectMaterialResources()\l}",height=0.2,width=0.4,color="black", fillcolor="white", style="filled",URL="$d2/da8/classSingleProjectMaterialResources.html"];
  Node6 -> Node35 [dir="back",color="midnightblue",fontsize="10",style="solid",arrowtail="onormal",fontname="Helvetica"];
  Node35 [label="{SingleProjectPhases\n|+ projectID\l|+ SingleProjectPhases()\l+ ~SingleProjectPhases()\l+ readExtraEntries()\l}",height=0.2,width=0.4,color="black", fillcolor="white", style="filled",URL="$d6/d60/classSingleProjectPhases.html"];
  Node6 -> Node36 [dir="back",color="midnightblue",fontsize="10",style="solid",arrowtail="onormal",fontname="Helvetica"];
  Node36 [label="{SingleProjectProgramming\n|+ taskID\l|+ SingleProjectProgramming()\l+ ~SingleProjectProgramming()\l}",height=0.2,width=0.4,color="black", fillcolor="white", style="filled",URL="$db/d0a/classSingleProjectProgramming.html"];
  Node6 -> Node37 [dir="back",color="midnightblue",fontsize="10",style="solid",arrowtail="onormal",fontname="Helvetica"];
  Node37 [label="{SingleProjectStaffResources\n||+ SingleProjectStaffResources()\l+ ~SingleProjectStaffResources()\l}",height=0.2,width=0.4,color="black", fillcolor="white", style="filled",URL="$d4/d63/classSingleProjectStaffResources.html"];
  Node6 -> Node38 [dir="back",color="midnightblue",fontsize="10",style="solid",arrowtail="onormal",fontname="Helvetica"];
  Node38 [label="{SingleProjectTasks\n||+ SingleProjectTasks()\l+ ~SingleProjectTasks()\l}",height=0.2,width=0.4,color="black", fillcolor="white", style="filled",URL="$dc/d4e/classSingleProjectTasks.html"];
  Node6 -> Node39 [dir="back",color="midnightblue",fontsize="10",style="solid",arrowtail="onormal",fontname="Helvetica"];
  Node39 [label="{SingleProposal\n||+ SingleProposal()\l+ ~SingleProposal()\l}",height=0.2,width=0.4,color="black", fillcolor="white", style="filled",URL="$d9/df3/classSingleProposal.html"];
  Node6 -> Node40 [dir="back",color="midnightblue",fontsize="10",style="solid",arrowtail="onormal",fontname="Helvetica"];
  Node40 [label="{SingleSchedul\n|+ addressID\l+ partnerID\l+ SchedulMisc\l+ SchedulContacter\l+ SchedulRep\l+ SchedulSalesman\l+ SchedulCompany\l+ svMisc\l+ svContacter\l+ svRep\l+ svSalesman\l+ svCompany\l|+ SingleSchedul()\l+ ~SingleSchedul()\l+ readNonWidgetEntries()\l+ fillOtherEntries()\l}",height=0.2,width=0.4,color="black", fillcolor="white", style="filled",URL="$d6/df2/classSingleSchedul.html"];
  Node6 -> Node41 [dir="back",color="midnightblue",fontsize="10",style="solid",arrowtail="onormal",fontname="Helvetica"];
  Node41 [label="{SingleSourcefile\n||+ SingleSourcefile()\l+ ~SingleSourcefile()\l}",height=0.2,width=0.4,color="black", fillcolor="white", style="filled",URL="$dc/dda/classSingleSourcefile.html"];
  Node6 -> Node42 [dir="back",color="midnightblue",fontsize="10",style="solid",arrowtail="onormal",fontname="Helvetica"];
  Node42 [label="{SingleSourcenavigatorFile\n|+ modulID\l|+ SingleSourcenavigatorFile()\l+ ~SingleSourcenavigatorFile()\l+ readExtraEntries()\l}",height=0.2,width=0.4,color="black", fillcolor="white", style="filled",URL="$d9/d1f/classSingleSourcenavigatorFile.html"];
  Node6 -> Node43 [dir="back",color="midnightblue",fontsize="10",style="solid",arrowtail="onormal",fontname="Helvetica"];
  Node43 [label="{SingleSourcenavigatorMaterial\lResources\n||+ SingleSourcenavigatorMaterial\lResources()\l+ ~SingleSourcenavigatorMaterial\lResources()\l}",height=0.2,width=0.4,color="black", fillcolor="white", style="filled",URL="$d2/d40/classSingleSourcenavigatorMaterialResources.html"];
  Node6 -> Node44 [dir="back",color="midnightblue",fontsize="10",style="solid",arrowtail="onormal",fontname="Helvetica"];
  Node44 [label="{SingleSourcenavigatorModule\n|+ partID\l|+ SingleSourcenavigatorModule()\l+ ~SingleSourcenavigatorModule()\l+ readExtraEntries()\l}",height=0.2,width=0.4,color="black", fillcolor="white", style="filled",URL="$d6/d4c/classSingleSourcenavigatorModule.html"];
  Node6 -> Node45 [dir="back",color="midnightblue",fontsize="10",style="solid",arrowtail="onormal",fontname="Helvetica"];
  Node45 [label="{SingleSourcenavigatorPart\n|+ projectID\l|+ SingleSourcenavigatorPart()\l+ ~SingleSourcenavigatorPart()\l+ readExtraEntries()\l}",height=0.2,width=0.4,color="black", fillcolor="white", style="filled",URL="$df/d8f/classSingleSourcenavigatorPart.html"];
  Node6 -> Node46 [dir="back",color="midnightblue",fontsize="10",style="solid",arrowtail="onormal",fontname="Helvetica"];
  Node46 [label="{SingleSourcenavigatorProject\n||+ SingleSourcenavigatorProject()\l+ ~SingleSourcenavigatorProject()\l}",height=0.2,width=0.4,color="black", fillcolor="white", style="filled",URL="$d8/d55/classSingleSourcenavigatorProject.html"];
  Node6 -> Node47 [dir="back",color="midnightblue",fontsize="10",style="solid",arrowtail="onormal",fontname="Helvetica"];
  Node47 [label="{SingleSourcenavigatorStaff\lResources\n||+ SingleSourcenavigatorStaff\lResources()\l+ ~SingleSourcenavigatorStaff\lResources()\l}",height=0.2,width=0.4,color="black", fillcolor="white", style="filled",URL="$db/d90/classSingleSourcenavigatorStaffResources.html"];
  Node6 -> Node48 [dir="back",color="midnightblue",fontsize="10",style="solid",arrowtail="onormal",fontname="Helvetica"];
  Node48 [label="{SingleStaff\n||+ SingleStaff()\l+ ~SingleStaff()\l}",height=0.2,width=0.4,color="black", fillcolor="white", style="filled",URL="$df/d70/classSingleStaff.html"];
  Node6 -> Node49 [dir="back",color="midnightblue",fontsize="10",style="solid",arrowtail="onormal",fontname="Helvetica"];
  Node49 [label="{SingleStock\n||+ SingleStock()\l+ ~SingleStock()\l}",height=0.2,width=0.4,color="black", fillcolor="white", style="filled",URL="$d7/d17/classSingleStock.html"];
}
