digraph "cuon/Databases/datatypes.cpp"
{
  edge [fontname="Helvetica",fontsize="10",labelfontname="Helvetica",labelfontsize="10"];
  node [fontname="Helvetica",fontsize="10",shape=record];
  Node1 [label="cuon/Databases/datatypes.cpp",height=0.2,width=0.4,color="black", fillcolor="grey75", style="filled", fontcolor="black"];
  Node1 -> Node2 [color="midnightblue",fontsize="10",style="solid"];
  Node2 [label="map",height=0.2,width=0.4,color="grey75", fillcolor="white", style="filled"];
  Node1 -> Node3 [color="midnightblue",fontsize="10",style="solid"];
  Node3 [label="list",height=0.2,width=0.4,color="grey75", fillcolor="white", style="filled"];
  Node1 -> Node4 [color="midnightblue",fontsize="10",style="solid"];
  Node4 [label="cuon/Databases/datatypes.hpp",height=0.2,width=0.4,color="black", fillcolor="white", style="filled",URL="$d2/df0/datatypes_8hpp.html"];
  Node4 -> Node5 [color="midnightblue",fontsize="10",style="solid"];
  Node5 [label="iostream",height=0.2,width=0.4,color="grey75", fillcolor="white", style="filled"];
  Node4 -> Node6 [color="midnightblue",fontsize="10",style="solid"];
  Node6 [label="string",height=0.2,width=0.4,color="grey75", fillcolor="white", style="filled"];
  Node4 -> Node2 [color="midnightblue",fontsize="10",style="solid"];
  Node4 -> Node7 [color="midnightblue",fontsize="10",style="solid"];
  Node7 [label="vector",height=0.2,width=0.4,color="grey75", fillcolor="white", style="filled"];
  Node4 -> Node8 [color="midnightblue",fontsize="10",style="solid"];
  Node8 [label="ctime",height=0.2,width=0.4,color="grey75", fillcolor="white", style="filled"];
  Node4 -> Node9 [color="midnightblue",fontsize="10",style="solid"];
  Node9 [label="gtkmm.h",height=0.2,width=0.4,color="grey75", fillcolor="white", style="filled"];
  Node4 -> Node10 [color="midnightblue",fontsize="10",style="solid"];
  Node10 [label="cuon/TypeDefs/basics.hpp",height=0.2,width=0.4,color="black", fillcolor="white", style="filled",URL="$de/df9/basics_8hpp.html"];
  Node10 -> Node5 [color="midnightblue",fontsize="10",style="solid"];
  Node10 -> Node11 [color="midnightblue",fontsize="10",style="solid"];
  Node11 [label="sstream",height=0.2,width=0.4,color="grey75", fillcolor="white", style="filled"];
  Node10 -> Node12 [color="midnightblue",fontsize="10",style="solid"];
  Node12 [label="stdlib.h",height=0.2,width=0.4,color="grey75", fillcolor="white", style="filled"];
  Node10 -> Node13 [color="midnightblue",fontsize="10",style="solid"];
  Node13 [label="stdio.h",height=0.2,width=0.4,color="grey75", fillcolor="white", style="filled"];
  Node10 -> Node14 [color="midnightblue",fontsize="10",style="solid"];
  Node14 [label="ctype.h",height=0.2,width=0.4,color="grey75", fillcolor="white", style="filled"];
  Node10 -> Node15 [color="midnightblue",fontsize="10",style="solid"];
  Node15 [label="unistd.h",height=0.2,width=0.4,color="grey75", fillcolor="white", style="filled"];
  Node10 -> Node6 [color="midnightblue",fontsize="10",style="solid"];
  Node10 -> Node2 [color="midnightblue",fontsize="10",style="solid"];
  Node10 -> Node7 [color="midnightblue",fontsize="10",style="solid"];
  Node10 -> Node16 [color="midnightblue",fontsize="10",style="solid"];
  Node16 [label="locale.h",height=0.2,width=0.4,color="grey75", fillcolor="white", style="filled"];
  Node10 -> Node8 [color="midnightblue",fontsize="10",style="solid"];
  Node4 -> Node17 [color="midnightblue",fontsize="10",style="solid"];
  Node17 [label="libintl.h",height=0.2,width=0.4,color="grey75", fillcolor="white", style="filled"];
  Node4 -> Node16 [color="midnightblue",fontsize="10",style="solid"];
  Node1 -> Node9 [color="midnightblue",fontsize="10",style="solid"];
  Node1 -> Node10 [color="midnightblue",fontsize="10",style="solid"];
}
