digraph "cuon/Articles/articles.hpp"
{
  edge [fontname="Helvetica",fontsize="10",labelfontname="Helvetica",labelfontsize="10"];
  node [fontname="Helvetica",fontsize="10",shape=record];
  Node1 [label="cuon/Articles/articles.hpp",height=0.2,width=0.4,color="black", fillcolor="grey75", style="filled", fontcolor="black"];
  Node1 -> Node2 [dir="back",color="midnightblue",fontsize="10",style="solid"];
  Node2 [label="cuon/Articles/articles.cpp",height=0.2,width=0.4,color="black", fillcolor="white", style="filled",URL="$d7/d64/articles_8cpp.html"];
  Node1 -> Node3 [dir="back",color="midnightblue",fontsize="10",style="solid"];
  Node3 [label="cuon/Garden/hibernation.cpp",height=0.2,width=0.4,color="black", fillcolor="white", style="filled",URL="$da/d73/hibernation_8cpp.html"];
  Node1 -> Node4 [dir="back",color="midnightblue",fontsize="10",style="solid"];
  Node4 [label="cuon/Order/order.cpp",height=0.2,width=0.4,color="black", fillcolor="white", style="filled",URL="$de/d4f/order_8cpp.html"];
  Node1 -> Node5 [dir="back",color="midnightblue",fontsize="10",style="solid"];
  Node5 [label="cuon/Stock/stock.cpp",height=0.2,width=0.4,color="black", fillcolor="white", style="filled",URL="$d4/d14/stock_8cpp.html"];
  Node1 -> Node6 [dir="back",color="midnightblue",fontsize="10",style="solid"];
  Node6 [label="cuonClient.cpp",height=0.2,width=0.4,color="black", fillcolor="white", style="filled",URL="$d4/d14/cuonClient_8cpp.html",tooltip="CPP Client Mainprogram. "];
}
