\relax 
\providecommand\HyperFirstAtBeginDocument{\AtBeginDocument}
\HyperFirstAtBeginDocument{\ifx\hyper@anchor\@undefined
\global\let\oldcontentsline\contentsline
\gdef\contentsline#1#2#3#4{\oldcontentsline{#1}{#2}{#3}}
\global\let\oldnewlabel\newlabel
\gdef\newlabel#1#2{\newlabelxx{#1}#2}
\gdef\newlabelxx#1#2#3#4#5#6{\oldnewlabel{#1}{{#2}{#3}}}
\AtEndDocument{\ifx\hyper@anchor\@undefined
\let\contentsline\oldcontentsline
\let\newlabel\oldnewlabel
\fi}
\fi}
\global\let\hyper@last\relax 
\gdef\HyperFirstAtBeginDocument#1{#1}
\providecommand*\HyPL@Entry[1]{}
\HyPL@Entry{0<</P(1)>>}
\@writefile{toc}{\contentsline {section}{Contents}{1}{section*.1}}
\HyPL@Entry{1<</P(2)>>}
\HyPL@Entry{2<</P(3)>>}
\HyPL@Entry{3<</P(4)>>}
\HyPL@Entry{4<</P(5)>>}
\HyPL@Entry{5<</P(6)>>}
\HyPL@Entry{6<</P(7)>>}
\HyPL@Entry{7<</P(8)>>}
\HyPL@Entry{8<</P(9)>>}
\HyPL@Entry{9<</P(10)>>}
\@input{cuon-module.aux}
\HyPL@Entry{10<</P(11)>>}
\HyPL@Entry{11<</P(12)>>}
\@input{cuon.AI-module.aux}
\HyPL@Entry{12<</P(13)>>}
\HyPL@Entry{13<</P(14)>>}
\@input{cuon.Address-module.aux}
\HyPL@Entry{14<</P(15)>>}
\HyPL@Entry{15<</P(16)>>}
\HyPL@Entry{16<</P(17)>>}
\HyPL@Entry{17<</P(18)>>}
\@input{cuon.Article-module.aux}
\HyPL@Entry{18<</P(19)>>}
\HyPL@Entry{19<</P(20)>>}
\HyPL@Entry{20<</P(21)>>}
\@input{cuon.CalendarGen-module.aux}
\HyPL@Entry{21<</P(22)>>}
\HyPL@Entry{22<</P(23)>>}
\@input{cuon.CuonFuncs-module.aux}
\HyPL@Entry{23<</P(24)>>}
\HyPL@Entry{24<</P(25)>>}
\@input{cuon.DMS-module.aux}
\HyPL@Entry{25<</P(26)>>}
\HyPL@Entry{26<</P(27)>>}
\@input{cuon.Database-module.aux}
\HyPL@Entry{27<</P(28)>>}
\HyPL@Entry{28<</P(29)>>}
\HyPL@Entry{29<</P(30)>>}
\HyPL@Entry{30<</P(31)>>}
\@input{cuon.Email-module.aux}
\HyPL@Entry{31<</P(32)>>}
\HyPL@Entry{32<</P(33)>>}
\@input{cuon.Email2-module.aux}
\HyPL@Entry{33<</P(34)>>}
\HyPL@Entry{34<</P(35)>>}
\HyPL@Entry{35<</P(36)>>}
\HyPL@Entry{36<</P(37)>>}
\HyPL@Entry{37<</P(38)>>}
\HyPL@Entry{38<</P(39)>>}
\HyPL@Entry{39<</P(40)>>}
\HyPL@Entry{40<</P(41)>>}
\HyPL@Entry{41<</P(42)>>}
\HyPL@Entry{42<</P(43)>>}
\HyPL@Entry{43<</P(44)>>}
\HyPL@Entry{44<</P(45)>>}
\HyPL@Entry{45<</P(46)>>}
\HyPL@Entry{46<</P(47)>>}
\@input{cuon.Finances-module.aux}
\HyPL@Entry{47<</P(48)>>}
\HyPL@Entry{48<</P(49)>>}
\HyPL@Entry{49<</P(50)>>}
\@input{cuon.Garden-module.aux}
\HyPL@Entry{50<</P(51)>>}
\HyPL@Entry{51<</P(52)>>}
\HyPL@Entry{52<</P(53)>>}
\@input{cuon.Grave-module.aux}
\HyPL@Entry{53<</P(54)>>}
\HyPL@Entry{54<</P(55)>>}
\HyPL@Entry{55<</P(56)>>}
\@input{cuon.Misc-module.aux}
\HyPL@Entry{56<</P(57)>>}
\HyPL@Entry{57<</P(58)>>}
\HyPL@Entry{58<</P(59)>>}
\@input{cuon.Order-module.aux}
\HyPL@Entry{59<</P(60)>>}
\HyPL@Entry{60<</P(61)>>}
\HyPL@Entry{61<</P(62)>>}
\HyPL@Entry{62<</P(63)>>}
\HyPL@Entry{63<</P(64)>>}
\@input{cuon.Projects-module.aux}
\HyPL@Entry{64<</P(65)>>}
\HyPL@Entry{65<</P(66)>>}
\@input{cuon.Report-module.aux}
\HyPL@Entry{66<</P(67)>>}
\HyPL@Entry{67<</P(68)>>}
\HyPL@Entry{68<</P(69)>>}
\@input{cuon.ReportServer-module.aux}
\HyPL@Entry{69<</P(70)>>}
\HyPL@Entry{70<</P(71)>>}
\@input{cuon.Reports-module.aux}
\HyPL@Entry{71<</P(72)>>}
\@input{cuon.Reports.MyXML-module.aux}
\HyPL@Entry{72<</P(73)>>}
\HyPL@Entry{73<</P(74)>>}
\HyPL@Entry{74<</P(75)>>}
\@input{cuon.Reports.report-module.aux}
\HyPL@Entry{75<</P(76)>>}
\HyPL@Entry{76<</P(77)>>}
\HyPL@Entry{77<</P(78)>>}
\HyPL@Entry{78<</P(79)>>}
\@input{cuon.Reports.report2_latex-module.aux}
\HyPL@Entry{79<</P(80)>>}
\HyPL@Entry{80<</P(81)>>}
\HyPL@Entry{81<</P(82)>>}
\HyPL@Entry{82<</P(83)>>}
\HyPL@Entry{83<</P(84)>>}
\@input{cuon.Reports.report_addresses_phone1-module.aux}
\HyPL@Entry{84<</P(85)>>}
\@input{cuon.Reports.report_addresses_phone11-module.aux}
\HyPL@Entry{85<</P(86)>>}
\@input{cuon.Reports.report_addresses_phone12-module.aux}
\HyPL@Entry{86<</P(87)>>}
\@input{cuon.Reports.report_articles_number1-module.aux}
\HyPL@Entry{87<</P(88)>>}
\@input{cuon.Reports.report_articles_pickles_standard-module.aux}
\HyPL@Entry{88<</P(89)>>}
\@input{cuon.Reports.report_basics-module.aux}
\HyPL@Entry{89<</P(90)>>}
\@input{cuon.Reports.report_cab_monthly-module.aux}
\HyPL@Entry{90<</P(91)>>}
\@input{cuon.Reports.report_enquiry_standard-module.aux}
\HyPL@Entry{91<</P(92)>>}
\@input{cuon.Reports.report_grave_plant_lists-module.aux}
\HyPL@Entry{92<</P(93)>>}
\@input{cuon.Reports.report_hibernation_incoming_document-module.aux}
\HyPL@Entry{93<</P(94)>>}
\@input{cuon.Reports.report_hibernation_invoice-module.aux}
\HyPL@Entry{94<</P(95)>>}
\@input{cuon.Reports.report_hibernation_outgoing_document-module.aux}
\HyPL@Entry{95<</P(96)>>}
\@input{cuon.Reports.report_hibernation_pickup_document-module.aux}
\HyPL@Entry{96<</P(97)>>}
\@input{cuon.Reports.report_list_list_of_invoices-module.aux}
\HyPL@Entry{97<</P(98)>>}
\@input{cuon.Reports.report_list_of_inpayment-module.aux}
\HyPL@Entry{98<</P(99)>>}
\@input{cuon.Reports.report_list_of_reminder-module.aux}
\HyPL@Entry{99<</P(100)>>}
\@input{cuon.Reports.report_list_of_residue-module.aux}
\HyPL@Entry{100<</P(101)>>}
\@input{cuon.Reports.report_list_of_top-module.aux}
\HyPL@Entry{101<</P(102)>>}
\@input{cuon.Reports.report_order_list_of_invoices-module.aux}
\HyPL@Entry{102<</P(103)>>}
\@input{cuon.Reports.report_order_standard_invoice-module.aux}
\HyPL@Entry{103<</P(104)>>}
\@input{cuon.Reports.report_order_standard_supply-module.aux}
\HyPL@Entry{104<</P(105)>>}
\@input{cuon.Reports.report_printAddress-module.aux}
\HyPL@Entry{105<</P(106)>>}
\@input{cuon.Reports.report_proposal_standard-module.aux}
\HyPL@Entry{106<</P(107)>>}
\@input{cuon.Reports.report_stockgoods_number1-module.aux}
\HyPL@Entry{107<</P(108)>>}
\@input{cuon.Reports.standardlist-module.aux}
\HyPL@Entry{108<</P(109)>>}
\HyPL@Entry{109<</P(110)>>}
\@input{cuon.SQL-module.aux}
\HyPL@Entry{110<</P(111)>>}
\HyPL@Entry{111<</P(112)>>}
\HyPL@Entry{112<</P(113)>>}
\@input{cuon.SVG-module.aux}
\HyPL@Entry{113<</P(114)>>}
\HyPL@Entry{114<</P(115)>>}
\HyPL@Entry{115<</P(116)>>}
\HyPL@Entry{116<</P(117)>>}
\HyPL@Entry{117<</P(118)>>}
\HyPL@Entry{118<</P(119)>>}
\HyPL@Entry{119<</P(120)>>}
\HyPL@Entry{120<</P(121)>>}
\HyPL@Entry{121<</P(122)>>}
\HyPL@Entry{122<</P(123)>>}
\HyPL@Entry{123<</P(124)>>}
\HyPL@Entry{124<</P(125)>>}
\HyPL@Entry{125<</P(126)>>}
\HyPL@Entry{126<</P(127)>>}
\HyPL@Entry{127<</P(128)>>}
\HyPL@Entry{128<</P(129)>>}
\HyPL@Entry{129<</P(130)>>}
\HyPL@Entry{130<</P(131)>>}
\HyPL@Entry{131<</P(132)>>}
\HyPL@Entry{132<</P(133)>>}
\HyPL@Entry{133<</P(134)>>}
\HyPL@Entry{134<</P(135)>>}
\HyPL@Entry{135<</P(136)>>}
\HyPL@Entry{136<</P(137)>>}
\HyPL@Entry{137<</P(138)>>}
\HyPL@Entry{138<</P(139)>>}
\HyPL@Entry{139<</P(140)>>}
\HyPL@Entry{140<</P(141)>>}
\HyPL@Entry{141<</P(142)>>}
\HyPL@Entry{142<</P(143)>>}
\HyPL@Entry{143<</P(144)>>}
\HyPL@Entry{144<</P(145)>>}
\HyPL@Entry{145<</P(146)>>}
\HyPL@Entry{146<</P(147)>>}
\HyPL@Entry{147<</P(148)>>}
\HyPL@Entry{148<</P(149)>>}
\HyPL@Entry{149<</P(150)>>}
\HyPL@Entry{150<</P(151)>>}
\HyPL@Entry{151<</P(152)>>}
\HyPL@Entry{152<</P(153)>>}
\HyPL@Entry{153<</P(154)>>}
\HyPL@Entry{154<</P(155)>>}
\HyPL@Entry{155<</P(156)>>}
\HyPL@Entry{156<</P(157)>>}
\HyPL@Entry{157<</P(158)>>}
\HyPL@Entry{158<</P(159)>>}
\HyPL@Entry{159<</P(160)>>}
\HyPL@Entry{160<</P(161)>>}
\HyPL@Entry{161<</P(162)>>}
\HyPL@Entry{162<</P(163)>>}
\HyPL@Entry{163<</P(164)>>}
\@input{cuon.Slandy-module.aux}
\HyPL@Entry{164<</P(165)>>}
\@input{cuon.Slandy.GridUser-module.aux}
\HyPL@Entry{165<</P(166)>>}
\HyPL@Entry{166<</P(167)>>}
\@input{cuon.Slandy.slandy-module.aux}
\HyPL@Entry{167<</P(168)>>}
\HyPL@Entry{168<</P(169)>>}
\@input{cuon.Slandy.test_slandy-module.aux}
\HyPL@Entry{169<</P(170)>>}
\@input{cuon.Slandy.xmlValues-module.aux}
\HyPL@Entry{170<</P(171)>>}
\@input{cuon.Stock-module.aux}
\HyPL@Entry{171<</P(172)>>}
\HyPL@Entry{172<</P(173)>>}
\@input{cuon.Support-module.aux}
\HyPL@Entry{173<</P(174)>>}
\HyPL@Entry{174<</P(175)>>}
\@input{cuon.Tweet-module.aux}
\HyPL@Entry{175<</P(176)>>}
\HyPL@Entry{176<</P(177)>>}
\@input{cuon.User-module.aux}
\HyPL@Entry{177<</P(178)>>}
\HyPL@Entry{178<</P(179)>>}
\@input{cuon.Web-module.aux}
\HyPL@Entry{179<</P(180)>>}
\HyPL@Entry{180<</P(181)>>}
\@input{cuon.Web2-module.aux}
\HyPL@Entry{181<</P(182)>>}
\HyPL@Entry{182<</P(183)>>}
\@input{cuon.WebAI-module.aux}
\HyPL@Entry{183<</P(184)>>}
\HyPL@Entry{184<</P(185)>>}
\@input{cuon.WebShop-module.aux}
\HyPL@Entry{185<</P(186)>>}
\HyPL@Entry{186<</P(187)>>}
\@input{cuon.ai-module.aux}
\HyPL@Entry{187<</P(188)>>}
\HyPL@Entry{188<</P(189)>>}
\@input{cuon.ai_main-module.aux}
\HyPL@Entry{189<</P(190)>>}
\@input{cuon.basics-module.aux}
\HyPL@Entry{190<</P(191)>>}
\HyPL@Entry{191<</P(192)>>}
\HyPL@Entry{192<</P(193)>>}
\HyPL@Entry{193<</P(194)>>}
\@input{cuon.createWebAnalysis-module.aux}
\HyPL@Entry{194<</P(195)>>}
\@input{cuon.gridxml-module.aux}
\HyPL@Entry{195<</P(196)>>}
\@input{cuon.iCal-module.aux}
\HyPL@Entry{196<</P(197)>>}
\HyPL@Entry{197<</P(198)>>}
\HyPL@Entry{198<</P(199)>>}
\@input{cuon.jabberBot-module.aux}
\HyPL@Entry{199<</P(200)>>}
\HyPL@Entry{200<</P(201)>>}
\@input{cuon.simplemail-module.aux}
\HyPL@Entry{201<</P(202)>>}
\HyPL@Entry{202<</P(203)>>}
\HyPL@Entry{203<</P(204)>>}
\HyPL@Entry{204<</P(205)>>}
\HyPL@Entry{205<</P(206)>>}
\HyPL@Entry{206<</P(207)>>}
\HyPL@Entry{207<</P(208)>>}
\HyPL@Entry{208<</P(209)>>}
\HyPL@Entry{209<</P(210)>>}
\HyPL@Entry{210<</P(211)>>}
\HyPL@Entry{211<</P(212)>>}
\HyPL@Entry{212<</P(213)>>}
\@input{cuon.web_root-module.aux}
\HyPL@Entry{213<</P(214)>>}
\HyPL@Entry{214<</P(215)>>}
\@writefile{toc}{\contentsline {section}{Index}{215}{section*.2}}
\HyPL@Entry{215<</P(216)>>}
\HyPL@Entry{216<</P(217)>>}
