\relax 
\gdef \LT@cxxxvii {\LT@entry 
    {1}{152.92793pt}\LT@entry 
    {1}{258.72162pt}\LT@entry 
    {1}{12.0pt}}
\@writefile{toc}{\contentsline {section}{\numberline {65}Module cuon.basics}{191}{section.65}}
\newlabel{cuon:basics}{{65}{191}{Module cuon.basics\relax }{section.65}{}}
\@writefile{toc}{\contentsline {subsection}{\numberline {65.1}Variables}{191}{subsection.65.1}}
\@writefile{toc}{\contentsline {subsection}{\numberline {65.2}Class basics}{191}{subsection.65.2}}
\newlabel{cuon:basics:basics}{{65.2}{191}{Class basics\relax }{subsection.65.2}{}}
\@writefile{toc}{\contentsline {subsubsection}{\numberline {65.2.1}Methods}{191}{subsubsection.65.2.1}}
\newlabel{cuon:basics:basics:addDateTime}{{65.2.1}{191}{Methods\relax }{subsubsection.65.2.1}{}}
\newlabel{cuon:basics:basics:checkBool}{{65.2.1}{191}{Methods\relax }{subsubsection.65.2.1}{}}
\newlabel{cuon:basics:basics:checkEndTime}{{65.2.1}{191}{Methods\relax }{subsubsection.65.2.1}{}}
\newlabel{cuon:basics:basics:checkType}{{65.2.1}{191}{Methods\relax }{subsubsection.65.2.1}{}}
\newlabel{cuon:basics:basics:closeDB}{{65.2.1}{191}{Methods\relax }{subsubsection.65.2.1}{}}
\newlabel{cuon:basics:basics:convertTo}{{65.2.1}{191}{Methods\relax }{subsubsection.65.2.1}{}}
\newlabel{cuon:basics:basics:createNewSessionID}{{65.2.1}{192}{Methods\relax }{subsubsection.65.2.1}{}}
\newlabel{cuon:basics:basics:decompress}{{65.2.1}{192}{Methods\relax }{subsubsection.65.2.1}{}}
\newlabel{cuon:basics:basics:doDecode64}{{65.2.1}{192}{Methods\relax }{subsubsection.65.2.1}{}}
\newlabel{cuon:basics:basics:formatDate}{{65.2.1}{192}{Methods\relax }{subsubsection.65.2.1}{}}
\newlabel{cuon:basics:basics:getActualDateTime}{{65.2.1}{192}{Methods\relax }{subsubsection.65.2.1}{}}
\newlabel{cuon:basics:basics:getAssociatedTable}{{65.2.1}{192}{Methods\relax }{subsubsection.65.2.1}{}}
\newlabel{cuon:basics:basics:getBeforeYears}{{65.2.1}{192}{Methods\relax }{subsubsection.65.2.1}{}}
\newlabel{cuon:basics:basics:getConfigOption}{{65.2.1}{192}{Methods\relax }{subsubsection.65.2.1}{}}
\newlabel{cuon:basics:basics:getCurrency}{{65.2.1}{192}{Methods\relax }{subsubsection.65.2.1}{}}
\newlabel{cuon:basics:basics:getDateTime}{{65.2.1}{192}{Methods\relax }{subsubsection.65.2.1}{}}
\newlabel{cuon:basics:basics:getFirstDayOfMonth}{{65.2.1}{192}{Methods\relax }{subsubsection.65.2.1}{}}
\newlabel{cuon:basics:basics:getFirstDayOfMonthAsSeconds}{{65.2.1}{192}{Methods\relax }{subsubsection.65.2.1}{}}
\newlabel{cuon:basics:basics:getFirstLastDayOfLastMonthAsSeconds}{{65.2.1}{192}{Methods\relax }{subsubsection.65.2.1}{}}
\newlabel{cuon:basics:basics:getFirstOfMonth}{{65.2.1}{192}{Methods\relax }{subsubsection.65.2.1}{}}
\newlabel{cuon:basics:basics:getFirstOfMonth2}{{65.2.1}{192}{Methods\relax }{subsubsection.65.2.1}{}}
\newlabel{cuon:basics:basics:getFirstOfYear}{{65.2.1}{192}{Methods\relax }{subsubsection.65.2.1}{}}
\newlabel{cuon:basics:basics:getFormatedNumber}{{65.2.1}{192}{Methods\relax }{subsubsection.65.2.1}{}}
\newlabel{cuon:basics:basics:getIRandom}{{65.2.1}{192}{Methods\relax }{subsubsection.65.2.1}{}}
\newlabel{cuon:basics:basics:getLastDayOfMonth}{{65.2.1}{192}{Methods\relax }{subsubsection.65.2.1}{}}
\newlabel{cuon:basics:basics:getLastDayOfMonthAsSeconds}{{65.2.1}{192}{Methods\relax }{subsubsection.65.2.1}{}}
\newlabel{cuon:basics:basics:getLastOfMonth}{{65.2.1}{193}{Methods\relax }{subsubsection.65.2.1}{}}
\newlabel{cuon:basics:basics:getLastOfYear}{{65.2.1}{193}{Methods\relax }{subsubsection.65.2.1}{}}
\newlabel{cuon:basics:basics:getNewUUID}{{65.2.1}{193}{Methods\relax }{subsubsection.65.2.1}{}}
\newlabel{cuon:basics:basics:getNormalSqlData}{{65.2.1}{193}{Methods\relax }{subsubsection.65.2.1}{}}
\newlabel{cuon:basics:basics:getNow}{{65.2.1}{193}{Methods\relax }{subsubsection.65.2.1}{}}
\newlabel{cuon:basics:basics:getNullUUID}{{65.2.1}{193}{Methods\relax }{subsubsection.65.2.1}{}}
\newlabel{cuon:basics:basics:getParser}{{65.2.1}{193}{Methods\relax }{subsubsection.65.2.1}{}}
\newlabel{cuon:basics:basics:getSeconds}{{65.2.1}{193}{Methods\relax }{subsubsection.65.2.1}{}}
\newlabel{cuon:basics:basics:getStaffID}{{65.2.1}{193}{Methods\relax }{subsubsection.65.2.1}{}}
\newlabel{cuon:basics:basics:getTime}{{65.2.1}{193}{Methods\relax }{subsubsection.65.2.1}{}}
\newlabel{cuon:basics:basics:getTimeString}{{65.2.1}{193}{Methods\relax }{subsubsection.65.2.1}{}}
\newlabel{cuon:basics:basics:getUserInfo}{{65.2.1}{193}{Methods\relax }{subsubsection.65.2.1}{}}
\newlabel{cuon:basics:basics:getWhere}{{65.2.1}{193}{Methods\relax }{subsubsection.65.2.1}{}}
\newlabel{cuon:basics:basics:loadObject}{{65.2.1}{193}{Methods\relax }{subsubsection.65.2.1}{}}
\newlabel{cuon:basics:basics:make64BitInt}{{65.2.1}{193}{Methods\relax }{subsubsection.65.2.1}{}}
\newlabel{cuon:basics:basics:normalizeHtml}{{65.2.1}{193}{Methods\relax }{subsubsection.65.2.1}{}}
\newlabel{cuon:basics:basics:normalizeXML}{{65.2.1}{193}{Methods\relax }{subsubsection.65.2.1}{}}
\newlabel{cuon:basics:basics:openDB}{{65.2.1}{193}{Methods\relax }{subsubsection.65.2.1}{}}
\newlabel{cuon:basics:basics:out}{{65.2.1}{193}{Methods\relax }{subsubsection.65.2.1}{}}
\newlabel{cuon:basics:basics:rebuild}{{65.2.1}{193}{Methods\relax }{subsubsection.65.2.1}{}}
\gdef \LT@cxxxviii {\LT@entry 
    {1}{152.92793pt}\LT@entry 
    {1}{258.72162pt}\LT@entry 
    {1}{12.0pt}}
\gdef \LT@cxxxix {\LT@entry 
    {1}{152.92793pt}\LT@entry 
    {1}{258.72162pt}\LT@entry 
    {1}{12.0pt}}
\newlabel{cuon:basics:basics:saveObject}{{65.2.1}{194}{Methods\relax }{subsubsection.65.2.1}{}}
\newlabel{cuon:basics:basics:writeLog}{{65.2.1}{194}{Methods\relax }{subsubsection.65.2.1}{}}
\newlabel{cuon:basics:basics:xmlrpc_getComboReportLists}{{65.2.1}{194}{Methods\relax }{subsubsection.65.2.1}{}}
\newlabel{cuon:basics:basics:xmlrpc_testXmlrpc}{{65.2.1}{194}{Methods\relax }{subsubsection.65.2.1}{}}
\@writefile{toc}{\contentsline {subsubsection}{\numberline {65.2.2}Class Variables}{194}{subsubsection.65.2.2}}
\@writefile{toc}{\contentsline {subsubsection}{\numberline {65.2.3}Instance Variables}{194}{subsubsection.65.2.3}}
\@setckpt{cuon.basics-module}{
\setcounter{page}{195}
\setcounter{equation}{0}
\setcounter{enumi}{1}
\setcounter{enumii}{0}
\setcounter{enumiii}{0}
\setcounter{enumiv}{0}
\setcounter{footnote}{0}
\setcounter{mpfootnote}{0}
\setcounter{part}{0}
\setcounter{section}{65}
\setcounter{subsection}{2}
\setcounter{subsubsection}{3}
\setcounter{paragraph}{0}
\setcounter{subparagraph}{0}
\setcounter{figure}{0}
\setcounter{table}{139}
\setcounter{LT@tables}{139}
\setcounter{LT@chunks}{4}
\setcounter{Item}{1}
\setcounter{Hfootnote}{0}
\setcounter{bookmark@seq@number}{358}
\setcounter{section@level}{3}
}
