\relax 
\gdef \LT@lxxxvi {\LT@entry 
    {1}{152.92793pt}\LT@entry 
    {1}{258.72162pt}\LT@entry 
    {1}{12.0pt}}
\@writefile{toc}{\contentsline {section}{\numberline {42}Module cuon.Reports.report\_order\_standard\_invoice}{104}{section.42}}
\newlabel{cuon:Reports:report_order_standard_invoice}{{42}{104}{Module cuon.Reports.report\_order\_standard\_invoice\relax }{section.42}{}}
\@writefile{toc}{\contentsline {subsection}{\numberline {42.1}Variables}{104}{subsection.42.1}}
\@writefile{toc}{\contentsline {subsection}{\numberline {42.2}Class report\_order\_standard\_invoice}{104}{subsection.42.2}}
\newlabel{cuon:Reports:report_order_standard_invoice:report_order_standard_invoice}{{42.2}{104}{Class report\_order\_standard\_invoice\relax }{subsection.42.2}{}}
\@writefile{toc}{\contentsline {subsubsection}{\numberline {42.2.1}Methods}{104}{subsubsection.42.2.1}}
\newlabel{cuon:Reports:report_order_standard_invoice:report_order_standard_invoice:getReportData}{{42.2.1}{104}{Methods\relax }{subsubsection.42.2.1}{}}
\@setckpt{cuon.Reports.report_order_standard_invoice-module}{
\setcounter{page}{105}
\setcounter{equation}{0}
\setcounter{enumi}{1}
\setcounter{enumii}{0}
\setcounter{enumiii}{0}
\setcounter{enumiv}{0}
\setcounter{footnote}{0}
\setcounter{mpfootnote}{0}
\setcounter{part}{0}
\setcounter{section}{42}
\setcounter{subsection}{2}
\setcounter{subsubsection}{1}
\setcounter{paragraph}{0}
\setcounter{subparagraph}{0}
\setcounter{figure}{0}
\setcounter{table}{86}
\setcounter{LT@tables}{86}
\setcounter{LT@chunks}{4}
\setcounter{Item}{1}
\setcounter{Hfootnote}{0}
\setcounter{bookmark@seq@number}{228}
\setcounter{section@level}{3}
}
