\relax 
\gdef \LT@xliv {\LT@entry 
    {1}{152.92793pt}\LT@entry 
    {1}{258.72162pt}\LT@entry 
    {1}{12.0pt}}
\@writefile{toc}{\contentsline {section}{\numberline {14}Module cuon.Misc}{57}{section.14}}
\newlabel{cuon:Misc}{{14}{57}{Module cuon.Misc\relax }{section.14}{}}
\@writefile{toc}{\contentsline {subsection}{\numberline {14.1}Variables}{57}{subsection.14.1}}
\@writefile{toc}{\contentsline {subsection}{\numberline {14.2}Class Misc}{57}{subsection.14.2}}
\newlabel{cuon:Misc:Misc}{{14.2}{57}{Class Misc\relax }{subsection.14.2}{}}
\@writefile{toc}{\contentsline {subsubsection}{\numberline {14.2.1}Methods}{57}{subsubsection.14.2.1}}
\newlabel{cuon:Misc:Misc:setDefaultValues2Database}{{14.2.1}{57}{Methods\relax }{subsubsection.14.2.1}{}}
\newlabel{cuon:Misc:Misc:getMyHelpServer}{{14.2.1}{57}{Methods\relax }{subsubsection.14.2.1}{}}
\newlabel{cuon:Misc:Misc:xmlrpc_getHelpBook}{{14.2.1}{57}{Methods\relax }{subsubsection.14.2.1}{}}
\newlabel{cuon:Misc:Misc:xmlrpc_getListOfTOPs}{{14.2.1}{57}{Methods\relax }{subsubsection.14.2.1}{}}
\newlabel{cuon:Misc:Misc:xmlrpc_getListOfTaxVat}{{14.2.1}{57}{Methods\relax }{subsubsection.14.2.1}{}}
\newlabel{cuon:Misc:Misc:xmlrpc_getFormsAddressNotes}{{14.2.1}{58}{Methods\relax }{subsubsection.14.2.1}{}}
\newlabel{cuon:Misc:Misc:xmlrpc_faxData}{{14.2.1}{58}{Methods\relax }{subsubsection.14.2.1}{}}
\newlabel{cuon:Misc:Misc:xmlrpc_getForm}{{14.2.1}{58}{Methods\relax }{subsubsection.14.2.1}{}}
\newlabel{cuon:Misc:Misc:xmlrpc_getNotes0ID}{{14.2.1}{58}{Methods\relax }{subsubsection.14.2.1}{}}
\newlabel{cuon:Misc:Misc:xmlrpc_sendNotes0}{{14.2.1}{58}{Methods\relax }{subsubsection.14.2.1}{}}
\newlabel{cuon:Misc:Misc:xmlrpc_getAdditionalEmailAddressesNotes0}{{14.2.1}{58}{Methods\relax }{subsubsection.14.2.1}{}}
\newlabel{cuon:Misc:Misc:xmlrpc_getEmailAddresses}{{14.2.1}{58}{Methods\relax }{subsubsection.14.2.1}{}}
\newlabel{cuon:Misc:Misc:xmlrpc_dmsCheckPermissions}{{14.2.1}{58}{Methods\relax }{subsubsection.14.2.1}{}}
\newlabel{cuon:Misc:Misc:xmlrpc_saveDia}{{14.2.1}{58}{Methods\relax }{subsubsection.14.2.1}{}}
\newlabel{cuon:Misc:Misc:xmlrpc_getTextExtract}{{14.2.1}{58}{Methods\relax }{subsubsection.14.2.1}{}}
\newlabel{cuon:Misc:Misc:xmlrpc_updateDmsExtract}{{14.2.1}{58}{Methods\relax }{subsubsection.14.2.1}{}}
\newlabel{cuon:Misc:Misc:xmlrpc_getIdFromTitle}{{14.2.1}{58}{Methods\relax }{subsubsection.14.2.1}{}}
\gdef \LT@xlv {\LT@entry 
    {1}{152.92793pt}\LT@entry 
    {1}{258.72162pt}\LT@entry 
    {1}{12.0pt}}
\gdef \LT@xlvi {\LT@entry 
    {1}{152.92793pt}\LT@entry 
    {1}{258.72162pt}\LT@entry 
    {1}{12.0pt}}
\@writefile{toc}{\contentsline {subsubsection}{\numberline {14.2.2}Class Variables}{59}{subsubsection.14.2.2}}
\@writefile{toc}{\contentsline {subsubsection}{\numberline {14.2.3}Instance Variables}{59}{subsubsection.14.2.3}}
\@setckpt{cuon.Misc-module}{
\setcounter{page}{60}
\setcounter{equation}{0}
\setcounter{enumi}{0}
\setcounter{enumii}{0}
\setcounter{enumiii}{0}
\setcounter{enumiv}{0}
\setcounter{footnote}{0}
\setcounter{mpfootnote}{0}
\setcounter{part}{0}
\setcounter{section}{14}
\setcounter{subsection}{2}
\setcounter{subsubsection}{3}
\setcounter{paragraph}{0}
\setcounter{subparagraph}{0}
\setcounter{figure}{0}
\setcounter{table}{46}
\setcounter{LT@tables}{46}
\setcounter{LT@chunks}{4}
\setcounter{Item}{0}
\setcounter{Hfootnote}{0}
\setcounter{bookmark@seq@number}{105}
\setcounter{section@level}{3}
}
