\relax 
\gdef \LT@xviii {\LT@entry 
    {1}{152.92793pt}\LT@entry 
    {1}{258.72162pt}\LT@entry 
    {1}{12.0pt}}
\@writefile{toc}{\contentsline {section}{\numberline {8}Module cuon.Database}{28}{section.8}}
\newlabel{cuon:Database}{{8}{28}{Module cuon.Database\relax }{section.8}{}}
\@writefile{toc}{\contentsline {subsection}{\numberline {8.1}Variables}{28}{subsection.8.1}}
\@writefile{toc}{\contentsline {subsection}{\numberline {8.2}Class Database}{28}{subsection.8.2}}
\newlabel{cuon:Database:Database}{{8.2}{28}{Class Database\relax }{subsection.8.2}{}}
\@writefile{toc}{\contentsline {subsubsection}{\numberline {8.2.1}Methods}{28}{subsubsection.8.2.1}}
\newlabel{cuon:Database:Database:xmlrpc_getAnroidInfo}{{8.2.1}{28}{Methods\relax }{subsubsection.8.2.1}{}}
\newlabel{cuon:Database:Database:xmlrpc_is_running}{{8.2.1}{28}{Methods\relax }{subsubsection.8.2.1}{}}
\newlabel{cuon:Database:Database:getValue}{{8.2.1}{28}{Methods\relax }{subsubsection.8.2.1}{}}
\newlabel{cuon:Database:Database:saveValue}{{8.2.1}{28}{Methods\relax }{subsubsection.8.2.1}{}}
\newlabel{cuon:Database:Database:xmlrpc_createPsql}{{8.2.1}{29}{Methods\relax }{subsubsection.8.2.1}{}}
\newlabel{cuon:Database:Database:checkUser}{{8.2.1}{29}{Methods\relax }{subsubsection.8.2.1}{}}
\newlabel{cuon:Database:Database:authenticate}{{8.2.1}{29}{Methods\relax }{subsubsection.8.2.1}{}}
\newlabel{cuon:Database:Database:xmlrpc_getLogo}{{8.2.1}{29}{Methods\relax }{subsubsection.8.2.1}{}}
\newlabel{cuon:Database:Database:xmlrpc_createSessionID}{{8.2.1}{29}{Methods\relax }{subsubsection.8.2.1}{}}
\newlabel{cuon:Database:Database:getUserAcl}{{8.2.1}{29}{Methods\relax }{subsubsection.8.2.1}{}}
\newlabel{cuon:Database:Database:xmlrpc_checkVersion}{{8.2.1}{29}{Methods\relax }{subsubsection.8.2.1}{}}
\newlabel{cuon:Database:Database:testMulti}{{8.2.1}{29}{Methods\relax }{subsubsection.8.2.1}{}}
\newlabel{cuon:Database:Database:xmlrpc_getLastVersion}{{8.2.1}{29}{Methods\relax }{subsubsection.8.2.1}{}}
\newlabel{cuon:Database:Database:xmlrpc_getInfo}{{8.2.1}{29}{Methods\relax }{subsubsection.8.2.1}{}}
\newlabel{cuon:Database:Database:xmlrpc_saveInfo}{{8.2.1}{29}{Methods\relax }{subsubsection.8.2.1}{}}
\newlabel{cuon:Database:Database:xmlrpc_getListOfClients}{{8.2.1}{29}{Methods\relax }{subsubsection.8.2.1}{}}
\newlabel{cuon:Database:Database:xmlrpc_checkExistSequence}{{8.2.1}{29}{Methods\relax }{subsubsection.8.2.1}{}}
\newlabel{cuon:Database:Database:xmlrpc_checkExistTable}{{8.2.1}{29}{Methods\relax }{subsubsection.8.2.1}{}}
\newlabel{cuon:Database:Database:xmlrpc_checkExistColumn}{{8.2.1}{29}{Methods\relax }{subsubsection.8.2.1}{}}
\newlabel{cuon:Database:Database:xmlrpc_checkTypeOfColumn}{{8.2.1}{29}{Methods\relax }{subsubsection.8.2.1}{}}
\newlabel{cuon:Database:Database:xmlrpc_getSizeOfColumn}{{8.2.1}{29}{Methods\relax }{subsubsection.8.2.1}{}}
\newlabel{cuon:Database:Database:xmlrpc_logout}{{8.2.1}{29}{Methods\relax }{subsubsection.8.2.1}{}}
\newlabel{cuon:Database:Database:xmlrpc_createGroup}{{8.2.1}{29}{Methods\relax }{subsubsection.8.2.1}{}}
\newlabel{cuon:Database:Database:xmlrpc_createUser}{{8.2.1}{29}{Methods\relax }{subsubsection.8.2.1}{}}
\newlabel{cuon:Database:Database:xmlrpc_addGrantToGroup}{{8.2.1}{30}{Methods\relax }{subsubsection.8.2.1}{}}
\newlabel{cuon:Database:Database:xmlrpc_addUserToGroup}{{8.2.1}{30}{Methods\relax }{subsubsection.8.2.1}{}}
\newlabel{cuon:Database:Database:xmlrpc_createCuon}{{8.2.1}{30}{Methods\relax }{subsubsection.8.2.1}{}}
\newlabel{cuon:Database:Database:saveWebshopRecord}{{8.2.1}{30}{Methods\relax }{subsubsection.8.2.1}{}}
\newlabel{cuon:Database:Database:xmlrpc_saveZipPlanet}{{8.2.1}{30}{Methods\relax }{subsubsection.8.2.1}{}}
\newlabel{cuon:Database:Database:xmlrpc_saveZipCountry}{{8.2.1}{30}{Methods\relax }{subsubsection.8.2.1}{}}
\newlabel{cuon:Database:Database:xmlrpc_saveZipState}{{8.2.1}{30}{Methods\relax }{subsubsection.8.2.1}{}}
\newlabel{cuon:Database:Database:xmlrpc_saveZipCity}{{8.2.1}{30}{Methods\relax }{subsubsection.8.2.1}{}}
\newlabel{cuon:Database:Database:bindSql}{{8.2.1}{30}{Methods\relax }{subsubsection.8.2.1}{}}
\newlabel{cuon:Database:Database:xmlrpc_getInternInformation}{{8.2.1}{30}{Methods\relax }{subsubsection.8.2.1}{}}
\newlabel{cuon:Database:Database:xmlrpc_checkUpdateID}{{8.2.1}{30}{Methods\relax }{subsubsection.8.2.1}{}}
\newlabel{cuon:Database:Database:xmlrpc_updateBank}{{8.2.1}{30}{Methods\relax }{subsubsection.8.2.1}{}}
\newlabel{cuon:Database:Database:xmlrpc_getDMSRights}{{8.2.1}{30}{Methods\relax }{subsubsection.8.2.1}{}}
\newlabel{cuon:Database:Database:xmlrpc_getDIC_USER}{{8.2.1}{30}{Methods\relax }{subsubsection.8.2.1}{}}
\newlabel{cuon:Database:Database:writeConfigFiles2Database}{{8.2.1}{30}{Methods\relax }{subsubsection.8.2.1}{}}
\newlabel{cuon:Database:Database:xmlrpc_checkUserClient}{{8.2.1}{30}{Methods\relax }{subsubsection.8.2.1}{}}
\newlabel{cuon:Database:Database:getDatabase}{{8.2.1}{30}{Methods\relax }{subsubsection.8.2.1}{}}
\gdef \LT@xix {\LT@entry 
    {1}{152.92793pt}\LT@entry 
    {1}{258.72162pt}\LT@entry 
    {1}{12.0pt}}
\gdef \LT@xx {\LT@entry 
    {1}{152.92793pt}\LT@entry 
    {1}{258.72162pt}\LT@entry 
    {1}{12.0pt}}
\@writefile{toc}{\contentsline {subsubsection}{\numberline {8.2.2}Class Variables}{31}{subsubsection.8.2.2}}
\@writefile{toc}{\contentsline {subsubsection}{\numberline {8.2.3}Instance Variables}{31}{subsubsection.8.2.3}}
\@setckpt{cuon.Database-module}{
\setcounter{page}{32}
\setcounter{equation}{0}
\setcounter{enumi}{0}
\setcounter{enumii}{0}
\setcounter{enumiii}{0}
\setcounter{enumiv}{0}
\setcounter{footnote}{0}
\setcounter{mpfootnote}{0}
\setcounter{part}{0}
\setcounter{section}{8}
\setcounter{subsection}{2}
\setcounter{subsubsection}{3}
\setcounter{paragraph}{0}
\setcounter{subparagraph}{0}
\setcounter{figure}{0}
\setcounter{table}{20}
\setcounter{LT@tables}{20}
\setcounter{LT@chunks}{4}
\setcounter{Item}{0}
\setcounter{Hfootnote}{0}
\setcounter{bookmark@seq@number}{43}
\setcounter{section@level}{3}
}
