\relax 
\@writefile{toc}{\contentsline {section}{\numberline {10}Module cuon.Email2}{34}{section.10}}
\newlabel{cuon:Email2}{{10}{34}{Module cuon.Email2\relax }{section.10}{}}
\gdef \LT@xxiv {\LT@entry 
    {1}{152.92793pt}\LT@entry 
    {1}{258.72162pt}\LT@entry 
    {1}{12.0pt}}
\@writefile{toc}{\contentsline {subsection}{\numberline {10.1}Variables}{35}{subsection.10.1}}
\@writefile{toc}{\contentsline {subsection}{\numberline {10.2}Class SimpleMail\_Exception}{35}{subsection.10.2}}
\newlabel{cuon:Email2:SimpleMail_Exception}{{10.2}{35}{Class SimpleMail\_Exception\relax }{subsection.10.2}{}}
\@writefile{toc}{\contentsline {subsubsection}{\numberline {10.2.1}Methods}{35}{subsubsection.10.2.1}}
\gdef \LT@xxv {\LT@entry 
    {1}{152.92793pt}\LT@entry 
    {1}{258.72162pt}\LT@entry 
    {1}{12.0pt}}
\@writefile{toc}{\contentsline {subsubsection}{\numberline {10.2.2}Properties}{36}{subsubsection.10.2.2}}
\@writefile{toc}{\contentsline {subsection}{\numberline {10.3}Class NoFromAddress\_Exception}{36}{subsection.10.3}}
\newlabel{cuon:Email2:NoFromAddress_Exception}{{10.3}{36}{Class NoFromAddress\_Exception\relax }{subsection.10.3}{}}
\@writefile{toc}{\contentsline {subsubsection}{\numberline {10.3.1}Methods}{36}{subsubsection.10.3.1}}
\@writefile{toc}{\contentsline {subsubsection}{\numberline {10.3.2}Properties}{36}{subsubsection.10.3.2}}
\gdef \LT@xxvi {\LT@entry 
    {1}{152.92793pt}\LT@entry 
    {1}{258.72162pt}\LT@entry 
    {1}{12.0pt}}
\gdef \LT@xxvii {\LT@entry 
    {1}{152.92793pt}\LT@entry 
    {1}{258.72162pt}\LT@entry 
    {1}{12.0pt}}
\@writefile{toc}{\contentsline {subsection}{\numberline {10.4}Class NoToAddress\_Exception}{37}{subsection.10.4}}
\newlabel{cuon:Email2:NoToAddress_Exception}{{10.4}{37}{Class NoToAddress\_Exception\relax }{subsection.10.4}{}}
\@writefile{toc}{\contentsline {subsubsection}{\numberline {10.4.1}Methods}{37}{subsubsection.10.4.1}}
\@writefile{toc}{\contentsline {subsubsection}{\numberline {10.4.2}Properties}{37}{subsubsection.10.4.2}}
\gdef \LT@xxviii {\LT@entry 
    {1}{152.92793pt}\LT@entry 
    {1}{258.72162pt}\LT@entry 
    {1}{12.0pt}}
\@writefile{toc}{\contentsline {subsection}{\numberline {10.5}Class NoSubject\_Exception}{38}{subsection.10.5}}
\newlabel{cuon:Email2:NoSubject_Exception}{{10.5}{38}{Class NoSubject\_Exception\relax }{subsection.10.5}{}}
\@writefile{toc}{\contentsline {subsubsection}{\numberline {10.5.1}Methods}{38}{subsubsection.10.5.1}}
\@writefile{toc}{\contentsline {subsubsection}{\numberline {10.5.2}Properties}{38}{subsubsection.10.5.2}}
\gdef \LT@xxix {\LT@entry 
    {1}{152.92793pt}\LT@entry 
    {1}{258.72162pt}\LT@entry 
    {1}{12.0pt}}
\@writefile{toc}{\contentsline {subsection}{\numberline {10.6}Class AttachmentNotFound\_Exception}{39}{subsection.10.6}}
\newlabel{cuon:Email2:AttachmentNotFound_Exception}{{10.6}{39}{Class AttachmentNotFound\_Exception\relax }{subsection.10.6}{}}
\@writefile{toc}{\contentsline {subsubsection}{\numberline {10.6.1}Methods}{39}{subsubsection.10.6.1}}
\@writefile{toc}{\contentsline {subsubsection}{\numberline {10.6.2}Properties}{39}{subsubsection.10.6.2}}
\gdef \LT@xxx {\LT@entry 
    {1}{152.92793pt}\LT@entry 
    {1}{258.72162pt}\LT@entry 
    {1}{12.0pt}}
\@writefile{toc}{\contentsline {subsection}{\numberline {10.7}Class Attachments}{40}{subsection.10.7}}
\newlabel{cuon:Email2:Attachments}{{10.7}{40}{Class Attachments\relax }{subsection.10.7}{}}
\@writefile{toc}{\contentsline {subsubsection}{\numberline {10.7.1}Methods}{40}{subsubsection.10.7.1}}
\newlabel{cuon:Email2:Attachments:add_filename}{{10.7.1}{40}{Methods\relax }{subsubsection.10.7.1}{}}
\newlabel{cuon:Email2:Attachments:count}{{10.7.1}{40}{Methods\relax }{subsubsection.10.7.1}{}}
\newlabel{cuon:Email2:Attachments:get_list}{{10.7.1}{40}{Methods\relax }{subsubsection.10.7.1}{}}
\@writefile{toc}{\contentsline {subsubsection}{\numberline {10.7.2}Properties}{40}{subsubsection.10.7.2}}
\@writefile{toc}{\contentsline {subsection}{\numberline {10.8}Class Recipients}{41}{subsection.10.8}}
\newlabel{cuon:Email2:Recipients}{{10.8}{41}{Class Recipients\relax }{subsection.10.8}{}}
\@writefile{toc}{\contentsline {subsubsection}{\numberline {10.8.1}Methods}{41}{subsubsection.10.8.1}}
\newlabel{cuon:Email2:Recipients:add}{{10.8.1}{41}{Methods\relax }{subsubsection.10.8.1}{}}
\newlabel{cuon:Email2:Recipients:count}{{10.8.1}{41}{Methods\relax }{subsubsection.10.8.1}{}}
\newlabel{cuon:Email2:Recipients:get_list}{{10.8.1}{41}{Methods\relax }{subsubsection.10.8.1}{}}
\gdef \LT@xxxi {\LT@entry 
    {1}{152.92793pt}\LT@entry 
    {1}{258.72162pt}\LT@entry 
    {1}{12.0pt}}
\@writefile{toc}{\contentsline {subsubsection}{\numberline {10.8.2}Properties}{42}{subsubsection.10.8.2}}
\@writefile{toc}{\contentsline {subsection}{\numberline {10.9}Class CCRecipients}{42}{subsection.10.9}}
\newlabel{cuon:Email2:CCRecipients}{{10.9}{42}{Class CCRecipients\relax }{subsection.10.9}{}}
\@writefile{toc}{\contentsline {subsubsection}{\numberline {10.9.1}Methods}{42}{subsubsection.10.9.1}}
\gdef \LT@xxxii {\LT@entry 
    {1}{152.92793pt}\LT@entry 
    {1}{258.72162pt}\LT@entry 
    {1}{12.0pt}}
\@writefile{toc}{\contentsline {subsubsection}{\numberline {10.9.2}Properties}{43}{subsubsection.10.9.2}}
\@writefile{toc}{\contentsline {subsection}{\numberline {10.10}Class BCCRecipients}{43}{subsection.10.10}}
\newlabel{cuon:Email2:BCCRecipients}{{10.10}{43}{Class BCCRecipients\relax }{subsection.10.10}{}}
\@writefile{toc}{\contentsline {subsubsection}{\numberline {10.10.1}Methods}{44}{subsubsection.10.10.1}}
\@writefile{toc}{\contentsline {subsubsection}{\numberline {10.10.2}Properties}{44}{subsubsection.10.10.2}}
\gdef \LT@xxxiii {\LT@entry 
    {1}{152.92793pt}\LT@entry 
    {1}{258.72162pt}\LT@entry 
    {1}{12.0pt}}
\@writefile{toc}{\contentsline {subsection}{\numberline {10.11}Class Email}{45}{subsection.10.11}}
\newlabel{cuon:Email2:Email}{{10.11}{45}{Class Email\relax }{subsection.10.11}{}}
\@writefile{toc}{\contentsline {subsubsection}{\numberline {10.11.1}Methods}{46}{subsubsection.10.11.1}}
\newlabel{cuon:Email2:Email:send}{{10.11.1}{46}{Methods\relax }{subsubsection.10.11.1}{}}
\gdef \LT@xxxiv {\LT@entry 
    {1}{152.92793pt}\LT@entry 
    {1}{258.72162pt}\LT@entry 
    {1}{12.0pt}}
\@writefile{toc}{\contentsline {subsubsection}{\numberline {10.11.2}Properties}{47}{subsubsection.10.11.2}}
\@setckpt{cuon.Email2-module}{
\setcounter{page}{48}
\setcounter{equation}{0}
\setcounter{enumi}{0}
\setcounter{enumii}{0}
\setcounter{enumiii}{0}
\setcounter{enumiv}{0}
\setcounter{footnote}{0}
\setcounter{mpfootnote}{0}
\setcounter{part}{0}
\setcounter{section}{10}
\setcounter{subsection}{11}
\setcounter{subsubsection}{2}
\setcounter{paragraph}{0}
\setcounter{subparagraph}{0}
\setcounter{figure}{0}
\setcounter{table}{34}
\setcounter{LT@tables}{34}
\setcounter{LT@chunks}{5}
\setcounter{Item}{0}
\setcounter{Hfootnote}{0}
\setcounter{bookmark@seq@number}{81}
\setcounter{section@level}{3}
}
