\relax 
\gdef \LT@cxxxvi {\LT@entry 
    {1}{152.92793pt}\LT@entry 
    {1}{258.72162pt}\LT@entry 
    {1}{12.0pt}}
\@writefile{toc}{\contentsline {section}{\numberline {64}Module cuon.ai\_main}{190}{section.64}}
\newlabel{cuon:ai_main}{{64}{190}{Module cuon.ai\_main\relax }{section.64}{}}
\@writefile{toc}{\contentsline {subsection}{\numberline {64.1}Variables}{190}{subsection.64.1}}
\@writefile{toc}{\contentsline {subsection}{\numberline {64.2}Class ai\_main}{190}{subsection.64.2}}
\newlabel{cuon:ai_main:ai_main}{{64.2}{190}{Class ai\_main\relax }{subsection.64.2}{}}
\@writefile{toc}{\contentsline {subsubsection}{\numberline {64.2.1}Methods}{190}{subsubsection.64.2.1}}
\newlabel{cuon:ai_main:ai_main:__init__}{{64.2.1}{190}{Methods\relax }{subsubsection.64.2.1}{}}
\newlabel{cuon:ai_main:ai_main:checkQ}{{64.2.1}{190}{Methods\relax }{subsubsection.64.2.1}{}}
\@setckpt{cuon.ai_main-module}{
\setcounter{page}{191}
\setcounter{equation}{0}
\setcounter{enumi}{1}
\setcounter{enumii}{0}
\setcounter{enumiii}{0}
\setcounter{enumiv}{0}
\setcounter{footnote}{0}
\setcounter{mpfootnote}{0}
\setcounter{part}{0}
\setcounter{section}{64}
\setcounter{subsection}{2}
\setcounter{subsubsection}{1}
\setcounter{paragraph}{0}
\setcounter{subparagraph}{0}
\setcounter{figure}{0}
\setcounter{table}{136}
\setcounter{LT@tables}{136}
\setcounter{LT@chunks}{4}
\setcounter{Item}{1}
\setcounter{Hfootnote}{0}
\setcounter{bookmark@seq@number}{352}
\setcounter{section@level}{3}
}
