\relax 
\gdef \LT@lvi {\LT@entry 
    {1}{152.92793pt}\LT@entry 
    {1}{258.72162pt}\LT@entry 
    {1}{12.0pt}}
\@writefile{toc}{\contentsline {section}{\numberline {18}Module cuon.ReportServer}{70}{section.18}}
\newlabel{cuon:ReportServer}{{18}{70}{Module cuon.ReportServer\relax }{section.18}{}}
\@writefile{toc}{\contentsline {subsection}{\numberline {18.1}Variables}{70}{subsection.18.1}}
\@writefile{toc}{\contentsline {subsection}{\numberline {18.2}Class ReportServer}{70}{subsection.18.2}}
\newlabel{cuon:ReportServer:ReportServer}{{18.2}{70}{Class ReportServer\relax }{subsection.18.2}{}}
\@writefile{toc}{\contentsline {subsubsection}{\numberline {18.2.1}Methods}{70}{subsubsection.18.2.1}}
\newlabel{cuon:ReportServer:ReportServer:xmlrpc_createReport}{{18.2.1}{70}{Methods\relax }{subsubsection.18.2.1}{}}
\gdef \LT@lvii {\LT@entry 
    {1}{152.92793pt}\LT@entry 
    {1}{258.72162pt}\LT@entry 
    {1}{12.0pt}}
\gdef \LT@lviii {\LT@entry 
    {1}{152.92793pt}\LT@entry 
    {1}{258.72162pt}\LT@entry 
    {1}{12.0pt}}
\@writefile{toc}{\contentsline {subsubsection}{\numberline {18.2.2}Class Variables}{71}{subsubsection.18.2.2}}
\@writefile{toc}{\contentsline {subsubsection}{\numberline {18.2.3}Instance Variables}{71}{subsubsection.18.2.3}}
\@setckpt{cuon.ReportServer-module}{
\setcounter{page}{72}
\setcounter{equation}{0}
\setcounter{enumi}{0}
\setcounter{enumii}{0}
\setcounter{enumiii}{0}
\setcounter{enumiv}{0}
\setcounter{footnote}{0}
\setcounter{mpfootnote}{0}
\setcounter{part}{0}
\setcounter{section}{18}
\setcounter{subsection}{2}
\setcounter{subsubsection}{3}
\setcounter{paragraph}{0}
\setcounter{subparagraph}{0}
\setcounter{figure}{0}
\setcounter{table}{58}
\setcounter{LT@tables}{58}
\setcounter{LT@chunks}{4}
\setcounter{Item}{0}
\setcounter{Hfootnote}{0}
\setcounter{bookmark@seq@number}{129}
\setcounter{section@level}{3}
}
