\relax 
\gdef \LT@lxxvi {\LT@entry 
    {1}{152.92793pt}\LT@entry 
    {1}{258.72162pt}\LT@entry 
    {1}{12.0pt}}
\@writefile{toc}{\contentsline {section}{\numberline {32}Module cuon.Reports.report\_hibernation\_incoming\_document}{94}{section.32}}
\newlabel{cuon:Reports:report_hibernation_incoming_document}{{32}{94}{Module cuon.Reports.report\_hibernation\_incoming\_document\relax }{section.32}{}}
\@writefile{toc}{\contentsline {subsection}{\numberline {32.1}Variables}{94}{subsection.32.1}}
\@writefile{toc}{\contentsline {subsection}{\numberline {32.2}Class report\_hibernation\_incoming\_document}{94}{subsection.32.2}}
\newlabel{cuon:Reports:report_hibernation_incoming_document:report_hibernation_incoming_document}{{32.2}{94}{Class report\_hibernation\_incoming\_document\relax }{subsection.32.2}{}}
\@writefile{toc}{\contentsline {subsubsection}{\numberline {32.2.1}Methods}{94}{subsubsection.32.2.1}}
\newlabel{cuon:Reports:report_hibernation_incoming_document:report_hibernation_incoming_document:getReportData}{{32.2.1}{94}{Methods\relax }{subsubsection.32.2.1}{}}
\@setckpt{cuon.Reports.report_hibernation_incoming_document-module}{
\setcounter{page}{95}
\setcounter{equation}{0}
\setcounter{enumi}{1}
\setcounter{enumii}{0}
\setcounter{enumiii}{0}
\setcounter{enumiv}{0}
\setcounter{footnote}{0}
\setcounter{mpfootnote}{0}
\setcounter{part}{0}
\setcounter{section}{32}
\setcounter{subsection}{2}
\setcounter{subsubsection}{1}
\setcounter{paragraph}{0}
\setcounter{subparagraph}{0}
\setcounter{figure}{0}
\setcounter{table}{76}
\setcounter{LT@tables}{76}
\setcounter{LT@chunks}{4}
\setcounter{Item}{1}
\setcounter{Hfootnote}{0}
\setcounter{bookmark@seq@number}{188}
\setcounter{section@level}{3}
}
