\relax 
\gdef \LT@xxi {\LT@entry 
    {1}{152.92793pt}\LT@entry 
    {1}{258.72162pt}\LT@entry 
    {1}{12.0pt}}
\@writefile{toc}{\contentsline {section}{\numberline {9}Module cuon.Email}{32}{section.9}}
\newlabel{cuon:Email}{{9}{32}{Module cuon.Email\relax }{section.9}{}}
\@writefile{toc}{\contentsline {subsection}{\numberline {9.1}Variables}{32}{subsection.9.1}}
\@writefile{toc}{\contentsline {subsection}{\numberline {9.2}Class cuonemail}{32}{subsection.9.2}}
\newlabel{cuon:Email:cuonemail}{{9.2}{32}{Class cuonemail\relax }{subsection.9.2}{}}
\@writefile{toc}{\contentsline {subsubsection}{\numberline {9.2.1}Methods}{32}{subsubsection.9.2.1}}
\newlabel{cuon:Email:cuonemail:xmlrpc_getCryptCombobox}{{9.2.1}{32}{Methods\relax }{subsubsection.9.2.1}{}}
\newlabel{cuon:Email:cuonemail:xmlrpc_sendTheEmail}{{9.2.1}{32}{Methods\relax }{subsubsection.9.2.1}{}}
\newlabel{cuon:Email:cuonemail:sendEmail}{{9.2.1}{32}{Methods\relax }{subsubsection.9.2.1}{}}
\newlabel{cuon:Email:cuonemail:getNewsletterEmail}{{9.2.1}{32}{Methods\relax }{subsubsection.9.2.1}{}}
\newlabel{cuon:Email:cuonemail:replaceValues}{{9.2.1}{32}{Methods\relax }{subsubsection.9.2.1}{}}
\gdef \LT@xxii {\LT@entry 
    {1}{152.92793pt}\LT@entry 
    {1}{258.72162pt}\LT@entry 
    {1}{12.0pt}}
\gdef \LT@xxiii {\LT@entry 
    {1}{152.92793pt}\LT@entry 
    {1}{258.72162pt}\LT@entry 
    {1}{12.0pt}}
\@writefile{toc}{\contentsline {subsubsection}{\numberline {9.2.2}Class Variables}{33}{subsubsection.9.2.2}}
\@writefile{toc}{\contentsline {subsubsection}{\numberline {9.2.3}Instance Variables}{33}{subsubsection.9.2.3}}
\@setckpt{cuon.Email-module}{
\setcounter{page}{34}
\setcounter{equation}{0}
\setcounter{enumi}{0}
\setcounter{enumii}{0}
\setcounter{enumiii}{0}
\setcounter{enumiv}{0}
\setcounter{footnote}{0}
\setcounter{mpfootnote}{0}
\setcounter{part}{0}
\setcounter{section}{9}
\setcounter{subsection}{2}
\setcounter{subsubsection}{3}
\setcounter{paragraph}{0}
\setcounter{subparagraph}{0}
\setcounter{figure}{0}
\setcounter{table}{23}
\setcounter{LT@tables}{23}
\setcounter{LT@chunks}{4}
\setcounter{Item}{0}
\setcounter{Hfootnote}{0}
\setcounter{bookmark@seq@number}{49}
\setcounter{section@level}{3}
}
