\relax 
\gdef \LT@cxl {\LT@entry 
    {1}{152.92793pt}\LT@entry 
    {1}{258.72162pt}\LT@entry 
    {1}{12.0pt}}
\@writefile{toc}{\contentsline {section}{\numberline {66}Module cuon.createWebAnalysis}{195}{section.66}}
\newlabel{cuon:createWebAnalysis}{{66}{195}{Module cuon.createWebAnalysis\relax }{section.66}{}}
\@writefile{toc}{\contentsline {subsection}{\numberline {66.1}Variables}{195}{subsection.66.1}}
\@setckpt{cuon.createWebAnalysis-module}{
\setcounter{page}{196}
\setcounter{equation}{0}
\setcounter{enumi}{1}
\setcounter{enumii}{0}
\setcounter{enumiii}{0}
\setcounter{enumiv}{0}
\setcounter{footnote}{0}
\setcounter{mpfootnote}{0}
\setcounter{part}{0}
\setcounter{section}{66}
\setcounter{subsection}{1}
\setcounter{subsubsection}{0}
\setcounter{paragraph}{0}
\setcounter{subparagraph}{0}
\setcounter{figure}{0}
\setcounter{table}{140}
\setcounter{LT@tables}{140}
\setcounter{LT@chunks}{5}
\setcounter{Item}{1}
\setcounter{Hfootnote}{0}
\setcounter{bookmark@seq@number}{360}
\setcounter{section@level}{2}
}
