\relax 
\gdef \LT@xii {\LT@entry 
    {1}{152.92793pt}\LT@entry 
    {1}{258.72162pt}\LT@entry 
    {1}{12.0pt}}
\gdef \LT@xiii {\LT@entry 
    {1}{152.92793pt}\LT@entry 
    {1}{258.72162pt}\LT@entry 
    {1}{12.0pt}}
\@writefile{toc}{\contentsline {section}{\numberline {6}Module cuon.CuonFuncs}{24}{section.6}}
\newlabel{cuon:CuonFuncs}{{6}{24}{Module cuon.CuonFuncs\relax }{section.6}{}}
\@writefile{toc}{\contentsline {subsection}{\numberline {6.1}Variables}{24}{subsection.6.1}}
\@writefile{toc}{\contentsline {subsection}{\numberline {6.2}Class CuonFuncs}{24}{subsection.6.2}}
\newlabel{cuon:CuonFuncs:CuonFuncs}{{6.2}{24}{Class CuonFuncs\relax }{subsection.6.2}{}}
\@writefile{toc}{\contentsline {subsubsection}{\numberline {6.2.1}Methods}{24}{subsubsection.6.2.1}}
\newlabel{cuon:CuonFuncs:CuonFuncs:xmlrpc_test1}{{6.2.1}{24}{Methods\relax }{subsubsection.6.2.1}{}}
\@writefile{toc}{\contentsline {subsubsection}{\numberline {6.2.2}Class Variables}{24}{subsubsection.6.2.2}}
\@writefile{toc}{\contentsline {subsubsection}{\numberline {6.2.3}Instance Variables}{24}{subsubsection.6.2.3}}
\gdef \LT@xiv {\LT@entry 
    {1}{152.92793pt}\LT@entry 
    {1}{258.72162pt}\LT@entry 
    {1}{12.0pt}}
\@setckpt{cuon.CuonFuncs-module}{
\setcounter{page}{26}
\setcounter{equation}{0}
\setcounter{enumi}{0}
\setcounter{enumii}{0}
\setcounter{enumiii}{0}
\setcounter{enumiv}{0}
\setcounter{footnote}{0}
\setcounter{mpfootnote}{0}
\setcounter{part}{0}
\setcounter{section}{6}
\setcounter{subsection}{2}
\setcounter{subsubsection}{3}
\setcounter{paragraph}{0}
\setcounter{subparagraph}{0}
\setcounter{figure}{0}
\setcounter{table}{14}
\setcounter{LT@tables}{14}
\setcounter{LT@chunks}{4}
\setcounter{Item}{0}
\setcounter{Hfootnote}{0}
\setcounter{bookmark@seq@number}{31}
\setcounter{section@level}{3}
}
