\relax 
\gdef \LT@lxxix {\LT@entry 
    {1}{152.92793pt}\LT@entry 
    {1}{258.72162pt}\LT@entry 
    {1}{12.0pt}}
\@writefile{toc}{\contentsline {section}{\numberline {35}Module cuon.Reports.report\_hibernation\_pickup\_document}{97}{section.35}}
\newlabel{cuon:Reports:report_hibernation_pickup_document}{{35}{97}{Module cuon.Reports.report\_hibernation\_pickup\_document\relax }{section.35}{}}
\@writefile{toc}{\contentsline {subsection}{\numberline {35.1}Variables}{97}{subsection.35.1}}
\@writefile{toc}{\contentsline {subsection}{\numberline {35.2}Class report\_hibernation\_pickup\_document}{97}{subsection.35.2}}
\newlabel{cuon:Reports:report_hibernation_pickup_document:report_hibernation_pickup_document}{{35.2}{97}{Class report\_hibernation\_pickup\_document\relax }{subsection.35.2}{}}
\@writefile{toc}{\contentsline {subsubsection}{\numberline {35.2.1}Methods}{97}{subsubsection.35.2.1}}
\newlabel{cuon:Reports:report_hibernation_pickup_document:report_hibernation_pickup_document:getReportData}{{35.2.1}{97}{Methods\relax }{subsubsection.35.2.1}{}}
\@setckpt{cuon.Reports.report_hibernation_pickup_document-module}{
\setcounter{page}{98}
\setcounter{equation}{0}
\setcounter{enumi}{1}
\setcounter{enumii}{0}
\setcounter{enumiii}{0}
\setcounter{enumiv}{0}
\setcounter{footnote}{0}
\setcounter{mpfootnote}{0}
\setcounter{part}{0}
\setcounter{section}{35}
\setcounter{subsection}{2}
\setcounter{subsubsection}{1}
\setcounter{paragraph}{0}
\setcounter{subparagraph}{0}
\setcounter{figure}{0}
\setcounter{table}{79}
\setcounter{LT@tables}{79}
\setcounter{LT@chunks}{4}
\setcounter{Item}{1}
\setcounter{Hfootnote}{0}
\setcounter{bookmark@seq@number}{200}
\setcounter{section@level}{3}
}
