\relax 
\gdef \LT@lxxx {\LT@entry 
    {1}{152.92793pt}\LT@entry 
    {1}{258.72162pt}\LT@entry 
    {1}{12.0pt}}
\@writefile{toc}{\contentsline {section}{\numberline {36}Module cuon.Reports.report\_list\_list\_of\_invoices}{98}{section.36}}
\newlabel{cuon:Reports:report_list_list_of_invoices}{{36}{98}{Module cuon.Reports.report\_list\_list\_of\_invoices\relax }{section.36}{}}
\@writefile{toc}{\contentsline {subsection}{\numberline {36.1}Variables}{98}{subsection.36.1}}
\@writefile{toc}{\contentsline {subsection}{\numberline {36.2}Class report\_list\_list\_of\_invoices}{98}{subsection.36.2}}
\newlabel{cuon:Reports:report_list_list_of_invoices:report_list_list_of_invoices}{{36.2}{98}{Class report\_list\_list\_of\_invoices\relax }{subsection.36.2}{}}
\@writefile{toc}{\contentsline {subsubsection}{\numberline {36.2.1}Methods}{98}{subsubsection.36.2.1}}
\newlabel{cuon:Reports:report_list_list_of_invoices:report_list_list_of_invoices:getReportData}{{36.2.1}{98}{Methods\relax }{subsubsection.36.2.1}{}}
\@setckpt{cuon.Reports.report_list_list_of_invoices-module}{
\setcounter{page}{99}
\setcounter{equation}{0}
\setcounter{enumi}{1}
\setcounter{enumii}{0}
\setcounter{enumiii}{0}
\setcounter{enumiv}{0}
\setcounter{footnote}{0}
\setcounter{mpfootnote}{0}
\setcounter{part}{0}
\setcounter{section}{36}
\setcounter{subsection}{2}
\setcounter{subsubsection}{1}
\setcounter{paragraph}{0}
\setcounter{subparagraph}{0}
\setcounter{figure}{0}
\setcounter{table}{80}
\setcounter{LT@tables}{80}
\setcounter{LT@chunks}{4}
\setcounter{Item}{1}
\setcounter{Hfootnote}{0}
\setcounter{bookmark@seq@number}{204}
\setcounter{section@level}{3}
}
