\relax 
\gdef \LT@l {\LT@entry 
    {1}{152.92793pt}\LT@entry 
    {1}{258.72162pt}\LT@entry 
    {1}{12.0pt}}
\@writefile{toc}{\contentsline {section}{\numberline {16}Module cuon.Projects}{65}{section.16}}
\newlabel{cuon:Projects}{{16}{65}{Module cuon.Projects\relax }{section.16}{}}
\@writefile{toc}{\contentsline {subsection}{\numberline {16.1}Variables}{65}{subsection.16.1}}
\@writefile{toc}{\contentsline {subsection}{\numberline {16.2}Class Projects}{65}{subsection.16.2}}
\newlabel{cuon:Projects:Projects}{{16.2}{65}{Class Projects\relax }{subsection.16.2}{}}
\@writefile{toc}{\contentsline {subsubsection}{\numberline {16.2.1}Methods}{65}{subsubsection.16.2.1}}
\newlabel{cuon:Projects:Projects:xmlrpc_getComboBoxEntries}{{16.2.1}{65}{Methods\relax }{subsubsection.16.2.1}{}}
\newlabel{cuon:Projects:Projects:xmlrpc_checkExistModulProject}{{16.2.1}{65}{Methods\relax }{subsubsection.16.2.1}{}}
\newlabel{cuon:Projects:Projects:xmlrpc_createNewProject}{{16.2.1}{65}{Methods\relax }{subsubsection.16.2.1}{}}
\newlabel{cuon:Projects:Projects:xmlrpc_getProjectsForAddress}{{16.2.1}{65}{Methods\relax }{subsubsection.16.2.1}{}}
\newlabel{cuon:Projects:Projects:xmlrpc_getStatRep}{{16.2.1}{65}{Methods\relax }{subsubsection.16.2.1}{}}
\newlabel{cuon:Projects:Projects:xmlrpc_getStatsMisc}{{16.2.1}{65}{Methods\relax }{subsubsection.16.2.1}{}}
\gdef \LT@li {\LT@entry 
    {1}{152.92793pt}\LT@entry 
    {1}{258.72162pt}\LT@entry 
    {1}{12.0pt}}
\gdef \LT@lii {\LT@entry 
    {1}{152.92793pt}\LT@entry 
    {1}{258.72162pt}\LT@entry 
    {1}{12.0pt}}
\@writefile{toc}{\contentsline {subsubsection}{\numberline {16.2.2}Class Variables}{66}{subsubsection.16.2.2}}
\@writefile{toc}{\contentsline {subsubsection}{\numberline {16.2.3}Instance Variables}{66}{subsubsection.16.2.3}}
\@setckpt{cuon.Projects-module}{
\setcounter{page}{67}
\setcounter{equation}{0}
\setcounter{enumi}{0}
\setcounter{enumii}{0}
\setcounter{enumiii}{0}
\setcounter{enumiv}{0}
\setcounter{footnote}{0}
\setcounter{mpfootnote}{0}
\setcounter{part}{0}
\setcounter{section}{16}
\setcounter{subsection}{2}
\setcounter{subsubsection}{3}
\setcounter{paragraph}{0}
\setcounter{subparagraph}{0}
\setcounter{figure}{0}
\setcounter{table}{52}
\setcounter{LT@tables}{52}
\setcounter{LT@chunks}{4}
\setcounter{Item}{0}
\setcounter{Hfootnote}{0}
\setcounter{bookmark@seq@number}{117}
\setcounter{section@level}{3}
}
