\relax 
\gdef \LT@v {\LT@entry 
    {1}{152.92793pt}\LT@entry 
    {1}{258.72162pt}\LT@entry 
    {1}{12.0pt}}
\@writefile{toc}{\contentsline {section}{\numberline {3}Module cuon.Address}{15}{section.3}}
\newlabel{cuon:Address}{{3}{15}{Module cuon.Address\relax }{section.3}{}}
\@writefile{toc}{\contentsline {subsection}{\numberline {3.1}Variables}{15}{subsection.3.1}}
\@writefile{toc}{\contentsline {subsection}{\numberline {3.2}Class Address}{15}{subsection.3.2}}
\newlabel{cuon:Address:Address}{{3.2}{15}{Class Address\relax }{subsection.3.2}{}}
\@writefile{toc}{\contentsline {subsubsection}{\numberline {3.2.1}Methods}{15}{subsubsection.3.2.1}}
\newlabel{cuon:Address:Address:xmlrpc_getComboBoxEntries}{{3.2.1}{15}{Methods\relax }{subsubsection.3.2.1}{}}
\newlabel{cuon:Address:Address:xmlrpc_getAddress}{{3.2.1}{15}{Methods\relax }{subsubsection.3.2.1}{}}
\newlabel{cuon:Address:Address:xmlrpc_getAllActiveSchedulByNames}{{3.2.1}{15}{Methods\relax }{subsubsection.3.2.1}{}}
\newlabel{cuon:Address:Address:xmlrpc_getAllActiveSchedul}{{3.2.1}{15}{Methods\relax }{subsubsection.3.2.1}{}}
\newlabel{cuon:Address:Address:xmlrpc_getAllActiveContacts}{{3.2.1}{15}{Methods\relax }{subsubsection.3.2.1}{}}
\newlabel{cuon:Address:Address:xmlrpc_getNotes}{{3.2.1}{15}{Methods\relax }{subsubsection.3.2.1}{}}
\newlabel{cuon:Address:Address:xmlrpc_getMisc}{{3.2.1}{16}{Methods\relax }{subsubsection.3.2.1}{}}
\newlabel{cuon:Address:Address:sentChangesPerMail}{{3.2.1}{16}{Methods\relax }{subsubsection.3.2.1}{}}
\newlabel{cuon:Address:Address:xmlrpc_getPartnerAddress}{{3.2.1}{16}{Methods\relax }{subsubsection.3.2.1}{}}
\newlabel{cuon:Address:Address:xmlrpc_getPartnerToAddress}{{3.2.1}{16}{Methods\relax }{subsubsection.3.2.1}{}}
\newlabel{cuon:Address:Address:getPhonelist1}{{3.2.1}{16}{Methods\relax }{subsubsection.3.2.1}{}}
\newlabel{cuon:Address:Address:getPhonelist11}{{3.2.1}{16}{Methods\relax }{subsubsection.3.2.1}{}}
\newlabel{cuon:Address:Address:getPhonelist12}{{3.2.1}{16}{Methods\relax }{subsubsection.3.2.1}{}}
\newlabel{cuon:Address:Address:xmlrpc_sendEmail2Address}{{3.2.1}{16}{Methods\relax }{subsubsection.3.2.1}{}}
\newlabel{cuon:Address:Address:xmlrpc_getNewsletterAddresses}{{3.2.1}{16}{Methods\relax }{subsubsection.3.2.1}{}}
\newlabel{cuon:Address:Address:xmlrpc_getStatCaller}{{3.2.1}{16}{Methods\relax }{subsubsection.3.2.1}{}}
\newlabel{cuon:Address:Address:xmlrpc_getStatRep}{{3.2.1}{16}{Methods\relax }{subsubsection.3.2.1}{}}
\newlabel{cuon:Address:Address:xmlrpc_getStatSalesman}{{3.2.1}{16}{Methods\relax }{subsubsection.3.2.1}{}}
\newlabel{cuon:Address:Address:xmlrpc_getAllAddressForThisPartner}{{3.2.1}{16}{Methods\relax }{subsubsection.3.2.1}{}}
\newlabel{cuon:Address:Address:xmlrpc_getButtonGrave}{{3.2.1}{16}{Methods\relax }{subsubsection.3.2.1}{}}
\newlabel{cuon:Address:Address:xmlrpc_getButtonHibernation}{{3.2.1}{16}{Methods\relax }{subsubsection.3.2.1}{}}
\newlabel{cuon:Address:Address:xmlrpc_getAddressEmailID}{{3.2.1}{16}{Methods\relax }{subsubsection.3.2.1}{}}
\newlabel{cuon:Address:Address:xmlrpc_createMiscEntry}{{3.2.1}{16}{Methods\relax }{subsubsection.3.2.1}{}}
\newlabel{cuon:Address:Address:xmlrpc_getLastnameForID}{{3.2.1}{16}{Methods\relax }{subsubsection.3.2.1}{}}
\newlabel{cuon:Address:Address:xmlrpc_sl_search1}{{3.2.1}{16}{Methods\relax }{subsubsection.3.2.1}{}}
\newlabel{cuon:Address:Address:xmlrpc_sl_getPhones}{{3.2.1}{16}{Methods\relax }{subsubsection.3.2.1}{}}
\gdef \LT@vi {\LT@entry 
    {1}{152.92793pt}\LT@entry 
    {1}{258.72162pt}\LT@entry 
    {1}{12.0pt}}
\newlabel{cuon:Address:Address:xmlrpc_sl_getPartner}{{3.2.1}{17}{Methods\relax }{subsubsection.3.2.1}{}}
\newlabel{cuon:Address:Address:xmlrpc_sl_getPartnerPhones}{{3.2.1}{17}{Methods\relax }{subsubsection.3.2.1}{}}
\newlabel{cuon:Address:Address:xmlrpc_sl_getNotes}{{3.2.1}{17}{Methods\relax }{subsubsection.3.2.1}{}}
\@writefile{toc}{\contentsline {subsubsection}{\numberline {3.2.2}Class Variables}{17}{subsubsection.3.2.2}}
\@writefile{toc}{\contentsline {subsubsection}{\numberline {3.2.3}Instance Variables}{17}{subsubsection.3.2.3}}
\gdef \LT@vii {\LT@entry 
    {1}{152.92793pt}\LT@entry 
    {1}{258.72162pt}\LT@entry 
    {1}{12.0pt}}
\@setckpt{cuon.Address-module}{
\setcounter{page}{19}
\setcounter{equation}{0}
\setcounter{enumi}{0}
\setcounter{enumii}{0}
\setcounter{enumiii}{0}
\setcounter{enumiv}{0}
\setcounter{footnote}{0}
\setcounter{mpfootnote}{0}
\setcounter{part}{0}
\setcounter{section}{3}
\setcounter{subsection}{2}
\setcounter{subsubsection}{3}
\setcounter{paragraph}{0}
\setcounter{subparagraph}{0}
\setcounter{figure}{0}
\setcounter{table}{7}
\setcounter{LT@tables}{7}
\setcounter{LT@chunks}{4}
\setcounter{Item}{0}
\setcounter{Hfootnote}{0}
\setcounter{bookmark@seq@number}{16}
\setcounter{section@level}{3}
}
