\relax 
\@writefile{toc}{\contentsline {section}{\numberline {71}Module cuon.web\_root}{214}{section.71}}
\newlabel{cuon:web_root}{{71}{214}{Module cuon.web\_root\relax }{section.71}{}}
\@writefile{toc}{\contentsline {subsection}{\numberline {71.1}Class Image}{214}{subsection.71.1}}
\newlabel{cuon:web_root:Image}{{71.1}{214}{Class Image\relax }{subsection.71.1}{}}
\@writefile{toc}{\contentsline {subsubsection}{\numberline {71.1.1}Methods}{214}{subsubsection.71.1.1}}
\newlabel{cuon:web_root:Image:__init__}{{71.1.1}{214}{Methods\relax }{subsubsection.71.1.1}{}}
\@writefile{toc}{\contentsline {subsection}{\numberline {71.2}Class WebRoots}{214}{subsection.71.2}}
\newlabel{cuon:web_root:WebRoots}{{71.2}{214}{Class WebRoots\relax }{subsection.71.2}{}}
\@writefile{toc}{\contentsline {subsubsection}{\numberline {71.2.1}Methods}{214}{subsubsection.71.2.1}}
\newlabel{cuon:web_root:WebRoots:__init__}{{71.2.1}{214}{Methods\relax }{subsubsection.71.2.1}{}}
\@setckpt{cuon.web_root-module}{
\setcounter{page}{215}
\setcounter{equation}{0}
\setcounter{enumi}{1}
\setcounter{enumii}{0}
\setcounter{enumiii}{0}
\setcounter{enumiv}{0}
\setcounter{footnote}{0}
\setcounter{mpfootnote}{0}
\setcounter{part}{0}
\setcounter{section}{71}
\setcounter{subsection}{2}
\setcounter{subsubsection}{1}
\setcounter{paragraph}{0}
\setcounter{subparagraph}{0}
\setcounter{figure}{0}
\setcounter{table}{157}
\setcounter{LT@tables}{157}
\setcounter{LT@chunks}{5}
\setcounter{Item}{1}
\setcounter{Hfootnote}{0}
\setcounter{bookmark@seq@number}{412}
\setcounter{section@level}{3}
}
