\relax 
\gdef \LT@xi {\LT@entry 
    {1}{152.92793pt}\LT@entry 
    {1}{258.72162pt}\LT@entry 
    {1}{12.0pt}}
\@writefile{toc}{\contentsline {section}{\numberline {5}Module cuon.CalendarGen}{22}{section.5}}
\newlabel{cuon:CalendarGen}{{5}{22}{Module cuon.CalendarGen\relax }{section.5}{}}
\@writefile{toc}{\contentsline {subsection}{\numberline {5.1}Functions}{22}{subsection.5.1}}
\newlabel{cuon:CalendarGen:loadDays}{{5.1}{22}{Functions\relax }{subsection.5.1}{}}
\newlabel{cuon:CalendarGen:drawHeader}{{5.1}{22}{Functions\relax }{subsection.5.1}{}}
\newlabel{cuon:CalendarGen:drawGrid}{{5.1}{22}{Functions\relax }{subsection.5.1}{}}
\newlabel{cuon:CalendarGen:drawCalendarPage}{{5.1}{22}{Functions\relax }{subsection.5.1}{}}
\newlabel{cuon:CalendarGen:usage}{{5.1}{22}{Functions\relax }{subsection.5.1}{}}
\newlabel{cuon:CalendarGen:run}{{5.1}{22}{Functions\relax }{subsection.5.1}{}}
\@writefile{toc}{\contentsline {subsection}{\numberline {5.2}Variables}{22}{subsection.5.2}}
\@setckpt{cuon.CalendarGen-module}{
\setcounter{page}{24}
\setcounter{equation}{0}
\setcounter{enumi}{0}
\setcounter{enumii}{0}
\setcounter{enumiii}{0}
\setcounter{enumiv}{0}
\setcounter{footnote}{0}
\setcounter{mpfootnote}{0}
\setcounter{part}{0}
\setcounter{section}{5}
\setcounter{subsection}{2}
\setcounter{subsubsection}{0}
\setcounter{paragraph}{0}
\setcounter{subparagraph}{0}
\setcounter{figure}{0}
\setcounter{table}{11}
\setcounter{LT@tables}{11}
\setcounter{LT@chunks}{5}
\setcounter{Item}{0}
\setcounter{Hfootnote}{0}
\setcounter{bookmark@seq@number}{25}
\setcounter{section@level}{2}
}
