\relax 
\gdef \LT@cxxx {\LT@entry 
    {1}{152.92793pt}\LT@entry 
    {1}{258.72162pt}\LT@entry 
    {1}{12.0pt}}
\@writefile{toc}{\contentsline {section}{\numberline {62}Module cuon.WebShop}{186}{section.62}}
\newlabel{cuon:WebShop}{{62}{186}{Module cuon.WebShop\relax }{section.62}{}}
\@writefile{toc}{\contentsline {subsection}{\numberline {62.1}Variables}{186}{subsection.62.1}}
\@writefile{toc}{\contentsline {subsection}{\numberline {62.2}Class WebShop}{186}{subsection.62.2}}
\newlabel{cuon:WebShop:WebShop}{{62.2}{186}{Class WebShop\relax }{subsection.62.2}{}}
\@writefile{toc}{\contentsline {subsubsection}{\numberline {62.2.1}Methods}{186}{subsubsection.62.2.1}}
\newlabel{cuon:WebShop:WebShop:xmlrpc_fillValues}{{62.2.1}{186}{Methods\relax }{subsubsection.62.2.1}{}}
\newlabel{cuon:WebShop:WebShop:getTableInformation}{{62.2.1}{186}{Methods\relax }{subsubsection.62.2.1}{}}
\newlabel{cuon:WebShop:WebShop:loadCompleteIdsOfTable}{{62.2.1}{186}{Methods\relax }{subsubsection.62.2.1}{}}
\newlabel{cuon:WebShop:WebShop:updateAddress}{{62.2.1}{186}{Methods\relax }{subsubsection.62.2.1}{}}
\newlabel{cuon:WebShop:WebShop:updateArticles}{{62.2.1}{186}{Methods\relax }{subsubsection.62.2.1}{}}
\gdef \LT@cxxxi {\LT@entry 
    {1}{152.92793pt}\LT@entry 
    {1}{258.72162pt}\LT@entry 
    {1}{12.0pt}}
\gdef \LT@cxxxii {\LT@entry 
    {1}{152.92793pt}\LT@entry 
    {1}{258.72162pt}\LT@entry 
    {1}{12.0pt}}
\@writefile{toc}{\contentsline {subsubsection}{\numberline {62.2.2}Class Variables}{187}{subsubsection.62.2.2}}
\@writefile{toc}{\contentsline {subsubsection}{\numberline {62.2.3}Instance Variables}{187}{subsubsection.62.2.3}}
\@setckpt{cuon.WebShop-module}{
\setcounter{page}{188}
\setcounter{equation}{0}
\setcounter{enumi}{1}
\setcounter{enumii}{0}
\setcounter{enumiii}{0}
\setcounter{enumiv}{0}
\setcounter{footnote}{0}
\setcounter{mpfootnote}{0}
\setcounter{part}{0}
\setcounter{section}{62}
\setcounter{subsection}{2}
\setcounter{subsubsection}{3}
\setcounter{paragraph}{0}
\setcounter{subparagraph}{0}
\setcounter{figure}{0}
\setcounter{table}{132}
\setcounter{LT@tables}{132}
\setcounter{LT@chunks}{4}
\setcounter{Item}{1}
\setcounter{Hfootnote}{0}
\setcounter{bookmark@seq@number}{342}
\setcounter{section@level}{3}
}
