\relax 
\gdef \LT@xlvii {\LT@entry 
    {1}{152.92793pt}\LT@entry 
    {1}{258.72162pt}\LT@entry 
    {1}{12.0pt}}
\@writefile{toc}{\contentsline {section}{\numberline {15}Module cuon.Order}{60}{section.15}}
\newlabel{cuon:Order}{{15}{60}{Module cuon.Order\relax }{section.15}{}}
\@writefile{toc}{\contentsline {subsection}{\numberline {15.1}Variables}{60}{subsection.15.1}}
\@writefile{toc}{\contentsline {subsection}{\numberline {15.2}Class Order}{60}{subsection.15.2}}
\newlabel{cuon:Order:Order}{{15.2}{60}{Class Order\relax }{subsection.15.2}{}}
\@writefile{toc}{\contentsline {subsubsection}{\numberline {15.2.1}Methods}{60}{subsubsection.15.2.1}}
\newlabel{cuon:Order:Order:xmlrpc_getSupply_GetNumber}{{15.2.1}{60}{Methods\relax }{subsubsection.15.2.1}{}}
\newlabel{cuon:Order:Order:xmlrpc_getDeliveryNumber}{{15.2.1}{60}{Methods\relax }{subsubsection.15.2.1}{}}
\newlabel{cuon:Order:Order:xmlrpc_getInvoiceAddress}{{15.2.1}{60}{Methods\relax }{subsubsection.15.2.1}{}}
\newlabel{cuon:Order:Order:xmlrpc_getOrderPositions}{{15.2.1}{60}{Methods\relax }{subsubsection.15.2.1}{}}
\newlabel{cuon:Order:Order:xmlrpc_getInvoiceNumber}{{15.2.1}{60}{Methods\relax }{subsubsection.15.2.1}{}}
\newlabel{cuon:Order:Order:xmlrpc_changeEnquiry2Proposal}{{15.2.1}{60}{Methods\relax }{subsubsection.15.2.1}{}}
\newlabel{cuon:Order:Order:xmlrpc_changeProposal2Order}{{15.2.1}{60}{Methods\relax }{subsubsection.15.2.1}{}}
\newlabel{cuon:Order:Order:xmlrpc_getProposalNumber}{{15.2.1}{61}{Methods\relax }{subsubsection.15.2.1}{}}
\newlabel{cuon:Order:Order:xmlrpc_getEnquiryNumber}{{15.2.1}{61}{Methods\relax }{subsubsection.15.2.1}{}}
\newlabel{cuon:Order:Order:xmlrpc_getInvoiceDate}{{15.2.1}{61}{Methods\relax }{subsubsection.15.2.1}{}}
\newlabel{cuon:Order:Order:xmlrpc_getSupplyDate}{{15.2.1}{61}{Methods\relax }{subsubsection.15.2.1}{}}
\newlabel{cuon:Order:Order:xmlrpc_getOrderValues}{{15.2.1}{61}{Methods\relax }{subsubsection.15.2.1}{}}
\newlabel{cuon:Order:Order:xmlrpc_setInvoiceNumber}{{15.2.1}{61}{Methods\relax }{subsubsection.15.2.1}{}}
\newlabel{cuon:Order:Order:xmlrpc_getPickupAddress}{{15.2.1}{61}{Methods\relax }{subsubsection.15.2.1}{}}
\newlabel{cuon:Order:Order:xmlrpc_getPickupData}{{15.2.1}{61}{Methods\relax }{subsubsection.15.2.1}{}}
\newlabel{cuon:Order:Order:xmlrpc_getPickupNumber}{{15.2.1}{61}{Methods\relax }{subsubsection.15.2.1}{}}
\newlabel{cuon:Order:Order:xmlrpc_getStandardInvoice}{{15.2.1}{61}{Methods\relax }{subsubsection.15.2.1}{}}
\newlabel{cuon:Order:Order:xmlrpc_checkExistModulOrder}{{15.2.1}{61}{Methods\relax }{subsubsection.15.2.1}{}}
\newlabel{cuon:Order:Order:xmlrpc_checkExistModulProposal}{{15.2.1}{61}{Methods\relax }{subsubsection.15.2.1}{}}
\newlabel{cuon:Order:Order:xmlrpc_checkExistModulEnquiry}{{15.2.1}{61}{Methods\relax }{subsubsection.15.2.1}{}}
\newlabel{cuon:Order:Order:xmlrpc_createNewOrder}{{15.2.1}{61}{Methods\relax }{subsubsection.15.2.1}{}}
\newlabel{cuon:Order:Order:checkDefaultValues}{{15.2.1}{61}{Methods\relax }{subsubsection.15.2.1}{}}
\newlabel{cuon:Order:Order:getTotalSum}{{15.2.1}{61}{Methods\relax }{subsubsection.15.2.1}{}}
\newlabel{cuon:Order:Order:xmlrpc_getTotalSumString}{{15.2.1}{61}{Methods\relax }{subsubsection.15.2.1}{}}
\newlabel{cuon:Order:Order:xmlrpc_getPaidAt}{{15.2.1}{61}{Methods\relax }{subsubsection.15.2.1}{}}
\newlabel{cuon:Order:Order:xmlrpc_getNextPosition}{{15.2.1}{61}{Methods\relax }{subsubsection.15.2.1}{}}
\newlabel{cuon:Order:Order:xmlrpc_getUserInfoOrder}{{15.2.1}{61}{Methods\relax }{subsubsection.15.2.1}{}}
\newlabel{cuon:Order:Order:xmlrpc_getUserInfoInvoice}{{15.2.1}{62}{Methods\relax }{subsubsection.15.2.1}{}}
\newlabel{cuon:Order:Order:getListOfInvoices}{{15.2.1}{62}{Methods\relax }{subsubsection.15.2.1}{}}
\newlabel{cuon:Order:Order:getListOfInpayment}{{15.2.1}{62}{Methods\relax }{subsubsection.15.2.1}{}}
\newlabel{cuon:Order:Order:xmlrpc_getOrderForAddress}{{15.2.1}{62}{Methods\relax }{subsubsection.15.2.1}{}}
\newlabel{cuon:Order:Order:xmlrpc_getOrderForProject}{{15.2.1}{62}{Methods\relax }{subsubsection.15.2.1}{}}
\newlabel{cuon:Order:Order:xmlrpc_getInvoicesForAddress}{{15.2.1}{62}{Methods\relax }{subsubsection.15.2.1}{}}
\newlabel{cuon:Order:Order:getToPID}{{15.2.1}{62}{Methods\relax }{subsubsection.15.2.1}{}}
\newlabel{cuon:Order:Order:xmlrpc_getToP}{{15.2.1}{62}{Methods\relax }{subsubsection.15.2.1}{}}
\newlabel{cuon:Order:Order:xmlrpc_getAllOrderWithoutInvoice}{{15.2.1}{62}{Methods\relax }{subsubsection.15.2.1}{}}
\newlabel{cuon:Order:Order:checkMaturityDay}{{15.2.1}{62}{Methods\relax }{subsubsection.15.2.1}{}}
\newlabel{cuon:Order:Order:getResidue}{{15.2.1}{62}{Methods\relax }{subsubsection.15.2.1}{}}
\newlabel{cuon:Order:Order:getReminder}{{15.2.1}{62}{Methods\relax }{subsubsection.15.2.1}{}}
\newlabel{cuon:Order:Order:getListOfInvoicesByTop}{{15.2.1}{62}{Methods\relax }{subsubsection.15.2.1}{}}
\newlabel{cuon:Order:Order:xmlrpc_getStatsMisc}{{15.2.1}{62}{Methods\relax }{subsubsection.15.2.1}{}}
\newlabel{cuon:Order:Order:xmlrpc_getStatsGlobal}{{15.2.1}{62}{Methods\relax }{subsubsection.15.2.1}{}}
\newlabel{cuon:Order:Order:xmlrpc_getStatsCaller}{{15.2.1}{62}{Methods\relax }{subsubsection.15.2.1}{}}
\newlabel{cuon:Order:Order:xmlrpc_getStatsReps}{{15.2.1}{62}{Methods\relax }{subsubsection.15.2.1}{}}
\newlabel{cuon:Order:Order:xmlrpc_getStatsSalesman}{{15.2.1}{62}{Methods\relax }{subsubsection.15.2.1}{}}
\newlabel{cuon:Order:Order:xmlrpc_getStatTaxVat1}{{15.2.1}{62}{Methods\relax }{subsubsection.15.2.1}{}}
\gdef \LT@xlviii {\LT@entry 
    {1}{152.92793pt}\LT@entry 
    {1}{258.72162pt}\LT@entry 
    {1}{12.0pt}}
\newlabel{cuon:Order:Order:xmlrpc_dup_order}{{15.2.1}{63}{Methods\relax }{subsubsection.15.2.1}{}}
\newlabel{cuon:Order:Order:xmlrpc_getArticleParts}{{15.2.1}{63}{Methods\relax }{subsubsection.15.2.1}{}}
\newlabel{cuon:Order:Order:xmlrpc_getOrderUserType}{{15.2.1}{63}{Methods\relax }{subsubsection.15.2.1}{}}
\@writefile{toc}{\contentsline {subsubsection}{\numberline {15.2.2}Class Variables}{63}{subsubsection.15.2.2}}
\@writefile{toc}{\contentsline {subsubsection}{\numberline {15.2.3}Instance Variables}{63}{subsubsection.15.2.3}}
\gdef \LT@xlix {\LT@entry 
    {1}{152.92793pt}\LT@entry 
    {1}{258.72162pt}\LT@entry 
    {1}{12.0pt}}
\@setckpt{cuon.Order-module}{
\setcounter{page}{65}
\setcounter{equation}{0}
\setcounter{enumi}{0}
\setcounter{enumii}{0}
\setcounter{enumiii}{0}
\setcounter{enumiv}{0}
\setcounter{footnote}{0}
\setcounter{mpfootnote}{0}
\setcounter{part}{0}
\setcounter{section}{15}
\setcounter{subsection}{2}
\setcounter{subsubsection}{3}
\setcounter{paragraph}{0}
\setcounter{subparagraph}{0}
\setcounter{figure}{0}
\setcounter{table}{49}
\setcounter{LT@tables}{49}
\setcounter{LT@chunks}{4}
\setcounter{Item}{0}
\setcounter{Hfootnote}{0}
\setcounter{bookmark@seq@number}{111}
\setcounter{section@level}{3}
}
