\relax 
\gdef \LT@xxxv {\LT@entry 
    {1}{152.92793pt}\LT@entry 
    {1}{258.72162pt}\LT@entry 
    {1}{12.0pt}}
\@writefile{toc}{\contentsline {section}{\numberline {11}Module cuon.Finances}{48}{section.11}}
\newlabel{cuon:Finances}{{11}{48}{Module cuon.Finances\relax }{section.11}{}}
\@writefile{toc}{\contentsline {subsection}{\numberline {11.1}Variables}{48}{subsection.11.1}}
\@writefile{toc}{\contentsline {subsection}{\numberline {11.2}Class Finances}{48}{subsection.11.2}}
\newlabel{cuon:Finances:Finances}{{11.2}{48}{Class Finances\relax }{subsection.11.2}{}}
\@writefile{toc}{\contentsline {subsubsection}{\numberline {11.2.1}Methods}{48}{subsubsection.11.2.1}}
\newlabel{cuon:Finances:Finances:getCashAccountBook}{{11.2.1}{48}{Methods\relax }{subsubsection.11.2.1}{}}
\newlabel{cuon:Finances:Finances:xmlrpc_getLastDate}{{11.2.1}{48}{Methods\relax }{subsubsection.11.2.1}{}}
\newlabel{cuon:Finances:Finances:xmlrpc_get_AccountPlanNumber}{{11.2.1}{48}{Methods\relax }{subsubsection.11.2.1}{}}
\newlabel{cuon:Finances:Finances:xmlrpc_get_iAcct}{{11.2.1}{48}{Methods\relax }{subsubsection.11.2.1}{}}
\newlabel{cuon:Finances:Finances:xmlrpc_get_acct}{{11.2.1}{48}{Methods\relax }{subsubsection.11.2.1}{}}
\newlabel{cuon:Finances:Finances:xmlrpc_getAcctID}{{11.2.1}{48}{Methods\relax }{subsubsection.11.2.1}{}}
\newlabel{cuon:Finances:Finances:xmlrpc_get_cabShortKeyValues}{{11.2.1}{48}{Methods\relax }{subsubsection.11.2.1}{}}
\newlabel{cuon:Finances:Finances:xmlrpc_get_cab_designation}{{11.2.1}{49}{Methods\relax }{subsubsection.11.2.1}{}}
\newlabel{cuon:Finances:Finances:xmlrpc_get_cab_doc_number1}{{11.2.1}{49}{Methods\relax }{subsubsection.11.2.1}{}}
\newlabel{cuon:Finances:Finances:xmlrpc_updateAccountInfo}{{11.2.1}{49}{Methods\relax }{subsubsection.11.2.1}{}}
\newlabel{cuon:Finances:Finances:xmlrpc_getTotalAmount}{{11.2.1}{49}{Methods\relax }{subsubsection.11.2.1}{}}
\newlabel{cuon:Finances:Finances:xmlrpc_getTotalAmountString}{{11.2.1}{49}{Methods\relax }{subsubsection.11.2.1}{}}
\newlabel{cuon:Finances:Finances:xmlrpc_getTotalInpayment}{{11.2.1}{49}{Methods\relax }{subsubsection.11.2.1}{}}
\newlabel{cuon:Finances:Finances:xmlrpc_getTotalInpaymentString}{{11.2.1}{49}{Methods\relax }{subsubsection.11.2.1}{}}
\newlabel{cuon:Finances:Finances:xmlrpc_getTotalDiscount}{{11.2.1}{49}{Methods\relax }{subsubsection.11.2.1}{}}
\newlabel{cuon:Finances:Finances:getDiscountSumString}{{11.2.1}{49}{Methods\relax }{subsubsection.11.2.1}{}}
\newlabel{cuon:Finances:Finances:xmlrpc_getResidueSumString}{{11.2.1}{49}{Methods\relax }{subsubsection.11.2.1}{}}
\newlabel{cuon:Finances:Finances:xmlrpc_createTicketFromInpayment}{{11.2.1}{49}{Methods\relax }{subsubsection.11.2.1}{}}
\newlabel{cuon:Finances:Finances:xmlrpc_createTicketFromInvoice}{{11.2.1}{49}{Methods\relax }{subsubsection.11.2.1}{}}
\gdef \LT@xxxvi {\LT@entry 
    {1}{152.92793pt}\LT@entry 
    {1}{258.72162pt}\LT@entry 
    {1}{12.0pt}}
\gdef \LT@xxxvii {\LT@entry 
    {1}{152.92793pt}\LT@entry 
    {1}{258.72162pt}\LT@entry 
    {1}{12.0pt}}
\@writefile{toc}{\contentsline {subsubsection}{\numberline {11.2.2}Class Variables}{50}{subsubsection.11.2.2}}
\@writefile{toc}{\contentsline {subsubsection}{\numberline {11.2.3}Instance Variables}{50}{subsubsection.11.2.3}}
\@setckpt{cuon.Finances-module}{
\setcounter{page}{51}
\setcounter{equation}{0}
\setcounter{enumi}{0}
\setcounter{enumii}{0}
\setcounter{enumiii}{0}
\setcounter{enumiv}{0}
\setcounter{footnote}{0}
\setcounter{mpfootnote}{0}
\setcounter{part}{0}
\setcounter{section}{11}
\setcounter{subsection}{2}
\setcounter{subsubsection}{3}
\setcounter{paragraph}{0}
\setcounter{subparagraph}{0}
\setcounter{figure}{0}
\setcounter{table}{37}
\setcounter{LT@tables}{37}
\setcounter{LT@chunks}{4}
\setcounter{Item}{0}
\setcounter{Hfootnote}{0}
\setcounter{bookmark@seq@number}{87}
\setcounter{section@level}{3}
}
