\relax 
\gdef \LT@lx {\LT@entry 
    {1}{152.92793pt}\LT@entry 
    {1}{258.72162pt}\LT@entry 
    {1}{12.0pt}}
\@writefile{toc}{\contentsline {section}{\numberline {20}Module cuon.Reports.MyXML}{73}{section.20}}
\newlabel{cuon:Reports:MyXML}{{20}{73}{Module cuon.Reports.MyXML\relax }{section.20}{}}
\@writefile{toc}{\contentsline {subsection}{\numberline {20.1}Variables}{73}{subsection.20.1}}
\@writefile{toc}{\contentsline {subsection}{\numberline {20.2}Class MyXML}{73}{subsection.20.2}}
\newlabel{cuon:Reports:MyXML:MyXML}{{20.2}{73}{Class MyXML\relax }{subsection.20.2}{}}
\@writefile{toc}{\contentsline {subsubsection}{\numberline {20.2.1}Methods}{73}{subsubsection.20.2.1}}
\newlabel{cuon:Reports:MyXML:MyXML:NotTextNodeError}{{20.2.1}{73}{Methods\relax }{subsubsection.20.2.1}{}}
\newlabel{cuon:Reports:MyXML:MyXML:__init__}{{20.2.1}{73}{Methods\relax }{subsubsection.20.2.1}{}}
\newlabel{cuon:Reports:MyXML:MyXML:getAttributValue}{{20.2.1}{73}{Methods\relax }{subsubsection.20.2.1}{}}
\newlabel{cuon:Reports:MyXML:MyXML:getColumnAt}{{20.2.1}{73}{Methods\relax }{subsubsection.20.2.1}{}}
\newlabel{cuon:Reports:MyXML:MyXML:getColumnSpecification}{{20.2.1}{73}{Methods\relax }{subsubsection.20.2.1}{}}
\newlabel{cuon:Reports:MyXML:MyXML:getData}{{20.2.1}{73}{Methods\relax }{subsubsection.20.2.1}{}}
\newlabel{cuon:Reports:MyXML:MyXML:getEntries}{{20.2.1}{73}{Methods\relax }{subsubsection.20.2.1}{}}
\newlabel{cuon:Reports:MyXML:MyXML:getEntry}{{20.2.1}{73}{Methods\relax }{subsubsection.20.2.1}{}}
\newlabel{cuon:Reports:MyXML:MyXML:getEntryAt}{{20.2.1}{73}{Methods\relax }{subsubsection.20.2.1}{}}
\newlabel{cuon:Reports:MyXML:MyXML:getEntrySpecification}{{20.2.1}{73}{Methods\relax }{subsubsection.20.2.1}{}}
\newlabel{cuon:Reports:MyXML:MyXML:getListOfEntries}{{20.2.1}{74}{Methods\relax }{subsubsection.20.2.1}{}}
\newlabel{cuon:Reports:MyXML:MyXML:getListOfSequences}{{20.2.1}{74}{Methods\relax }{subsubsection.20.2.1}{}}
\newlabel{cuon:Reports:MyXML:MyXML:getListOfTables}{{20.2.1}{74}{Methods\relax }{subsubsection.20.2.1}{}}
\newlabel{cuon:Reports:MyXML:MyXML:getNode}{{20.2.1}{74}{Methods\relax }{subsubsection.20.2.1}{}}
\newlabel{cuon:Reports:MyXML:MyXML:getNodeData}{{20.2.1}{74}{Methods\relax }{subsubsection.20.2.1}{}}
\newlabel{cuon:Reports:MyXML:MyXML:getNodes}{{20.2.1}{74}{Methods\relax }{subsubsection.20.2.1}{}}
\newlabel{cuon:Reports:MyXML:MyXML:getNumberOfEntries}{{20.2.1}{74}{Methods\relax }{subsubsection.20.2.1}{}}
\newlabel{cuon:Reports:MyXML:MyXML:getNumberOfFields}{{20.2.1}{74}{Methods\relax }{subsubsection.20.2.1}{}}
\newlabel{cuon:Reports:MyXML:MyXML:getRootNode}{{20.2.1}{74}{Methods\relax }{subsubsection.20.2.1}{}}
\newlabel{cuon:Reports:MyXML:MyXML:getSequence}{{20.2.1}{74}{Methods\relax }{subsubsection.20.2.1}{}}
\newlabel{cuon:Reports:MyXML:MyXML:getTable}{{20.2.1}{74}{Methods\relax }{subsubsection.20.2.1}{}}
\newlabel{cuon:Reports:MyXML:MyXML:getTableSpecification}{{20.2.1}{74}{Methods\relax }{subsubsection.20.2.1}{}}
\newlabel{cuon:Reports:MyXML:MyXML:getTextFromNode}{{20.2.1}{74}{Methods\relax }{subsubsection.20.2.1}{}}
\newlabel{cuon:Reports:MyXML:MyXML:nodeToDic}{{20.2.1}{74}{Methods\relax }{subsubsection.20.2.1}{}}
\newlabel{cuon:Reports:MyXML:MyXML:out}{{20.2.1}{75}{Methods\relax }{Item.1}{}}
\newlabel{cuon:Reports:MyXML:MyXML:readDocument}{{20.2.1}{75}{Methods\relax }{Item.1}{}}
\newlabel{cuon:Reports:MyXML:MyXML:test}{{20.2.1}{75}{Methods\relax }{Item.1}{}}
\@setckpt{cuon.Reports.MyXML-module}{
\setcounter{page}{76}
\setcounter{equation}{0}
\setcounter{enumi}{1}
\setcounter{enumii}{0}
\setcounter{enumiii}{0}
\setcounter{enumiv}{0}
\setcounter{footnote}{0}
\setcounter{mpfootnote}{0}
\setcounter{part}{0}
\setcounter{section}{20}
\setcounter{subsection}{2}
\setcounter{subsubsection}{1}
\setcounter{paragraph}{0}
\setcounter{subparagraph}{0}
\setcounter{figure}{0}
\setcounter{table}{60}
\setcounter{LT@tables}{60}
\setcounter{LT@chunks}{4}
\setcounter{Item}{1}
\setcounter{Hfootnote}{0}
\setcounter{bookmark@seq@number}{136}
\setcounter{section@level}{3}
}
