\relax 
\gdef \LT@lxxi {\LT@entry 
    {1}{152.92793pt}\LT@entry 
    {1}{258.72162pt}\LT@entry 
    {1}{12.0pt}}
\@writefile{toc}{\contentsline {section}{\numberline {27}Module cuon.Reports.report\_articles\_pickles\_standard}{89}{section.27}}
\newlabel{cuon:Reports:report_articles_pickles_standard}{{27}{89}{Module cuon.Reports.report\_articles\_pickles\_standard\relax }{section.27}{}}
\@writefile{toc}{\contentsline {subsection}{\numberline {27.1}Variables}{89}{subsection.27.1}}
\@writefile{toc}{\contentsline {subsection}{\numberline {27.2}Class report\_articles\_pickles\_standard}{89}{subsection.27.2}}
\newlabel{cuon:Reports:report_articles_pickles_standard:report_articles_pickles_standard}{{27.2}{89}{Class report\_articles\_pickles\_standard\relax }{subsection.27.2}{}}
\@writefile{toc}{\contentsline {subsubsection}{\numberline {27.2.1}Methods}{89}{subsubsection.27.2.1}}
\newlabel{cuon:Reports:report_articles_pickles_standard:report_articles_pickles_standard:__init__}{{27.2.1}{89}{Methods\relax }{subsubsection.27.2.1}{}}
\newlabel{cuon:Reports:report_articles_pickles_standard:report_articles_pickles_standard:getReportData}{{27.2.1}{89}{Methods\relax }{subsubsection.27.2.1}{}}
\@setckpt{cuon.Reports.report_articles_pickles_standard-module}{
\setcounter{page}{90}
\setcounter{equation}{0}
\setcounter{enumi}{1}
\setcounter{enumii}{0}
\setcounter{enumiii}{0}
\setcounter{enumiv}{0}
\setcounter{footnote}{0}
\setcounter{mpfootnote}{0}
\setcounter{part}{0}
\setcounter{section}{27}
\setcounter{subsection}{2}
\setcounter{subsubsection}{1}
\setcounter{paragraph}{0}
\setcounter{subparagraph}{0}
\setcounter{figure}{0}
\setcounter{table}{71}
\setcounter{LT@tables}{71}
\setcounter{LT@chunks}{4}
\setcounter{Item}{1}
\setcounter{Hfootnote}{0}
\setcounter{bookmark@seq@number}{168}
\setcounter{section@level}{3}
}
