\relax 
\gdef \LT@liii {\LT@entry 
    {1}{152.92793pt}\LT@entry 
    {1}{258.72162pt}\LT@entry 
    {1}{12.0pt}}
\@writefile{toc}{\contentsline {section}{\numberline {17}Module cuon.Report}{67}{section.17}}
\newlabel{cuon:Report}{{17}{67}{Module cuon.Report\relax }{section.17}{}}
\@writefile{toc}{\contentsline {subsection}{\numberline {17.1}Variables}{67}{subsection.17.1}}
\@writefile{toc}{\contentsline {subsection}{\numberline {17.2}Class Report}{67}{subsection.17.2}}
\newlabel{cuon:Report:Report}{{17.2}{67}{Class Report\relax }{subsection.17.2}{}}
\@writefile{toc}{\contentsline {subsubsection}{\numberline {17.2.1}Methods}{67}{subsubsection.17.2.1}}
\newlabel{cuon:Report:Report:xmlrpc_server_address_phonelist1}{{17.2.1}{67}{Methods\relax }{subsubsection.17.2.1}{}}
\newlabel{cuon:Report:Report:xmlrpc_server_address_phonelist11}{{17.2.1}{67}{Methods\relax }{subsubsection.17.2.1}{}}
\newlabel{cuon:Report:Report:xmlrpc_server_address_phonelist12}{{17.2.1}{67}{Methods\relax }{subsubsection.17.2.1}{}}
\newlabel{cuon:Report:Report:xmlrpc_server_articles_number1}{{17.2.1}{67}{Methods\relax }{subsubsection.17.2.1}{}}
\newlabel{cuon:Report:Report:xmlrpc_server_articles_pickles_standard}{{17.2.1}{67}{Methods\relax }{subsubsection.17.2.1}{}}
\newlabel{cuon:Report:Report:xmlrpc_server_graves_plant_standard}{{17.2.1}{67}{Methods\relax }{subsubsection.17.2.1}{}}
\newlabel{cuon:Report:Report:xmlrpc_server_hibernation_incoming_document}{{17.2.1}{68}{Methods\relax }{subsubsection.17.2.1}{}}
\newlabel{cuon:Report:Report:xmlrpc_server_hibernation_pickup_document}{{17.2.1}{68}{Methods\relax }{subsubsection.17.2.1}{}}
\newlabel{cuon:Report:Report:xmlrpc_server_hibernation_invoice}{{17.2.1}{68}{Methods\relax }{subsubsection.17.2.1}{}}
\newlabel{cuon:Report:Report:xmlrpc_server_enquiry_document}{{17.2.1}{68}{Methods\relax }{subsubsection.17.2.1}{}}
\newlabel{cuon:Report:Report:xmlrpc_server_proposal_document}{{17.2.1}{68}{Methods\relax }{subsubsection.17.2.1}{}}
\newlabel{cuon:Report:Report:xmlrpc_server_order_invoice_document}{{17.2.1}{68}{Methods\relax }{subsubsection.17.2.1}{}}
\newlabel{cuon:Report:Report:xmlrpc_server_order_supply_document}{{17.2.1}{68}{Methods\relax }{subsubsection.17.2.1}{}}
\newlabel{cuon:Report:Report:xmlrpc_server_list_list_of_invoices}{{17.2.1}{68}{Methods\relax }{subsubsection.17.2.1}{}}
\newlabel{cuon:Report:Report:xmlrpc_server_list_of_inpayment}{{17.2.1}{68}{Methods\relax }{subsubsection.17.2.1}{}}
\newlabel{cuon:Report:Report:xmlrpc_server_list_of_residue}{{17.2.1}{68}{Methods\relax }{subsubsection.17.2.1}{}}
\newlabel{cuon:Report:Report:xmlrpc_server_list_of_reminder}{{17.2.1}{68}{Methods\relax }{subsubsection.17.2.1}{}}
\newlabel{cuon:Report:Report:xmlrpc_server_list_of_invoices_by_top}{{17.2.1}{68}{Methods\relax }{subsubsection.17.2.1}{}}
\gdef \LT@liv {\LT@entry 
    {1}{152.92793pt}\LT@entry 
    {1}{258.72162pt}\LT@entry 
    {1}{12.0pt}}
\gdef \LT@lv {\LT@entry 
    {1}{152.92793pt}\LT@entry 
    {1}{258.72162pt}\LT@entry 
    {1}{12.0pt}}
\@writefile{toc}{\contentsline {subsubsection}{\numberline {17.2.2}Class Variables}{69}{subsubsection.17.2.2}}
\@writefile{toc}{\contentsline {subsubsection}{\numberline {17.2.3}Instance Variables}{69}{subsubsection.17.2.3}}
\@setckpt{cuon.Report-module}{
\setcounter{page}{70}
\setcounter{equation}{0}
\setcounter{enumi}{0}
\setcounter{enumii}{0}
\setcounter{enumiii}{0}
\setcounter{enumiv}{0}
\setcounter{footnote}{0}
\setcounter{mpfootnote}{0}
\setcounter{part}{0}
\setcounter{section}{17}
\setcounter{subsection}{2}
\setcounter{subsubsection}{3}
\setcounter{paragraph}{0}
\setcounter{subparagraph}{0}
\setcounter{figure}{0}
\setcounter{table}{55}
\setcounter{LT@tables}{55}
\setcounter{LT@chunks}{4}
\setcounter{Item}{0}
\setcounter{Hfootnote}{0}
\setcounter{bookmark@seq@number}{123}
\setcounter{section@level}{3}
}
