\relax 
\gdef \LT@xci {\LT@entry 
    {1}{152.92793pt}\LT@entry 
    {1}{258.72162pt}\LT@entry 
    {1}{12.0pt}}
\@writefile{toc}{\contentsline {section}{\numberline {47}Module cuon.Reports.standardlist}{109}{section.47}}
\newlabel{cuon:Reports:standardlist}{{47}{109}{Module cuon.Reports.standardlist\relax }{section.47}{}}
\@writefile{toc}{\contentsline {subsection}{\numberline {47.1}Variables}{109}{subsection.47.1}}
\@writefile{toc}{\contentsline {subsection}{\numberline {47.2}Class standardlist}{109}{subsection.47.2}}
\newlabel{cuon:Reports:standardlist:standardlist}{{47.2}{109}{Class standardlist\relax }{subsection.47.2}{}}
\@writefile{toc}{\contentsline {subsubsection}{\numberline {47.2.1}Methods}{109}{subsubsection.47.2.1}}
\newlabel{cuon:Reports:standardlist:standardlist:setFileName}{{47.2.1}{109}{Methods\relax }{subsubsection.47.2.1}{}}
\gdef \LT@xcii {\LT@entry 
    {1}{152.92793pt}\LT@entry 
    {1}{258.72162pt}\LT@entry 
    {1}{12.0pt}}
\gdef \LT@xciii {\LT@entry 
    {1}{152.92793pt}\LT@entry 
    {1}{258.72162pt}\LT@entry 
    {1}{12.0pt}}
\@writefile{toc}{\contentsline {subsubsection}{\numberline {47.2.2}Class Variables}{110}{subsubsection.47.2.2}}
\@writefile{toc}{\contentsline {subsubsection}{\numberline {47.2.3}Instance Variables}{110}{subsubsection.47.2.3}}
\@setckpt{cuon.Reports.standardlist-module}{
\setcounter{page}{111}
\setcounter{equation}{0}
\setcounter{enumi}{1}
\setcounter{enumii}{0}
\setcounter{enumiii}{0}
\setcounter{enumiv}{0}
\setcounter{footnote}{0}
\setcounter{mpfootnote}{0}
\setcounter{part}{0}
\setcounter{section}{47}
\setcounter{subsection}{2}
\setcounter{subsubsection}{3}
\setcounter{paragraph}{0}
\setcounter{subparagraph}{0}
\setcounter{figure}{0}
\setcounter{table}{93}
\setcounter{LT@tables}{93}
\setcounter{LT@chunks}{4}
\setcounter{Item}{1}
\setcounter{Hfootnote}{0}
\setcounter{bookmark@seq@number}{250}
\setcounter{section@level}{3}
}
