\relax 
\gdef \LT@lxxiii {\LT@entry 
    {1}{152.92793pt}\LT@entry 
    {1}{258.72162pt}\LT@entry 
    {1}{12.0pt}}
\@writefile{toc}{\contentsline {section}{\numberline {29}Module cuon.Reports.report\_cab\_monthly}{91}{section.29}}
\newlabel{cuon:Reports:report_cab_monthly}{{29}{91}{Module cuon.Reports.report\_cab\_monthly\relax }{section.29}{}}
\@writefile{toc}{\contentsline {subsection}{\numberline {29.1}Variables}{91}{subsection.29.1}}
\@writefile{toc}{\contentsline {subsection}{\numberline {29.2}Class report\_cab\_monthly}{91}{subsection.29.2}}
\newlabel{cuon:Reports:report_cab_monthly:report_cab_monthly}{{29.2}{91}{Class report\_cab\_monthly\relax }{subsection.29.2}{}}
\@writefile{toc}{\contentsline {subsubsection}{\numberline {29.2.1}Methods}{91}{subsubsection.29.2.1}}
\newlabel{cuon:Reports:report_cab_monthly:report_cab_monthly:__init__}{{29.2.1}{91}{Methods\relax }{subsubsection.29.2.1}{}}
\@setckpt{cuon.Reports.report_cab_monthly-module}{
\setcounter{page}{92}
\setcounter{equation}{0}
\setcounter{enumi}{1}
\setcounter{enumii}{0}
\setcounter{enumiii}{0}
\setcounter{enumiv}{0}
\setcounter{footnote}{0}
\setcounter{mpfootnote}{0}
\setcounter{part}{0}
\setcounter{section}{29}
\setcounter{subsection}{2}
\setcounter{subsubsection}{1}
\setcounter{paragraph}{0}
\setcounter{subparagraph}{0}
\setcounter{figure}{0}
\setcounter{table}{73}
\setcounter{LT@tables}{73}
\setcounter{LT@chunks}{4}
\setcounter{Item}{1}
\setcounter{Hfootnote}{0}
\setcounter{bookmark@seq@number}{176}
\setcounter{section@level}{3}
}
