\relax 
\gdef \LT@lxxxv {\LT@entry 
    {1}{152.92793pt}\LT@entry 
    {1}{258.72162pt}\LT@entry 
    {1}{12.0pt}}
\@writefile{toc}{\contentsline {section}{\numberline {41}Module cuon.Reports.report\_order\_list\_of\_invoices}{103}{section.41}}
\newlabel{cuon:Reports:report_order_list_of_invoices}{{41}{103}{Module cuon.Reports.report\_order\_list\_of\_invoices\relax }{section.41}{}}
\@writefile{toc}{\contentsline {subsection}{\numberline {41.1}Variables}{103}{subsection.41.1}}
\@writefile{toc}{\contentsline {subsection}{\numberline {41.2}Class report\_order\_list\_of\_invoices}{103}{subsection.41.2}}
\newlabel{cuon:Reports:report_order_list_of_invoices:report_order_list_of_invoices}{{41.2}{103}{Class report\_order\_list\_of\_invoices\relax }{subsection.41.2}{}}
\@writefile{toc}{\contentsline {subsubsection}{\numberline {41.2.1}Methods}{103}{subsubsection.41.2.1}}
\newlabel{cuon:Reports:report_order_list_of_invoices:report_order_list_of_invoices:getReportData}{{41.2.1}{103}{Methods\relax }{subsubsection.41.2.1}{}}
\@setckpt{cuon.Reports.report_order_list_of_invoices-module}{
\setcounter{page}{104}
\setcounter{equation}{0}
\setcounter{enumi}{1}
\setcounter{enumii}{0}
\setcounter{enumiii}{0}
\setcounter{enumiv}{0}
\setcounter{footnote}{0}
\setcounter{mpfootnote}{0}
\setcounter{part}{0}
\setcounter{section}{41}
\setcounter{subsection}{2}
\setcounter{subsubsection}{1}
\setcounter{paragraph}{0}
\setcounter{subparagraph}{0}
\setcounter{figure}{0}
\setcounter{table}{85}
\setcounter{LT@tables}{85}
\setcounter{LT@chunks}{4}
\setcounter{Item}{1}
\setcounter{Hfootnote}{0}
\setcounter{bookmark@seq@number}{224}
\setcounter{section@level}{3}
}
