\relax 
\gdef \LT@lxxviii {\LT@entry 
    {1}{152.92793pt}\LT@entry 
    {1}{258.72162pt}\LT@entry 
    {1}{12.0pt}}
\@writefile{toc}{\contentsline {section}{\numberline {34}Module cuon.Reports.report\_hibernation\_outgoing\_document}{96}{section.34}}
\newlabel{cuon:Reports:report_hibernation_outgoing_document}{{34}{96}{Module cuon.Reports.report\_hibernation\_outgoing\_document\relax }{section.34}{}}
\@writefile{toc}{\contentsline {subsection}{\numberline {34.1}Variables}{96}{subsection.34.1}}
\@writefile{toc}{\contentsline {subsection}{\numberline {34.2}Class report\_hibernation\_outgoing\_document}{96}{subsection.34.2}}
\newlabel{cuon:Reports:report_hibernation_outgoing_document:report_hibernation_outgoing_document}{{34.2}{96}{Class report\_hibernation\_outgoing\_document\relax }{subsection.34.2}{}}
\@writefile{toc}{\contentsline {subsubsection}{\numberline {34.2.1}Methods}{96}{subsubsection.34.2.1}}
\newlabel{cuon:Reports:report_hibernation_outgoing_document:report_hibernation_outgoing_document:__init__}{{34.2.1}{96}{Methods\relax }{subsubsection.34.2.1}{}}
\@setckpt{cuon.Reports.report_hibernation_outgoing_document-module}{
\setcounter{page}{97}
\setcounter{equation}{0}
\setcounter{enumi}{1}
\setcounter{enumii}{0}
\setcounter{enumiii}{0}
\setcounter{enumiv}{0}
\setcounter{footnote}{0}
\setcounter{mpfootnote}{0}
\setcounter{part}{0}
\setcounter{section}{34}
\setcounter{subsection}{2}
\setcounter{subsubsection}{1}
\setcounter{paragraph}{0}
\setcounter{subparagraph}{0}
\setcounter{figure}{0}
\setcounter{table}{78}
\setcounter{LT@tables}{78}
\setcounter{LT@chunks}{4}
\setcounter{Item}{1}
\setcounter{Hfootnote}{0}
\setcounter{bookmark@seq@number}{196}
\setcounter{section@level}{3}
}
