\relax 
\gdef \LT@cxii {\LT@entry 
    {1}{152.92793pt}\LT@entry 
    {1}{258.72162pt}\LT@entry 
    {1}{12.0pt}}
\@writefile{toc}{\contentsline {section}{\numberline {56}Module cuon.Support}{174}{section.56}}
\newlabel{cuon:Support}{{56}{174}{Module cuon.Support\relax }{section.56}{}}
\@writefile{toc}{\contentsline {subsection}{\numberline {56.1}Variables}{174}{subsection.56.1}}
\@writefile{toc}{\contentsline {subsection}{\numberline {56.2}Class Support}{174}{subsection.56.2}}
\newlabel{cuon:Support:Support}{{56.2}{174}{Class Support\relax }{subsection.56.2}{}}
\@writefile{toc}{\contentsline {subsubsection}{\numberline {56.2.1}Methods}{174}{subsubsection.56.2.1}}
\newlabel{cuon:Support:Support:xmlrpc_getAuthorization}{{56.2.1}{174}{Methods\relax }{subsubsection.56.2.1}{}}
\newlabel{cuon:Support:Support:xmlrpc_getProjects}{{56.2.1}{174}{Methods\relax }{subsubsection.56.2.1}{}}
\newlabel{cuon:Support:Support:xmlrpc_getTickets}{{56.2.1}{174}{Methods\relax }{subsubsection.56.2.1}{}}
\newlabel{cuon:Support:Support:xmlrpc_getTicketDetails}{{56.2.1}{174}{Methods\relax }{subsubsection.56.2.1}{}}
\newlabel{cuon:Support:Support:xmlrpc_getTicketComboBoxEntries}{{56.2.1}{174}{Methods\relax }{subsubsection.56.2.1}{}}
\gdef \LT@cxiii {\LT@entry 
    {1}{152.92793pt}\LT@entry 
    {1}{258.72162pt}\LT@entry 
    {1}{12.0pt}}
\gdef \LT@cxiv {\LT@entry 
    {1}{152.92793pt}\LT@entry 
    {1}{258.72162pt}\LT@entry 
    {1}{12.0pt}}
\@writefile{toc}{\contentsline {subsubsection}{\numberline {56.2.2}Class Variables}{175}{subsubsection.56.2.2}}
\@writefile{toc}{\contentsline {subsubsection}{\numberline {56.2.3}Instance Variables}{175}{subsubsection.56.2.3}}
\@setckpt{cuon.Support-module}{
\setcounter{page}{176}
\setcounter{equation}{0}
\setcounter{enumi}{1}
\setcounter{enumii}{0}
\setcounter{enumiii}{0}
\setcounter{enumiv}{0}
\setcounter{footnote}{0}
\setcounter{mpfootnote}{0}
\setcounter{part}{0}
\setcounter{section}{56}
\setcounter{subsection}{2}
\setcounter{subsubsection}{3}
\setcounter{paragraph}{0}
\setcounter{subparagraph}{0}
\setcounter{figure}{0}
\setcounter{table}{114}
\setcounter{LT@tables}{114}
\setcounter{LT@chunks}{4}
\setcounter{Item}{1}
\setcounter{Hfootnote}{0}
\setcounter{bookmark@seq@number}{306}
\setcounter{section@level}{3}
}
