\relax 
\@writefile{toc}{\contentsline {section}{\numberline {69}Module cuon.jabberBot}{200}{section.69}}
\newlabel{cuon:jabberBot}{{69}{200}{Module cuon.jabberBot\relax }{section.69}{}}
\@writefile{toc}{\contentsline {subsection}{\numberline {69.1}Class jabberBot}{200}{subsection.69.1}}
\newlabel{cuon:jabberBot:jabberBot}{{69.1}{200}{Class jabberBot\relax }{subsection.69.1}{}}
\@writefile{toc}{\contentsline {subsubsection}{\numberline {69.1.1}Methods}{200}{subsubsection.69.1.1}}
\newlabel{cuon:jabberBot:jabberBot:authd}{{69.1.1}{200}{Methods\relax }{subsubsection.69.1.1}{}}
\newlabel{cuon:jabberBot:jabberBot:create_reply}{{69.1.1}{200}{Methods\relax }{subsubsection.69.1.1}{}}
\newlabel{cuon:jabberBot:jabberBot:send}{{69.1.1}{200}{Methods\relax }{subsubsection.69.1.1}{}}
\newlabel{cuon:jabberBot:jabberBot:gotMessage}{{69.1.1}{200}{Methods\relax }{subsubsection.69.1.1}{}}
\gdef \LT@cxlv {\LT@entry 
    {1}{152.92793pt}\LT@entry 
    {1}{258.72162pt}\LT@entry 
    {1}{12.0pt}}
\gdef \LT@cxlvi {\LT@entry 
    {1}{152.92793pt}\LT@entry 
    {1}{258.72162pt}\LT@entry 
    {1}{12.0pt}}
\@writefile{toc}{\contentsline {subsubsection}{\numberline {69.1.2}Class Variables}{201}{subsubsection.69.1.2}}
\@writefile{toc}{\contentsline {subsubsection}{\numberline {69.1.3}Instance Variables}{201}{subsubsection.69.1.3}}
\@setckpt{cuon.jabberBot-module}{
\setcounter{page}{202}
\setcounter{equation}{0}
\setcounter{enumi}{1}
\setcounter{enumii}{0}
\setcounter{enumiii}{0}
\setcounter{enumiv}{0}
\setcounter{footnote}{0}
\setcounter{mpfootnote}{0}
\setcounter{part}{0}
\setcounter{section}{69}
\setcounter{subsection}{1}
\setcounter{subsubsection}{3}
\setcounter{paragraph}{0}
\setcounter{subparagraph}{0}
\setcounter{figure}{0}
\setcounter{table}{146}
\setcounter{LT@tables}{146}
\setcounter{LT@chunks}{4}
\setcounter{Item}{1}
\setcounter{Hfootnote}{0}
\setcounter{bookmark@seq@number}{375}
\setcounter{section@level}{3}
}
