\relax 
\gdef \LT@xc {\LT@entry 
    {1}{152.92793pt}\LT@entry 
    {1}{258.72162pt}\LT@entry 
    {1}{12.0pt}}
\@writefile{toc}{\contentsline {section}{\numberline {46}Module cuon.Reports.report\_stockgoods\_number1}{108}{section.46}}
\newlabel{cuon:Reports:report_stockgoods_number1}{{46}{108}{Module cuon.Reports.report\_stockgoods\_number1\relax }{section.46}{}}
\@writefile{toc}{\contentsline {subsection}{\numberline {46.1}Variables}{108}{subsection.46.1}}
\@writefile{toc}{\contentsline {subsection}{\numberline {46.2}Class report\_stockgoods\_number1}{108}{subsection.46.2}}
\newlabel{cuon:Reports:report_stockgoods_number1:report_stockgoods_number1}{{46.2}{108}{Class report\_stockgoods\_number1\relax }{subsection.46.2}{}}
\@writefile{toc}{\contentsline {subsubsection}{\numberline {46.2.1}Methods}{108}{subsubsection.46.2.1}}
\newlabel{cuon:Reports:report_stockgoods_number1:report_stockgoods_number1:__init__}{{46.2.1}{108}{Methods\relax }{subsubsection.46.2.1}{}}
\@setckpt{cuon.Reports.report_stockgoods_number1-module}{
\setcounter{page}{109}
\setcounter{equation}{0}
\setcounter{enumi}{1}
\setcounter{enumii}{0}
\setcounter{enumiii}{0}
\setcounter{enumiv}{0}
\setcounter{footnote}{0}
\setcounter{mpfootnote}{0}
\setcounter{part}{0}
\setcounter{section}{46}
\setcounter{subsection}{2}
\setcounter{subsubsection}{1}
\setcounter{paragraph}{0}
\setcounter{subparagraph}{0}
\setcounter{figure}{0}
\setcounter{table}{90}
\setcounter{LT@tables}{90}
\setcounter{LT@chunks}{4}
\setcounter{Item}{1}
\setcounter{Hfootnote}{0}
\setcounter{bookmark@seq@number}{244}
\setcounter{section@level}{3}
}
