\relax 
\@writefile{toc}{\contentsline {section}{\numberline {70}Module cuon.simplemail}{202}{section.70}}
\newlabel{cuon:simplemail}{{70}{202}{Module cuon.simplemail\relax }{section.70}{}}
\gdef \LT@cxlvii {\LT@entry 
    {1}{152.92793pt}\LT@entry 
    {1}{258.72162pt}\LT@entry 
    {1}{12.0pt}}
\@writefile{toc}{\contentsline {subsection}{\numberline {70.1}Variables}{203}{subsection.70.1}}
\@writefile{toc}{\contentsline {subsection}{\numberline {70.2}Class SimpleMail\_Exception}{203}{subsection.70.2}}
\newlabel{cuon:simplemail:SimpleMail_Exception}{{70.2}{203}{Class SimpleMail\_Exception\relax }{subsection.70.2}{}}
\@writefile{toc}{\contentsline {subsubsection}{\numberline {70.2.1}Methods}{203}{subsubsection.70.2.1}}
\gdef \LT@cxlviii {\LT@entry 
    {1}{152.92793pt}\LT@entry 
    {1}{258.72162pt}\LT@entry 
    {1}{12.0pt}}
\@writefile{toc}{\contentsline {subsubsection}{\numberline {70.2.2}Properties}{204}{subsubsection.70.2.2}}
\@writefile{toc}{\contentsline {subsection}{\numberline {70.3}Class NoFromAddress\_Exception}{204}{subsection.70.3}}
\newlabel{cuon:simplemail:NoFromAddress_Exception}{{70.3}{204}{Class NoFromAddress\_Exception\relax }{subsection.70.3}{}}
\@writefile{toc}{\contentsline {subsubsection}{\numberline {70.3.1}Methods}{204}{subsubsection.70.3.1}}
\@writefile{toc}{\contentsline {subsubsection}{\numberline {70.3.2}Properties}{204}{subsubsection.70.3.2}}
\gdef \LT@cxlix {\LT@entry 
    {1}{152.92793pt}\LT@entry 
    {1}{258.72162pt}\LT@entry 
    {1}{12.0pt}}
\gdef \LT@cl {\LT@entry 
    {1}{152.92793pt}\LT@entry 
    {1}{258.72162pt}\LT@entry 
    {1}{12.0pt}}
\@writefile{toc}{\contentsline {subsection}{\numberline {70.4}Class NoToAddress\_Exception}{205}{subsection.70.4}}
\newlabel{cuon:simplemail:NoToAddress_Exception}{{70.4}{205}{Class NoToAddress\_Exception\relax }{subsection.70.4}{}}
\@writefile{toc}{\contentsline {subsubsection}{\numberline {70.4.1}Methods}{205}{subsubsection.70.4.1}}
\@writefile{toc}{\contentsline {subsubsection}{\numberline {70.4.2}Properties}{205}{subsubsection.70.4.2}}
\gdef \LT@cli {\LT@entry 
    {1}{152.92793pt}\LT@entry 
    {1}{258.72162pt}\LT@entry 
    {1}{12.0pt}}
\@writefile{toc}{\contentsline {subsection}{\numberline {70.5}Class NoSubject\_Exception}{206}{subsection.70.5}}
\newlabel{cuon:simplemail:NoSubject_Exception}{{70.5}{206}{Class NoSubject\_Exception\relax }{subsection.70.5}{}}
\@writefile{toc}{\contentsline {subsubsection}{\numberline {70.5.1}Methods}{206}{subsubsection.70.5.1}}
\@writefile{toc}{\contentsline {subsubsection}{\numberline {70.5.2}Properties}{206}{subsubsection.70.5.2}}
\gdef \LT@clii {\LT@entry 
    {1}{152.92793pt}\LT@entry 
    {1}{258.72162pt}\LT@entry 
    {1}{12.0pt}}
\@writefile{toc}{\contentsline {subsection}{\numberline {70.6}Class AttachmentNotFound\_Exception}{207}{subsection.70.6}}
\newlabel{cuon:simplemail:AttachmentNotFound_Exception}{{70.6}{207}{Class AttachmentNotFound\_Exception\relax }{subsection.70.6}{}}
\@writefile{toc}{\contentsline {subsubsection}{\numberline {70.6.1}Methods}{207}{subsubsection.70.6.1}}
\@writefile{toc}{\contentsline {subsubsection}{\numberline {70.6.2}Properties}{207}{subsubsection.70.6.2}}
\gdef \LT@cliii {\LT@entry 
    {1}{152.92793pt}\LT@entry 
    {1}{258.72162pt}\LT@entry 
    {1}{12.0pt}}
\@writefile{toc}{\contentsline {subsection}{\numberline {70.7}Class Attachments}{208}{subsection.70.7}}
\newlabel{cuon:simplemail:Attachments}{{70.7}{208}{Class Attachments\relax }{subsection.70.7}{}}
\@writefile{toc}{\contentsline {subsubsection}{\numberline {70.7.1}Methods}{208}{subsubsection.70.7.1}}
\newlabel{cuon:simplemail:Attachments:add_filename}{{70.7.1}{208}{Methods\relax }{subsubsection.70.7.1}{}}
\newlabel{cuon:simplemail:Attachments:count}{{70.7.1}{208}{Methods\relax }{subsubsection.70.7.1}{}}
\newlabel{cuon:simplemail:Attachments:get_list}{{70.7.1}{208}{Methods\relax }{subsubsection.70.7.1}{}}
\@writefile{toc}{\contentsline {subsubsection}{\numberline {70.7.2}Properties}{208}{subsubsection.70.7.2}}
\@writefile{toc}{\contentsline {subsection}{\numberline {70.8}Class Recipients}{209}{subsection.70.8}}
\newlabel{cuon:simplemail:Recipients}{{70.8}{209}{Class Recipients\relax }{subsection.70.8}{}}
\@writefile{toc}{\contentsline {subsubsection}{\numberline {70.8.1}Methods}{209}{subsubsection.70.8.1}}
\newlabel{cuon:simplemail:Recipients:add}{{70.8.1}{209}{Methods\relax }{subsubsection.70.8.1}{}}
\newlabel{cuon:simplemail:Recipients:count}{{70.8.1}{209}{Methods\relax }{subsubsection.70.8.1}{}}
\newlabel{cuon:simplemail:Recipients:get_list}{{70.8.1}{209}{Methods\relax }{subsubsection.70.8.1}{}}
\gdef \LT@cliv {\LT@entry 
    {1}{152.92793pt}\LT@entry 
    {1}{258.72162pt}\LT@entry 
    {1}{12.0pt}}
\gdef \LT@clv {\LT@entry 
    {1}{152.92793pt}\LT@entry 
    {1}{258.72162pt}\LT@entry 
    {1}{12.0pt}}
\@writefile{toc}{\contentsline {subsubsection}{\numberline {70.8.2}Properties}{210}{subsubsection.70.8.2}}
\@writefile{toc}{\contentsline {subsection}{\numberline {70.9}Class CCRecipients}{210}{subsection.70.9}}
\newlabel{cuon:simplemail:CCRecipients}{{70.9}{210}{Class CCRecipients\relax }{subsection.70.9}{}}
\@writefile{toc}{\contentsline {subsubsection}{\numberline {70.9.1}Methods}{210}{subsubsection.70.9.1}}
\@writefile{toc}{\contentsline {subsubsection}{\numberline {70.9.2}Properties}{210}{subsubsection.70.9.2}}
\gdef \LT@clvi {\LT@entry 
    {1}{152.92793pt}\LT@entry 
    {1}{258.72162pt}\LT@entry 
    {1}{12.0pt}}
\@writefile{toc}{\contentsline {subsection}{\numberline {70.10}Class BCCRecipients}{211}{subsection.70.10}}
\newlabel{cuon:simplemail:BCCRecipients}{{70.10}{211}{Class BCCRecipients\relax }{subsection.70.10}{}}
\@writefile{toc}{\contentsline {subsubsection}{\numberline {70.10.1}Methods}{211}{subsubsection.70.10.1}}
\@writefile{toc}{\contentsline {subsubsection}{\numberline {70.10.2}Properties}{211}{subsubsection.70.10.2}}
\@writefile{toc}{\contentsline {subsection}{\numberline {70.11}Class Email}{211}{subsection.70.11}}
\newlabel{cuon:simplemail:Email}{{70.11}{211}{Class Email\relax }{subsection.70.11}{}}
\@writefile{toc}{\contentsline {subsubsection}{\numberline {70.11.1}Methods}{212}{subsubsection.70.11.1}}
\newlabel{cuon:simplemail:Email:send}{{70.11.1}{212}{Methods\relax }{subsubsection.70.11.1}{}}
\gdef \LT@clvii {\LT@entry 
    {1}{152.92793pt}\LT@entry 
    {1}{258.72162pt}\LT@entry 
    {1}{12.0pt}}
\@writefile{toc}{\contentsline {subsubsection}{\numberline {70.11.2}Properties}{213}{subsubsection.70.11.2}}
\@setckpt{cuon.simplemail-module}{
\setcounter{page}{214}
\setcounter{equation}{0}
\setcounter{enumi}{1}
\setcounter{enumii}{0}
\setcounter{enumiii}{0}
\setcounter{enumiv}{0}
\setcounter{footnote}{0}
\setcounter{mpfootnote}{0}
\setcounter{part}{0}
\setcounter{section}{70}
\setcounter{subsection}{11}
\setcounter{subsubsection}{2}
\setcounter{paragraph}{0}
\setcounter{subparagraph}{0}
\setcounter{figure}{0}
\setcounter{table}{157}
\setcounter{LT@tables}{157}
\setcounter{LT@chunks}{5}
\setcounter{Item}{1}
\setcounter{Hfootnote}{0}
\setcounter{bookmark@seq@number}{407}
\setcounter{section@level}{3}
}
