\relax 
\gdef \LT@lxxxvii {\LT@entry 
    {1}{152.92793pt}\LT@entry 
    {1}{258.72162pt}\LT@entry 
    {1}{12.0pt}}
\@writefile{toc}{\contentsline {section}{\numberline {43}Module cuon.Reports.report\_order\_standard\_supply}{105}{section.43}}
\newlabel{cuon:Reports:report_order_standard_supply}{{43}{105}{Module cuon.Reports.report\_order\_standard\_supply\relax }{section.43}{}}
\@writefile{toc}{\contentsline {subsection}{\numberline {43.1}Variables}{105}{subsection.43.1}}
\@writefile{toc}{\contentsline {subsection}{\numberline {43.2}Class report\_order\_standard\_supply}{105}{subsection.43.2}}
\newlabel{cuon:Reports:report_order_standard_supply:report_order_standard_supply}{{43.2}{105}{Class report\_order\_standard\_supply\relax }{subsection.43.2}{}}
\@writefile{toc}{\contentsline {subsubsection}{\numberline {43.2.1}Methods}{105}{subsubsection.43.2.1}}
\newlabel{cuon:Reports:report_order_standard_supply:report_order_standard_supply:getReportData}{{43.2.1}{105}{Methods\relax }{subsubsection.43.2.1}{}}
\@setckpt{cuon.Reports.report_order_standard_supply-module}{
\setcounter{page}{106}
\setcounter{equation}{0}
\setcounter{enumi}{1}
\setcounter{enumii}{0}
\setcounter{enumiii}{0}
\setcounter{enumiv}{0}
\setcounter{footnote}{0}
\setcounter{mpfootnote}{0}
\setcounter{part}{0}
\setcounter{section}{43}
\setcounter{subsection}{2}
\setcounter{subsubsection}{1}
\setcounter{paragraph}{0}
\setcounter{subparagraph}{0}
\setcounter{figure}{0}
\setcounter{table}{87}
\setcounter{LT@tables}{87}
\setcounter{LT@chunks}{4}
\setcounter{Item}{1}
\setcounter{Hfootnote}{0}
\setcounter{bookmark@seq@number}{232}
\setcounter{section@level}{3}
}
