\relax 
\@writefile{toc}{\contentsline {section}{\numberline {49}Module cuon.SVG}{114}{section.49}}
\newlabel{cuon:SVG}{{49}{114}{Module cuon.SVG\relax }{section.49}{}}
\@writefile{toc}{\contentsline {subsection}{\numberline {49.1}Functions}{114}{subsection.49.1}}
\newlabel{cuon:SVG:colorstr}{{49.1}{114}{Functions\relax }{subsection.49.1}{}}
\newlabel{cuon:SVG:beta}{{49.1}{114}{Functions\relax }{subsection.49.1}{}}
\newlabel{cuon:SVG:binomial}{{49.1}{114}{Functions\relax }{subsection.49.1}{}}
\newlabel{cuon:SVG:chisquare}{{49.1}{115}{Functions\relax }{subsection.49.1}{}}
\newlabel{cuon:SVG:exponential}{{49.1}{116}{Functions\relax }{subsection.49.1}{}}
\newlabel{cuon:SVG:f}{{49.1}{117}{Functions\relax }{subsection.49.1}{}}
\newlabel{cuon:SVG:gamma}{{49.1}{118}{Functions\relax }{subsection.49.1}{}}
\newlabel{cuon:SVG:geometric}{{49.1}{119}{Functions\relax }{subsection.49.1}{}}
\newlabel{cuon:SVG:get_state}{{49.1}{120}{Functions\relax }{subsection.49.1}{}}
\newlabel{cuon:SVG:gumbel}{{49.1}{121}{Functions\relax }{subsection.49.1}{}}
\newlabel{cuon:SVG:hypergeometric}{{49.1}{122}{Functions\relax }{subsection.49.1}{}}
\newlabel{cuon:SVG:laplace}{{49.1}{123}{Functions\relax }{subsection.49.1}{}}
\newlabel{cuon:SVG:logistic}{{49.1}{124}{Functions\relax }{subsection.49.1}{}}
\newlabel{cuon:SVG:lognormal}{{49.1}{125}{Functions\relax }{subsection.49.1}{}}
\newlabel{cuon:SVG:logseries}{{49.1}{126}{Functions\relax }{subsection.49.1}{}}
\newlabel{cuon:SVG:multinomial}{{49.1}{127}{Functions\relax }{subsection.49.1}{}}
\newlabel{cuon:SVG:multivariate_normal}{{49.1}{128}{Functions\relax }{subsection.49.1}{}}
\newlabel{cuon:SVG:negative_binomial}{{49.1}{129}{Functions\relax }{subsection.49.1}{}}
\newlabel{cuon:SVG:noncentral_chisquare}{{49.1}{130}{Functions\relax }{subsection.49.1}{}}
\newlabel{cuon:SVG:noncentral_f}{{49.1}{131}{Functions\relax }{subsection.49.1}{}}
\newlabel{cuon:SVG:normal}{{49.1}{132}{Functions\relax }{subsection.49.1}{}}
\newlabel{cuon:SVG:pareto}{{49.1}{133}{Functions\relax }{subsection.49.1}{}}
\newlabel{cuon:SVG:permutation}{{49.1}{134}{Functions\relax }{subsection.49.1}{}}
\newlabel{cuon:SVG:poisson}{{49.1}{135}{Functions\relax }{subsection.49.1}{}}
\newlabel{cuon:SVG:power}{{49.1}{136}{Functions\relax }{subsection.49.1}{}}
\newlabel{cuon:SVG:rand}{{49.1}{137}{Functions\relax }{subsection.49.1}{}}
\newlabel{cuon:SVG:randint}{{49.1}{138}{Functions\relax }{subsection.49.1}{}}
\newlabel{cuon:SVG:randn}{{49.1}{139}{Functions\relax }{subsection.49.1}{}}
\newlabel{cuon:SVG:random_integers}{{49.1}{140}{Functions\relax }{subsection.49.1}{}}
\newlabel{cuon:SVG:random_sample}{{49.1}{141}{Functions\relax }{subsection.49.1}{}}
\newlabel{cuon:SVG:rayleigh}{{49.1}{142}{Functions\relax }{subsection.49.1}{}}
\newlabel{cuon:SVG:seed}{{49.1}{143}{Functions\relax }{subsection.49.1}{}}
\newlabel{cuon:SVG:set_state}{{49.1}{144}{Functions\relax }{subsection.49.1}{}}
\newlabel{cuon:SVG:shuffle}{{49.1}{145}{Functions\relax }{subsection.49.1}{}}
\newlabel{cuon:SVG:standard_cauchy}{{49.1}{146}{Functions\relax }{subsection.49.1}{}}
\newlabel{cuon:SVG:standard_exponential}{{49.1}{147}{Functions\relax }{subsection.49.1}{}}
\newlabel{cuon:SVG:standard_gamma}{{49.1}{148}{Functions\relax }{subsection.49.1}{}}
\newlabel{cuon:SVG:standard_normal}{{49.1}{149}{Functions\relax }{subsection.49.1}{}}
\newlabel{cuon:SVG:standard_t}{{49.1}{150}{Functions\relax }{subsection.49.1}{}}
\newlabel{cuon:SVG:triangular}{{49.1}{151}{Functions\relax }{subsection.49.1}{}}
\newlabel{cuon:SVG:uniform}{{49.1}{152}{Functions\relax }{subsection.49.1}{}}
\newlabel{cuon:SVG:vonmises}{{49.1}{153}{Functions\relax }{subsection.49.1}{}}
\newlabel{cuon:SVG:wald}{{49.1}{154}{Functions\relax }{subsection.49.1}{}}
\newlabel{cuon:SVG:weibull}{{49.1}{155}{Functions\relax }{subsection.49.1}{}}
\newlabel{cuon:SVG:zipf}{{49.1}{156}{Functions\relax }{subsection.49.1}{}}
\@writefile{toc}{\contentsline {subsection}{\numberline {49.2}Variables}{158}{subsection.49.2}}
\gdef \LT@xcvii {\LT@entry 
    {1}{152.92793pt}\LT@entry 
    {1}{258.72162pt}\LT@entry 
    {1}{12.0pt}}
\@writefile{toc}{\contentsline {subsection}{\numberline {49.3}Class SVG}{162}{subsection.49.3}}
\newlabel{cuon:SVG:SVG}{{49.3}{162}{Class SVG\relax }{subsection.49.3}{}}
\@writefile{toc}{\contentsline {subsubsection}{\numberline {49.3.1}Methods}{162}{subsubsection.49.3.1}}
\newlabel{cuon:SVG:SVG:createPage}{{49.3.1}{162}{Methods\relax }{subsubsection.49.3.1}{}}
\newlabel{cuon:SVG:SVG:closePage}{{49.3.1}{162}{Methods\relax }{subsubsection.49.3.1}{}}
\newlabel{cuon:SVG:SVG:setInfo}{{49.3.1}{162}{Methods\relax }{subsubsection.49.3.1}{}}
\newlabel{cuon:SVG:SVG:testPlot}{{49.3.1}{162}{Methods\relax }{subsubsection.49.3.1}{}}
\newlabel{cuon:SVG:SVG:BarChart}{{49.3.1}{162}{Methods\relax }{subsubsection.49.3.1}{}}
\newlabel{cuon:SVG:SVG:endChart}{{49.3.1}{162}{Methods\relax }{subsubsection.49.3.1}{}}
\newlabel{cuon:SVG:SVG:display}{{49.3.1}{162}{Methods\relax }{subsubsection.49.3.1}{}}
\gdef \LT@xcviii {\LT@entry 
    {1}{152.92793pt}\LT@entry 
    {1}{258.72162pt}\LT@entry 
    {1}{12.0pt}}
\gdef \LT@xcix {\LT@entry 
    {1}{152.92793pt}\LT@entry 
    {1}{258.72162pt}\LT@entry 
    {1}{12.0pt}}
\@writefile{toc}{\contentsline {subsubsection}{\numberline {49.3.2}Class Variables}{163}{subsubsection.49.3.2}}
\@writefile{toc}{\contentsline {subsubsection}{\numberline {49.3.3}Instance Variables}{163}{subsubsection.49.3.3}}
\@writefile{toc}{\contentsline {subsection}{\numberline {49.4}Class newSVG}{163}{subsection.49.4}}
\newlabel{cuon:SVG:newSVG}{{49.4}{163}{Class newSVG\relax }{subsection.49.4}{}}
\@writefile{toc}{\contentsline {subsubsection}{\numberline {49.4.1}Methods}{163}{subsubsection.49.4.1}}
\newlabel{cuon:SVG:newSVG:__init__}{{49.4.1}{163}{Methods\relax }{subsubsection.49.4.1}{}}
\newlabel{cuon:SVG:newSVG:add}{{49.4.1}{163}{Methods\relax }{subsubsection.49.4.1}{}}
\newlabel{cuon:SVG:newSVG:getXml}{{49.4.1}{163}{Methods\relax }{subsubsection.49.4.1}{}}
\newlabel{cuon:SVG:newSVG:write_svg}{{49.4.1}{163}{Methods\relax }{subsubsection.49.4.1}{}}
\@writefile{toc}{\contentsline {subsection}{\numberline {49.5}Class Line}{163}{subsection.49.5}}
\newlabel{cuon:SVG:Line}{{49.5}{163}{Class Line\relax }{subsection.49.5}{}}
\@writefile{toc}{\contentsline {subsubsection}{\numberline {49.5.1}Methods}{163}{subsubsection.49.5.1}}
\newlabel{cuon:SVG:Line:__init__}{{49.5.1}{163}{Methods\relax }{subsubsection.49.5.1}{}}
\newlabel{cuon:SVG:Line:getXml}{{49.5.1}{163}{Methods\relax }{subsubsection.49.5.1}{}}
\@writefile{toc}{\contentsline {subsection}{\numberline {49.6}Class Circle}{164}{subsection.49.6}}
\newlabel{cuon:SVG:Circle}{{49.6}{164}{Class Circle\relax }{subsection.49.6}{}}
\@writefile{toc}{\contentsline {subsubsection}{\numberline {49.6.1}Methods}{164}{subsubsection.49.6.1}}
\newlabel{cuon:SVG:Circle:__init__}{{49.6.1}{164}{Methods\relax }{subsubsection.49.6.1}{}}
\newlabel{cuon:SVG:Circle:getXml}{{49.6.1}{164}{Methods\relax }{subsubsection.49.6.1}{}}
\@writefile{toc}{\contentsline {subsection}{\numberline {49.7}Class Rectangle}{164}{subsection.49.7}}
\newlabel{cuon:SVG:Rectangle}{{49.7}{164}{Class Rectangle\relax }{subsection.49.7}{}}
\@writefile{toc}{\contentsline {subsubsection}{\numberline {49.7.1}Methods}{164}{subsubsection.49.7.1}}
\newlabel{cuon:SVG:Rectangle:__init__}{{49.7.1}{164}{Methods\relax }{subsubsection.49.7.1}{}}
\newlabel{cuon:SVG:Rectangle:getXml}{{49.7.1}{164}{Methods\relax }{subsubsection.49.7.1}{}}
\@writefile{toc}{\contentsline {subsection}{\numberline {49.8}Class Text}{164}{subsection.49.8}}
\newlabel{cuon:SVG:Text}{{49.8}{164}{Class Text\relax }{subsection.49.8}{}}
\@writefile{toc}{\contentsline {subsubsection}{\numberline {49.8.1}Methods}{164}{subsubsection.49.8.1}}
\newlabel{cuon:SVG:Text:__init__}{{49.8.1}{164}{Methods\relax }{subsubsection.49.8.1}{}}
\newlabel{cuon:SVG:Text:getXml}{{49.8.1}{164}{Methods\relax }{subsubsection.49.8.1}{}}
\@setckpt{cuon.SVG-module}{
\setcounter{page}{165}
\setcounter{equation}{0}
\setcounter{enumi}{1}
\setcounter{enumii}{0}
\setcounter{enumiii}{0}
\setcounter{enumiv}{0}
\setcounter{footnote}{0}
\setcounter{mpfootnote}{0}
\setcounter{part}{0}
\setcounter{section}{49}
\setcounter{subsection}{8}
\setcounter{subsubsection}{1}
\setcounter{paragraph}{0}
\setcounter{subparagraph}{0}
\setcounter{figure}{0}
\setcounter{table}{99}
\setcounter{LT@tables}{99}
\setcounter{LT@chunks}{4}
\setcounter{Item}{1}
\setcounter{Hfootnote}{0}
\setcounter{bookmark@seq@number}{273}
\setcounter{section@level}{3}
}
