\relax 
\gdef \LT@lxxxii {\LT@entry 
    {1}{152.92793pt}\LT@entry 
    {1}{258.72162pt}\LT@entry 
    {1}{12.0pt}}
\@writefile{toc}{\contentsline {section}{\numberline {38}Module cuon.Reports.report\_list\_of\_reminder}{100}{section.38}}
\newlabel{cuon:Reports:report_list_of_reminder}{{38}{100}{Module cuon.Reports.report\_list\_of\_reminder\relax }{section.38}{}}
\@writefile{toc}{\contentsline {subsection}{\numberline {38.1}Variables}{100}{subsection.38.1}}
\@writefile{toc}{\contentsline {subsection}{\numberline {38.2}Class report\_list\_of\_reminder}{100}{subsection.38.2}}
\newlabel{cuon:Reports:report_list_of_reminder:report_list_of_reminder}{{38.2}{100}{Class report\_list\_of\_reminder\relax }{subsection.38.2}{}}
\@writefile{toc}{\contentsline {subsubsection}{\numberline {38.2.1}Methods}{100}{subsubsection.38.2.1}}
\newlabel{cuon:Reports:report_list_of_reminder:report_list_of_reminder:getReportData}{{38.2.1}{100}{Methods\relax }{subsubsection.38.2.1}{}}
\@setckpt{cuon.Reports.report_list_of_reminder-module}{
\setcounter{page}{101}
\setcounter{equation}{0}
\setcounter{enumi}{1}
\setcounter{enumii}{0}
\setcounter{enumiii}{0}
\setcounter{enumiv}{0}
\setcounter{footnote}{0}
\setcounter{mpfootnote}{0}
\setcounter{part}{0}
\setcounter{section}{38}
\setcounter{subsection}{2}
\setcounter{subsubsection}{1}
\setcounter{paragraph}{0}
\setcounter{subparagraph}{0}
\setcounter{figure}{0}
\setcounter{table}{82}
\setcounter{LT@tables}{82}
\setcounter{LT@chunks}{4}
\setcounter{Item}{1}
\setcounter{Hfootnote}{0}
\setcounter{bookmark@seq@number}{212}
\setcounter{section@level}{3}
}
