\relax 
\gdef \LT@cxli {\LT@entry 
    {1}{152.92793pt}\LT@entry 
    {1}{258.72162pt}\LT@entry 
    {1}{12.0pt}}
\@writefile{toc}{\contentsline {section}{\numberline {67}Module cuon.gridxml}{196}{section.67}}
\newlabel{cuon:gridxml}{{67}{196}{Module cuon.gridxml\relax }{section.67}{}}
\@writefile{toc}{\contentsline {subsection}{\numberline {67.1}Variables}{196}{subsection.67.1}}
\@writefile{toc}{\contentsline {subsection}{\numberline {67.2}Class gridxml}{196}{subsection.67.2}}
\newlabel{cuon:gridxml:gridxml}{{67.2}{196}{Class gridxml\relax }{subsection.67.2}{}}
\@writefile{toc}{\contentsline {subsubsection}{\numberline {67.2.1}Methods}{196}{subsubsection.67.2.1}}
\newlabel{cuon:gridxml:gridxml:__init__}{{67.2.1}{196}{Methods\relax }{subsubsection.67.2.1}{}}
\newlabel{cuon:gridxml:gridxml:createDoc}{{67.2.1}{196}{Methods\relax }{subsubsection.67.2.1}{}}
\newlabel{cuon:gridxml:gridxml:readXmlString}{{67.2.1}{196}{Methods\relax }{subsubsection.67.2.1}{}}
\newlabel{cuon:gridxml:gridxml:dic2xml}{{67.2.1}{196}{Methods\relax }{subsubsection.67.2.1}{}}
\newlabel{cuon:gridxml:gridxml:getDoc2String}{{67.2.1}{196}{Methods\relax }{subsubsection.67.2.1}{}}
\newlabel{cuon:gridxml:gridxml:append2doc}{{67.2.1}{196}{Methods\relax }{subsubsection.67.2.1}{}}
\newlabel{cuon:gridxml:gridxml:xmltodict}{{67.2.1}{196}{Methods\relax }{subsubsection.67.2.1}{}}
\newlabel{cuon:gridxml:gridxml:elementtodict}{{67.2.1}{196}{Methods\relax }{subsubsection.67.2.1}{}}
\newlabel{cuon:gridxml:gridxml:remove_whilespace_nodes}{{67.2.1}{196}{Methods\relax }{subsubsection.67.2.1}{}}
\newlabel{cuon:gridxml:gridxml:addElement}{{67.2.1}{196}{Methods\relax }{subsubsection.67.2.1}{}}
\newlabel{cuon:gridxml:gridxml:getRootNode}{{67.2.1}{196}{Methods\relax }{subsubsection.67.2.1}{}}
\newlabel{cuon:gridxml:gridxml:getSingleNode}{{67.2.1}{196}{Methods\relax }{subsubsection.67.2.1}{}}
\@setckpt{cuon.gridxml-module}{
\setcounter{page}{197}
\setcounter{equation}{0}
\setcounter{enumi}{1}
\setcounter{enumii}{0}
\setcounter{enumiii}{0}
\setcounter{enumiv}{0}
\setcounter{footnote}{0}
\setcounter{mpfootnote}{0}
\setcounter{part}{0}
\setcounter{section}{67}
\setcounter{subsection}{2}
\setcounter{subsubsection}{1}
\setcounter{paragraph}{0}
\setcounter{subparagraph}{0}
\setcounter{figure}{0}
\setcounter{table}{141}
\setcounter{LT@tables}{141}
\setcounter{LT@chunks}{4}
\setcounter{Item}{1}
\setcounter{Hfootnote}{0}
\setcounter{bookmark@seq@number}{364}
\setcounter{section@level}{3}
}
