\relax 
\gdef \LT@lxxv {\LT@entry 
    {1}{152.92793pt}\LT@entry 
    {1}{258.72162pt}\LT@entry 
    {1}{12.0pt}}
\@writefile{toc}{\contentsline {section}{\numberline {31}Module cuon.Reports.report\_grave\_plant\_lists}{93}{section.31}}
\newlabel{cuon:Reports:report_grave_plant_lists}{{31}{93}{Module cuon.Reports.report\_grave\_plant\_lists\relax }{section.31}{}}
\@writefile{toc}{\contentsline {subsection}{\numberline {31.1}Variables}{93}{subsection.31.1}}
\@writefile{toc}{\contentsline {subsection}{\numberline {31.2}Class report\_grave\_plant\_lists}{93}{subsection.31.2}}
\newlabel{cuon:Reports:report_grave_plant_lists:report_grave_plant_lists}{{31.2}{93}{Class report\_grave\_plant\_lists\relax }{subsection.31.2}{}}
\@writefile{toc}{\contentsline {subsubsection}{\numberline {31.2.1}Methods}{93}{subsubsection.31.2.1}}
\newlabel{cuon:Reports:report_grave_plant_lists:report_grave_plant_lists:__init__}{{31.2.1}{93}{Methods\relax }{subsubsection.31.2.1}{}}
\newlabel{cuon:Reports:report_grave_plant_lists:report_grave_plant_lists:getReportData}{{31.2.1}{93}{Methods\relax }{subsubsection.31.2.1}{}}
\@setckpt{cuon.Reports.report_grave_plant_lists-module}{
\setcounter{page}{94}
\setcounter{equation}{0}
\setcounter{enumi}{1}
\setcounter{enumii}{0}
\setcounter{enumiii}{0}
\setcounter{enumiv}{0}
\setcounter{footnote}{0}
\setcounter{mpfootnote}{0}
\setcounter{part}{0}
\setcounter{section}{31}
\setcounter{subsection}{2}
\setcounter{subsubsection}{1}
\setcounter{paragraph}{0}
\setcounter{subparagraph}{0}
\setcounter{figure}{0}
\setcounter{table}{75}
\setcounter{LT@tables}{75}
\setcounter{LT@chunks}{4}
\setcounter{Item}{1}
\setcounter{Hfootnote}{0}
\setcounter{bookmark@seq@number}{184}
\setcounter{section@level}{3}
}
