\relax 
\gdef \LT@lxxii {\LT@entry 
    {1}{152.92793pt}\LT@entry 
    {1}{258.72162pt}\LT@entry 
    {1}{12.0pt}}
\@writefile{toc}{\contentsline {section}{\numberline {28}Module cuon.Reports.report\_basics}{90}{section.28}}
\newlabel{cuon:Reports:report_basics}{{28}{90}{Module cuon.Reports.report\_basics\relax }{section.28}{}}
\@writefile{toc}{\contentsline {subsection}{\numberline {28.1}Variables}{90}{subsection.28.1}}
\@writefile{toc}{\contentsline {subsection}{\numberline {28.2}Class report\_basics}{90}{subsection.28.2}}
\newlabel{cuon:Reports:report_basics:report_basics}{{28.2}{90}{Class report\_basics\relax }{subsection.28.2}{}}
\@writefile{toc}{\contentsline {subsubsection}{\numberline {28.2.1}Methods}{90}{subsubsection.28.2.1}}
\newlabel{cuon:Reports:report_basics:report_basics:__init__}{{28.2.1}{90}{Methods\relax }{subsubsection.28.2.1}{}}
\newlabel{cuon:Reports:report_basics:report_basics:getPdfEncoding}{{28.2.1}{90}{Methods\relax }{subsubsection.28.2.1}{}}
\@setckpt{cuon.Reports.report_basics-module}{
\setcounter{page}{91}
\setcounter{equation}{0}
\setcounter{enumi}{1}
\setcounter{enumii}{0}
\setcounter{enumiii}{0}
\setcounter{enumiv}{0}
\setcounter{footnote}{0}
\setcounter{mpfootnote}{0}
\setcounter{part}{0}
\setcounter{section}{28}
\setcounter{subsection}{2}
\setcounter{subsubsection}{1}
\setcounter{paragraph}{0}
\setcounter{subparagraph}{0}
\setcounter{figure}{0}
\setcounter{table}{72}
\setcounter{LT@tables}{72}
\setcounter{LT@chunks}{4}
\setcounter{Item}{1}
\setcounter{Hfootnote}{0}
\setcounter{bookmark@seq@number}{172}
\setcounter{section@level}{3}
}
