\relax 
\gdef \LT@lxxxiv {\LT@entry 
    {1}{152.92793pt}\LT@entry 
    {1}{258.72162pt}\LT@entry 
    {1}{12.0pt}}
\@writefile{toc}{\contentsline {section}{\numberline {40}Module cuon.Reports.report\_list\_of\_top}{102}{section.40}}
\newlabel{cuon:Reports:report_list_of_top}{{40}{102}{Module cuon.Reports.report\_list\_of\_top\relax }{section.40}{}}
\@writefile{toc}{\contentsline {subsection}{\numberline {40.1}Variables}{102}{subsection.40.1}}
\@writefile{toc}{\contentsline {subsection}{\numberline {40.2}Class report\_list\_of\_top}{102}{subsection.40.2}}
\newlabel{cuon:Reports:report_list_of_top:report_list_of_top}{{40.2}{102}{Class report\_list\_of\_top\relax }{subsection.40.2}{}}
\@writefile{toc}{\contentsline {subsubsection}{\numberline {40.2.1}Methods}{102}{subsubsection.40.2.1}}
\newlabel{cuon:Reports:report_list_of_top:report_list_of_top:getReportData}{{40.2.1}{102}{Methods\relax }{subsubsection.40.2.1}{}}
\@setckpt{cuon.Reports.report_list_of_top-module}{
\setcounter{page}{103}
\setcounter{equation}{0}
\setcounter{enumi}{1}
\setcounter{enumii}{0}
\setcounter{enumiii}{0}
\setcounter{enumiv}{0}
\setcounter{footnote}{0}
\setcounter{mpfootnote}{0}
\setcounter{part}{0}
\setcounter{section}{40}
\setcounter{subsection}{2}
\setcounter{subsubsection}{1}
\setcounter{paragraph}{0}
\setcounter{subparagraph}{0}
\setcounter{figure}{0}
\setcounter{table}{84}
\setcounter{LT@tables}{84}
\setcounter{LT@chunks}{4}
\setcounter{Item}{1}
\setcounter{Hfootnote}{0}
\setcounter{bookmark@seq@number}{220}
\setcounter{section@level}{3}
}
