\relax 
\gdef \LT@cxxi {\LT@entry 
    {1}{152.92793pt}\LT@entry 
    {1}{258.72162pt}\LT@entry 
    {1}{12.0pt}}
\@writefile{toc}{\contentsline {section}{\numberline {59}Module cuon.Web}{180}{section.59}}
\newlabel{cuon:Web}{{59}{180}{Module cuon.Web\relax }{section.59}{}}
\@writefile{toc}{\contentsline {subsection}{\numberline {59.1}Variables}{180}{subsection.59.1}}
\@writefile{toc}{\contentsline {subsection}{\numberline {59.2}Class Web}{180}{subsection.59.2}}
\newlabel{cuon:Web:Web}{{59.2}{180}{Class Web\relax }{subsection.59.2}{}}
\@writefile{toc}{\contentsline {subsubsection}{\numberline {59.2.1}Methods}{180}{subsubsection.59.2.1}}
\newlabel{cuon:Web:Web:xmlrpc_addCalendarEvent}{{59.2.1}{180}{Methods\relax }{subsubsection.59.2.1}{}}
\newlabel{cuon:Web:Web:xmlrpc_updateCalendar}{{59.2.1}{180}{Methods\relax }{subsubsection.59.2.1}{}}
\newlabel{cuon:Web:Web:xmlrpc_restartServerWeb2}{{59.2.1}{180}{Methods\relax }{subsubsection.59.2.1}{}}
\newlabel{cuon:Web:Web:xmlrpc_cron_create_iCal}{{59.2.1}{180}{Methods\relax }{subsubsection.59.2.1}{}}
\newlabel{cuon:Web:Web:xmlrpc_cron_create_iCal2}{{59.2.1}{180}{Methods\relax }{subsubsection.59.2.1}{}}
\gdef \LT@cxxii {\LT@entry 
    {1}{152.92793pt}\LT@entry 
    {1}{258.72162pt}\LT@entry 
    {1}{12.0pt}}
\gdef \LT@cxxiii {\LT@entry 
    {1}{152.92793pt}\LT@entry 
    {1}{258.72162pt}\LT@entry 
    {1}{12.0pt}}
\@writefile{toc}{\contentsline {subsubsection}{\numberline {59.2.2}Class Variables}{181}{subsubsection.59.2.2}}
\@writefile{toc}{\contentsline {subsubsection}{\numberline {59.2.3}Instance Variables}{181}{subsubsection.59.2.3}}
\@setckpt{cuon.Web-module}{
\setcounter{page}{182}
\setcounter{equation}{0}
\setcounter{enumi}{1}
\setcounter{enumii}{0}
\setcounter{enumiii}{0}
\setcounter{enumiv}{0}
\setcounter{footnote}{0}
\setcounter{mpfootnote}{0}
\setcounter{part}{0}
\setcounter{section}{59}
\setcounter{subsection}{2}
\setcounter{subsubsection}{3}
\setcounter{paragraph}{0}
\setcounter{subparagraph}{0}
\setcounter{figure}{0}
\setcounter{table}{123}
\setcounter{LT@tables}{123}
\setcounter{LT@chunks}{4}
\setcounter{Item}{1}
\setcounter{Hfootnote}{0}
\setcounter{bookmark@seq@number}{324}
\setcounter{section@level}{3}
}
