\relax 
\gdef \LT@lxi {\LT@entry 
    {1}{152.92793pt}\LT@entry 
    {1}{258.72162pt}\LT@entry 
    {1}{12.0pt}}
\@writefile{toc}{\contentsline {section}{\numberline {21}Module cuon.Reports.report}{76}{section.21}}
\newlabel{cuon:Reports:report}{{21}{76}{Module cuon.Reports.report\relax }{section.21}{}}
\@writefile{toc}{\contentsline {subsection}{\numberline {21.1}Variables}{76}{subsection.21.1}}
\@writefile{toc}{\contentsline {subsection}{\numberline {21.2}Class report}{76}{subsection.21.2}}
\newlabel{cuon:Reports:report:report}{{21.2}{76}{Class report\relax }{subsection.21.2}{}}
\@writefile{toc}{\contentsline {subsubsection}{\numberline {21.2.1}Methods}{76}{subsubsection.21.2.1}}
\newlabel{cuon:Reports:report:report:start}{{21.2.1}{76}{Methods\relax }{subsubsection.21.2.1}{}}
\newlabel{cuon:Reports:report:report:setDicUser}{{21.2.1}{76}{Methods\relax }{subsubsection.21.2.1}{}}
\newlabel{cuon:Reports:report:report:loadXmlReportFile}{{21.2.1}{76}{Methods\relax }{subsubsection.21.2.1}{}}
\newlabel{cuon:Reports:report:report:loadXmlReport}{{21.2.1}{76}{Methods\relax }{subsubsection.21.2.1}{}}
\newlabel{cuon:Reports:report:report:setReportValues}{{21.2.1}{76}{Methods\relax }{subsubsection.21.2.1}{}}
\newlabel{cuon:Reports:report:report:getReportHeader}{{21.2.1}{77}{Methods\relax }{subsubsection.21.2.1}{}}
\newlabel{cuon:Reports:report:report:getPageHeader}{{21.2.1}{77}{Methods\relax }{subsubsection.21.2.1}{}}
\newlabel{cuon:Reports:report:report:getPageFooter}{{21.2.1}{77}{Methods\relax }{subsubsection.21.2.1}{}}
\newlabel{cuon:Reports:report:report:getReportFooter}{{21.2.1}{77}{Methods\relax }{subsubsection.21.2.1}{}}
\newlabel{cuon:Reports:report:report:startReport}{{21.2.1}{77}{Methods\relax }{subsubsection.21.2.1}{}}
\newlabel{cuon:Reports:report:report:testEndOfPage}{{21.2.1}{77}{Methods\relax }{subsubsection.21.2.1}{}}
\newlabel{cuon:Reports:report:report:doEndOfPage}{{21.2.1}{77}{Methods\relax }{subsubsection.21.2.1}{}}
\newlabel{cuon:Reports:report:report:getXmlEntry}{{21.2.1}{77}{Methods\relax }{subsubsection.21.2.1}{}}
\newlabel{cuon:Reports:report:report:getReportEntry}{{21.2.1}{77}{Methods\relax }{subsubsection.21.2.1}{}}
\newlabel{cuon:Reports:report:report:createTestSite}{{21.2.1}{77}{Methods\relax }{subsubsection.21.2.1}{}}
\newlabel{cuon:Reports:report:report:createPdf}{{21.2.1}{77}{Methods\relax }{subsubsection.21.2.1}{}}
\newlabel{cuon:Reports:report:report:printNewPage}{{21.2.1}{77}{Methods\relax }{subsubsection.21.2.1}{}}
\newlabel{cuon:Reports:report:report:closePDF}{{21.2.1}{77}{Methods\relax }{subsubsection.21.2.1}{}}
\newlabel{cuon:Reports:report:report:setLatestSiteInformations}{{21.2.1}{77}{Methods\relax }{subsubsection.21.2.1}{}}
\newlabel{cuon:Reports:report:report:printReportHeader}{{21.2.1}{77}{Methods\relax }{subsubsection.21.2.1}{}}
\newlabel{cuon:Reports:report:report:printPageHeader}{{21.2.1}{77}{Methods\relax }{subsubsection.21.2.1}{}}
\newlabel{cuon:Reports:report:report:printPageDetails}{{21.2.1}{77}{Methods\relax }{subsubsection.21.2.1}{}}
\newlabel{cuon:Reports:report:report:printPageFooter}{{21.2.1}{77}{Methods\relax }{subsubsection.21.2.1}{}}
\newlabel{cuon:Reports:report:report:printReportFooter}{{21.2.1}{77}{Methods\relax }{subsubsection.21.2.1}{}}
\newlabel{cuon:Reports:report:report:printPdfField}{{21.2.1}{77}{Methods\relax }{subsubsection.21.2.1}{}}
\newlabel{cuon:Reports:report:report:printTitle}{{21.2.1}{78}{Methods\relax }{subsubsection.21.2.1}{}}
\newlabel{cuon:Reports:report:report:printHeader}{{21.2.1}{78}{Methods\relax }{subsubsection.21.2.1}{}}
\newlabel{cuon:Reports:report:report:createHeader}{{21.2.1}{78}{Methods\relax }{subsubsection.21.2.1}{}}
\newlabel{cuon:Reports:report:report:createStandardPageHeader}{{21.2.1}{78}{Methods\relax }{subsubsection.21.2.1}{}}
\newlabel{cuon:Reports:report:report:createPdfPages}{{21.2.1}{78}{Methods\relax }{subsubsection.21.2.1}{}}
\newlabel{cuon:Reports:report:report:firstPage}{{21.2.1}{78}{Methods\relax }{subsubsection.21.2.1}{}}
\newlabel{cuon:Reports:report:report:newPage}{{21.2.1}{78}{Methods\relax }{subsubsection.21.2.1}{}}
\newlabel{cuon:Reports:report:report:setBackground}{{21.2.1}{78}{Methods\relax }{subsubsection.21.2.1}{}}
\newlabel{cuon:Reports:report:report:doPrintPart}{{21.2.1}{78}{Methods\relax }{subsubsection.21.2.1}{}}
\newlabel{cuon:Reports:report:report:checkProperty}{{21.2.1}{78}{Methods\relax }{subsubsection.21.2.1}{}}
\gdef \LT@lxii {\LT@entry 
    {1}{152.92793pt}\LT@entry 
    {1}{258.72162pt}\LT@entry 
    {1}{12.0pt}}
\gdef \LT@lxiii {\LT@entry 
    {1}{152.92793pt}\LT@entry 
    {1}{258.72162pt}\LT@entry 
    {1}{12.0pt}}
\@writefile{toc}{\contentsline {subsubsection}{\numberline {21.2.2}Class Variables}{79}{subsubsection.21.2.2}}
\@writefile{toc}{\contentsline {subsubsection}{\numberline {21.2.3}Instance Variables}{79}{subsubsection.21.2.3}}
\@setckpt{cuon.Reports.report-module}{
\setcounter{page}{80}
\setcounter{equation}{0}
\setcounter{enumi}{1}
\setcounter{enumii}{0}
\setcounter{enumiii}{0}
\setcounter{enumiv}{0}
\setcounter{footnote}{0}
\setcounter{mpfootnote}{0}
\setcounter{part}{0}
\setcounter{section}{21}
\setcounter{subsection}{2}
\setcounter{subsubsection}{3}
\setcounter{paragraph}{0}
\setcounter{subparagraph}{0}
\setcounter{figure}{0}
\setcounter{table}{63}
\setcounter{LT@tables}{63}
\setcounter{LT@chunks}{4}
\setcounter{Item}{1}
\setcounter{Hfootnote}{0}
\setcounter{bookmark@seq@number}{142}
\setcounter{section@level}{3}
}
