\relax 
\gdef \LT@xli {\LT@entry 
    {1}{152.92793pt}\LT@entry 
    {1}{258.72162pt}\LT@entry 
    {1}{12.0pt}}
\@writefile{toc}{\contentsline {section}{\numberline {13}Module cuon.Grave}{54}{section.13}}
\newlabel{cuon:Grave}{{13}{54}{Module cuon.Grave\relax }{section.13}{}}
\@writefile{toc}{\contentsline {subsection}{\numberline {13.1}Variables}{54}{subsection.13.1}}
\@writefile{toc}{\contentsline {subsection}{\numberline {13.2}Class Grave}{54}{subsection.13.2}}
\newlabel{cuon:Grave:Grave}{{13.2}{54}{Class Grave\relax }{subsection.13.2}{}}
\@writefile{toc}{\contentsline {subsubsection}{\numberline {13.2.1}Methods}{54}{subsubsection.13.2.1}}
\newlabel{cuon:Grave:Grave:xmlrpc_getComboBoxEntries}{{13.2.1}{54}{Methods\relax }{subsubsection.13.2.1}{}}
\newlabel{cuon:Grave:Grave:xmlrpc_getService}{{13.2.1}{54}{Methods\relax }{subsubsection.13.2.1}{}}
\newlabel{cuon:Grave:Grave:xmlrpc_getGravesForAddress}{{13.2.1}{54}{Methods\relax }{subsubsection.13.2.1}{}}
\newlabel{cuon:Grave:Grave:xmlrpc_createNewGrave}{{13.2.1}{54}{Methods\relax }{subsubsection.13.2.1}{}}
\newlabel{cuon:Grave:Grave:xmlrpc_getGraveyards}{{13.2.1}{54}{Methods\relax }{subsubsection.13.2.1}{}}
\newlabel{cuon:Grave:Grave:xmlrpc_getComboGraveyards}{{13.2.1}{54}{Methods\relax }{subsubsection.13.2.1}{}}
\newlabel{cuon:Grave:Grave:getGravePlantListValues}{{13.2.1}{54}{Methods\relax }{subsubsection.13.2.1}{}}
\gdef \LT@xlii {\LT@entry 
    {1}{152.92793pt}\LT@entry 
    {1}{258.72162pt}\LT@entry 
    {1}{12.0pt}}
\newlabel{cuon:Grave:Grave:getGravePlantListArticles}{{13.2.1}{55}{Methods\relax }{subsubsection.13.2.1}{}}
\newlabel{cuon:Grave:Grave:xmlrpc_calcAllPrices}{{13.2.1}{55}{Methods\relax }{subsubsection.13.2.1}{}}
\newlabel{cuon:Grave:Grave:xmlrpc_createAllNewInvoice}{{13.2.1}{55}{Methods\relax }{subsubsection.13.2.1}{}}
\newlabel{cuon:Grave:Grave:xmlrpc_createNewInvoice}{{13.2.1}{55}{Methods\relax }{subsubsection.13.2.1}{}}
\@writefile{toc}{\contentsline {subsubsection}{\numberline {13.2.2}Class Variables}{55}{subsubsection.13.2.2}}
\@writefile{toc}{\contentsline {subsubsection}{\numberline {13.2.3}Instance Variables}{55}{subsubsection.13.2.3}}
\gdef \LT@xliii {\LT@entry 
    {1}{152.92793pt}\LT@entry 
    {1}{258.72162pt}\LT@entry 
    {1}{12.0pt}}
\@setckpt{cuon.Grave-module}{
\setcounter{page}{57}
\setcounter{equation}{0}
\setcounter{enumi}{0}
\setcounter{enumii}{0}
\setcounter{enumiii}{0}
\setcounter{enumiv}{0}
\setcounter{footnote}{0}
\setcounter{mpfootnote}{0}
\setcounter{part}{0}
\setcounter{section}{13}
\setcounter{subsection}{2}
\setcounter{subsubsection}{3}
\setcounter{paragraph}{0}
\setcounter{subparagraph}{0}
\setcounter{figure}{0}
\setcounter{table}{43}
\setcounter{LT@tables}{43}
\setcounter{LT@chunks}{4}
\setcounter{Item}{0}
\setcounter{Hfootnote}{0}
\setcounter{bookmark@seq@number}{99}
\setcounter{section@level}{3}
}
