\relax 
\gdef \LT@cxxiv {\LT@entry 
    {1}{152.92793pt}\LT@entry 
    {1}{258.72162pt}\LT@entry 
    {1}{12.0pt}}
\@writefile{toc}{\contentsline {section}{\numberline {60}Module cuon.Web2}{182}{section.60}}
\newlabel{cuon:Web2}{{60}{182}{Module cuon.Web2\relax }{section.60}{}}
\@writefile{toc}{\contentsline {subsection}{\numberline {60.1}Variables}{182}{subsection.60.1}}
\@writefile{toc}{\contentsline {subsection}{\numberline {60.2}Class Web2}{182}{subsection.60.2}}
\newlabel{cuon:Web2:Web2}{{60.2}{182}{Class Web2\relax }{subsection.60.2}{}}
\@writefile{toc}{\contentsline {subsubsection}{\numberline {60.2.1}Methods}{182}{subsubsection.60.2.1}}
\newlabel{cuon:Web2:Web2:getRootElement}{{60.2.1}{182}{Methods\relax }{subsubsection.60.2.1}{}}
\newlabel{cuon:Web2:Web2:getAllSiteElementIDs}{{60.2.1}{182}{Methods\relax }{subsubsection.60.2.1}{}}
\newlabel{cuon:Web2:Web2:getImageIDs}{{60.2.1}{182}{Methods\relax }{subsubsection.60.2.1}{}}
\newlabel{cuon:Web2:Web2:getFileIDs}{{60.2.1}{182}{Methods\relax }{subsubsection.60.2.1}{}}
\newlabel{cuon:Web2:Web2:getSiteElementByID}{{60.2.1}{182}{Methods\relax }{subsubsection.60.2.1}{}}
\newlabel{cuon:Web2:Web2:getLinkedStructure}{{60.2.1}{182}{Methods\relax }{subsubsection.60.2.1}{}}
\newlabel{cuon:Web2:Web2:getNextSites}{{60.2.1}{182}{Methods\relax }{subsubsection.60.2.1}{}}
\gdef \LT@cxxv {\LT@entry 
    {1}{152.92793pt}\LT@entry 
    {1}{258.72162pt}\LT@entry 
    {1}{12.0pt}}
\gdef \LT@cxxvi {\LT@entry 
    {1}{152.92793pt}\LT@entry 
    {1}{258.72162pt}\LT@entry 
    {1}{12.0pt}}
\newlabel{cuon:Web2:Web2:getDirectoryStructure}{{60.2.1}{183}{Methods\relax }{subsubsection.60.2.1}{}}
\@writefile{toc}{\contentsline {subsubsection}{\numberline {60.2.2}Class Variables}{183}{subsubsection.60.2.2}}
\@writefile{toc}{\contentsline {subsubsection}{\numberline {60.2.3}Instance Variables}{183}{subsubsection.60.2.3}}
\@setckpt{cuon.Web2-module}{
\setcounter{page}{184}
\setcounter{equation}{0}
\setcounter{enumi}{1}
\setcounter{enumii}{0}
\setcounter{enumiii}{0}
\setcounter{enumiv}{0}
\setcounter{footnote}{0}
\setcounter{mpfootnote}{0}
\setcounter{part}{0}
\setcounter{section}{60}
\setcounter{subsection}{2}
\setcounter{subsubsection}{3}
\setcounter{paragraph}{0}
\setcounter{subparagraph}{0}
\setcounter{figure}{0}
\setcounter{table}{126}
\setcounter{LT@tables}{126}
\setcounter{LT@chunks}{4}
\setcounter{Item}{1}
\setcounter{Hfootnote}{0}
\setcounter{bookmark@seq@number}{330}
\setcounter{section@level}{3}
}
