\relax 
\gdef \LT@xxxviii {\LT@entry 
    {1}{152.92793pt}\LT@entry 
    {1}{258.72162pt}\LT@entry 
    {1}{12.0pt}}
\@writefile{toc}{\contentsline {section}{\numberline {12}Module cuon.Garden}{51}{section.12}}
\newlabel{cuon:Garden}{{12}{51}{Module cuon.Garden\relax }{section.12}{}}
\@writefile{toc}{\contentsline {subsection}{\numberline {12.1}Variables}{51}{subsection.12.1}}
\@writefile{toc}{\contentsline {subsection}{\numberline {12.2}Class Garden}{51}{subsection.12.2}}
\newlabel{cuon:Garden:Garden}{{12.2}{51}{Class Garden\relax }{subsection.12.2}{}}
\@writefile{toc}{\contentsline {subsubsection}{\numberline {12.2.1}Methods}{51}{subsubsection.12.2.1}}
\newlabel{cuon:Garden:Garden:xmlrpc_getOutgoingNumber}{{12.2.1}{51}{Methods\relax }{subsubsection.12.2.1}{}}
\newlabel{cuon:Garden:Garden:xmlrpc_getNewSequenceNumber}{{12.2.1}{51}{Methods\relax }{subsubsection.12.2.1}{}}
\newlabel{cuon:Garden:Garden:xmlrpc_getInvoiceAddress}{{12.2.1}{51}{Methods\relax }{subsubsection.12.2.1}{}}
\newlabel{cuon:Garden:Garden:xmlrpc_getInvoiceNumber}{{12.2.1}{51}{Methods\relax }{subsubsection.12.2.1}{}}
\newlabel{cuon:Garden:Garden:xmlrpc_getIncomingAddress}{{12.2.1}{51}{Methods\relax }{subsubsection.12.2.1}{}}
\newlabel{cuon:Garden:Garden:xmlrpc_getPickupData}{{12.2.1}{51}{Methods\relax }{subsubsection.12.2.1}{}}
\newlabel{cuon:Garden:Garden:xmlrpc_getIncomingNumber}{{12.2.1}{51}{Methods\relax }{subsubsection.12.2.1}{}}
\newlabel{cuon:Garden:Garden:xmlrpc_getPickupNumber}{{12.2.1}{52}{Methods\relax }{subsubsection.12.2.1}{}}
\newlabel{cuon:Garden:Garden:xmlrpc_getNewHibernationNumber}{{12.2.1}{52}{Methods\relax }{subsubsection.12.2.1}{}}
\newlabel{cuon:Garden:Garden:xmlrpc_getHibernationIncoming}{{12.2.1}{52}{Methods\relax }{subsubsection.12.2.1}{}}
\newlabel{cuon:Garden:Garden:xmlrpc_getHibernationPickup}{{12.2.1}{52}{Methods\relax }{subsubsection.12.2.1}{}}
\newlabel{cuon:Garden:Garden:xmlrpc_reorgPlantNumber}{{12.2.1}{52}{Methods\relax }{subsubsection.12.2.1}{}}
\newlabel{cuon:Garden:Garden:xmlrpc_getOrderPositions}{{12.2.1}{52}{Methods\relax }{subsubsection.12.2.1}{}}
\newlabel{cuon:Garden:Garden:xmlrpc_getSum}{{12.2.1}{52}{Methods\relax }{subsubsection.12.2.1}{}}
\newlabel{cuon:Garden:Garden:xmlrpc_getArticleAssociatedID}{{12.2.1}{52}{Methods\relax }{subsubsection.12.2.1}{}}
\newlabel{cuon:Garden:Garden:xmlrpc_getHibsWithoutInvoices}{{12.2.1}{52}{Methods\relax }{subsubsection.12.2.1}{}}
\newlabel{cuon:Garden:Garden:xmlrpc_getHibernationForAddress}{{12.2.1}{52}{Methods\relax }{subsubsection.12.2.1}{}}
\newlabel{cuon:Garden:Garden:xmlrpc_checkGardenSchedule}{{12.2.1}{52}{Methods\relax }{subsubsection.12.2.1}{}}
\gdef \LT@xxxix {\LT@entry 
    {1}{152.92793pt}\LT@entry 
    {1}{258.72162pt}\LT@entry 
    {1}{12.0pt}}
\gdef \LT@xl {\LT@entry 
    {1}{152.92793pt}\LT@entry 
    {1}{258.72162pt}\LT@entry 
    {1}{12.0pt}}
\@writefile{toc}{\contentsline {subsubsection}{\numberline {12.2.2}Class Variables}{53}{subsubsection.12.2.2}}
\@writefile{toc}{\contentsline {subsubsection}{\numberline {12.2.3}Instance Variables}{53}{subsubsection.12.2.3}}
\@setckpt{cuon.Garden-module}{
\setcounter{page}{54}
\setcounter{equation}{0}
\setcounter{enumi}{0}
\setcounter{enumii}{0}
\setcounter{enumiii}{0}
\setcounter{enumiv}{0}
\setcounter{footnote}{0}
\setcounter{mpfootnote}{0}
\setcounter{part}{0}
\setcounter{section}{12}
\setcounter{subsection}{2}
\setcounter{subsubsection}{3}
\setcounter{paragraph}{0}
\setcounter{subparagraph}{0}
\setcounter{figure}{0}
\setcounter{table}{40}
\setcounter{LT@tables}{40}
\setcounter{LT@chunks}{4}
\setcounter{Item}{0}
\setcounter{Hfootnote}{0}
\setcounter{bookmark@seq@number}{93}
\setcounter{section@level}{3}
}
