\relax 
\gdef \LT@cxv {\LT@entry 
    {1}{152.92793pt}\LT@entry 
    {1}{258.72162pt}\LT@entry 
    {1}{12.0pt}}
\@writefile{toc}{\contentsline {section}{\numberline {57}Module cuon.Tweet}{176}{section.57}}
\newlabel{cuon:Tweet}{{57}{176}{Module cuon.Tweet\relax }{section.57}{}}
\@writefile{toc}{\contentsline {subsection}{\numberline {57.1}Variables}{176}{subsection.57.1}}
\@writefile{toc}{\contentsline {subsection}{\numberline {57.2}Class Tweet}{176}{subsection.57.2}}
\newlabel{cuon:Tweet:Tweet}{{57.2}{176}{Class Tweet\relax }{subsection.57.2}{}}
\@writefile{toc}{\contentsline {subsubsection}{\numberline {57.2.1}Methods}{176}{subsubsection.57.2.1}}
\newlabel{cuon:Tweet:Tweet:xmlrpc_sendTwitterMessage}{{57.2.1}{176}{Methods\relax }{subsubsection.57.2.1}{}}
\newlabel{cuon:Tweet:Tweet:xmlrpc_refreshUser}{{57.2.1}{176}{Methods\relax }{subsubsection.57.2.1}{}}
\newlabel{cuon:Tweet:Tweet:xmlrpc_refreshAll}{{57.2.1}{176}{Methods\relax }{subsubsection.57.2.1}{}}
\newlabel{cuon:Tweet:Tweet:xmlrpc_getListOfFollowers}{{57.2.1}{176}{Methods\relax }{subsubsection.57.2.1}{}}
\newlabel{cuon:Tweet:Tweet:xmlrpc_getRepliesForUser}{{57.2.1}{176}{Methods\relax }{subsubsection.57.2.1}{}}
\newlabel{cuon:Tweet:Tweet:xmlrpc_getUserMessages}{{57.2.1}{176}{Methods\relax }{subsubsection.57.2.1}{}}
\newlabel{cuon:Tweet:Tweet:xmlrpc_getDirectMessagesForUser}{{57.2.1}{176}{Methods\relax }{subsubsection.57.2.1}{}}
\gdef \LT@cxvi {\LT@entry 
    {1}{152.92793pt}\LT@entry 
    {1}{258.72162pt}\LT@entry 
    {1}{12.0pt}}
\gdef \LT@cxvii {\LT@entry 
    {1}{152.92793pt}\LT@entry 
    {1}{258.72162pt}\LT@entry 
    {1}{12.0pt}}
\@writefile{toc}{\contentsline {subsubsection}{\numberline {57.2.2}Class Variables}{177}{subsubsection.57.2.2}}
\@writefile{toc}{\contentsline {subsubsection}{\numberline {57.2.3}Instance Variables}{177}{subsubsection.57.2.3}}
\@setckpt{cuon.Tweet-module}{
\setcounter{page}{178}
\setcounter{equation}{0}
\setcounter{enumi}{1}
\setcounter{enumii}{0}
\setcounter{enumiii}{0}
\setcounter{enumiv}{0}
\setcounter{footnote}{0}
\setcounter{mpfootnote}{0}
\setcounter{part}{0}
\setcounter{section}{57}
\setcounter{subsection}{2}
\setcounter{subsubsection}{3}
\setcounter{paragraph}{0}
\setcounter{subparagraph}{0}
\setcounter{figure}{0}
\setcounter{table}{117}
\setcounter{LT@tables}{117}
\setcounter{LT@chunks}{4}
\setcounter{Item}{1}
\setcounter{Hfootnote}{0}
\setcounter{bookmark@seq@number}{312}
\setcounter{section@level}{3}
}
