\relax 
\gdef \LT@lxx {\LT@entry 
    {1}{152.92793pt}\LT@entry 
    {1}{258.72162pt}\LT@entry 
    {1}{12.0pt}}
\@writefile{toc}{\contentsline {section}{\numberline {26}Module cuon.Reports.report\_articles\_number1}{88}{section.26}}
\newlabel{cuon:Reports:report_articles_number1}{{26}{88}{Module cuon.Reports.report\_articles\_number1\relax }{section.26}{}}
\@writefile{toc}{\contentsline {subsection}{\numberline {26.1}Variables}{88}{subsection.26.1}}
\@writefile{toc}{\contentsline {subsection}{\numberline {26.2}Class report\_articles\_number1}{88}{subsection.26.2}}
\newlabel{cuon:Reports:report_articles_number1:report_articles_number1}{{26.2}{88}{Class report\_articles\_number1\relax }{subsection.26.2}{}}
\@writefile{toc}{\contentsline {subsubsection}{\numberline {26.2.1}Methods}{88}{subsubsection.26.2.1}}
\newlabel{cuon:Reports:report_articles_number1:report_articles_number1:__init__}{{26.2.1}{88}{Methods\relax }{subsubsection.26.2.1}{}}
\newlabel{cuon:Reports:report_articles_number1:report_articles_number1:getReportData}{{26.2.1}{88}{Methods\relax }{subsubsection.26.2.1}{}}
\@setckpt{cuon.Reports.report_articles_number1-module}{
\setcounter{page}{89}
\setcounter{equation}{0}
\setcounter{enumi}{1}
\setcounter{enumii}{0}
\setcounter{enumiii}{0}
\setcounter{enumiv}{0}
\setcounter{footnote}{0}
\setcounter{mpfootnote}{0}
\setcounter{part}{0}
\setcounter{section}{26}
\setcounter{subsection}{2}
\setcounter{subsubsection}{1}
\setcounter{paragraph}{0}
\setcounter{subparagraph}{0}
\setcounter{figure}{0}
\setcounter{table}{70}
\setcounter{LT@tables}{70}
\setcounter{LT@chunks}{4}
\setcounter{Item}{1}
\setcounter{Hfootnote}{0}
\setcounter{bookmark@seq@number}{164}
\setcounter{section@level}{3}
}
