\relax 
\gdef \LT@cxviii {\LT@entry 
    {1}{152.92793pt}\LT@entry 
    {1}{258.72162pt}\LT@entry 
    {1}{12.0pt}}
\@writefile{toc}{\contentsline {section}{\numberline {58}Module cuon.User}{178}{section.58}}
\newlabel{cuon:User}{{58}{178}{Module cuon.User\relax }{section.58}{}}
\@writefile{toc}{\contentsline {subsection}{\numberline {58.1}Variables}{178}{subsection.58.1}}
\@writefile{toc}{\contentsline {subsection}{\numberline {58.2}Class User}{178}{subsection.58.2}}
\newlabel{cuon:User:User}{{58.2}{178}{Class User\relax }{subsection.58.2}{}}
\@writefile{toc}{\contentsline {subsubsection}{\numberline {58.2.1}Methods}{178}{subsubsection.58.2.1}}
\newlabel{cuon:User:User:xmlrpc_getNameOfStandardProfile}{{58.2.1}{178}{Methods\relax }{subsubsection.58.2.1}{}}
\newlabel{cuon:User:User:xmlrpc_getStandardProfile}{{58.2.1}{178}{Methods\relax }{subsubsection.58.2.1}{}}
\newlabel{cuon:User:User:xmlrpc_getModulList}{{58.2.1}{178}{Methods\relax }{subsubsection.58.2.1}{}}
\newlabel{cuon:User:User:xmlrpc_getClientInfo}{{58.2.1}{178}{Methods\relax }{subsubsection.58.2.1}{}}
\newlabel{cuon:User:User:xmlrpc_getDate}{{58.2.1}{178}{Methods\relax }{subsubsection.58.2.1}{}}
\newlabel{cuon:User:User:xmlrpc_getStaffAddressString}{{58.2.1}{178}{Methods\relax }{subsubsection.58.2.1}{}}
\gdef \LT@cxix {\LT@entry 
    {1}{152.92793pt}\LT@entry 
    {1}{258.72162pt}\LT@entry 
    {1}{12.0pt}}
\gdef \LT@cxx {\LT@entry 
    {1}{152.92793pt}\LT@entry 
    {1}{258.72162pt}\LT@entry 
    {1}{12.0pt}}
\newlabel{cuon:User:User:xmlrpc_setUserData}{{58.2.1}{179}{Methods\relax }{subsubsection.58.2.1}{}}
\@writefile{toc}{\contentsline {subsubsection}{\numberline {58.2.2}Class Variables}{179}{subsubsection.58.2.2}}
\@writefile{toc}{\contentsline {subsubsection}{\numberline {58.2.3}Instance Variables}{179}{subsubsection.58.2.3}}
\@setckpt{cuon.User-module}{
\setcounter{page}{180}
\setcounter{equation}{0}
\setcounter{enumi}{1}
\setcounter{enumii}{0}
\setcounter{enumiii}{0}
\setcounter{enumiv}{0}
\setcounter{footnote}{0}
\setcounter{mpfootnote}{0}
\setcounter{part}{0}
\setcounter{section}{58}
\setcounter{subsection}{2}
\setcounter{subsubsection}{3}
\setcounter{paragraph}{0}
\setcounter{subparagraph}{0}
\setcounter{figure}{0}
\setcounter{table}{120}
\setcounter{LT@tables}{120}
\setcounter{LT@chunks}{4}
\setcounter{Item}{1}
\setcounter{Hfootnote}{0}
\setcounter{bookmark@seq@number}{318}
\setcounter{section@level}{3}
}
