\relax 
\gdef \LT@cix {\LT@entry 
    {1}{152.92793pt}\LT@entry 
    {1}{258.72162pt}\LT@entry 
    {1}{12.0pt}}
\@writefile{toc}{\contentsline {section}{\numberline {55}Module cuon.Stock}{172}{section.55}}
\newlabel{cuon:Stock}{{55}{172}{Module cuon.Stock\relax }{section.55}{}}
\@writefile{toc}{\contentsline {subsection}{\numberline {55.1}Variables}{172}{subsection.55.1}}
\@writefile{toc}{\contentsline {subsection}{\numberline {55.2}Class Stock}{172}{subsection.55.2}}
\newlabel{cuon:Stock:Stock}{{55.2}{172}{Class Stock\relax }{subsection.55.2}{}}
\@writefile{toc}{\contentsline {subsubsection}{\numberline {55.2.1}Methods}{172}{subsubsection.55.2.1}}
\newlabel{cuon:Stock:Stock:xmlrpc_getArticleStockInfo}{{55.2.1}{172}{Methods\relax }{subsubsection.55.2.1}{}}
\newlabel{cuon:Stock:Stock:getStockAmount}{{55.2.1}{172}{Methods\relax }{subsubsection.55.2.1}{}}
\newlabel{cuon:Stock:Stock:xmlrpc_getGoodsList1}{{55.2.1}{172}{Methods\relax }{subsubsection.55.2.1}{}}
\gdef \LT@cx {\LT@entry 
    {1}{152.92793pt}\LT@entry 
    {1}{258.72162pt}\LT@entry 
    {1}{12.0pt}}
\gdef \LT@cxi {\LT@entry 
    {1}{152.92793pt}\LT@entry 
    {1}{258.72162pt}\LT@entry 
    {1}{12.0pt}}
\@writefile{toc}{\contentsline {subsubsection}{\numberline {55.2.2}Class Variables}{173}{subsubsection.55.2.2}}
\@writefile{toc}{\contentsline {subsubsection}{\numberline {55.2.3}Instance Variables}{173}{subsubsection.55.2.3}}
\@setckpt{cuon.Stock-module}{
\setcounter{page}{174}
\setcounter{equation}{0}
\setcounter{enumi}{1}
\setcounter{enumii}{0}
\setcounter{enumiii}{0}
\setcounter{enumiv}{0}
\setcounter{footnote}{0}
\setcounter{mpfootnote}{0}
\setcounter{part}{0}
\setcounter{section}{55}
\setcounter{subsection}{2}
\setcounter{subsubsection}{3}
\setcounter{paragraph}{0}
\setcounter{subparagraph}{0}
\setcounter{figure}{0}
\setcounter{table}{111}
\setcounter{LT@tables}{111}
\setcounter{LT@chunks}{4}
\setcounter{Item}{1}
\setcounter{Hfootnote}{0}
\setcounter{bookmark@seq@number}{300}
\setcounter{section@level}{3}
}
