\relax 
\gdef \LT@xciv {\LT@entry 
    {1}{152.92793pt}\LT@entry 
    {1}{258.72162pt}\LT@entry 
    {1}{12.0pt}}
\@writefile{toc}{\contentsline {section}{\numberline {48}Module cuon.SQL}{111}{section.48}}
\newlabel{cuon:SQL}{{48}{111}{Module cuon.SQL\relax }{section.48}{}}
\@writefile{toc}{\contentsline {subsection}{\numberline {48.1}Variables}{111}{subsection.48.1}}
\@writefile{toc}{\contentsline {subsection}{\numberline {48.2}Class SQL}{111}{subsection.48.2}}
\newlabel{cuon:SQL:SQL}{{48.2}{111}{Class SQL\relax }{subsection.48.2}{}}
\@writefile{toc}{\contentsline {subsubsection}{\numberline {48.2.1}Methods}{111}{subsubsection.48.2.1}}
\newlabel{cuon:SQL:SQL:xmlrpc_createBigRow}{{48.2.1}{111}{Methods\relax }{subsubsection.48.2.1}{}}
\newlabel{cuon:SQL:SQL:xmlrpc_deleteRecord}{{48.2.1}{111}{Methods\relax }{subsubsection.48.2.1}{}}
\newlabel{cuon:SQL:SQL:xmlrpc_executeNormalQuery}{{48.2.1}{111}{Methods\relax }{subsubsection.48.2.1}{}}
\newlabel{cuon:SQL:SQL:xmlrpc_getListEntries}{{48.2.1}{111}{Methods\relax }{subsubsection.48.2.1}{}}
\newlabel{cuon:SQL:SQL:xmlrpc_loadCompeteTable}{{48.2.1}{111}{Methods\relax }{subsubsection.48.2.1}{}}
\gdef \LT@xcv {\LT@entry 
    {1}{152.92793pt}\LT@entry 
    {1}{258.72162pt}\LT@entry 
    {1}{12.0pt}}
\gdef \LT@xcvi {\LT@entry 
    {1}{152.92793pt}\LT@entry 
    {1}{258.72162pt}\LT@entry 
    {1}{12.0pt}}
\newlabel{cuon:SQL:SQL:xmlrpc_loadRecord}{{48.2.1}{112}{Methods\relax }{subsubsection.48.2.1}{}}
\newlabel{cuon:SQL:SQL:xmlrpc_saveRecord}{{48.2.1}{112}{Methods\relax }{subsubsection.48.2.1}{}}
\@writefile{toc}{\contentsline {subsubsection}{\numberline {48.2.2}Class Variables}{112}{subsubsection.48.2.2}}
\@writefile{toc}{\contentsline {subsubsection}{\numberline {48.2.3}Instance Variables}{112}{subsubsection.48.2.3}}
\@setckpt{cuon.SQL-module}{
\setcounter{page}{114}
\setcounter{equation}{0}
\setcounter{enumi}{1}
\setcounter{enumii}{0}
\setcounter{enumiii}{0}
\setcounter{enumiv}{0}
\setcounter{footnote}{0}
\setcounter{mpfootnote}{0}
\setcounter{part}{0}
\setcounter{section}{48}
\setcounter{subsection}{2}
\setcounter{subsubsection}{3}
\setcounter{paragraph}{0}
\setcounter{subparagraph}{0}
\setcounter{figure}{0}
\setcounter{table}{96}
\setcounter{LT@tables}{96}
\setcounter{LT@chunks}{4}
\setcounter{Item}{1}
\setcounter{Hfootnote}{0}
\setcounter{bookmark@seq@number}{256}
\setcounter{section@level}{3}
}
