\relax 
\gdef \LT@cxxxiii {\LT@entry 
    {1}{152.92793pt}\LT@entry 
    {1}{258.72162pt}\LT@entry 
    {1}{12.0pt}}
\@writefile{toc}{\contentsline {section}{\numberline {63}Module cuon.ai}{188}{section.63}}
\newlabel{cuon:ai}{{63}{188}{Module cuon.ai\relax }{section.63}{}}
\@writefile{toc}{\contentsline {subsection}{\numberline {63.1}Variables}{188}{subsection.63.1}}
\@writefile{toc}{\contentsline {subsection}{\numberline {63.2}Class ai}{188}{subsection.63.2}}
\newlabel{cuon:ai:ai}{{63.2}{188}{Class ai\relax }{subsection.63.2}{}}
\@writefile{toc}{\contentsline {subsubsection}{\numberline {63.2.1}Methods}{188}{subsubsection.63.2.1}}
\newlabel{cuon:ai:ai:xmlrpc_getAnswer}{{63.2.1}{188}{Methods\relax }{subsubsection.63.2.1}{}}
\@writefile{toc}{\contentsline {subsubsection}{\numberline {63.2.2}Class Variables}{188}{subsubsection.63.2.2}}
\gdef \LT@cxxxiv {\LT@entry 
    {1}{152.92793pt}\LT@entry 
    {1}{258.72162pt}\LT@entry 
    {1}{12.0pt}}
\gdef \LT@cxxxv {\LT@entry 
    {1}{152.92793pt}\LT@entry 
    {1}{258.72162pt}\LT@entry 
    {1}{12.0pt}}
\@writefile{toc}{\contentsline {subsubsection}{\numberline {63.2.3}Instance Variables}{189}{subsubsection.63.2.3}}
\@setckpt{cuon.ai-module}{
\setcounter{page}{190}
\setcounter{equation}{0}
\setcounter{enumi}{1}
\setcounter{enumii}{0}
\setcounter{enumiii}{0}
\setcounter{enumiv}{0}
\setcounter{footnote}{0}
\setcounter{mpfootnote}{0}
\setcounter{part}{0}
\setcounter{section}{63}
\setcounter{subsection}{2}
\setcounter{subsubsection}{3}
\setcounter{paragraph}{0}
\setcounter{subparagraph}{0}
\setcounter{figure}{0}
\setcounter{table}{135}
\setcounter{LT@tables}{135}
\setcounter{LT@chunks}{4}
\setcounter{Item}{1}
\setcounter{Hfootnote}{0}
\setcounter{bookmark@seq@number}{348}
\setcounter{section@level}{3}
}
