\relax 
\gdef \LT@lix {\LT@entry 
    {1}{152.92793pt}\LT@entry 
    {1}{258.72162pt}\LT@entry 
    {1}{12.0pt}}
\@writefile{toc}{\contentsline {section}{\numberline {19}Package cuon.Reports}{72}{section.19}}
\newlabel{cuon:Reports}{{19}{72}{Package cuon.Reports\relax }{section.19}{}}
\@writefile{toc}{\contentsline {subsection}{\numberline {19.1}Modules}{72}{subsection.19.1}}
\@writefile{toc}{\contentsline {subsection}{\numberline {19.2}Variables}{72}{subsection.19.2}}
\@setckpt{cuon.Reports-module}{
\setcounter{page}{73}
\setcounter{equation}{0}
\setcounter{enumi}{0}
\setcounter{enumii}{0}
\setcounter{enumiii}{0}
\setcounter{enumiv}{0}
\setcounter{footnote}{0}
\setcounter{mpfootnote}{0}
\setcounter{part}{0}
\setcounter{section}{19}
\setcounter{subsection}{2}
\setcounter{subsubsection}{0}
\setcounter{paragraph}{0}
\setcounter{subparagraph}{0}
\setcounter{figure}{0}
\setcounter{table}{59}
\setcounter{LT@tables}{59}
\setcounter{LT@chunks}{4}
\setcounter{Item}{0}
\setcounter{Hfootnote}{0}
\setcounter{bookmark@seq@number}{132}
\setcounter{section@level}{2}
}
