\relax 
\gdef \LT@lxxxiii {\LT@entry 
    {1}{152.92793pt}\LT@entry 
    {1}{258.72162pt}\LT@entry 
    {1}{12.0pt}}
\@writefile{toc}{\contentsline {section}{\numberline {39}Module cuon.Reports.report\_list\_of\_residue}{101}{section.39}}
\newlabel{cuon:Reports:report_list_of_residue}{{39}{101}{Module cuon.Reports.report\_list\_of\_residue\relax }{section.39}{}}
\@writefile{toc}{\contentsline {subsection}{\numberline {39.1}Variables}{101}{subsection.39.1}}
\@writefile{toc}{\contentsline {subsection}{\numberline {39.2}Class report\_list\_of\_residue}{101}{subsection.39.2}}
\newlabel{cuon:Reports:report_list_of_residue:report_list_of_residue}{{39.2}{101}{Class report\_list\_of\_residue\relax }{subsection.39.2}{}}
\@writefile{toc}{\contentsline {subsubsection}{\numberline {39.2.1}Methods}{101}{subsubsection.39.2.1}}
\newlabel{cuon:Reports:report_list_of_residue:report_list_of_residue:getReportData}{{39.2.1}{101}{Methods\relax }{subsubsection.39.2.1}{}}
\@setckpt{cuon.Reports.report_list_of_residue-module}{
\setcounter{page}{102}
\setcounter{equation}{0}
\setcounter{enumi}{1}
\setcounter{enumii}{0}
\setcounter{enumiii}{0}
\setcounter{enumiv}{0}
\setcounter{footnote}{0}
\setcounter{mpfootnote}{0}
\setcounter{part}{0}
\setcounter{section}{39}
\setcounter{subsection}{2}
\setcounter{subsubsection}{1}
\setcounter{paragraph}{0}
\setcounter{subparagraph}{0}
\setcounter{figure}{0}
\setcounter{table}{83}
\setcounter{LT@tables}{83}
\setcounter{LT@chunks}{4}
\setcounter{Item}{1}
\setcounter{Hfootnote}{0}
\setcounter{bookmark@seq@number}{216}
\setcounter{section@level}{3}
}
