\relax 
\gdef \LT@cxxvii {\LT@entry 
    {1}{152.92793pt}\LT@entry 
    {1}{258.72162pt}\LT@entry 
    {1}{12.0pt}}
\@writefile{toc}{\contentsline {section}{\numberline {61}Module cuon.WebAI}{184}{section.61}}
\newlabel{cuon:WebAI}{{61}{184}{Module cuon.WebAI\relax }{section.61}{}}
\@writefile{toc}{\contentsline {subsection}{\numberline {61.1}Variables}{184}{subsection.61.1}}
\@writefile{toc}{\contentsline {subsection}{\numberline {61.2}Class WebAI}{184}{subsection.61.2}}
\newlabel{cuon:WebAI:WebAI}{{61.2}{184}{Class WebAI\relax }{subsection.61.2}{}}
\@writefile{toc}{\contentsline {subsubsection}{\numberline {61.2.1}Methods}{184}{subsubsection.61.2.1}}
\newlabel{cuon:WebAI:WebAI:getAuthorization}{{61.2.1}{184}{Methods\relax }{subsubsection.61.2.1}{}}
\newlabel{cuon:WebAI:WebAI:getAnswer}{{61.2.1}{184}{Methods\relax }{subsubsection.61.2.1}{}}
\gdef \LT@cxxviii {\LT@entry 
    {1}{152.92793pt}\LT@entry 
    {1}{258.72162pt}\LT@entry 
    {1}{12.0pt}}
\gdef \LT@cxxix {\LT@entry 
    {1}{152.92793pt}\LT@entry 
    {1}{258.72162pt}\LT@entry 
    {1}{12.0pt}}
\@writefile{toc}{\contentsline {subsubsection}{\numberline {61.2.2}Class Variables}{185}{subsubsection.61.2.2}}
\@writefile{toc}{\contentsline {subsubsection}{\numberline {61.2.3}Instance Variables}{185}{subsubsection.61.2.3}}
\@setckpt{cuon.WebAI-module}{
\setcounter{page}{186}
\setcounter{equation}{0}
\setcounter{enumi}{1}
\setcounter{enumii}{0}
\setcounter{enumiii}{0}
\setcounter{enumiv}{0}
\setcounter{footnote}{0}
\setcounter{mpfootnote}{0}
\setcounter{part}{0}
\setcounter{section}{61}
\setcounter{subsection}{2}
\setcounter{subsubsection}{3}
\setcounter{paragraph}{0}
\setcounter{subparagraph}{0}
\setcounter{figure}{0}
\setcounter{table}{129}
\setcounter{LT@tables}{129}
\setcounter{LT@chunks}{4}
\setcounter{Item}{1}
\setcounter{Hfootnote}{0}
\setcounter{bookmark@seq@number}{336}
\setcounter{section@level}{3}
}
