\relax 
\gdef \LT@lxiv {\LT@entry 
    {1}{152.92793pt}\LT@entry 
    {1}{258.72162pt}\LT@entry 
    {1}{12.0pt}}
\@writefile{toc}{\contentsline {section}{\numberline {22}Module cuon.Reports.report2\_latex}{80}{section.22}}
\newlabel{cuon:Reports:report2_latex}{{22}{80}{Module cuon.Reports.report2\_latex\relax }{section.22}{}}
\@writefile{toc}{\contentsline {subsection}{\numberline {22.1}Variables}{80}{subsection.22.1}}
\@writefile{toc}{\contentsline {subsection}{\numberline {22.2}Class report2}{80}{subsection.22.2}}
\newlabel{cuon:Reports:report2_latex:report2}{{22.2}{80}{Class report2\relax }{subsection.22.2}{}}
\@writefile{toc}{\contentsline {subsubsection}{\numberline {22.2.1}Methods}{80}{subsubsection.22.2.1}}
\newlabel{cuon:Reports:report2_latex:report2:start}{{22.2.1}{80}{Methods\relax }{subsubsection.22.2.1}{}}
\newlabel{cuon:Reports:report2_latex:report2:setDicUser}{{22.2.1}{80}{Methods\relax }{subsubsection.22.2.1}{}}
\newlabel{cuon:Reports:report2_latex:report2:loadXmlReportFile}{{22.2.1}{80}{Methods\relax }{subsubsection.22.2.1}{}}
\newlabel{cuon:Reports:report2_latex:report2:loadXmlReport}{{22.2.1}{80}{Methods\relax }{subsubsection.22.2.1}{}}
\newlabel{cuon:Reports:report2_latex:report2:setReportValues}{{22.2.1}{80}{Methods\relax }{subsubsection.22.2.1}{}}
\newlabel{cuon:Reports:report2_latex:report2:getReportHeader}{{22.2.1}{80}{Methods\relax }{subsubsection.22.2.1}{}}
\newlabel{cuon:Reports:report2_latex:report2:getPageHeader}{{22.2.1}{81}{Methods\relax }{subsubsection.22.2.1}{}}
\newlabel{cuon:Reports:report2_latex:report2:getPageFooter}{{22.2.1}{81}{Methods\relax }{subsubsection.22.2.1}{}}
\newlabel{cuon:Reports:report2_latex:report2:getReportFooter}{{22.2.1}{81}{Methods\relax }{subsubsection.22.2.1}{}}
\newlabel{cuon:Reports:report2_latex:report2:startReport}{{22.2.1}{81}{Methods\relax }{subsubsection.22.2.1}{}}
\newlabel{cuon:Reports:report2_latex:report2:getXmlEntry}{{22.2.1}{81}{Methods\relax }{subsubsection.22.2.1}{}}
\newlabel{cuon:Reports:report2_latex:report2:getReportEntry}{{22.2.1}{81}{Methods\relax }{subsubsection.22.2.1}{}}
\newlabel{cuon:Reports:report2_latex:report2:createTestSite}{{22.2.1}{81}{Methods\relax }{subsubsection.22.2.1}{}}
\newlabel{cuon:Reports:report2_latex:report2:createPdf}{{22.2.1}{81}{Methods\relax }{subsubsection.22.2.1}{}}
\newlabel{cuon:Reports:report2_latex:report2:printNewPage}{{22.2.1}{81}{Methods\relax }{subsubsection.22.2.1}{}}
\newlabel{cuon:Reports:report2_latex:report2:closePDF}{{22.2.1}{81}{Methods\relax }{subsubsection.22.2.1}{}}
\newlabel{cuon:Reports:report2_latex:report2:setLatestSiteInformations}{{22.2.1}{81}{Methods\relax }{subsubsection.22.2.1}{}}
\newlabel{cuon:Reports:report2_latex:report2:printReportHeader}{{22.2.1}{81}{Methods\relax }{subsubsection.22.2.1}{}}
\newlabel{cuon:Reports:report2_latex:report2:printPageHeader}{{22.2.1}{81}{Methods\relax }{subsubsection.22.2.1}{}}
\newlabel{cuon:Reports:report2_latex:report2:printPageDetails}{{22.2.1}{81}{Methods\relax }{subsubsection.22.2.1}{}}
\newlabel{cuon:Reports:report2_latex:report2:printPageFooter}{{22.2.1}{81}{Methods\relax }{subsubsection.22.2.1}{}}
\newlabel{cuon:Reports:report2_latex:report2:printReportFooter}{{22.2.1}{81}{Methods\relax }{subsubsection.22.2.1}{}}
\newlabel{cuon:Reports:report2_latex:report2:printLatexField}{{22.2.1}{81}{Methods\relax }{subsubsection.22.2.1}{}}
\newlabel{cuon:Reports:report2_latex:report2:printPdfField}{{22.2.1}{81}{Methods\relax }{subsubsection.22.2.1}{}}
\newlabel{cuon:Reports:report2_latex:report2:printTitle}{{22.2.1}{81}{Methods\relax }{subsubsection.22.2.1}{}}
\newlabel{cuon:Reports:report2_latex:report2:printHeader}{{22.2.1}{81}{Methods\relax }{subsubsection.22.2.1}{}}
\newlabel{cuon:Reports:report2_latex:report2:createHeader}{{22.2.1}{82}{Methods\relax }{subsubsection.22.2.1}{}}
\newlabel{cuon:Reports:report2_latex:report2:createStandardPageHeader}{{22.2.1}{82}{Methods\relax }{subsubsection.22.2.1}{}}
\newlabel{cuon:Reports:report2_latex:report2:createPdfPages}{{22.2.1}{82}{Methods\relax }{subsubsection.22.2.1}{}}
\newlabel{cuon:Reports:report2_latex:report2:testEndOfPage}{{22.2.1}{82}{Methods\relax }{subsubsection.22.2.1}{}}
\newlabel{cuon:Reports:report2_latex:report2:firstPage}{{22.2.1}{82}{Methods\relax }{subsubsection.22.2.1}{}}
\newlabel{cuon:Reports:report2_latex:report2:newPage}{{22.2.1}{82}{Methods\relax }{subsubsection.22.2.1}{}}
\newlabel{cuon:Reports:report2_latex:report2:setBackground}{{22.2.1}{82}{Methods\relax }{subsubsection.22.2.1}{}}
\newlabel{cuon:Reports:report2_latex:report2:italic}{{22.2.1}{82}{Methods\relax }{subsubsection.22.2.1}{}}
\newlabel{cuon:Reports:report2_latex:report2:bold}{{22.2.1}{82}{Methods\relax }{subsubsection.22.2.1}{}}
\newlabel{cuon:Reports:report2_latex:report2:section}{{22.2.1}{82}{Methods\relax }{subsubsection.22.2.1}{}}
\newlabel{cuon:Reports:report2_latex:report2:subsection}{{22.2.1}{82}{Methods\relax }{subsubsection.22.2.1}{}}
\newlabel{cuon:Reports:report2_latex:report2:subsubsection}{{22.2.1}{82}{Methods\relax }{subsubsection.22.2.1}{}}
\newlabel{cuon:Reports:report2_latex:report2:chapter}{{22.2.1}{82}{Methods\relax }{subsubsection.22.2.1}{}}
\newlabel{cuon:Reports:report2_latex:report2:title}{{22.2.1}{82}{Methods\relax }{subsubsection.22.2.1}{}}
\newlabel{cuon:Reports:report2_latex:report2:date}{{22.2.1}{82}{Methods\relax }{subsubsection.22.2.1}{}}
\newlabel{cuon:Reports:report2_latex:report2:toc}{{22.2.1}{82}{Methods\relax }{subsubsection.22.2.1}{}}
\newlabel{cuon:Reports:report2_latex:report2:paragraph}{{22.2.1}{82}{Methods\relax }{subsubsection.22.2.1}{}}
\newlabel{cuon:Reports:report2_latex:report2:subparagraph}{{22.2.1}{82}{Methods\relax }{subsubsection.22.2.1}{}}
\newlabel{cuon:Reports:report2_latex:report2:documentclass}{{22.2.1}{82}{Methods\relax }{subsubsection.22.2.1}{}}
\newlabel{cuon:Reports:report2_latex:report2:package}{{22.2.1}{82}{Methods\relax }{subsubsection.22.2.1}{}}
\gdef \LT@lxv {\LT@entry 
    {1}{152.92793pt}\LT@entry 
    {1}{258.72162pt}\LT@entry 
    {1}{12.0pt}}
\newlabel{cuon:Reports:report2_latex:report2:author}{{22.2.1}{83}{Methods\relax }{subsubsection.22.2.1}{}}
\@writefile{toc}{\contentsline {subsubsection}{\numberline {22.2.2}Class Variables}{83}{subsubsection.22.2.2}}
\gdef \LT@lxvi {\LT@entry 
    {1}{152.92793pt}\LT@entry 
    {1}{258.72162pt}\LT@entry 
    {1}{12.0pt}}
\@writefile{toc}{\contentsline {subsubsection}{\numberline {22.2.3}Instance Variables}{84}{subsubsection.22.2.3}}
\@setckpt{cuon.Reports.report2_latex-module}{
\setcounter{page}{85}
\setcounter{equation}{0}
\setcounter{enumi}{1}
\setcounter{enumii}{0}
\setcounter{enumiii}{0}
\setcounter{enumiv}{0}
\setcounter{footnote}{0}
\setcounter{mpfootnote}{0}
\setcounter{part}{0}
\setcounter{section}{22}
\setcounter{subsection}{2}
\setcounter{subsubsection}{3}
\setcounter{paragraph}{0}
\setcounter{subparagraph}{0}
\setcounter{figure}{0}
\setcounter{table}{66}
\setcounter{LT@tables}{66}
\setcounter{LT@chunks}{4}
\setcounter{Item}{1}
\setcounter{Hfootnote}{0}
\setcounter{bookmark@seq@number}{148}
\setcounter{section@level}{3}
}
