\relax 
\gdef \LT@lxxxix {\LT@entry 
    {1}{152.92793pt}\LT@entry 
    {1}{258.72162pt}\LT@entry 
    {1}{12.0pt}}
\@writefile{toc}{\contentsline {section}{\numberline {45}Module cuon.Reports.report\_proposal\_standard}{107}{section.45}}
\newlabel{cuon:Reports:report_proposal_standard}{{45}{107}{Module cuon.Reports.report\_proposal\_standard\relax }{section.45}{}}
\@writefile{toc}{\contentsline {subsection}{\numberline {45.1}Variables}{107}{subsection.45.1}}
\@writefile{toc}{\contentsline {subsection}{\numberline {45.2}Class report\_proposal\_standard}{107}{subsection.45.2}}
\newlabel{cuon:Reports:report_proposal_standard:report_proposal_standard}{{45.2}{107}{Class report\_proposal\_standard\relax }{subsection.45.2}{}}
\@writefile{toc}{\contentsline {subsubsection}{\numberline {45.2.1}Methods}{107}{subsubsection.45.2.1}}
\newlabel{cuon:Reports:report_proposal_standard:report_proposal_standard:getReportData}{{45.2.1}{107}{Methods\relax }{subsubsection.45.2.1}{}}
\@setckpt{cuon.Reports.report_proposal_standard-module}{
\setcounter{page}{108}
\setcounter{equation}{0}
\setcounter{enumi}{1}
\setcounter{enumii}{0}
\setcounter{enumiii}{0}
\setcounter{enumiv}{0}
\setcounter{footnote}{0}
\setcounter{mpfootnote}{0}
\setcounter{part}{0}
\setcounter{section}{45}
\setcounter{subsection}{2}
\setcounter{subsubsection}{1}
\setcounter{paragraph}{0}
\setcounter{subparagraph}{0}
\setcounter{figure}{0}
\setcounter{table}{89}
\setcounter{LT@tables}{89}
\setcounter{LT@chunks}{4}
\setcounter{Item}{1}
\setcounter{Hfootnote}{0}
\setcounter{bookmark@seq@number}{240}
\setcounter{section@level}{3}
}
