\relax 
\gdef \LT@cxlii {\LT@entry 
    {1}{152.92793pt}\LT@entry 
    {1}{258.72162pt}\LT@entry 
    {1}{12.0pt}}
\@writefile{toc}{\contentsline {section}{\numberline {68}Module cuon.iCal}{197}{section.68}}
\newlabel{cuon:iCal}{{68}{197}{Module cuon.iCal\relax }{section.68}{}}
\@writefile{toc}{\contentsline {subsection}{\numberline {68.1}Variables}{197}{subsection.68.1}}
\@writefile{toc}{\contentsline {subsection}{\numberline {68.2}Class iCal}{197}{subsection.68.2}}
\newlabel{cuon:iCal:iCal}{{68.2}{197}{Class iCal\relax }{subsection.68.2}{}}
\@writefile{toc}{\contentsline {subsubsection}{\numberline {68.2.1}Methods}{197}{subsubsection.68.2.1}}
\newlabel{cuon:iCal:iCal:createUID}{{68.2.1}{197}{Methods\relax }{subsubsection.68.2.1}{}}
\newlabel{cuon:iCal:iCal:getParsedDate}{{68.2.1}{197}{Methods\relax }{subsubsection.68.2.1}{}}
\newlabel{cuon:iCal:iCal:createEvent}{{68.2.1}{197}{Methods\relax }{subsubsection.68.2.1}{}}
\newlabel{cuon:iCal:iCal:delCalendar}{{68.2.1}{197}{Methods\relax }{subsubsection.68.2.1}{}}
\newlabel{cuon:iCal:iCal:getCalendar}{{68.2.1}{197}{Methods\relax }{subsubsection.68.2.1}{}}
\newlabel{cuon:iCal:iCal:writeCalendar}{{68.2.1}{197}{Methods\relax }{subsubsection.68.2.1}{}}
\newlabel{cuon:iCal:iCal:readCalendar}{{68.2.1}{197}{Methods\relax }{subsubsection.68.2.1}{}}
\gdef \LT@cxliii {\LT@entry 
    {1}{152.92793pt}\LT@entry 
    {1}{258.72162pt}\LT@entry 
    {1}{12.0pt}}
\newlabel{cuon:iCal:iCal:setCalendarValues}{{68.2.1}{198}{Methods\relax }{subsubsection.68.2.1}{}}
\newlabel{cuon:iCal:iCal:addEvent}{{68.2.1}{198}{Methods\relax }{subsubsection.68.2.1}{}}
\newlabel{cuon:iCal:iCal:getDicCal}{{68.2.1}{198}{Methods\relax }{subsubsection.68.2.1}{}}
\newlabel{cuon:iCal:iCal:createCal}{{68.2.1}{198}{Methods\relax }{subsubsection.68.2.1}{}}
\newlabel{cuon:iCal:iCal:overwriteCal}{{68.2.1}{198}{Methods\relax }{subsubsection.68.2.1}{}}
\newlabel{cuon:iCal:iCal:tryDecode}{{68.2.1}{198}{Methods\relax }{subsubsection.68.2.1}{}}
\@writefile{toc}{\contentsline {subsubsection}{\numberline {68.2.2}Class Variables}{198}{subsubsection.68.2.2}}
\gdef \LT@cxliv {\LT@entry 
    {1}{152.92793pt}\LT@entry 
    {1}{258.72162pt}\LT@entry 
    {1}{12.0pt}}
\@writefile{toc}{\contentsline {subsubsection}{\numberline {68.2.3}Instance Variables}{199}{subsubsection.68.2.3}}
\@setckpt{cuon.iCal-module}{
\setcounter{page}{200}
\setcounter{equation}{0}
\setcounter{enumi}{1}
\setcounter{enumii}{0}
\setcounter{enumiii}{0}
\setcounter{enumiv}{0}
\setcounter{footnote}{0}
\setcounter{mpfootnote}{0}
\setcounter{part}{0}
\setcounter{section}{68}
\setcounter{subsection}{2}
\setcounter{subsubsection}{3}
\setcounter{paragraph}{0}
\setcounter{subparagraph}{0}
\setcounter{figure}{0}
\setcounter{table}{144}
\setcounter{LT@tables}{144}
\setcounter{LT@chunks}{4}
\setcounter{Item}{1}
\setcounter{Hfootnote}{0}
\setcounter{bookmark@seq@number}{370}
\setcounter{section@level}{3}
}
