digraph "cuon/Databases/Singledata.hpp"
{
  edge [fontname="Helvetica",fontsize="10",labelfontname="Helvetica",labelfontsize="10"];
  node [fontname="Helvetica",fontsize="10",shape=record];
  Node1 [label="cuon/Databases/Singledata.hpp",height=0.2,width=0.4,color="black", fillcolor="grey75", style="filled", fontcolor="black"];
  Node1 -> Node2 [dir="back",color="midnightblue",fontsize="10",style="solid",fontname="Helvetica"];
  Node2 [label="cuon/Addresses/SingleAddress.hpp",height=0.2,width=0.4,color="red", fillcolor="white", style="filled",URL="$d5/dbe/SingleAddress_8hpp.html"];
  Node2 -> Node3 [dir="back",color="midnightblue",fontsize="10",style="solid",fontname="Helvetica"];
  Node3 [label="cuon/Addresses/addresses.hpp",height=0.2,width=0.4,color="red", fillcolor="white", style="filled",URL="$de/d2d/addresses_8hpp.html"];
  Node3 -> Node4 [dir="back",color="midnightblue",fontsize="10",style="solid",fontname="Helvetica"];
  Node4 [label="cuon/Addresses/addresses.cpp",height=0.2,width=0.4,color="black", fillcolor="white", style="filled",URL="$d3/dec/addresses_8cpp.html"];
  Node2 -> Node4 [dir="back",color="midnightblue",fontsize="10",style="solid",fontname="Helvetica"];
  Node2 -> Node5 [dir="back",color="midnightblue",fontsize="10",style="solid",fontname="Helvetica"];
  Node5 [label="cuon/Addresses/lists\l_addresses.hpp",height=0.2,width=0.4,color="red", fillcolor="white", style="filled",URL="$d3/d3b/lists__addresses_8hpp.html"];
  Node5 -> Node4 [dir="back",color="midnightblue",fontsize="10",style="solid",fontname="Helvetica"];
  Node2 -> Node6 [dir="back",color="midnightblue",fontsize="10",style="solid",fontname="Helvetica"];
  Node6 [label="cuon/Addresses/contact.hpp",height=0.2,width=0.4,color="red", fillcolor="white", style="filled",URL="$da/d75/contact_8hpp.html"];
  Node1 -> Node7 [dir="back",color="midnightblue",fontsize="10",style="solid",fontname="Helvetica"];
  Node7 [label="cuon/Addresses/SinglePartner.hpp",height=0.2,width=0.4,color="red", fillcolor="white", style="filled",URL="$dd/d64/SinglePartner_8hpp.html"];
  Node7 -> Node3 [dir="back",color="midnightblue",fontsize="10",style="solid",fontname="Helvetica"];
  Node7 -> Node4 [dir="back",color="midnightblue",fontsize="10",style="solid",fontname="Helvetica"];
  Node7 -> Node6 [dir="back",color="midnightblue",fontsize="10",style="solid",fontname="Helvetica"];
  Node1 -> Node8 [dir="back",color="midnightblue",fontsize="10",style="solid",fontname="Helvetica"];
  Node8 [label="cuon/Addresses/SingleMisc.hpp",height=0.2,width=0.4,color="red", fillcolor="white", style="filled",URL="$de/d30/SingleMisc_8hpp.html"];
  Node8 -> Node3 [dir="back",color="midnightblue",fontsize="10",style="solid",fontname="Helvetica"];
  Node8 -> Node4 [dir="back",color="midnightblue",fontsize="10",style="solid",fontname="Helvetica"];
  Node8 -> Node6 [dir="back",color="midnightblue",fontsize="10",style="solid",fontname="Helvetica"];
  Node1 -> Node9 [dir="back",color="midnightblue",fontsize="10",style="solid",fontname="Helvetica"];
  Node9 [label="cuon/Addresses/SingleBank.hpp",height=0.2,width=0.4,color="red", fillcolor="white", style="filled",URL="$d5/d65/SingleBank_8hpp.html"];
  Node9 -> Node3 [dir="back",color="midnightblue",fontsize="10",style="solid",fontname="Helvetica"];
  Node9 -> Node4 [dir="back",color="midnightblue",fontsize="10",style="solid",fontname="Helvetica"];
  Node9 -> Node6 [dir="back",color="midnightblue",fontsize="10",style="solid",fontname="Helvetica"];
  Node1 -> Node10 [dir="back",color="midnightblue",fontsize="10",style="solid",fontname="Helvetica"];
  Node10 [label="cuon/Addresses/SingleNote.hpp",height=0.2,width=0.4,color="red", fillcolor="white", style="filled",URL="$d3/d24/SingleNote_8hpp.html"];
  Node10 -> Node3 [dir="back",color="midnightblue",fontsize="10",style="solid",fontname="Helvetica"];
  Node10 -> Node4 [dir="back",color="midnightblue",fontsize="10",style="solid",fontname="Helvetica"];
  Node10 -> Node6 [dir="back",color="midnightblue",fontsize="10",style="solid",fontname="Helvetica"];
  Node1 -> Node11 [dir="back",color="midnightblue",fontsize="10",style="solid",fontname="Helvetica"];
  Node11 [label="cuon/Addresses/SingleSchedul.hpp",height=0.2,width=0.4,color="red", fillcolor="white", style="filled",URL="$de/dfc/SingleSchedul_8hpp.html"];
  Node11 -> Node3 [dir="back",color="midnightblue",fontsize="10",style="solid",fontname="Helvetica"];
  Node11 -> Node4 [dir="back",color="midnightblue",fontsize="10",style="solid",fontname="Helvetica"];
  Node1 -> Node12 [dir="back",color="midnightblue",fontsize="10",style="solid",fontname="Helvetica"];
  Node12 [label="cuon/DMS/SingleDMS.hpp",height=0.2,width=0.4,color="red", fillcolor="white", style="filled",URL="$db/d51/SingleDMS_8hpp.html"];
  Node12 -> Node3 [dir="back",color="midnightblue",fontsize="10",style="solid",fontname="Helvetica"];
  Node12 -> Node4 [dir="back",color="midnightblue",fontsize="10",style="solid",fontname="Helvetica"];
  Node1 -> Node13 [dir="back",color="midnightblue",fontsize="10",style="solid",fontname="Helvetica"];
  Node13 [label="cuon/Addresses/SingleContact.hpp",height=0.2,width=0.4,color="red", fillcolor="white", style="filled",URL="$d9/df8/SingleContact_8hpp.html"];
  Node13 -> Node6 [dir="back",color="midnightblue",fontsize="10",style="solid",fontname="Helvetica"];
  Node1 -> Node14 [dir="back",color="midnightblue",fontsize="10",style="solid",fontname="Helvetica"];
  Node14 [label="cuon/Articles/SingleArticle.hpp",height=0.2,width=0.4,color="red", fillcolor="white", style="filled",URL="$db/d95/SingleArticle_8hpp.html"];
  Node1 -> Node15 [dir="back",color="midnightblue",fontsize="10",style="solid",fontname="Helvetica"];
  Node15 [label="cuon/Articles/SingleArticle\lParts.hpp",height=0.2,width=0.4,color="red", fillcolor="white", style="filled",URL="$de/d45/SingleArticleParts_8hpp.html"];
  Node1 -> Node16 [dir="back",color="midnightblue",fontsize="10",style="solid",fontname="Helvetica"];
  Node16 [label="cuon/Articles/SingleArticle\lPurchase.hpp",height=0.2,width=0.4,color="red", fillcolor="white", style="filled",URL="$d4/d63/SingleArticlePurchase_8hpp.html"];
  Node1 -> Node17 [dir="back",color="midnightblue",fontsize="10",style="solid",fontname="Helvetica"];
  Node17 [label="cuon/Articles/SingleArticle\lSale.hpp",height=0.2,width=0.4,color="red", fillcolor="white", style="filled",URL="$d2/dfe/SingleArticleSale_8hpp.html"];
  Node1 -> Node18 [dir="back",color="midnightblue",fontsize="10",style="solid",fontname="Helvetica"];
  Node18 [label="cuon/Articles/SingleArticle\lStock.hpp",height=0.2,width=0.4,color="red", fillcolor="white", style="filled",URL="$db/df9/SingleArticleStock_8hpp.html"];
  Node1 -> Node19 [dir="back",color="midnightblue",fontsize="10",style="solid",fontname="Helvetica"];
  Node19 [label="cuon/Articles/SingleArticle\lWebshop.hpp",height=0.2,width=0.4,color="red", fillcolor="white", style="filled",URL="$de/d0f/SingleArticleWebshop_8hpp.html"];
  Node1 -> Node20 [dir="back",color="midnightblue",fontsize="10",style="solid",fontname="Helvetica"];
  Node20 [label="cuon/Articles/SingleMaterialgroups.hpp",height=0.2,width=0.4,color="red", fillcolor="white", style="filled",URL="$d9/d0c/SingleMaterialgroups_8hpp.html"];
  Node1 -> Node21 [dir="back",color="midnightblue",fontsize="10",style="solid",fontname="Helvetica"];
  Node21 [label="cuon/Articles/SingleMaterialgroups\lAccount.hpp",height=0.2,width=0.4,color="red", fillcolor="white", style="filled",URL="$d4/d93/SingleMaterialgroupsAccount_8hpp.html"];
  Node1 -> Node22 [dir="back",color="midnightblue",fontsize="10",style="solid",fontname="Helvetica"];
  Node22 [label="cuon/Order/SingleOrder.hpp",height=0.2,width=0.4,color="red", fillcolor="white", style="filled",URL="$d0/df3/SingleOrder_8hpp.html"];
  Node1 -> Node23 [dir="back",color="midnightblue",fontsize="10",style="solid",fontname="Helvetica"];
  Node23 [label="cuon/Order/SingleOrderGet.hpp",height=0.2,width=0.4,color="red", fillcolor="white", style="filled",URL="$da/d93/SingleOrderGet_8hpp.html"];
  Node1 -> Node24 [dir="back",color="midnightblue",fontsize="10",style="solid",fontname="Helvetica"];
  Node24 [label="cuon/Order/SingleOrderPosition.hpp",height=0.2,width=0.4,color="red", fillcolor="white", style="filled",URL="$db/da6/SingleOrderPosition_8hpp.html"];
  Node1 -> Node25 [dir="back",color="midnightblue",fontsize="10",style="solid",fontname="Helvetica"];
  Node25 [label="cuon/Order/SingleOrderPayment.hpp",height=0.2,width=0.4,color="red", fillcolor="white", style="filled",URL="$de/dd3/SingleOrderPayment_8hpp.html"];
  Node1 -> Node26 [dir="back",color="midnightblue",fontsize="10",style="solid",fontname="Helvetica"];
  Node26 [label="cuon/Clients/SingleClient.hpp",height=0.2,width=0.4,color="red", fillcolor="white", style="filled",URL="$d3/d06/SingleClient_8hpp.html"];
  Node1 -> Node27 [dir="back",color="midnightblue",fontsize="10",style="solid",fontname="Helvetica"];
  Node27 [label="cuon/Databases/Singledata.cpp",height=0.2,width=0.4,color="black", fillcolor="white", style="filled",URL="$de/d3e/Singledata_8cpp.html"];
  Node1 -> Node28 [dir="back",color="midnightblue",fontsize="10",style="solid",fontname="Helvetica"];
  Node28 [label="cuon/Enquiry/SingleEnquiry.hpp",height=0.2,width=0.4,color="red", fillcolor="white", style="filled",URL="$d6/d54/SingleEnquiry_8hpp.html"];
  Node1 -> Node29 [dir="back",color="midnightblue",fontsize="10",style="solid",fontname="Helvetica"];
  Node29 [label="cuon/Garden/SingleBotany\lDivisio.hpp",height=0.2,width=0.4,color="red", fillcolor="white", style="filled",URL="$d1/d05/SingleBotanyDivisio_8hpp.html"];
  Node1 -> Node30 [dir="back",color="midnightblue",fontsize="10",style="solid",fontname="Helvetica"];
  Node30 [label="cuon/Garden/SingleHibernation.hpp",height=0.2,width=0.4,color="red", fillcolor="white", style="filled",URL="$d6/d02/SingleHibernation_8hpp.html"];
  Node1 -> Node31 [dir="back",color="midnightblue",fontsize="10",style="solid",fontname="Helvetica"];
  Node31 [label="cuon/Garden/SingleHibernation\lPlant.hpp",height=0.2,width=0.4,color="red", fillcolor="white", style="filled",URL="$d3/d17/SingleHibernationPlant_8hpp.html"];
  Node1 -> Node32 [dir="back",color="midnightblue",fontsize="10",style="solid",fontname="Helvetica"];
  Node32 [label="cuon/Graves/SingleGrave.hpp",height=0.2,width=0.4,color="red", fillcolor="white", style="filled",URL="$d4/da4/SingleGrave_8hpp.html"];
  Node1 -> Node33 [dir="back",color="midnightblue",fontsize="10",style="solid",fontname="Helvetica"];
  Node33 [label="cuon/Order/SingleOrderInvoice.hpp",height=0.2,width=0.4,color="red", fillcolor="white", style="filled",URL="$dd/dd7/SingleOrderInvoice_8hpp.html"];
  Node1 -> Node34 [dir="back",color="midnightblue",fontsize="10",style="solid",fontname="Helvetica"];
  Node34 [label="cuon/Project/SingleProject.hpp",height=0.2,width=0.4,color="red", fillcolor="white", style="filled",URL="$d3/d76/SingleProject_8hpp.html"];
  Node1 -> Node35 [dir="back",color="midnightblue",fontsize="10",style="solid",fontname="Helvetica"];
  Node35 [label="cuon/Project/SingleProject\lPhases.hpp",height=0.2,width=0.4,color="red", fillcolor="white", style="filled",URL="$dc/d50/SingleProjectPhases_8hpp.html"];
  Node1 -> Node36 [dir="back",color="midnightblue",fontsize="10",style="solid",fontname="Helvetica"];
  Node36 [label="cuon/Project/SingleProject\lTasks.hpp",height=0.2,width=0.4,color="red", fillcolor="white", style="filled",URL="$d9/d82/SingleProjectTasks_8hpp.html"];
  Node1 -> Node37 [dir="back",color="midnightblue",fontsize="10",style="solid",fontname="Helvetica"];
  Node37 [label="cuon/Project/SingleProject\lMaterialResources.hpp",height=0.2,width=0.4,color="red", fillcolor="white", style="filled",URL="$d5/d9a/SingleProjectMaterialResources_8hpp.html"];
  Node1 -> Node38 [dir="back",color="midnightblue",fontsize="10",style="solid",fontname="Helvetica"];
  Node38 [label="cuon/Project/SingleProject\lStaffResources.hpp",height=0.2,width=0.4,color="red", fillcolor="white", style="filled",URL="$d1/d9b/SingleProjectStaffResources_8hpp.html"];
  Node1 -> Node39 [dir="back",color="midnightblue",fontsize="10",style="solid",fontname="Helvetica"];
  Node39 [label="cuon/Project/SingleProject\lProgramming.hpp",height=0.2,width=0.4,color="red", fillcolor="white", style="filled",URL="$de/d9a/SingleProjectProgramming_8hpp.html"];
  Node1 -> Node40 [dir="back",color="midnightblue",fontsize="10",style="solid",fontname="Helvetica"];
  Node40 [label="cuon/Project/SingleSourcefile.hpp",height=0.2,width=0.4,color="red", fillcolor="white", style="filled",URL="$dc/d4c/SingleSourcefile_8hpp.html"];
  Node1 -> Node41 [dir="back",color="midnightblue",fontsize="10",style="solid",fontname="Helvetica"];
  Node41 [label="cuon/Proposal/SingleProposal.hpp",height=0.2,width=0.4,color="red", fillcolor="white", style="filled",URL="$de/d98/SingleProposal_8hpp.html"];
  Node1 -> Node42 [dir="back",color="midnightblue",fontsize="10",style="solid",fontname="Helvetica"];
  Node42 [label="cuon/Sourcenavigator\l/SingleSourcenavigatorFile.hpp",height=0.2,width=0.4,color="red", fillcolor="white", style="filled",URL="$dd/dae/SingleSourcenavigatorFile_8hpp.html"];
  Node1 -> Node43 [dir="back",color="midnightblue",fontsize="10",style="solid",fontname="Helvetica"];
  Node43 [label="cuon/Sourcenavigator\l/SingleSourcenavigatorMaterial\lResources.hpp",height=0.2,width=0.4,color="red", fillcolor="white", style="filled",URL="$d3/d71/SingleSourcenavigatorMaterialResources_8hpp.html"];
  Node1 -> Node44 [dir="back",color="midnightblue",fontsize="10",style="solid",fontname="Helvetica"];
  Node44 [label="cuon/Sourcenavigator\l/SingleSourcenavigatorModule.hpp",height=0.2,width=0.4,color="red", fillcolor="white", style="filled",URL="$d1/d4f/SingleSourcenavigatorModule_8hpp.html"];
  Node1 -> Node45 [dir="back",color="midnightblue",fontsize="10",style="solid",fontname="Helvetica"];
  Node45 [label="cuon/Sourcenavigator\l/SingleSourcenavigatorPart.hpp",height=0.2,width=0.4,color="red", fillcolor="white", style="filled",URL="$d0/d2a/SingleSourcenavigatorPart_8hpp.html"];
  Node1 -> Node46 [dir="back",color="midnightblue",fontsize="10",style="solid",fontname="Helvetica"];
  Node46 [label="cuon/Sourcenavigator\l/SingleSourcenavigatorProject.hpp",height=0.2,width=0.4,color="red", fillcolor="white", style="filled",URL="$d8/d12/SingleSourcenavigatorProject_8hpp.html"];
  Node1 -> Node47 [dir="back",color="midnightblue",fontsize="10",style="solid",fontname="Helvetica"];
  Node47 [label="cuon/Sourcenavigator\l/SingleSourcenavigatorStaff\lResources.hpp",height=0.2,width=0.4,color="red", fillcolor="white", style="filled",URL="$dd/d50/SingleSourcenavigatorStaffResources_8hpp.html"];
  Node1 -> Node48 [dir="back",color="midnightblue",fontsize="10",style="solid",fontname="Helvetica"];
  Node48 [label="cuon/Staff/SingleStaff.hpp",height=0.2,width=0.4,color="red", fillcolor="white", style="filled",URL="$dc/d8e/SingleStaff_8hpp.html"];
  Node1 -> Node49 [dir="back",color="midnightblue",fontsize="10",style="solid",fontname="Helvetica"];
  Node49 [label="cuon/Stock/SingleStock.hpp",height=0.2,width=0.4,color="red", fillcolor="white", style="filled",URL="$d7/da2/SingleStock_8hpp.html"];
  Node1 -> Node50 [dir="back",color="midnightblue",fontsize="10",style="solid",fontname="Helvetica"];
  Node50 [label="cuon/Stock/SingleStockGoods.hpp",height=0.2,width=0.4,color="red", fillcolor="white", style="filled",URL="$d3/d12/SingleStockGoods_8hpp.html"];
}
