digraph "myXmlRpc"
{
  edge [fontname="Helvetica",fontsize="10",labelfontname="Helvetica",labelfontsize="10"];
  node [fontname="Helvetica",fontsize="10",shape=record];
  Node1 [label="{myXmlRpc\n||+ myXmlRpc()\l+ ~myXmlRpc()\l+ addUser()\l+ add()\l+ add()\l+ add()\l+ add()\l+ add()\l+ add()\l+ add()\l+ add()\l+ add()\l+ add()\l+ add()\l+ add()\l+ add()\l+ add()\l+ add()\l+ callRP()\l+ callRP()\l+ callRP()\l+ callRP()\l+ callRP()\l+ callRP()\l+ callRP()\l+ callRP()\l+ callRP()\l+ callRP()\l+ callRP()\l}",height=0.2,width=0.4,color="black", fillcolor="grey75", style="filled", fontcolor="black"];
  Node2 -> Node1 [dir="back",color="midnightblue",fontsize="10",style="solid",arrowtail="onormal",fontname="Helvetica"];
  Node2 [label="{mXmlRpc\n|+ serverUrl\l+ a1\l+ v1\l|+ mXmlRpc()\l+ callrp()\l}",height=0.2,width=0.4,color="black", fillcolor="white", style="filled",URL="$da/d06/classmXmlRpc.html"];
  Node3 -> Node2 [dir="back",color="midnightblue",fontsize="10",style="solid",arrowtail="onormal",fontname="Helvetica"];
  Node3 [label="{datatypes\n|+ dicValues\l+ dicValuesBE\l+ ResultSet\l|+ datatypes()\l+ ~datatypes()\l}",height=0.2,width=0.4,color="black", fillcolor="white", style="filled",URL="$de/d1c/classdatatypes.html"];
  Node4 -> Node3 [dir="back",color="midnightblue",fontsize="10",style="solid",arrowtail="onormal",fontname="Helvetica"];
  Node4 [label="{basics\n|+ MN\l+ mime_type\l|+ basics()\l+ ~basics()\l+ printlog()\l+ printlog()\l+ printlog()\l+ printlog()\l+ printlog()\l+ printlog()\l+ printlog()\l+ file_exists()\l+ stripchars()\l+ replaceAll()\l+ getNullUUID()\l+ getNewUUID()\l+ executePrg()\l+ getRandomFilename()\l+ writeFile()\l+ readFile()\l+ getDateTime()\l+ getDate()\l+ getDate()\l+ String2Int()\l+ Int2String()\l+ getActualDateTime()\l+ map2vector()\l+ split()\l+ deleteCache()\l}",height=0.2,width=0.4,color="black", fillcolor="white", style="filled",URL="$d3/d15/classbasics.html"];
}
