digraph "lists_articles"
{
  edge [fontname="Helvetica",fontsize="10",labelfontname="Helvetica",labelfontsize="10"];
  node [fontname="Helvetica",fontsize="10",shape=record];
  Node1 [label="{lists_articles\n|+ values\l|+ lists_articles()\l+ ~lists_articles()\l+ getValues()\l}",height=0.2,width=0.4,color="black", fillcolor="grey75", style="filled", fontcolor="black"];
  Node2 -> Node1 [dir="back",color="midnightblue",fontsize="10",style="solid",arrowtail="onormal"];
  Node2 [label="{windows\n|+ ModulNumber\l+ liModule\l+ oldTab\l+ currentID\l+ sWhereStandard\l+ chooseEntry\l+ chooseMenuItem\l+ pMenuItem\l+ chooseButton\l+ m_ClipboardStore\l|+ windows()\l+ ~windows()\l+ tabChanged()\l+ tabChanged2()\l+ onKeyPressAction()\l+ setNotebookPages()\l+ doKeyAction()\l+ doNormalKeyEvents()\l+ initKeys()\l+ closeWindow()\l+ getList()\l+ setChooseButton()\l+ setChooseValue()\l+ setChooseEntry()\l}",height=0.2,width=0.4,color="black", fillcolor="white", style="filled",URL="$d2/d19/classwindows.html"];
  Node3 -> Node2 [dir="back",color="midnightblue",fontsize="10",style="solid",arrowtail="onormal"];
  Node3 [label="{gladeXml\n|+ ItemFunc\l+ tabOption\l+ window\l+ dialog\l+ pWindow\l+ pDialog\l+ tree1Name\l+ menuItems\l+ toolbarItems\l+ v_new\l+ v_save\l+ v_delete\l+ v_end\l+ v_tnew\l+ v_tsave\l+ v_tdelete\l+ v_tend\l+ pWin\l+ pMainWindow\l+ pDia\l+ pNotebook\l+ pNotebook2\l+ pTree1\l+ pTreeAll\l+ pTreeView\l+ pMenuItem\l+ pEnd\l+ pNew\l+ pEdit\l+ pSave\l+ pDelete\l+ pItem\l+ pButton\l+ pToolButton\l+ pFileChooser\l+ pEntry\l+ pTextview\l+ pStatusbar\l+ pToolbar\l+ pScrollWindow\l|+ gladeXml()\l+ ~gladeXml()\l+ loadGlade()\l+ loadGlade()\l+ init()\l+ setTitle()\l+ loadEntries()\l+ fetchDefaultGUI()\l+ setText()\l+ setText()\l+ setText()\l+ setText()\l+ setText()\l+ setRawTextline()\l+ setRawTextline()\l+ setRawTextline()\l+ getText()\l+ getText()\l+ initKeys()\l+ onNotebook1PageSwitch()\l+ onNotebook2PageSwitch()\l+ on_tree1_row_activated()\l+ on_end_activate()\l+ on_edit_activate()\l+ on_new_activate()\l+ on_save_activate()\l+ on_delete_activate()\l+ tabChanged()\l+ tabChanged2()\l+ on_signal_connect()\l+ connectMenuItem()\l+ connectSignal()\l+ connectToolbarSignal()\l+ expandEditMenu()\l+ on_new1_activate()\l+ on_save1_activate()\l+ on_edit1_activate()\l+ on_delete1_activate()\l+ getWidget()\l+ getWidget()\l+ getWidget()\l+ getWidget()\l+ getWidget()\l+ getWidget()\l+ getWidget()\l+ getFilename()\l+ setComboBoxEntries()\l+ getCBActive()\l+ getCBState()\l+ enableMenuItem()\l+ getPrefix()\l+ QuestionMsg()\l+ InfoMsg()\l+ ErrorMsg()\l}",height=0.2,width=0.4,color="black", fillcolor="white", style="filled",URL="$d9/d64/classgladeXml.html"];
  Node4 -> Node3 [dir="back",color="midnightblue",fontsize="10",style="solid",arrowtail="onormal"];
  Node4 [label="{basics\n|+ MN\l+ mime_type\l|+ basics()\l+ ~basics()\l+ printlog()\l+ printlog()\l+ printlog()\l+ printlog()\l+ printlog()\l+ printlog()\l+ printlog()\l+ file_exists()\l+ stripchars()\l+ replaceAll()\l+ getNullUUID()\l+ getNewUUID()\l+ executePrg()\l+ getRandomFilename()\l+ writeFile()\l+ readFile()\l+ getDateTime()\l+ getDate()\l+ getDate()\l+ String2Int()\l+ Int2String()\l+ getActualDateTime()\l+ map2vector()\l+ split()\l+ deleteCache()\l}",height=0.2,width=0.4,color="black", fillcolor="white", style="filled",URL="$d3/d15/classbasics.html"];
  Node5 -> Node3 [color="grey25",fontsize="10",style="solid",label=" +x1" ,arrowhead="odiamond"];
  Node5 [label="{myXmlRpc\n||+ myXmlRpc()\l+ ~myXmlRpc()\l+ addUser()\l+ add()\l+ add()\l+ add()\l+ add()\l+ add()\l+ add()\l+ add()\l+ add()\l+ add()\l+ add()\l+ add()\l+ add()\l+ add()\l+ add()\l+ add()\l+ callRP()\l+ callRP()\l+ callRP()\l+ callRP()\l+ callRP()\l+ callRP()\l+ callRP()\l+ callRP()\l+ callRP()\l+ callRP()\l+ callRP()\l}",height=0.2,width=0.4,color="black", fillcolor="white", style="filled",URL="$da/d2a/classmyXmlRpc.html"];
  Node6 -> Node5 [dir="back",color="midnightblue",fontsize="10",style="solid",arrowtail="onormal"];
  Node6 [label="{mXmlRpc\n|+ serverUrl\l+ a1\l+ v1\l|+ mXmlRpc()\l+ callrp()\l}",height=0.2,width=0.4,color="black", fillcolor="white", style="filled",URL="$da/d06/classmXmlRpc.html"];
  Node7 -> Node6 [dir="back",color="midnightblue",fontsize="10",style="solid",arrowtail="onormal"];
  Node7 [label="{datatypes\n|+ dicValues\l+ dicValuesBE\l+ ResultSet\l|+ datatypes()\l+ ~datatypes()\l}",height=0.2,width=0.4,color="black", fillcolor="white", style="filled",URL="$de/d1c/classdatatypes.html"];
  Node4 -> Node7 [dir="back",color="midnightblue",fontsize="10",style="solid",arrowtail="onormal"];
  Node8 -> Node3 [color="grey25",fontsize="10",style="solid",label=" +Cache" ,arrowhead="odiamond"];
  Node8 [label="{localCache\n|+ cacheOK\l+ options\l+ dbStatusKeys\l+ dbStatus\l+ path2CacheKeys\l+ path2Cache\l+ rO\l+ wO\l+ rOKeys\l+ wOKeys\l|+ localCache()\l+ ~localCache()\l+ getCache()\l+ writeCache()\l+ getKCache()\l+ writeKCache()\l+ getSCache()\l+ writeSCache()\l}",height=0.2,width=0.4,color="black", fillcolor="white", style="filled",URL="$da/d70/classlocalCache.html"];
  Node7 -> Node8 [dir="back",color="midnightblue",fontsize="10",style="solid",arrowtail="onormal"];
  Node9 -> Node3 [color="grey25",fontsize="10",style="solid",label=" +oEntries" ,arrowhead="odiamond"];
  Node9 [label="{setOfEntries\n|+ Entries\l|+ setOfEntries()\l+ ~setOfEntries()\l+ addEntry()\l+ setDic()\l+ getDicEntries()\l+ getEntries()\l}",height=0.2,width=0.4,color="black", fillcolor="white", style="filled",URL="$d6/df5/classsetOfEntries.html"];
}
