digraph "cuonClient.hpp"
{
  edge [fontname="Helvetica",fontsize="10",labelfontname="Helvetica",labelfontsize="10"];
  node [fontname="Helvetica",fontsize="10",shape=record];
  Node1 [label="cuonClient.hpp",height=0.2,width=0.4,color="black", fillcolor="grey75", style="filled", fontcolor="black"];
  Node1 -> Node2 [color="midnightblue",fontsize="10",style="solid"];
  Node2 [label="iostream",height=0.2,width=0.4,color="grey75", fillcolor="white", style="filled"];
  Node1 -> Node3 [color="midnightblue",fontsize="10",style="solid"];
  Node3 [label="string",height=0.2,width=0.4,color="grey75", fillcolor="white", style="filled"];
  Node1 -> Node4 [color="midnightblue",fontsize="10",style="solid"];
  Node4 [label="stdlib.h",height=0.2,width=0.4,color="grey75", fillcolor="white", style="filled"];
  Node1 -> Node5 [color="midnightblue",fontsize="10",style="solid"];
  Node5 [label="gtkmm.h",height=0.2,width=0.4,color="grey75", fillcolor="white", style="filled"];
  Node1 -> Node6 [color="midnightblue",fontsize="10",style="solid"];
  Node6 [label="cuon/Windows/windows.hpp",height=0.2,width=0.4,color="black", fillcolor="white", style="filled",URL="$d5/d34/windows_8hpp.html"];
  Node6 -> Node2 [color="midnightblue",fontsize="10",style="solid"];
  Node6 -> Node3 [color="midnightblue",fontsize="10",style="solid"];
  Node6 -> Node7 [color="midnightblue",fontsize="10",style="solid"];
  Node7 [label="map",height=0.2,width=0.4,color="grey75", fillcolor="white", style="filled"];
  Node6 -> Node8 [color="midnightblue",fontsize="10",style="solid"];
  Node8 [label="vector",height=0.2,width=0.4,color="grey75", fillcolor="white", style="filled"];
  Node6 -> Node9 [color="midnightblue",fontsize="10",style="solid"];
  Node9 [label="ctime",height=0.2,width=0.4,color="grey75", fillcolor="white", style="filled"];
  Node6 -> Node5 [color="midnightblue",fontsize="10",style="solid"];
  Node6 -> Node10 [color="midnightblue",fontsize="10",style="solid"];
  Node10 [label="cuon/Windows/gladeXml.hpp",height=0.2,width=0.4,color="black", fillcolor="white", style="filled",URL="$d3/d72/gladeXml_8hpp.html"];
  Node10 -> Node2 [color="midnightblue",fontsize="10",style="solid"];
  Node10 -> Node3 [color="midnightblue",fontsize="10",style="solid"];
  Node10 -> Node7 [color="midnightblue",fontsize="10",style="solid"];
  Node10 -> Node8 [color="midnightblue",fontsize="10",style="solid"];
  Node10 -> Node9 [color="midnightblue",fontsize="10",style="solid"];
  Node10 -> Node5 [color="midnightblue",fontsize="10",style="solid"];
  Node10 -> Node11 [color="midnightblue",fontsize="10",style="solid"];
  Node11 [label="cuon/XMLRPC/xmlrpc.hpp",height=0.2,width=0.4,color="black", fillcolor="white", style="filled",URL="$dc/df8/xmlrpc_8hpp.html"];
  Node11 -> Node12 [color="midnightblue",fontsize="10",style="solid"];
  Node12 [label="xmlrpc-c/girerr.hpp",height=0.2,width=0.4,color="grey75", fillcolor="white", style="filled"];
  Node11 -> Node13 [color="midnightblue",fontsize="10",style="solid"];
  Node13 [label="xmlrpc-c/base.hpp",height=0.2,width=0.4,color="grey75", fillcolor="white", style="filled"];
  Node11 -> Node14 [color="midnightblue",fontsize="10",style="solid"];
  Node14 [label="xmlrpc-c/client_simple.hpp",height=0.2,width=0.4,color="grey75", fillcolor="white", style="filled"];
  Node11 -> Node2 [color="midnightblue",fontsize="10",style="solid"];
  Node11 -> Node3 [color="midnightblue",fontsize="10",style="solid"];
  Node11 -> Node7 [color="midnightblue",fontsize="10",style="solid"];
  Node11 -> Node15 [color="midnightblue",fontsize="10",style="solid"];
  Node15 [label="cuon/Databases/datatypes.hpp",height=0.2,width=0.4,color="black", fillcolor="white", style="filled",URL="$d2/df0/datatypes_8hpp.html"];
  Node15 -> Node2 [color="midnightblue",fontsize="10",style="solid"];
  Node15 -> Node3 [color="midnightblue",fontsize="10",style="solid"];
  Node15 -> Node7 [color="midnightblue",fontsize="10",style="solid"];
  Node15 -> Node8 [color="midnightblue",fontsize="10",style="solid"];
  Node15 -> Node9 [color="midnightblue",fontsize="10",style="solid"];
  Node15 -> Node5 [color="midnightblue",fontsize="10",style="solid"];
  Node15 -> Node16 [color="midnightblue",fontsize="10",style="solid"];
  Node16 [label="cuon/TypeDefs/basics.hpp",height=0.2,width=0.4,color="black", fillcolor="white", style="filled",URL="$de/df9/basics_8hpp.html"];
  Node16 -> Node2 [color="midnightblue",fontsize="10",style="solid"];
  Node16 -> Node17 [color="midnightblue",fontsize="10",style="solid"];
  Node17 [label="sstream",height=0.2,width=0.4,color="grey75", fillcolor="white", style="filled"];
  Node16 -> Node4 [color="midnightblue",fontsize="10",style="solid"];
  Node16 -> Node18 [color="midnightblue",fontsize="10",style="solid"];
  Node18 [label="stdio.h",height=0.2,width=0.4,color="grey75", fillcolor="white", style="filled"];
  Node16 -> Node19 [color="midnightblue",fontsize="10",style="solid"];
  Node19 [label="ctype.h",height=0.2,width=0.4,color="grey75", fillcolor="white", style="filled"];
  Node16 -> Node20 [color="midnightblue",fontsize="10",style="solid"];
  Node20 [label="unistd.h",height=0.2,width=0.4,color="grey75", fillcolor="white", style="filled"];
  Node16 -> Node3 [color="midnightblue",fontsize="10",style="solid"];
  Node16 -> Node7 [color="midnightblue",fontsize="10",style="solid"];
  Node16 -> Node8 [color="midnightblue",fontsize="10",style="solid"];
  Node16 -> Node21 [color="midnightblue",fontsize="10",style="solid"];
  Node21 [label="locale.h",height=0.2,width=0.4,color="grey75", fillcolor="white", style="filled"];
  Node16 -> Node9 [color="midnightblue",fontsize="10",style="solid"];
  Node15 -> Node22 [color="midnightblue",fontsize="10",style="solid"];
  Node22 [label="libintl.h",height=0.2,width=0.4,color="grey75", fillcolor="white", style="filled"];
  Node15 -> Node21 [color="midnightblue",fontsize="10",style="solid"];
  Node11 -> Node23 [color="midnightblue",fontsize="10",style="solid"];
  Node23 [label="global.hpp",height=0.2,width=0.4,color="black", fillcolor="white", style="filled",URL="$d9/d3a/global_8hpp.html"];
  Node23 -> Node24 [color="midnightblue",fontsize="10",style="solid"];
  Node24 [label="time.h",height=0.2,width=0.4,color="grey75", fillcolor="white", style="filled"];
  Node23 -> Node7 [color="midnightblue",fontsize="10",style="solid"];
  Node23 -> Node25 [color="midnightblue",fontsize="10",style="solid"];
  Node25 [label="cuon/User/User.hpp",height=0.2,width=0.4,color="black", fillcolor="white", style="filled",URL="$de/dfd/User_8hpp.html"];
  Node25 -> Node2 [color="midnightblue",fontsize="10",style="solid"];
  Node25 -> Node3 [color="midnightblue",fontsize="10",style="solid"];
  Node25 -> Node7 [color="midnightblue",fontsize="10",style="solid"];
  Node25 -> Node8 [color="midnightblue",fontsize="10",style="solid"];
  Node25 -> Node9 [color="midnightblue",fontsize="10",style="solid"];
  Node25 -> Node5 [color="midnightblue",fontsize="10",style="solid"];
  Node25 -> Node15 [color="midnightblue",fontsize="10",style="solid"];
  Node23 -> Node18 [color="midnightblue",fontsize="10",style="solid"];
  Node23 -> Node20 [color="midnightblue",fontsize="10",style="solid"];
  Node10 -> Node26 [color="midnightblue",fontsize="10",style="solid"];
  Node26 [label="cuon/Windows/setOfEntries.hpp",height=0.2,width=0.4,color="black", fillcolor="white", style="filled",URL="$d6/db9/setOfEntries_8hpp.html"];
  Node26 -> Node5 [color="midnightblue",fontsize="10",style="solid"];
  Node26 -> Node2 [color="midnightblue",fontsize="10",style="solid"];
  Node26 -> Node19 [color="midnightblue",fontsize="10",style="solid"];
  Node26 -> Node18 [color="midnightblue",fontsize="10",style="solid"];
  Node26 -> Node4 [color="midnightblue",fontsize="10",style="solid"];
  Node26 -> Node20 [color="midnightblue",fontsize="10",style="solid"];
  Node26 -> Node23 [color="midnightblue",fontsize="10",style="solid"];
  Node26 -> Node27 [color="midnightblue",fontsize="10",style="solid"];
  Node27 [label="cuon/Windows/dataEntry.hpp",height=0.2,width=0.4,color="black", fillcolor="white", style="filled",URL="$d0/d46/dataEntry_8hpp.html"];
  Node27 -> Node5 [color="midnightblue",fontsize="10",style="solid"];
  Node27 -> Node2 [color="midnightblue",fontsize="10",style="solid"];
  Node27 -> Node19 [color="midnightblue",fontsize="10",style="solid"];
  Node27 -> Node18 [color="midnightblue",fontsize="10",style="solid"];
  Node27 -> Node4 [color="midnightblue",fontsize="10",style="solid"];
  Node27 -> Node20 [color="midnightblue",fontsize="10",style="solid"];
  Node27 -> Node23 [color="midnightblue",fontsize="10",style="solid"];
  Node10 -> Node15 [color="midnightblue",fontsize="10",style="solid"];
  Node10 -> Node16 [color="midnightblue",fontsize="10",style="solid"];
  Node10 -> Node28 [color="midnightblue",fontsize="10",style="solid"];
  Node28 [label="cuon/Databases/localCache.hpp",height=0.2,width=0.4,color="black", fillcolor="white", style="filled",URL="$d1/d7f/localCache_8hpp.html"];
  Node28 -> Node2 [color="midnightblue",fontsize="10",style="solid"];
  Node28 -> Node3 [color="midnightblue",fontsize="10",style="solid"];
  Node28 -> Node7 [color="midnightblue",fontsize="10",style="solid"];
  Node28 -> Node8 [color="midnightblue",fontsize="10",style="solid"];
  Node28 -> Node9 [color="midnightblue",fontsize="10",style="solid"];
  Node28 -> Node29 [color="midnightblue",fontsize="10",style="solid"];
  Node29 [label="leveldb/db.h",height=0.2,width=0.4,color="grey75", fillcolor="white", style="filled"];
  Node28 -> Node15 [color="midnightblue",fontsize="10",style="solid"];
  Node6 -> Node11 [color="midnightblue",fontsize="10",style="solid"];
  Node6 -> Node26 [color="midnightblue",fontsize="10",style="solid"];
  Node1 -> Node30 [color="midnightblue",fontsize="10",style="solid"];
  Node30 [label="cuon_window.hpp",height=0.2,width=0.4,color="black", fillcolor="white", style="filled",URL="$d5/d18/cuon__window_8hpp.html"];
  Node30 -> Node31 [color="midnightblue",fontsize="10",style="solid"];
  Node31 [label="Pluma/Pluma.hpp",height=0.2,width=0.4,color="black", fillcolor="white", style="filled",URL="$d3/da1/Pluma_8hpp.html"];
  Node31 -> Node32 [color="midnightblue",fontsize="10",style="solid"];
  Node32 [label="Pluma/Config.hpp",height=0.2,width=0.4,color="black", fillcolor="white", style="filled",URL="$df/db4/Config_8hpp.html"];
  Node31 -> Node33 [color="midnightblue",fontsize="10",style="solid"];
  Node33 [label="Pluma/Provider.hpp",height=0.2,width=0.4,color="black", fillcolor="white", style="filled",URL="$d1/d9e/Provider_8hpp.html"];
  Node33 -> Node32 [color="midnightblue",fontsize="10",style="solid"];
  Node33 -> Node3 [color="midnightblue",fontsize="10",style="solid"];
  Node31 -> Node34 [color="midnightblue",fontsize="10",style="solid"];
  Node34 [label="Pluma/PluginManager.hpp",height=0.2,width=0.4,color="black", fillcolor="white", style="filled",URL="$da/daa/PluginManager_8hpp.html"];
  Node34 -> Node32 [color="midnightblue",fontsize="10",style="solid"];
  Node34 -> Node35 [color="midnightblue",fontsize="10",style="solid"];
  Node35 [label="Pluma/Host.hpp",height=0.2,width=0.4,color="black", fillcolor="white", style="filled",URL="$d6/d32/Host_8hpp.html"];
  Node35 -> Node32 [color="midnightblue",fontsize="10",style="solid"];
  Node35 -> Node33 [color="midnightblue",fontsize="10",style="solid"];
  Node35 -> Node8 [color="midnightblue",fontsize="10",style="solid"];
  Node35 -> Node36 [color="midnightblue",fontsize="10",style="solid"];
  Node36 [label="list",height=0.2,width=0.4,color="grey75", fillcolor="white", style="filled"];
  Node35 -> Node7 [color="midnightblue",fontsize="10",style="solid"];
  Node34 -> Node3 [color="midnightblue",fontsize="10",style="solid"];
  Node34 -> Node7 [color="midnightblue",fontsize="10",style="solid"];
  Node31 -> Node37 [color="midnightblue",fontsize="10",style="solid"];
  Node37 [label="Pluma/Pluma.inl",height=0.2,width=0.4,color="grey75", fillcolor="white", style="filled"];
  Node30 -> Node2 [color="midnightblue",fontsize="10",style="solid"];
  Node30 -> Node19 [color="midnightblue",fontsize="10",style="solid"];
  Node30 -> Node18 [color="midnightblue",fontsize="10",style="solid"];
  Node30 -> Node3 [color="midnightblue",fontsize="10",style="solid"];
  Node30 -> Node4 [color="midnightblue",fontsize="10",style="solid"];
}
