digraph "SingleProjectStaffResources"
{
  edge [fontname="Helvetica",fontsize="10",labelfontname="Helvetica",labelfontsize="10"];
  node [fontname="Helvetica",fontsize="10",shape=record];
  Node1 [label="{SingleProjectStaffResources\n||+ SingleProjectStaffResources()\l+ ~SingleProjectStaffResources()\l}",height=0.2,width=0.4,color="black", fillcolor="grey75", style="filled", fontcolor="black"];
  Node2 -> Node1 [dir="back",color="midnightblue",fontsize="10",style="solid",arrowtail="onormal"];
  Node2 [label="{Singledata\n|+ sNameOfTable\l+ sSort\l+ sWhere\l+ sep_info_1\l+ sep_info_2\l+ sep_info_3\l+ tmp_ID\l+ ModulNumber\l+ selection_signal_handler\l+ base64\l+ a1\l+ h1\l+ t1\l+ c1\l+ liSearchfields\l+ sData\l+ x1\l+ firstRecord\l+ ID\l+ sTree\l+ dicFields\l+ dicEntries\l+ liHeader\l+ renderer\l+ glx\l+ view\l+ pTree1\l+ oEntries\l+ dataEntries\l+ newEntry\l+ _entry\l+ listStore\l+ selection\l+ row\l+ cols\l+ iter\l+ path\l+ pStatusbar\l+ pColumn\l+ aFields\l|+ Singledata()\l+ ~Singledata()\l+ loadEntryField()\l+ load()\l+ newData()\l+ save()\l+ newRecord()\l+ init()\l+ saveValues()\l+ saveValuesBE()\l+ deleteRecord()\l+ setDicEntries()\l+ getListEntries()\l+ setLiFields()\l+ setTree1()\l+ setListEntries()\l+ clearAllFields()\l+ clearAllOtherFields()\l+ fillEntries()\l+ fillOtherEntries()\l+ fillExtraEntries()\l+ treeSelectRow()\l+ setNullIter()\l+ readEntries()\l+ readExtraEntries()\l+ on_selection_changed()\l+ setWindow()\l+ setTreeFields()\l+ setStatusbar()\l+ getStatusbar()\l+ setSearchString()\l+ postFindData()\l+ readNonWidgetEntries()\l+ showPDF()\l+ setListstore()\l+ getFileExe()\l+ decodeData()\l}",height=0.2,width=0.4,color="black", fillcolor="white", style="filled",URL="$d2/d58/classSingledata.html"];
  Node3 -> Node2 [dir="back",color="midnightblue",fontsize="10",style="solid",arrowtail="onormal"];
  Node3 [label="{datatypes\n|+ dicValues\l+ dicValuesBE\l+ ResultSet\l|+ datatypes()\l+ ~datatypes()\l}",height=0.2,width=0.4,color="black", fillcolor="white", style="filled",URL="$de/d1c/classdatatypes.html"];
  Node4 -> Node3 [dir="back",color="midnightblue",fontsize="10",style="solid",arrowtail="onormal"];
  Node4 [label="{basics\n|+ MN\l+ mime_type\l|+ basics()\l+ ~basics()\l+ printlog()\l+ printlog()\l+ printlog()\l+ printlog()\l+ printlog()\l+ printlog()\l+ printlog()\l+ file_exists()\l+ stripchars()\l+ replaceAll()\l+ getNullUUID()\l+ getNewUUID()\l+ executePrg()\l+ getRandomFilename()\l+ writeFile()\l+ readFile()\l+ getDateTime()\l+ getDate()\l+ getDate()\l+ String2Int()\l+ Int2String()\l+ getActualDateTime()\l+ map2vector()\l+ split()\l+ deleteCache()\l}",height=0.2,width=0.4,color="black", fillcolor="white", style="filled",URL="$d3/d15/classbasics.html"];
}
