\BOOKMARK [1][-]{section*.1}{Contents}{}% 1
\BOOKMARK [1][-]{section.1}{Module Cuon}{}% 2
\BOOKMARK [2][-]{subsection.1.1}{Functions}{section.1}% 3
\BOOKMARK [2][-]{subsection.1.2}{Variables}{section.1}% 4
\BOOKMARK [2][-]{subsection.1.3}{Class MainWindow}{section.1}% 5
\BOOKMARK [3][-]{subsubsection.1.3.1}{Methods}{subsection.1.3}% 6
\BOOKMARK [1][-]{section.2}{Package cuon}{}% 7
\BOOKMARK [2][-]{subsection.2.1}{Modules}{section.2}% 8
\BOOKMARK [2][-]{subsection.2.2}{Variables}{section.2}% 9
\BOOKMARK [1][-]{section.3}{Package cuon.AI}{}% 10
\BOOKMARK [2][-]{subsection.3.1}{Modules}{section.3}% 11
\BOOKMARK [2][-]{subsection.3.2}{Variables}{section.3}% 12
\BOOKMARK [1][-]{section.4}{Module cuon.AI.ai}{}% 13
\BOOKMARK [2][-]{subsection.4.1}{Variables}{section.4}% 14
\BOOKMARK [2][-]{subsection.4.2}{Class aiwindow}{section.4}% 15
\BOOKMARK [3][-]{subsubsection.4.2.1}{Methods}{subsection.4.2}% 16
\BOOKMARK [1][-]{section.5}{Module cuon.AI.ai\137main}{}% 17
\BOOKMARK [2][-]{subsection.5.1}{Variables}{section.5}% 18
\BOOKMARK [2][-]{subsection.5.2}{Class ai\137main}{section.5}% 19
\BOOKMARK [3][-]{subsubsection.5.2.1}{Methods}{subsection.5.2}% 20
\BOOKMARK [1][-]{section.6}{Module cuon.AI.gtkMiniClient}{}% 21
\BOOKMARK [2][-]{subsection.6.1}{Variables}{section.6}% 22
\BOOKMARK [2][-]{subsection.6.2}{Class simpleGlade}{section.6}% 23
\BOOKMARK [3][-]{subsubsection.6.2.1}{Methods}{subsection.6.2}% 24
\BOOKMARK [2][-]{subsection.6.3}{Class gtkMiniClient}{section.6}% 25
\BOOKMARK [3][-]{subsubsection.6.3.1}{Methods}{subsection.6.3}% 26
\BOOKMARK [1][-]{section.7}{Module cuon.AI.miniClient}{}% 27
\BOOKMARK [2][-]{subsection.7.1}{Variables}{section.7}% 28
\BOOKMARK [1][-]{section.8}{Module cuon.AI.testcodec}{}% 29
\BOOKMARK [2][-]{subsection.8.1}{Functions}{section.8}% 30
\BOOKMARK [2][-]{subsection.8.2}{Variables}{section.8}% 31
\BOOKMARK [1][-]{section.9}{Module cuon.AI.tki1}{}% 32
\BOOKMARK [2][-]{subsection.9.1}{Variables}{section.9}% 33
\BOOKMARK [2][-]{subsection.9.2}{Class tki1}{section.9}% 34
\BOOKMARK [3][-]{subsubsection.9.2.1}{Methods}{subsection.9.2}% 35
\BOOKMARK [1][-]{section.10}{Package cuon.Addresses}{}% 36
\BOOKMARK [2][-]{subsection.10.1}{Modules}{section.10}% 37
\BOOKMARK [1][-]{section.11}{Module cuon.Addresses.SingleAddress}{}% 38
\BOOKMARK [2][-]{subsection.11.1}{Variables}{section.11}% 39
\BOOKMARK [2][-]{subsection.11.2}{Class SingleAddress}{section.11}% 40
\BOOKMARK [3][-]{subsubsection.11.2.1}{Methods}{subsection.11.2}% 41
\BOOKMARK [1][-]{section.12}{Module cuon.Addresses.SingleAddressBank}{}% 42
\BOOKMARK [2][-]{subsection.12.1}{Variables}{section.12}% 43
\BOOKMARK [2][-]{subsection.12.2}{Class SingleAddressBank}{section.12}% 44
\BOOKMARK [3][-]{subsubsection.12.2.1}{Methods}{subsection.12.2}% 45
\BOOKMARK [1][-]{section.13}{Module cuon.Addresses.SingleContact}{}% 46
\BOOKMARK [2][-]{subsection.13.1}{Variables}{section.13}% 47
\BOOKMARK [2][-]{subsection.13.2}{Class SingleContact}{section.13}% 48
\BOOKMARK [3][-]{subsubsection.13.2.1}{Methods}{subsection.13.2}% 49
\BOOKMARK [1][-]{section.14}{Module cuon.Addresses.SingleCountry}{}% 50
\BOOKMARK [2][-]{subsection.14.1}{Variables}{section.14}% 51
\BOOKMARK [2][-]{subsection.14.2}{Class SingleCountry}{section.14}% 52
\BOOKMARK [3][-]{subsubsection.14.2.1}{Methods}{subsection.14.2}% 53
\BOOKMARK [1][-]{section.15}{Module cuon.Addresses.SingleMisc}{}% 54
\BOOKMARK [2][-]{subsection.15.1}{Variables}{section.15}% 55
\BOOKMARK [2][-]{subsection.15.2}{Class SingleMisc}{section.15}% 56
\BOOKMARK [3][-]{subsubsection.15.2.1}{Methods}{subsection.15.2}% 57
\BOOKMARK [1][-]{section.16}{Module cuon.Addresses.SingleNotes}{}% 58
\BOOKMARK [2][-]{subsection.16.1}{Variables}{section.16}% 59
\BOOKMARK [2][-]{subsection.16.2}{Class SingleNotes}{section.16}% 60
\BOOKMARK [3][-]{subsubsection.16.2.1}{Methods}{subsection.16.2}% 61
\BOOKMARK [1][-]{section.17}{Module cuon.Addresses.SinglePartner}{}% 62
\BOOKMARK [2][-]{subsection.17.1}{Variables}{section.17}% 63
\BOOKMARK [2][-]{subsection.17.2}{Class SinglePartner}{section.17}% 64
\BOOKMARK [3][-]{subsubsection.17.2.1}{Methods}{subsection.17.2}% 65
\BOOKMARK [1][-]{section.18}{Module cuon.Addresses.SingleScheduling}{}% 66
\BOOKMARK [2][-]{subsection.18.1}{Variables}{section.18}% 67
\BOOKMARK [2][-]{subsection.18.2}{Class SingleScheduling}{section.18}% 68
\BOOKMARK [3][-]{subsubsection.18.2.1}{Methods}{subsection.18.2}% 69
\BOOKMARK [1][-]{section.19}{Module cuon.Addresses.addresses}{}% 70
\BOOKMARK [2][-]{subsection.19.1}{Variables}{section.19}% 71
\BOOKMARK [2][-]{subsection.19.2}{Class addresswindow}{section.19}% 72
\BOOKMARK [3][-]{subsubsection.19.2.1}{Methods}{subsection.19.2}% 73
\BOOKMARK [1][-]{section.20}{Module cuon.Addresses.contact}{}% 74
\BOOKMARK [2][-]{subsection.20.1}{Variables}{section.20}% 75
\BOOKMARK [2][-]{subsection.20.2}{Class contactwindow}{section.20}% 76
\BOOKMARK [3][-]{subsubsection.20.2.1}{Methods}{subsection.20.2}% 77
\BOOKMARK [1][-]{section.21}{Module cuon.Addresses.lists\137addresses}{}% 78
\BOOKMARK [2][-]{subsection.21.1}{Variables}{section.21}% 79
\BOOKMARK [2][-]{subsection.21.2}{Class lists\137addresses}{section.21}% 80
\BOOKMARK [3][-]{subsubsection.21.2.1}{Methods}{subsection.21.2}% 81
\BOOKMARK [1][-]{section.22}{Module cuon.Addresses.lists\137addresses\137phone1}{}% 82
\BOOKMARK [2][-]{subsection.22.1}{Variables}{section.22}% 83
\BOOKMARK [2][-]{subsection.22.2}{Class lists\137addresses\137phone1}{section.22}% 84
\BOOKMARK [3][-]{subsubsection.22.2.1}{Methods}{subsection.22.2}% 85
\BOOKMARK [1][-]{section.23}{Module cuon.Addresses.lists\137addresses\137phone11}{}% 86
\BOOKMARK [2][-]{subsection.23.1}{Variables}{section.23}% 87
\BOOKMARK [2][-]{subsection.23.2}{Class lists\137addresses\137phone11}{section.23}% 88
\BOOKMARK [3][-]{subsubsection.23.2.1}{Methods}{subsection.23.2}% 89
\BOOKMARK [1][-]{section.24}{Module cuon.Addresses.lists\137addresses\137phone12}{}% 90
\BOOKMARK [2][-]{subsection.24.1}{Variables}{section.24}% 91
\BOOKMARK [2][-]{subsection.24.2}{Class lists\137addresses\137phone12}{section.24}% 92
\BOOKMARK [3][-]{subsubsection.24.2.1}{Methods}{subsection.24.2}% 93
\BOOKMARK [1][-]{section.25}{Module cuon.Addresses.lists\137addresses\137phone2}{}% 94
\BOOKMARK [2][-]{subsection.25.1}{Class lists\137addresses\137phone2}{section.25}% 95
\BOOKMARK [3][-]{subsubsection.25.1.1}{Methods}{subsection.25.1}% 96
\BOOKMARK [1][-]{section.26}{Module cuon.Addresses.printAddress}{}% 97
\BOOKMARK [2][-]{subsection.26.1}{Variables}{section.26}% 98
\BOOKMARK [2][-]{subsection.26.2}{Class printAddress}{section.26}% 99
\BOOKMARK [3][-]{subsubsection.26.2.1}{Methods}{subsection.26.2}% 100
\BOOKMARK [1][-]{section.27}{Module cuon.Addresses.selectionDialog}{}% 101
\BOOKMARK [2][-]{subsection.27.1}{Variables}{section.27}% 102
\BOOKMARK [2][-]{subsection.27.2}{Class selectionDialog1}{section.27}% 103
\BOOKMARK [3][-]{subsubsection.27.2.1}{Methods}{subsection.27.2}% 104
\BOOKMARK [1][-]{section.28}{Package cuon.Analysis}{}% 105
\BOOKMARK [2][-]{subsection.28.1}{Modules}{section.28}% 106
\BOOKMARK [2][-]{subsection.28.2}{Variables}{section.28}% 107
\BOOKMARK [1][-]{section.29}{Module cuon.Analysis.SingleAnalysis\137cost}{}% 108
\BOOKMARK [2][-]{subsection.29.1}{Variables}{section.29}% 109
\BOOKMARK [2][-]{subsection.29.2}{Class SingleClient}{section.29}% 110
\BOOKMARK [3][-]{subsubsection.29.2.1}{Methods}{subsection.29.2}% 111
\BOOKMARK [1][-]{section.30}{Module cuon.Analysis.analyse\137costs}{}% 112
\BOOKMARK [2][-]{subsection.30.1}{Variables}{section.30}% 113
\BOOKMARK [2][-]{subsection.30.2}{Class clientswindow}{section.30}% 114
\BOOKMARK [3][-]{subsubsection.30.2.1}{Methods}{subsection.30.2}% 115
\BOOKMARK [1][-]{section.31}{Package cuon.Articles}{}% 116
\BOOKMARK [2][-]{subsection.31.1}{Modules}{section.31}% 117
\BOOKMARK [1][-]{section.32}{Module cuon.Articles.ArticlesFastSelection}{}% 118
\BOOKMARK [2][-]{subsection.32.1}{Variables}{section.32}% 119
\BOOKMARK [2][-]{subsection.32.2}{Class ArticlesFastSelection}{section.32}% 120
\BOOKMARK [3][-]{subsubsection.32.2.1}{Methods}{subsection.32.2}% 121
\BOOKMARK [1][-]{section.33}{Module cuon.Articles.SingleArticle}{}% 122
\BOOKMARK [2][-]{subsection.33.1}{Variables}{section.33}% 123
\BOOKMARK [2][-]{subsection.33.2}{Class SingleArticle}{section.33}% 124
\BOOKMARK [3][-]{subsubsection.33.2.1}{Methods}{subsection.33.2}% 125
\BOOKMARK [1][-]{section.34}{Module cuon.Articles.SingleArticleParts}{}% 126
\BOOKMARK [2][-]{subsection.34.1}{Variables}{section.34}% 127
\BOOKMARK [2][-]{subsection.34.2}{Class SingleArticleParts}{section.34}% 128
\BOOKMARK [3][-]{subsubsection.34.2.1}{Methods}{subsection.34.2}% 129
\BOOKMARK [1][-]{section.35}{Module cuon.Articles.SingleArticlePurchase}{}% 130
\BOOKMARK [2][-]{subsection.35.1}{Variables}{section.35}% 131
\BOOKMARK [2][-]{subsection.35.2}{Class SingleArticlePurchase}{section.35}% 132
\BOOKMARK [3][-]{subsubsection.35.2.1}{Methods}{subsection.35.2}% 133
\BOOKMARK [1][-]{section.36}{Module cuon.Articles.SingleArticleSale}{}% 134
\BOOKMARK [2][-]{subsection.36.1}{Variables}{section.36}% 135
\BOOKMARK [2][-]{subsection.36.2}{Class SingleArticleSale}{section.36}% 136
\BOOKMARK [3][-]{subsubsection.36.2.1}{Methods}{subsection.36.2}% 137
\BOOKMARK [1][-]{section.37}{Module cuon.Articles.SingleArticleStock}{}% 138
\BOOKMARK [2][-]{subsection.37.1}{Variables}{section.37}% 139
\BOOKMARK [2][-]{subsection.37.2}{Class SingleArticleStock}{section.37}% 140
\BOOKMARK [3][-]{subsubsection.37.2.1}{Methods}{subsection.37.2}% 141
\BOOKMARK [1][-]{section.38}{Module cuon.Articles.SingleArticleWebshop}{}% 142
\BOOKMARK [2][-]{subsection.38.1}{Variables}{section.38}% 143
\BOOKMARK [2][-]{subsection.38.2}{Class SingleArticleWebshop}{section.38}% 144
\BOOKMARK [3][-]{subsubsection.38.2.1}{Methods}{subsection.38.2}% 145
\BOOKMARK [1][-]{section.39}{Module cuon.Articles.SingleMaterialgroups}{}% 146
\BOOKMARK [2][-]{subsection.39.1}{Variables}{section.39}% 147
\BOOKMARK [2][-]{subsection.39.2}{Class SingleMaterialgroups}{section.39}% 148
\BOOKMARK [3][-]{subsubsection.39.2.1}{Methods}{subsection.39.2}% 149
\BOOKMARK [1][-]{section.40}{Module cuon.Articles.SingleMaterialgroupsAccount}{}% 150
\BOOKMARK [2][-]{subsection.40.1}{Variables}{section.40}% 151
\BOOKMARK [2][-]{subsection.40.2}{Class SingleMaterialgroupsAccount}{section.40}% 152
\BOOKMARK [3][-]{subsubsection.40.2.1}{Methods}{subsection.40.2}% 153
\BOOKMARK [1][-]{section.41}{Module cuon.Articles.articles}{}% 154
\BOOKMARK [2][-]{subsection.41.1}{Variables}{section.41}% 155
\BOOKMARK [2][-]{subsection.41.2}{Class articleswindow}{section.41}% 156
\BOOKMARK [3][-]{subsubsection.41.2.1}{Methods}{subsection.41.2}% 157
\BOOKMARK [1][-]{section.42}{Module cuon.Articles.lists\137articles\137number1}{}% 158
\BOOKMARK [2][-]{subsection.42.1}{Variables}{section.42}% 159
\BOOKMARK [2][-]{subsection.42.2}{Class lists\137articles\137number1}{section.42}% 160
\BOOKMARK [3][-]{subsubsection.42.2.1}{Methods}{subsection.42.2}% 161
\BOOKMARK [1][-]{section.43}{Module cuon.Articles.materialgroup}{}% 162
\BOOKMARK [2][-]{subsection.43.1}{Variables}{section.43}% 163
\BOOKMARK [2][-]{subsection.43.2}{Class materialgroupwindow}{section.43}% 164
\BOOKMARK [3][-]{subsubsection.43.2.1}{Methods}{subsection.43.2}% 165
\BOOKMARK [1][-]{section.44}{Module cuon.Articles.pickles\137articles}{}% 166
\BOOKMARK [2][-]{subsection.44.1}{Variables}{section.44}% 167
\BOOKMARK [2][-]{subsection.44.2}{Class pickles\137articles}{section.44}% 168
\BOOKMARK [3][-]{subsubsection.44.2.1}{Methods}{subsection.44.2}% 169
\BOOKMARK [1][-]{section.45}{Package cuon.Bank}{}% 170
\BOOKMARK [2][-]{subsection.45.1}{Modules}{section.45}% 171
\BOOKMARK [2][-]{subsection.45.2}{Variables}{section.45}% 172
\BOOKMARK [1][-]{section.46}{Module cuon.Bank.SingleBank}{}% 173
\BOOKMARK [2][-]{subsection.46.1}{Variables}{section.46}% 174
\BOOKMARK [2][-]{subsection.46.2}{Class SingleBank}{section.46}% 175
\BOOKMARK [3][-]{subsubsection.46.2.1}{Methods}{subsection.46.2}% 176
\BOOKMARK [1][-]{section.47}{Module cuon.Bank.bank}{}% 177
\BOOKMARK [2][-]{subsection.47.1}{Variables}{section.47}% 178
\BOOKMARK [2][-]{subsection.47.2}{Class bankwindow}{section.47}% 179
\BOOKMARK [3][-]{subsubsection.47.2.1}{Methods}{subsection.47.2}% 180
\BOOKMARK [1][-]{section.48}{Package cuon.Biblio}{}% 181
\BOOKMARK [2][-]{subsection.48.1}{Modules}{section.48}% 182
\BOOKMARK [2][-]{subsection.48.2}{Variables}{section.48}% 183
\BOOKMARK [1][-]{section.49}{Module cuon.Biblio.SingleBiblio}{}% 184
\BOOKMARK [2][-]{subsection.49.1}{Variables}{section.49}% 185
\BOOKMARK [2][-]{subsection.49.2}{Class SingleBiblio}{section.49}% 186
\BOOKMARK [3][-]{subsubsection.49.2.1}{Methods}{subsection.49.2}% 187
\BOOKMARK [1][-]{section.50}{Module cuon.Biblio.biblio}{}% 188
\BOOKMARK [2][-]{subsection.50.1}{Variables}{section.50}% 189
\BOOKMARK [2][-]{subsection.50.2}{Class bibliowindow}{section.50}% 190
\BOOKMARK [3][-]{subsubsection.50.2.1}{Methods}{subsection.50.2}% 191
\BOOKMARK [1][-]{section.51}{Package cuon.Calendar}{}% 192
\BOOKMARK [2][-]{subsection.51.1}{Modules}{section.51}% 193
\BOOKMARK [2][-]{subsection.51.2}{Variables}{section.51}% 194
\BOOKMARK [1][-]{section.52}{Module cuon.Calendar.calendar}{}% 195
\BOOKMARK [2][-]{subsection.52.1}{Variables}{section.52}% 196
\BOOKMARK [2][-]{subsection.52.2}{Class calendarwindow}{section.52}% 197
\BOOKMARK [3][-]{subsubsection.52.2.1}{Methods}{subsection.52.2}% 198
\BOOKMARK [1][-]{section.53}{Package cuon.Chat}{}% 199
\BOOKMARK [2][-]{subsection.53.1}{Modules}{section.53}% 200
\BOOKMARK [2][-]{subsection.53.2}{Variables}{section.53}% 201
\BOOKMARK [1][-]{section.54}{Module cuon.Chat.chat}{}% 202
\BOOKMARK [2][-]{subsection.54.1}{Variables}{section.54}% 203
\BOOKMARK [2][-]{subsection.54.2}{Class chatWindow}{section.54}% 204
\BOOKMARK [3][-]{subsubsection.54.2.1}{Methods}{subsection.54.2}% 205
\BOOKMARK [1][-]{section.55}{Module cuon.Chat.slandy}{}% 206
\BOOKMARK [2][-]{subsection.55.1}{Variables}{section.55}% 207
\BOOKMARK [2][-]{subsection.55.2}{Class slandy}{section.55}% 208
\BOOKMARK [3][-]{subsubsection.55.2.1}{Methods}{subsection.55.2}% 209
\BOOKMARK [1][-]{section.56}{Module cuon.Chat.xmpp\137client}{}% 210
\BOOKMARK [2][-]{subsection.56.1}{Variables}{section.56}% 211
\BOOKMARK [2][-]{subsection.56.2}{Class xmpp\137client}{section.56}% 212
\BOOKMARK [3][-]{subsubsection.56.2.1}{Methods}{subsection.56.2}% 213
\BOOKMARK [1][-]{section.57}{Package cuon.Clients}{}% 214
\BOOKMARK [2][-]{subsection.57.1}{Modules}{section.57}% 215
\BOOKMARK [2][-]{subsection.57.2}{Variables}{section.57}% 216
\BOOKMARK [1][-]{section.58}{Module cuon.Clients.SingleClient}{}% 217
\BOOKMARK [2][-]{subsection.58.1}{Variables}{section.58}% 218
\BOOKMARK [2][-]{subsection.58.2}{Class SingleClient}{section.58}% 219
\BOOKMARK [3][-]{subsubsection.58.2.1}{Methods}{subsection.58.2}% 220
\BOOKMARK [1][-]{section.59}{Module cuon.Clients.clients}{}% 221
\BOOKMARK [2][-]{subsection.59.1}{Variables}{section.59}% 222
\BOOKMARK [2][-]{subsection.59.2}{Class clientswindow}{section.59}% 223
\BOOKMARK [3][-]{subsubsection.59.2.1}{Methods}{subsection.59.2}% 224
\BOOKMARK [1][-]{section.60}{Package cuon.DMS}{}% 225
\BOOKMARK [2][-]{subsection.60.1}{Modules}{section.60}% 226
\BOOKMARK [2][-]{subsection.60.2}{Variables}{section.60}% 227
\BOOKMARK [1][-]{section.61}{Module cuon.DMS.SingleDMS}{}% 228
\BOOKMARK [2][-]{subsection.61.1}{Variables}{section.61}% 229
\BOOKMARK [2][-]{subsection.61.2}{Class SingleDMS}{section.61}% 230
\BOOKMARK [3][-]{subsubsection.61.2.1}{Methods}{subsection.61.2}% 231
\BOOKMARK [1][-]{section.62}{Module cuon.DMS.dms}{}% 232
\BOOKMARK [2][-]{subsection.62.1}{Variables}{section.62}% 233
\BOOKMARK [2][-]{subsection.62.2}{Class dmswindow}{section.62}% 234
\BOOKMARK [3][-]{subsubsection.62.2.1}{Methods}{subsection.62.2}% 235
\BOOKMARK [1][-]{section.63}{Module cuon.DMS.documentTools}{}% 236
\BOOKMARK [2][-]{subsection.63.1}{Variables}{section.63}% 237
\BOOKMARK [2][-]{subsection.63.2}{Class documentTools}{section.63}% 238
\BOOKMARK [3][-]{subsubsection.63.2.1}{Methods}{subsection.63.2}% 239
\BOOKMARK [1][-]{section.64}{Package cuon.Databases}{}% 240
\BOOKMARK [2][-]{subsection.64.1}{Modules}{section.64}% 241
\BOOKMARK [1][-]{section.65}{Module cuon.Databases.SingleCuon}{}% 242
\BOOKMARK [2][-]{subsection.65.1}{Variables}{section.65}% 243
\BOOKMARK [2][-]{subsection.65.2}{Class SingleCuon}{section.65}% 244
\BOOKMARK [3][-]{subsubsection.65.2.1}{Methods}{subsection.65.2}% 245
\BOOKMARK [1][-]{section.66}{Module cuon.Databases.SingleData}{}% 246
\BOOKMARK [2][-]{subsection.66.1}{Variables}{section.66}% 247
\BOOKMARK [2][-]{subsection.66.2}{Class SingleData}{section.66}% 248
\BOOKMARK [3][-]{subsubsection.66.2.1}{Methods}{subsection.66.2}% 249
\BOOKMARK [1][-]{section.67}{Module cuon.Databases.SingleDataTreeModel}{}% 250
\BOOKMARK [2][-]{subsection.67.1}{Variables}{section.67}% 251
\BOOKMARK [2][-]{subsection.67.2}{Class SingleDataTreeModel}{section.67}% 252
\BOOKMARK [3][-]{subsubsection.67.2.1}{Methods}{subsection.67.2}% 253
\BOOKMARK [1][-]{section.68}{Module cuon.Databases.SingleExport}{}% 254
\BOOKMARK [2][-]{subsection.68.1}{Variables}{section.68}% 255
\BOOKMARK [2][-]{subsection.68.2}{Class SingleExport}{section.68}% 256
\BOOKMARK [3][-]{subsubsection.68.2.1}{Methods}{subsection.68.2}% 257
\BOOKMARK [1][-]{section.69}{Module cuon.Databases.SingleImport}{}% 258
\BOOKMARK [2][-]{subsection.69.1}{Variables}{section.69}% 259
\BOOKMARK [2][-]{subsection.69.2}{Class SingleImport}{section.69}% 260
\BOOKMARK [3][-]{subsubsection.69.2.1}{Methods}{subsection.69.2}% 261
\BOOKMARK [1][-]{section.70}{Module cuon.Databases.SingleImportZip}{}% 262
\BOOKMARK [2][-]{subsection.70.1}{Variables}{section.70}% 263
\BOOKMARK [2][-]{subsection.70.2}{Class SingleImportZip}{section.70}% 264
\BOOKMARK [3][-]{subsubsection.70.2.1}{Methods}{subsection.70.2}% 265
\BOOKMARK [1][-]{section.71}{Module cuon.Databases.cyr\137column}{}% 266
\BOOKMARK [2][-]{subsection.71.1}{Variables}{section.71}% 267
\BOOKMARK [2][-]{subsection.71.2}{Class cyr\137column}{section.71}% 268
\BOOKMARK [3][-]{subsubsection.71.2.1}{Methods}{subsection.71.2}% 269
\BOOKMARK [1][-]{section.72}{Module cuon.Databases.cyr\137load\137table}{}% 270
\BOOKMARK [2][-]{subsection.72.1}{Variables}{section.72}% 271
\BOOKMARK [2][-]{subsection.72.2}{Class cyr\137load\137table}{section.72}% 272
\BOOKMARK [3][-]{subsubsection.72.2.1}{Methods}{subsection.72.2}% 273
\BOOKMARK [1][-]{section.73}{Module cuon.Databases.cyr\137table}{}% 274
\BOOKMARK [2][-]{subsection.73.1}{Variables}{section.73}% 275
\BOOKMARK [2][-]{subsection.73.2}{Class cyr\137table}{section.73}% 276
\BOOKMARK [3][-]{subsubsection.73.2.1}{Methods}{subsection.73.2}% 277
\BOOKMARK [1][-]{section.74}{Module cuon.Databases.databases}{}% 278
\BOOKMARK [2][-]{subsection.74.1}{Variables}{section.74}% 279
\BOOKMARK [2][-]{subsection.74.2}{Class databaseswindow}{section.74}% 280
\BOOKMARK [3][-]{subsubsection.74.2.1}{Methods}{subsection.74.2}% 281
\BOOKMARK [1][-]{section.75}{Module cuon.Databases.dumps}{}% 282
\BOOKMARK [2][-]{subsection.75.1}{Variables}{section.75}% 283
\BOOKMARK [2][-]{subsection.75.2}{Class dumps}{section.75}% 284
\BOOKMARK [3][-]{subsubsection.75.2.1}{Methods}{subsection.75.2}% 285
\BOOKMARK [1][-]{section.76}{Module cuon.Databases.export\137generic1}{}% 286
\BOOKMARK [2][-]{subsection.76.1}{Variables}{section.76}% 287
\BOOKMARK [2][-]{subsection.76.2}{Class export\137generic1}{section.76}% 288
\BOOKMARK [3][-]{subsubsection.76.2.1}{Methods}{subsection.76.2}% 289
\BOOKMARK [1][-]{section.77}{Module cuon.Databases.import\137generic1}{}% 290
\BOOKMARK [2][-]{subsection.77.1}{Variables}{section.77}% 291
\BOOKMARK [2][-]{subsection.77.2}{Class import\137generic1}{section.77}% 292
\BOOKMARK [3][-]{subsubsection.77.2.1}{Methods}{subsection.77.2}% 293
\BOOKMARK [1][-]{section.78}{Module cuon.Databases.import\137generic2}{}% 294
\BOOKMARK [2][-]{subsection.78.1}{Variables}{section.78}% 295
\BOOKMARK [2][-]{subsection.78.2}{Class import\137generic2}{section.78}% 296
\BOOKMARK [3][-]{subsubsection.78.2.1}{Methods}{subsection.78.2}% 297
\BOOKMARK [1][-]{section.79}{Module cuon.Databases.xbase}{}% 298
\BOOKMARK [2][-]{subsection.79.1}{Functions}{section.79}% 299
\BOOKMARK [2][-]{subsection.79.2}{Variables}{section.79}% 300
\BOOKMARK [1][-]{section.80}{Package cuon.E\137Mail}{}% 301
\BOOKMARK [2][-]{subsection.80.1}{Modules}{section.80}% 302
\BOOKMARK [2][-]{subsection.80.2}{Variables}{section.80}% 303
\BOOKMARK [1][-]{section.81}{Module cuon.E\137Mail.imap\137dms}{}% 304
\BOOKMARK [2][-]{subsection.81.1}{Variables}{section.81}% 305
\BOOKMARK [2][-]{subsection.81.2}{Class imap\137dms}{section.81}% 306
\BOOKMARK [3][-]{subsubsection.81.2.1}{Methods}{subsection.81.2}% 307
\BOOKMARK [3][-]{subsubsection.81.2.2}{Properties}{subsection.81.2}% 308
\BOOKMARK [1][-]{section.82}{Module cuon.E\137Mail.incoming\137mail}{}% 309
\BOOKMARK [2][-]{subsection.82.1}{Variables}{section.82}% 310
\BOOKMARK [2][-]{subsection.82.2}{Class incoming\137mail}{section.82}% 311
\BOOKMARK [3][-]{subsubsection.82.2.1}{Methods}{subsection.82.2}% 312
\BOOKMARK [1][-]{section.83}{Module cuon.E\137Mail.sendEmail}{}% 313
\BOOKMARK [2][-]{subsection.83.1}{Variables}{section.83}% 314
\BOOKMARK [2][-]{subsection.83.2}{Class sendEmail}{section.83}% 315
\BOOKMARK [3][-]{subsubsection.83.2.1}{Methods}{subsection.83.2}% 316
\BOOKMARK [1][-]{section.84}{Package cuon.Editor}{}% 317
\BOOKMARK [2][-]{subsection.84.1}{Modules}{section.84}% 318
\BOOKMARK [2][-]{subsection.84.2}{Variables}{section.84}% 319
\BOOKMARK [1][-]{section.85}{Module cuon.Editor.editor}{}% 320
\BOOKMARK [2][-]{subsection.85.1}{Variables}{section.85}% 321
\BOOKMARK [2][-]{subsection.85.2}{Class editorwindow}{section.85}% 322
\BOOKMARK [3][-]{subsubsection.85.2.1}{Methods}{subsection.85.2}% 323
\BOOKMARK [1][-]{section.86}{Module cuon.Editor.programmersEditor}{}% 324
\BOOKMARK [2][-]{subsection.86.1}{Variables}{section.86}% 325
\BOOKMARK [2][-]{subsection.86.2}{Class programmerseditor}{section.86}% 326
\BOOKMARK [3][-]{subsubsection.86.2.1}{Methods}{subsection.86.2}% 327
\BOOKMARK [1][-]{section.87}{Package cuon.Enquiry}{}% 328
\BOOKMARK [2][-]{subsection.87.1}{Modules}{section.87}% 329
\BOOKMARK [2][-]{subsection.87.2}{Variables}{section.87}% 330
\BOOKMARK [1][-]{section.88}{Module cuon.Enquiry.SingleEnquiry}{}% 331
\BOOKMARK [2][-]{subsection.88.1}{Variables}{section.88}% 332
\BOOKMARK [2][-]{subsection.88.2}{Class SingleEnquiry}{section.88}% 333
\BOOKMARK [3][-]{subsubsection.88.2.1}{Methods}{subsection.88.2}% 334
\BOOKMARK [1][-]{section.89}{Module cuon.Enquiry.SingleEnquiryGet}{}% 335
\BOOKMARK [2][-]{subsection.89.1}{Variables}{section.89}% 336
\BOOKMARK [2][-]{subsection.89.2}{Class SingleEnquiryGet}{section.89}% 337
\BOOKMARK [3][-]{subsubsection.89.2.1}{Methods}{subsection.89.2}% 338
\BOOKMARK [1][-]{section.90}{Module cuon.Enquiry.SingleEnquiryInvoice}{}% 339
\BOOKMARK [2][-]{subsection.90.1}{Variables}{section.90}% 340
\BOOKMARK [2][-]{subsection.90.2}{Class SingleEnquiryInvoice}{section.90}% 341
\BOOKMARK [3][-]{subsubsection.90.2.1}{Methods}{subsection.90.2}% 342
\BOOKMARK [1][-]{section.91}{Module cuon.Enquiry.SingleEnquiryMisc}{}% 343
\BOOKMARK [2][-]{subsection.91.1}{Variables}{section.91}% 344
\BOOKMARK [2][-]{subsection.91.2}{Class SingleEnquiryMisc}{section.91}% 345
\BOOKMARK [3][-]{subsubsection.91.2.1}{Methods}{subsection.91.2}% 346
\BOOKMARK [1][-]{section.92}{Module cuon.Enquiry.SingleEnquiryPayment}{}% 347
\BOOKMARK [2][-]{subsection.92.1}{Variables}{section.92}% 348
\BOOKMARK [2][-]{subsection.92.2}{Class SingleEnquiryPayment}{section.92}% 349
\BOOKMARK [3][-]{subsubsection.92.2.1}{Methods}{subsection.92.2}% 350
\BOOKMARK [1][-]{section.93}{Module cuon.Enquiry.SingleEnquiryPosition}{}% 351
\BOOKMARK [2][-]{subsection.93.1}{Variables}{section.93}% 352
\BOOKMARK [2][-]{subsection.93.2}{Class SingleEnquiryPosition}{section.93}% 353
\BOOKMARK [3][-]{subsubsection.93.2.1}{Methods}{subsection.93.2}% 354
\BOOKMARK [1][-]{section.94}{Module cuon.Enquiry.SingleEnquirySupply}{}% 355
\BOOKMARK [2][-]{subsection.94.1}{Variables}{section.94}% 356
\BOOKMARK [2][-]{subsection.94.2}{Class SingleEnquirySupply}{section.94}% 357
\BOOKMARK [3][-]{subsubsection.94.2.1}{Methods}{subsection.94.2}% 358
\BOOKMARK [1][-]{section.95}{Module cuon.Enquiry.enquiry}{}% 359
\BOOKMARK [2][-]{subsection.95.1}{Variables}{section.95}% 360
\BOOKMARK [2][-]{subsection.95.2}{Class enquirywindow}{section.95}% 361
\BOOKMARK [3][-]{subsubsection.95.2.1}{Methods}{subsection.95.2}% 362
\BOOKMARK [1][-]{section.96}{Package cuon.Finances}{}% 363
\BOOKMARK [2][-]{subsection.96.1}{Modules}{section.96}% 364
\BOOKMARK [2][-]{subsection.96.2}{Variables}{section.96}% 365
\BOOKMARK [1][-]{section.97}{Package cuon.Finances.Bookkeeping}{}% 366
\BOOKMARK [2][-]{subsection.97.1}{Modules}{section.97}% 367
\BOOKMARK [2][-]{subsection.97.2}{Variables}{section.97}% 368
\BOOKMARK [1][-]{section.98}{Module cuon.Finances.Bookkeeping.bookkeeping}{}% 369
\BOOKMARK [2][-]{subsection.98.1}{Class bookkeepingwindow}{section.98}% 370
\BOOKMARK [3][-]{subsubsection.98.1.1}{Methods}{subsection.98.1}% 371
\BOOKMARK [1][-]{section.99}{Package cuon.Finances.CashAccountBook}{}% 372
\BOOKMARK [2][-]{subsection.99.1}{Modules}{section.99}% 373
\BOOKMARK [2][-]{subsection.99.2}{Variables}{section.99}% 374
\BOOKMARK [1][-]{section.100}{Module cuon.Finances.CashAccountBook.cashAccountBook}{}% 375
\BOOKMARK [2][-]{subsection.100.1}{Class cashAccountBookwindow}{section.100}% 376
\BOOKMARK [3][-]{subsubsection.100.1.1}{Methods}{subsection.100.1}% 377
\BOOKMARK [1][-]{section.101}{Module cuon.Finances.CashAccountBook.standard\137cab\137monthly}{}% 378
\BOOKMARK [2][-]{subsection.101.1}{Variables}{section.101}% 379
\BOOKMARK [2][-]{subsection.101.2}{Class standard\137cab\137monthly}{section.101}% 380
\BOOKMARK [3][-]{subsubsection.101.2.1}{Methods}{subsection.101.2}% 381
\BOOKMARK [1][-]{section.102}{Package cuon.Finances.InvoiceBook}{}% 382
\BOOKMARK [2][-]{subsection.102.1}{Modules}{section.102}% 383
\BOOKMARK [2][-]{subsection.102.2}{Variables}{section.102}% 384
\BOOKMARK [1][-]{section.103}{Module cuon.Finances.InvoiceBook.SingleInpayment}{}% 385
\BOOKMARK [2][-]{subsection.103.1}{Variables}{section.103}% 386
\BOOKMARK [2][-]{subsection.103.2}{Class SingleInpayment}{section.103}% 387
\BOOKMARK [3][-]{subsubsection.103.2.1}{Methods}{subsection.103.2}% 388
\BOOKMARK [1][-]{section.104}{Module cuon.Finances.InvoiceBook.SingleListOfInvoice}{}% 389
\BOOKMARK [2][-]{subsection.104.1}{Variables}{section.104}% 390
\BOOKMARK [2][-]{subsection.104.2}{Class SingleListOfInvoice}{section.104}% 391
\BOOKMARK [3][-]{subsubsection.104.2.1}{Methods}{subsection.104.2}% 392
\BOOKMARK [1][-]{section.105}{Module cuon.Finances.InvoiceBook.invoicebook}{}% 393
\BOOKMARK [2][-]{subsection.105.1}{Variables}{section.105}% 394
\BOOKMARK [2][-]{subsection.105.2}{Class invoicebookwindow}{section.105}% 395
\BOOKMARK [3][-]{subsubsection.105.2.1}{Methods}{subsection.105.2}% 396
\BOOKMARK [1][-]{section.106}{Module cuon.Finances.SingleAccountInfo}{}% 397
\BOOKMARK [2][-]{subsection.106.1}{Variables}{section.106}% 398
\BOOKMARK [2][-]{subsection.106.2}{Class SingleAccountInfo}{section.106}% 399
\BOOKMARK [3][-]{subsubsection.106.2.1}{Methods}{subsection.106.2}% 400
\BOOKMARK [1][-]{section.107}{Module cuon.Finances.SingleAccountPlan}{}% 401
\BOOKMARK [2][-]{subsection.107.1}{Variables}{section.107}% 402
\BOOKMARK [2][-]{subsection.107.2}{Class SingleAccountPlan}{section.107}% 403
\BOOKMARK [3][-]{subsubsection.107.2.1}{Methods}{subsection.107.2}% 404
\BOOKMARK [1][-]{section.108}{Module cuon.Finances.SingleAccountSentence}{}% 405
\BOOKMARK [2][-]{subsection.108.1}{Variables}{section.108}% 406
\BOOKMARK [2][-]{subsection.108.2}{Class SingleAccountSentence}{section.108}% 407
\BOOKMARK [3][-]{subsubsection.108.2.1}{Methods}{subsection.108.2}% 408
\BOOKMARK [1][-]{section.109}{Module cuon.Finances.SingleAccountValues}{}% 409
\BOOKMARK [2][-]{subsection.109.1}{Variables}{section.109}% 410
\BOOKMARK [2][-]{subsection.109.2}{Class SingleAccountValues}{section.109}% 411
\BOOKMARK [3][-]{subsubsection.109.2.1}{Methods}{subsection.109.2}% 412
\BOOKMARK [1][-]{section.110}{Package cuon.Garden}{}% 413
\BOOKMARK [2][-]{subsection.110.1}{Modules}{section.110}% 414
\BOOKMARK [2][-]{subsection.110.2}{Variables}{section.110}% 415
\BOOKMARK [1][-]{section.111}{Module cuon.Garden.SingleBotany}{}% 416
\BOOKMARK [2][-]{subsection.111.1}{Variables}{section.111}% 417
\BOOKMARK [2][-]{subsection.111.2}{Class SingleBotany}{section.111}% 418
\BOOKMARK [3][-]{subsubsection.111.2.1}{Methods}{subsection.111.2}% 419
\BOOKMARK [1][-]{section.112}{Module cuon.Garden.SingleBotanyClass}{}% 420
\BOOKMARK [2][-]{subsection.112.1}{Variables}{section.112}% 421
\BOOKMARK [2][-]{subsection.112.2}{Class SingleBotanyClass}{section.112}% 422
\BOOKMARK [3][-]{subsubsection.112.2.1}{Methods}{subsection.112.2}% 423
\BOOKMARK [1][-]{section.113}{Module cuon.Garden.SingleBotanyDivisio}{}% 424
\BOOKMARK [2][-]{subsection.113.1}{Variables}{section.113}% 425
\BOOKMARK [2][-]{subsection.113.2}{Class SingleBotanyDivisio}{section.113}% 426
\BOOKMARK [3][-]{subsubsection.113.2.1}{Methods}{subsection.113.2}% 427
\BOOKMARK [1][-]{section.114}{Module cuon.Garden.SingleBotanyFamily}{}% 428
\BOOKMARK [2][-]{subsection.114.1}{Variables}{section.114}% 429
\BOOKMARK [2][-]{subsection.114.2}{Class SingleBotanyFamily}{section.114}% 430
\BOOKMARK [3][-]{subsubsection.114.2.1}{Methods}{subsection.114.2}% 431
\BOOKMARK [1][-]{section.115}{Module cuon.Garden.SingleBotanyGenus}{}% 432
\BOOKMARK [2][-]{subsection.115.1}{Variables}{section.115}% 433
\BOOKMARK [2][-]{subsection.115.2}{Class SingleBotanyGenus}{section.115}% 434
\BOOKMARK [3][-]{subsubsection.115.2.1}{Methods}{subsection.115.2}% 435
\BOOKMARK [1][-]{section.116}{Module cuon.Garden.SingleBotanyOrdo}{}% 436
\BOOKMARK [2][-]{subsection.116.1}{Variables}{section.116}% 437
\BOOKMARK [2][-]{subsection.116.2}{Class SingleBotanyOrdo}{section.116}% 438
\BOOKMARK [3][-]{subsubsection.116.2.1}{Methods}{subsection.116.2}% 439
\BOOKMARK [1][-]{section.117}{Module cuon.Garden.SingleHibernation}{}% 440
\BOOKMARK [2][-]{subsection.117.1}{Variables}{section.117}% 441
\BOOKMARK [2][-]{subsection.117.2}{Class SingleHibernation}{section.117}% 442
\BOOKMARK [3][-]{subsubsection.117.2.1}{Methods}{subsection.117.2}% 443
\BOOKMARK [1][-]{section.118}{Module cuon.Garden.SingleHibernationPlant}{}% 444
\BOOKMARK [2][-]{subsection.118.1}{Variables}{section.118}% 445
\BOOKMARK [2][-]{subsection.118.2}{Class SingleHibernationPlant}{section.118}% 446
\BOOKMARK [3][-]{subsubsection.118.2.1}{Methods}{subsection.118.2}% 447
\BOOKMARK [1][-]{section.119}{Module cuon.Garden.address\137hibernation}{}% 448
\BOOKMARK [2][-]{subsection.119.1}{Variables}{section.119}% 449
\BOOKMARK [2][-]{subsection.119.2}{Class address\137hibernation}{section.119}% 450
\BOOKMARK [3][-]{subsubsection.119.2.1}{Methods}{subsection.119.2}% 451
\BOOKMARK [1][-]{section.120}{Module cuon.Garden.botany}{}% 452
\BOOKMARK [2][-]{subsection.120.1}{Variables}{section.120}% 453
\BOOKMARK [2][-]{subsection.120.2}{Class botanywindow}{section.120}% 454
\BOOKMARK [3][-]{subsubsection.120.2.1}{Methods}{subsection.120.2}% 455
\BOOKMARK [1][-]{section.121}{Module cuon.Garden.garden}{}% 456
\BOOKMARK [2][-]{subsection.121.1}{Variables}{section.121}% 457
\BOOKMARK [2][-]{subsection.121.2}{Class gardenwindow}{section.121}% 458
\BOOKMARK [3][-]{subsubsection.121.2.1}{Methods}{subsection.121.2}% 459
\BOOKMARK [1][-]{section.122}{Module cuon.Garden.hibernation}{}% 460
\BOOKMARK [2][-]{subsection.122.1}{Variables}{section.122}% 461
\BOOKMARK [2][-]{subsection.122.2}{Class hibernationwindow}{section.122}% 462
\BOOKMARK [3][-]{subsubsection.122.2.1}{Methods}{subsection.122.2}% 463
\BOOKMARK [1][-]{section.123}{Package cuon.Graves}{}% 464
\BOOKMARK [2][-]{subsection.123.1}{Modules}{section.123}% 465
\BOOKMARK [2][-]{subsection.123.2}{Variables}{section.123}% 466
\BOOKMARK [1][-]{section.124}{Module cuon.Graves.SingleGrave}{}% 467
\BOOKMARK [2][-]{subsection.124.1}{Variables}{section.124}% 468
\BOOKMARK [2][-]{subsection.124.2}{Class SingleGrave}{section.124}% 469
\BOOKMARK [3][-]{subsubsection.124.2.1}{Methods}{subsection.124.2}% 470
\BOOKMARK [1][-]{section.125}{Module cuon.Graves.SingleGraveAutumn}{}% 471
\BOOKMARK [2][-]{subsection.125.1}{Variables}{section.125}% 472
\BOOKMARK [2][-]{subsection.125.2}{Class SingleGraveAutumn}{section.125}% 473
\BOOKMARK [3][-]{subsubsection.125.2.1}{Methods}{subsection.125.2}% 474
\BOOKMARK [1][-]{section.126}{Module cuon.Graves.SingleGraveHoliday}{}% 475
\BOOKMARK [2][-]{subsection.126.1}{Variables}{section.126}% 476
\BOOKMARK [2][-]{subsection.126.2}{Class SingleGraveHoliday}{section.126}% 477
\BOOKMARK [3][-]{subsubsection.126.2.1}{Methods}{subsection.126.2}% 478
\BOOKMARK [1][-]{section.127}{Module cuon.Graves.SingleGraveInvoices}{}% 479
\BOOKMARK [2][-]{subsection.127.1}{Variables}{section.127}% 480
\BOOKMARK [2][-]{subsection.127.2}{Class SingleGraveInvoices}{section.127}% 481
\BOOKMARK [3][-]{subsubsection.127.2.1}{Methods}{subsection.127.2}% 482
\BOOKMARK [1][-]{section.128}{Module cuon.Graves.SingleGraveMaintenance}{}% 483
\BOOKMARK [2][-]{subsection.128.1}{Variables}{section.128}% 484
\BOOKMARK [2][-]{subsection.128.2}{Class SingleGraveMaintenance}{section.128}% 485
\BOOKMARK [3][-]{subsubsection.128.2.1}{Methods}{subsection.128.2}% 486
\BOOKMARK [1][-]{section.129}{Module cuon.Graves.SingleGraveServiceNotes}{}% 487
\BOOKMARK [2][-]{subsection.129.1}{Variables}{section.129}% 488
\BOOKMARK [2][-]{subsection.129.2}{Class SingleGraveServiceNotes}{section.129}% 489
\BOOKMARK [3][-]{subsubsection.129.2.1}{Methods}{subsection.129.2}% 490
\BOOKMARK [1][-]{section.130}{Module cuon.Graves.SingleGraveSingleevent}{}% 491
\BOOKMARK [2][-]{subsection.130.1}{Variables}{section.130}% 492
\BOOKMARK [2][-]{subsection.130.2}{Class SingleGraveSingleevent}{section.130}% 493
\BOOKMARK [3][-]{subsubsection.130.2.1}{Methods}{subsection.130.2}% 494
\BOOKMARK [1][-]{section.131}{Module cuon.Graves.SingleGraveSpring}{}% 495
\BOOKMARK [2][-]{subsection.131.1}{Variables}{section.131}% 496
\BOOKMARK [2][-]{subsection.131.2}{Class SingleGraveSpring}{section.131}% 497
\BOOKMARK [3][-]{subsubsection.131.2.1}{Methods}{subsection.131.2}% 498
\BOOKMARK [1][-]{section.132}{Module cuon.Graves.SingleGraveSummer}{}% 499
\BOOKMARK [2][-]{subsection.132.1}{Variables}{section.132}% 500
\BOOKMARK [2][-]{subsection.132.2}{Class SingleGraveSummer}{section.132}% 501
\BOOKMARK [3][-]{subsubsection.132.2.1}{Methods}{subsection.132.2}% 502
\BOOKMARK [1][-]{section.133}{Module cuon.Graves.SingleGraveWinter}{}% 503
\BOOKMARK [2][-]{subsection.133.1}{Variables}{section.133}% 504
\BOOKMARK [2][-]{subsection.133.2}{Class SingleGraveWinter}{section.133}% 505
\BOOKMARK [3][-]{subsubsection.133.2.1}{Methods}{subsection.133.2}% 506
\BOOKMARK [1][-]{section.134}{Module cuon.Graves.SingleGraveYear}{}% 507
\BOOKMARK [2][-]{subsection.134.1}{Variables}{section.134}% 508
\BOOKMARK [2][-]{subsection.134.2}{Class SingleGraveYear}{section.134}% 509
\BOOKMARK [3][-]{subsubsection.134.2.1}{Methods}{subsection.134.2}% 510
\BOOKMARK [1][-]{section.135}{Module cuon.Graves.SingleGraveyard}{}% 511
\BOOKMARK [2][-]{subsection.135.1}{Variables}{section.135}% 512
\BOOKMARK [2][-]{subsection.135.2}{Class SingleGraveyard}{section.135}% 513
\BOOKMARK [3][-]{subsubsection.135.2.1}{Methods}{subsection.135.2}% 514
\BOOKMARK [1][-]{section.136}{Module cuon.Graves.address\137graves}{}% 515
\BOOKMARK [2][-]{subsection.136.1}{Variables}{section.136}% 516
\BOOKMARK [2][-]{subsection.136.2}{Class address\137graves}{section.136}% 517
\BOOKMARK [3][-]{subsubsection.136.2.1}{Methods}{subsection.136.2}% 518
\BOOKMARK [1][-]{section.137}{Module cuon.Graves.grave}{}% 519
\BOOKMARK [2][-]{subsection.137.1}{Variables}{section.137}% 520
\BOOKMARK [2][-]{subsection.137.2}{Class graveswindow}{section.137}% 521
\BOOKMARK [3][-]{subsubsection.137.2.1}{Methods}{subsection.137.2}% 522
\BOOKMARK [1][-]{section.138}{Module cuon.Graves.graveyard}{}% 523
\BOOKMARK [2][-]{subsection.138.1}{Variables}{section.138}% 524
\BOOKMARK [2][-]{subsection.138.2}{Class graveyardMainwindow}{section.138}% 525
\BOOKMARK [3][-]{subsubsection.138.2.1}{Methods}{subsection.138.2}% 526
\BOOKMARK [1][-]{section.139}{Module cuon.Graves.plant\137lists}{}% 527
\BOOKMARK [2][-]{subsection.139.1}{Variables}{section.139}% 528
\BOOKMARK [2][-]{subsection.139.2}{Class plantlists}{section.139}% 529
\BOOKMARK [3][-]{subsubsection.139.2.1}{Methods}{subsection.139.2}% 530
\BOOKMARK [1][-]{section.140}{Package cuon.Help}{}% 531
\BOOKMARK [2][-]{subsection.140.1}{Modules}{section.140}% 532
\BOOKMARK [2][-]{subsection.140.2}{Variables}{section.140}% 533
\BOOKMARK [1][-]{section.141}{Module cuon.Help.help}{}% 534
\BOOKMARK [2][-]{subsection.141.1}{Variables}{section.141}% 535
\BOOKMARK [2][-]{subsection.141.2}{Class helpwindow}{section.141}% 536
\BOOKMARK [3][-]{subsubsection.141.2.1}{Methods}{subsection.141.2}% 537
\BOOKMARK [1][-]{section.142}{Package cuon.Leasing}{}% 538
\BOOKMARK [2][-]{subsection.142.1}{Modules}{section.142}% 539
\BOOKMARK [2][-]{subsection.142.2}{Variables}{section.142}% 540
\BOOKMARK [1][-]{section.143}{Module cuon.Leasing.SingleLeasing}{}% 541
\BOOKMARK [2][-]{subsection.143.1}{Variables}{section.143}% 542
\BOOKMARK [2][-]{subsection.143.2}{Class SingleLeasing}{section.143}% 543
\BOOKMARK [3][-]{subsubsection.143.2.1}{Methods}{subsection.143.2}% 544
\BOOKMARK [1][-]{section.144}{Module cuon.Leasing.leasing}{}% 545
\BOOKMARK [2][-]{subsection.144.1}{Variables}{section.144}% 546
\BOOKMARK [2][-]{subsection.144.2}{Class leasingwindow}{section.144}% 547
\BOOKMARK [3][-]{subsubsection.144.2.1}{Methods}{subsection.144.2}% 548
\BOOKMARK [1][-]{section.145}{Package cuon.Logging}{}% 549
\BOOKMARK [2][-]{subsection.145.1}{Modules}{section.145}% 550
\BOOKMARK [1][-]{section.146}{Module cuon.Logging.logs}{}% 551
\BOOKMARK [2][-]{subsection.146.1}{Variables}{section.146}% 552
\BOOKMARK [2][-]{subsection.146.2}{Class logs}{section.146}% 553
\BOOKMARK [3][-]{subsubsection.146.2.1}{Methods}{subsection.146.2}% 554
\BOOKMARK [1][-]{section.147}{Package cuon.Login}{}% 555
\BOOKMARK [2][-]{subsection.147.1}{Modules}{section.147}% 556
\BOOKMARK [1][-]{section.148}{Module cuon.Login.login}{}% 557
\BOOKMARK [2][-]{subsection.148.1}{Variables}{section.148}% 558
\BOOKMARK [2][-]{subsection.148.2}{Class loginwindow}{section.148}% 559
\BOOKMARK [3][-]{subsubsection.148.2.1}{Methods}{subsection.148.2}% 560
\BOOKMARK [1][-]{section.149}{Package cuon.Misc}{}% 561
\BOOKMARK [2][-]{subsection.149.1}{Modules}{section.149}% 562
\BOOKMARK [2][-]{subsection.149.2}{Variables}{section.149}% 563
\BOOKMARK [1][-]{section.150}{Module cuon.Misc.cuon\137dialog}{}% 564
\BOOKMARK [2][-]{subsection.150.1}{Variables}{section.150}% 565
\BOOKMARK [2][-]{subsection.150.2}{Class cuon\137dialog}{section.150}% 566
\BOOKMARK [3][-]{subsubsection.150.2.1}{Methods}{subsection.150.2}% 567
\BOOKMARK [1][-]{section.151}{Module cuon.Misc.cuonlists}{}% 568
\BOOKMARK [2][-]{subsection.151.1}{Variables}{section.151}% 569
\BOOKMARK [2][-]{subsection.151.2}{Class cuonlists}{section.151}% 570
\BOOKMARK [3][-]{subsubsection.151.2.1}{Methods}{subsection.151.2}% 571
\BOOKMARK [1][-]{section.152}{Module cuon.Misc.fileSelection}{}% 572
\BOOKMARK [2][-]{subsection.152.1}{Variables}{section.152}% 573
\BOOKMARK [2][-]{subsection.152.2}{Class fileSelection}{section.152}% 574
\BOOKMARK [3][-]{subsubsection.152.2.1}{Methods}{subsection.152.2}% 575
\BOOKMARK [1][-]{section.153}{Module cuon.Misc.messages}{}% 576
\BOOKMARK [2][-]{subsection.153.1}{Variables}{section.153}% 577
\BOOKMARK [2][-]{subsection.153.2}{Class messages}{section.153}% 578
\BOOKMARK [3][-]{subsubsection.153.2.1}{Methods}{subsection.153.2}% 579
\BOOKMARK [1][-]{section.154}{Module cuon.Misc.misc}{}% 580
\BOOKMARK [2][-]{subsection.154.1}{Variables}{section.154}% 581
\BOOKMARK [2][-]{subsection.154.2}{Class misc}{section.154}% 582
\BOOKMARK [3][-]{subsubsection.154.2.1}{Methods}{subsection.154.2}% 583
\BOOKMARK [2][-]{subsection.154.3}{Class sendAsEmail}{section.154}% 584
\BOOKMARK [3][-]{subsubsection.154.3.1}{Methods}{subsection.154.3}% 585
\BOOKMARK [2][-]{subsection.154.4}{Class Treeview}{section.154}% 586
\BOOKMARK [3][-]{subsubsection.154.4.1}{Methods}{subsection.154.4}% 587
\BOOKMARK [1][-]{section.155}{Package cuon.OpenOffice}{}% 588
\BOOKMARK [2][-]{subsection.155.1}{Modules}{section.155}% 589
\BOOKMARK [2][-]{subsection.155.2}{Variables}{section.155}% 590
\BOOKMARK [1][-]{section.156}{Module cuon.OpenOffice.letter}{}% 591
\BOOKMARK [2][-]{subsection.156.1}{Class letter}{section.156}% 592
\BOOKMARK [3][-]{subsubsection.156.1.1}{Methods}{subsection.156.1}% 593
\BOOKMARK [1][-]{section.157}{Module cuon.OpenOffice.ooMain}{}% 594
\BOOKMARK [2][-]{subsection.157.1}{Variables}{section.157}% 595
\BOOKMARK [1][-]{section.158}{Module cuon.OpenOffice.ooconnect}{}% 596
\BOOKMARK [2][-]{subsection.158.1}{Class ooconnect}{section.158}% 597
\BOOKMARK [3][-]{subsubsection.158.1.1}{Methods}{subsection.158.1}% 598
\BOOKMARK [1][-]{section.159}{Package cuon.Order}{}% 599
\BOOKMARK [2][-]{subsection.159.1}{Modules}{section.159}% 600
\BOOKMARK [2][-]{subsection.159.2}{Variables}{section.159}% 601
\BOOKMARK [1][-]{section.160}{Module cuon.Order.SingleOrder}{}% 602
\BOOKMARK [2][-]{subsection.160.1}{Variables}{section.160}% 603
\BOOKMARK [2][-]{subsection.160.2}{Class SingleOrder}{section.160}% 604
\BOOKMARK [3][-]{subsubsection.160.2.1}{Methods}{subsection.160.2}% 605
\BOOKMARK [1][-]{section.161}{Module cuon.Order.SingleOrderGet}{}% 606
\BOOKMARK [2][-]{subsection.161.1}{Variables}{section.161}% 607
\BOOKMARK [2][-]{subsection.161.2}{Class SingleOrderGet}{section.161}% 608
\BOOKMARK [3][-]{subsubsection.161.2.1}{Methods}{subsection.161.2}% 609
\BOOKMARK [1][-]{section.162}{Module cuon.Order.SingleOrderInvoice}{}% 610
\BOOKMARK [2][-]{subsection.162.1}{Variables}{section.162}% 611
\BOOKMARK [2][-]{subsection.162.2}{Class SingleOrderInvoice}{section.162}% 612
\BOOKMARK [3][-]{subsubsection.162.2.1}{Methods}{subsection.162.2}% 613
\BOOKMARK [1][-]{section.163}{Module cuon.Order.SingleOrderMisc}{}% 614
\BOOKMARK [2][-]{subsection.163.1}{Variables}{section.163}% 615
\BOOKMARK [2][-]{subsection.163.2}{Class SingleOrderMisc}{section.163}% 616
\BOOKMARK [3][-]{subsubsection.163.2.1}{Methods}{subsection.163.2}% 617
\BOOKMARK [1][-]{section.164}{Module cuon.Order.SingleOrderPayment}{}% 618
\BOOKMARK [2][-]{subsection.164.1}{Variables}{section.164}% 619
\BOOKMARK [2][-]{subsection.164.2}{Class SingleOrderPayment}{section.164}% 620
\BOOKMARK [3][-]{subsubsection.164.2.1}{Methods}{subsection.164.2}% 621
\BOOKMARK [1][-]{section.165}{Module cuon.Order.SingleOrderPosition}{}% 622
\BOOKMARK [2][-]{subsection.165.1}{Variables}{section.165}% 623
\BOOKMARK [2][-]{subsection.165.2}{Class SingleOrderPosition}{section.165}% 624
\BOOKMARK [3][-]{subsubsection.165.2.1}{Methods}{subsection.165.2}% 625
\BOOKMARK [1][-]{section.166}{Module cuon.Order.SingleOrderSupply}{}% 626
\BOOKMARK [2][-]{subsection.166.1}{Variables}{section.166}% 627
\BOOKMARK [2][-]{subsection.166.2}{Class SingleOrderSupply}{section.166}% 628
\BOOKMARK [3][-]{subsubsection.166.2.1}{Methods}{subsection.166.2}% 629
\BOOKMARK [1][-]{section.167}{Module cuon.Order.order}{}% 630
\BOOKMARK [2][-]{subsection.167.1}{Variables}{section.167}% 631
\BOOKMARK [2][-]{subsection.167.2}{Class orderwindow}{section.167}% 632
\BOOKMARK [3][-]{subsubsection.167.2.1}{Methods}{subsection.167.2}% 633
\BOOKMARK [1][-]{section.168}{Module cuon.Order.standard\137bill}{}% 634
\BOOKMARK [2][-]{subsection.168.1}{Variables}{section.168}% 635
\BOOKMARK [2][-]{subsection.168.2}{Class standard\137bill}{section.168}% 636
\BOOKMARK [3][-]{subsubsection.168.2.1}{Methods}{subsection.168.2}% 637
\BOOKMARK [1][-]{section.169}{Module cuon.Order.standard\137delivery\137note}{}% 638
\BOOKMARK [2][-]{subsection.169.1}{Variables}{section.169}% 639
\BOOKMARK [2][-]{subsection.169.2}{Class standard\137delivery\137note}{section.169}% 640
\BOOKMARK [3][-]{subsubsection.169.2.1}{Methods}{subsection.169.2}% 641
\BOOKMARK [1][-]{section.170}{Module cuon.Order.standard\137invoice}{}% 642
\BOOKMARK [2][-]{subsection.170.1}{Variables}{section.170}% 643
\BOOKMARK [2][-]{subsection.170.2}{Class standard\137invoice}{section.170}% 644
\BOOKMARK [3][-]{subsubsection.170.2.1}{Methods}{subsection.170.2}% 645
\BOOKMARK [1][-]{section.171}{Module cuon.Order.standard\137pickup\137note}{}% 646
\BOOKMARK [2][-]{subsection.171.1}{Variables}{section.171}% 647
\BOOKMARK [2][-]{subsection.171.2}{Class standard\137pickup\137note}{section.171}% 648
\BOOKMARK [3][-]{subsubsection.171.2.1}{Methods}{subsection.171.2}% 649
\BOOKMARK [1][-]{section.172}{Package cuon.Preferences}{}% 650
\BOOKMARK [2][-]{subsection.172.1}{Modules}{section.172}% 651
\BOOKMARK [2][-]{subsection.172.2}{Variables}{section.172}% 652
\BOOKMARK [1][-]{section.173}{Module cuon.Preferences.SinglePreferences}{}% 653
\BOOKMARK [2][-]{subsection.173.1}{Variables}{section.173}% 654
\BOOKMARK [2][-]{subsection.173.2}{Class SinglePreferences}{section.173}% 655
\BOOKMARK [3][-]{subsubsection.173.2.1}{Methods}{subsection.173.2}% 656
\BOOKMARK [1][-]{section.174}{Module cuon.Preferences.preferences}{}% 657
\BOOKMARK [2][-]{subsection.174.1}{Variables}{section.174}% 658
\BOOKMARK [2][-]{subsection.174.2}{Class preferenceswindow}{section.174}% 659
\BOOKMARK [3][-]{subsubsection.174.2.1}{Methods}{subsection.174.2}% 660
\BOOKMARK [1][-]{section.175}{Package cuon.PrefsFinance}{}% 661
\BOOKMARK [2][-]{subsection.175.1}{Modules}{section.175}% 662
\BOOKMARK [2][-]{subsection.175.2}{Variables}{section.175}% 663
\BOOKMARK [1][-]{section.176}{Module cuon.PrefsFinance.SinglePrefsFinanceTop}{}% 664
\BOOKMARK [2][-]{subsection.176.1}{Variables}{section.176}% 665
\BOOKMARK [2][-]{subsection.176.2}{Class SinglePrefsFinanceTop}{section.176}% 666
\BOOKMARK [3][-]{subsubsection.176.2.1}{Methods}{subsection.176.2}% 667
\BOOKMARK [1][-]{section.177}{Module cuon.PrefsFinance.SinglePrefsFinanceVat}{}% 668
\BOOKMARK [2][-]{subsection.177.1}{Variables}{section.177}% 669
\BOOKMARK [2][-]{subsection.177.2}{Class SinglePrefsFinanceVat}{section.177}% 670
\BOOKMARK [3][-]{subsubsection.177.2.1}{Methods}{subsection.177.2}% 671
\BOOKMARK [1][-]{section.178}{Module cuon.PrefsFinance.prefsFinance}{}% 672
\BOOKMARK [2][-]{subsection.178.1}{Variables}{section.178}% 673
\BOOKMARK [2][-]{subsection.178.2}{Class prefsFinancewindow}{section.178}% 674
\BOOKMARK [3][-]{subsubsection.178.2.1}{Methods}{subsection.178.2}% 675
\BOOKMARK [1][-]{section.179}{Package cuon.Project}{}% 676
\BOOKMARK [2][-]{subsection.179.1}{Modules}{section.179}% 677
\BOOKMARK [2][-]{subsection.179.2}{Variables}{section.179}% 678
\BOOKMARK [1][-]{section.180}{Module cuon.Project.SingleProject}{}% 679
\BOOKMARK [2][-]{subsection.180.1}{Variables}{section.180}% 680
\BOOKMARK [2][-]{subsection.180.2}{Class SingleProject}{section.180}% 681
\BOOKMARK [3][-]{subsubsection.180.2.1}{Methods}{subsection.180.2}% 682
\BOOKMARK [1][-]{section.181}{Module cuon.Project.SingleProjectMaterialResources}{}% 683
\BOOKMARK [2][-]{subsection.181.1}{Variables}{section.181}% 684
\BOOKMARK [2][-]{subsection.181.2}{Class SingleProjectMaterialResources}{section.181}% 685
\BOOKMARK [3][-]{subsubsection.181.2.1}{Methods}{subsection.181.2}% 686
\BOOKMARK [1][-]{section.182}{Module cuon.Project.SingleProjectPhases}{}% 687
\BOOKMARK [2][-]{subsection.182.1}{Variables}{section.182}% 688
\BOOKMARK [2][-]{subsection.182.2}{Class SingleProjectPhases}{section.182}% 689
\BOOKMARK [3][-]{subsubsection.182.2.1}{Methods}{subsection.182.2}% 690
\BOOKMARK [1][-]{section.183}{Module cuon.Project.SingleProjectProgramming}{}% 691
\BOOKMARK [2][-]{subsection.183.1}{Variables}{section.183}% 692
\BOOKMARK [2][-]{subsection.183.2}{Class SingleProjectProgramming}{section.183}% 693
\BOOKMARK [3][-]{subsubsection.183.2.1}{Methods}{subsection.183.2}% 694
\BOOKMARK [1][-]{section.184}{Module cuon.Project.SingleProjectStaffResources}{}% 695
\BOOKMARK [2][-]{subsection.184.1}{Variables}{section.184}% 696
\BOOKMARK [2][-]{subsection.184.2}{Class SingleProjectStaffResources}{section.184}% 697
\BOOKMARK [3][-]{subsubsection.184.2.1}{Methods}{subsection.184.2}% 698
\BOOKMARK [1][-]{section.185}{Module cuon.Project.SingleProjectTasks}{}% 699
\BOOKMARK [2][-]{subsection.185.1}{Variables}{section.185}% 700
\BOOKMARK [2][-]{subsection.185.2}{Class SingleProjectTasks}{section.185}% 701
\BOOKMARK [3][-]{subsubsection.185.2.1}{Methods}{subsection.185.2}% 702
\BOOKMARK [1][-]{section.186}{Module cuon.Project.project}{}% 703
\BOOKMARK [2][-]{subsection.186.1}{Variables}{section.186}% 704
\BOOKMARK [2][-]{subsection.186.2}{Class projectwindow}{section.186}% 705
\BOOKMARK [3][-]{subsubsection.186.2.1}{Methods}{subsection.186.2}% 706
\BOOKMARK [1][-]{section.187}{Package cuon.Proposal}{}% 707
\BOOKMARK [2][-]{subsection.187.1}{Modules}{section.187}% 708
\BOOKMARK [2][-]{subsection.187.2}{Variables}{section.187}% 709
\BOOKMARK [1][-]{section.188}{Module cuon.Proposal.SingleProposal}{}% 710
\BOOKMARK [2][-]{subsection.188.1}{Variables}{section.188}% 711
\BOOKMARK [2][-]{subsection.188.2}{Class SingleProposal}{section.188}% 712
\BOOKMARK [3][-]{subsubsection.188.2.1}{Methods}{subsection.188.2}% 713
\BOOKMARK [1][-]{section.189}{Module cuon.Proposal.SingleProposalGet}{}% 714
\BOOKMARK [2][-]{subsection.189.1}{Variables}{section.189}% 715
\BOOKMARK [2][-]{subsection.189.2}{Class SingleProposalGet}{section.189}% 716
\BOOKMARK [3][-]{subsubsection.189.2.1}{Methods}{subsection.189.2}% 717
\BOOKMARK [1][-]{section.190}{Module cuon.Proposal.SingleProposalInvoice}{}% 718
\BOOKMARK [2][-]{subsection.190.1}{Variables}{section.190}% 719
\BOOKMARK [2][-]{subsection.190.2}{Class SingleProposalInvoice}{section.190}% 720
\BOOKMARK [3][-]{subsubsection.190.2.1}{Methods}{subsection.190.2}% 721
\BOOKMARK [1][-]{section.191}{Module cuon.Proposal.SingleProposalMisc}{}% 722
\BOOKMARK [2][-]{subsection.191.1}{Variables}{section.191}% 723
\BOOKMARK [2][-]{subsection.191.2}{Class SingleProposalMisc}{section.191}% 724
\BOOKMARK [3][-]{subsubsection.191.2.1}{Methods}{subsection.191.2}% 725
\BOOKMARK [1][-]{section.192}{Module cuon.Proposal.SingleProposalPayment}{}% 726
\BOOKMARK [2][-]{subsection.192.1}{Variables}{section.192}% 727
\BOOKMARK [2][-]{subsection.192.2}{Class SingleProposalPayment}{section.192}% 728
\BOOKMARK [3][-]{subsubsection.192.2.1}{Methods}{subsection.192.2}% 729
\BOOKMARK [1][-]{section.193}{Module cuon.Proposal.SingleProposalPosition}{}% 730
\BOOKMARK [2][-]{subsection.193.1}{Variables}{section.193}% 731
\BOOKMARK [2][-]{subsection.193.2}{Class SingleProposalPosition}{section.193}% 732
\BOOKMARK [3][-]{subsubsection.193.2.1}{Methods}{subsection.193.2}% 733
\BOOKMARK [1][-]{section.194}{Module cuon.Proposal.SingleProposalSupply}{}% 734
\BOOKMARK [2][-]{subsection.194.1}{Variables}{section.194}% 735
\BOOKMARK [2][-]{subsection.194.2}{Class SingleProposalSupply}{section.194}% 736
\BOOKMARK [3][-]{subsubsection.194.2.1}{Methods}{subsection.194.2}% 737
\BOOKMARK [1][-]{section.195}{Module cuon.Proposal.proposal}{}% 738
\BOOKMARK [2][-]{subsection.195.1}{Variables}{section.195}% 739
\BOOKMARK [2][-]{subsection.195.2}{Class proposalwindow}{section.195}% 740
\BOOKMARK [3][-]{subsubsection.195.2.1}{Methods}{subsection.195.2}% 741
\BOOKMARK [1][-]{section.196}{Package cuon.ReportBuilder}{}% 742
\BOOKMARK [2][-]{subsection.196.1}{Modules}{section.196}% 743
\BOOKMARK [2][-]{subsection.196.2}{Variables}{section.196}% 744
\BOOKMARK [1][-]{section.197}{Module cuon.ReportBuilder.drawingReport}{}% 745
\BOOKMARK [2][-]{subsection.197.1}{Variables}{section.197}% 746
\BOOKMARK [2][-]{subsection.197.2}{Class drawingReport}{section.197}% 747
\BOOKMARK [3][-]{subsubsection.197.2.1}{Methods}{subsection.197.2}% 748
\BOOKMARK [1][-]{section.198}{Module cuon.ReportBuilder.modifyEntry}{}% 749
\BOOKMARK [2][-]{subsection.198.1}{Variables}{section.198}% 750
\BOOKMARK [2][-]{subsection.198.2}{Class modifyEntryWindow}{section.198}% 751
\BOOKMARK [3][-]{subsubsection.198.2.1}{Methods}{subsection.198.2}% 752
\BOOKMARK [1][-]{section.199}{Module cuon.ReportBuilder.report}{}% 753
\BOOKMARK [2][-]{subsection.199.1}{Variables}{section.199}% 754
\BOOKMARK [2][-]{subsection.199.2}{Class report}{section.199}% 755
\BOOKMARK [3][-]{subsubsection.199.2.1}{Methods}{subsection.199.2}% 756
\BOOKMARK [1][-]{section.200}{Module cuon.ReportBuilder.reportbuilder}{}% 757
\BOOKMARK [2][-]{subsection.200.1}{Variables}{section.200}% 758
\BOOKMARK [2][-]{subsection.200.2}{Class reportbuilderwindow}{section.200}% 759
\BOOKMARK [3][-]{subsubsection.200.2.1}{Methods}{subsection.200.2}% 760
\BOOKMARK [1][-]{section.201}{Package cuon.SQL\137Shell}{}% 761
\BOOKMARK [2][-]{subsection.201.1}{Modules}{section.201}% 762
\BOOKMARK [2][-]{subsection.201.2}{Variables}{section.201}% 763
\BOOKMARK [1][-]{section.202}{Module cuon.SQL\137Shell.sql\137shell}{}% 764
\BOOKMARK [2][-]{subsection.202.1}{Variables}{section.202}% 765
\BOOKMARK [2][-]{subsection.202.2}{Class sql\137shell}{section.202}% 766
\BOOKMARK [3][-]{subsubsection.202.2.1}{Methods}{subsection.202.2}% 767
\BOOKMARK [1][-]{section.203}{Package cuon.Skeleton}{}% 768
\BOOKMARK [2][-]{subsection.203.1}{Modules}{section.203}% 769
\BOOKMARK [2][-]{subsection.203.2}{Variables}{section.203}% 770
\BOOKMARK [1][-]{section.204}{Module cuon.Skeleton.SingleSkeleton}{}% 771
\BOOKMARK [2][-]{subsection.204.1}{Variables}{section.204}% 772
\BOOKMARK [2][-]{subsection.204.2}{Class SingleClient}{section.204}% 773
\BOOKMARK [3][-]{subsubsection.204.2.1}{Methods}{subsection.204.2}% 774
\BOOKMARK [1][-]{section.205}{Module cuon.Skeleton.skeleton}{}% 775
\BOOKMARK [2][-]{subsection.205.1}{Variables}{section.205}% 776
\BOOKMARK [2][-]{subsection.205.2}{Class clientswindow}{section.205}% 777
\BOOKMARK [3][-]{subsubsection.205.2.1}{Methods}{subsection.205.2}% 778
\BOOKMARK [1][-]{section.206}{Package cuon.Staff}{}% 779
\BOOKMARK [2][-]{subsection.206.1}{Modules}{section.206}% 780
\BOOKMARK [2][-]{subsection.206.2}{Variables}{section.206}% 781
\BOOKMARK [1][-]{section.207}{Module cuon.Staff.SingleStaff}{}% 782
\BOOKMARK [2][-]{subsection.207.1}{Variables}{section.207}% 783
\BOOKMARK [2][-]{subsection.207.2}{Class SingleStaff}{section.207}% 784
\BOOKMARK [3][-]{subsubsection.207.2.1}{Methods}{subsection.207.2}% 785
\BOOKMARK [1][-]{section.208}{Module cuon.Staff.SingleStaffDisease}{}% 786
\BOOKMARK [2][-]{subsection.208.1}{Variables}{section.208}% 787
\BOOKMARK [2][-]{subsection.208.2}{Class SingleStaffDisease}{section.208}% 788
\BOOKMARK [3][-]{subsubsection.208.2.1}{Methods}{subsection.208.2}% 789
\BOOKMARK [1][-]{section.209}{Module cuon.Staff.SingleStaffFee}{}% 790
\BOOKMARK [2][-]{subsection.209.1}{Variables}{section.209}% 791
\BOOKMARK [2][-]{subsection.209.2}{Class SingleStaffFee}{section.209}% 792
\BOOKMARK [3][-]{subsubsection.209.2.1}{Methods}{subsection.209.2}% 793
\BOOKMARK [1][-]{section.210}{Module cuon.Staff.SingleStaffMisc}{}% 794
\BOOKMARK [2][-]{subsection.210.1}{Variables}{section.210}% 795
\BOOKMARK [2][-]{subsection.210.2}{Class SingleStaffMisc}{section.210}% 796
\BOOKMARK [3][-]{subsubsection.210.2.1}{Methods}{subsection.210.2}% 797
\BOOKMARK [1][-]{section.211}{Module cuon.Staff.SingleStaffVacation}{}% 798
\BOOKMARK [2][-]{subsection.211.1}{Variables}{section.211}% 799
\BOOKMARK [2][-]{subsection.211.2}{Class SingleStaffVacation}{section.211}% 800
\BOOKMARK [3][-]{subsubsection.211.2.1}{Methods}{subsection.211.2}% 801
\BOOKMARK [1][-]{section.212}{Module cuon.Staff.staff}{}% 802
\BOOKMARK [2][-]{subsection.212.1}{Variables}{section.212}% 803
\BOOKMARK [2][-]{subsection.212.2}{Class staffwindow}{section.212}% 804
\BOOKMARK [3][-]{subsubsection.212.2.1}{Methods}{subsection.212.2}% 805
\BOOKMARK [1][-]{section.213}{Package cuon.Stats}{}% 806
\BOOKMARK [2][-]{subsection.213.1}{Modules}{section.213}% 807
\BOOKMARK [2][-]{subsection.213.2}{Variables}{section.213}% 808
\BOOKMARK [1][-]{section.214}{Module cuon.Stats.stats}{}% 809
\BOOKMARK [2][-]{subsection.214.1}{Variables}{section.214}% 810
\BOOKMARK [2][-]{subsection.214.2}{Class statswindow}{section.214}% 811
\BOOKMARK [3][-]{subsubsection.214.2.1}{Methods}{subsection.214.2}% 812
\BOOKMARK [1][-]{section.215}{Package cuon.Stock}{}% 813
\BOOKMARK [2][-]{subsection.215.1}{Modules}{section.215}% 814
\BOOKMARK [2][-]{subsection.215.2}{Variables}{section.215}% 815
\BOOKMARK [1][-]{section.216}{Module cuon.Stock.SingleStock}{}% 816
\BOOKMARK [2][-]{subsection.216.1}{Variables}{section.216}% 817
\BOOKMARK [2][-]{subsection.216.2}{Class SingleStock}{section.216}% 818
\BOOKMARK [3][-]{subsubsection.216.2.1}{Methods}{subsection.216.2}% 819
\BOOKMARK [1][-]{section.217}{Module cuon.Stock.SingleStockGoods}{}% 820
\BOOKMARK [2][-]{subsection.217.1}{Variables}{section.217}% 821
\BOOKMARK [2][-]{subsection.217.2}{Class SingleStockGoods}{section.217}% 822
\BOOKMARK [3][-]{subsubsection.217.2.1}{Methods}{subsection.217.2}% 823
\BOOKMARK [1][-]{section.218}{Module cuon.Stock.lists\137stockgoods\137number1}{}% 824
\BOOKMARK [2][-]{subsection.218.1}{Variables}{section.218}% 825
\BOOKMARK [2][-]{subsection.218.2}{Class lists\137stockgoods\137number1}{section.218}% 826
\BOOKMARK [3][-]{subsubsection.218.2.1}{Methods}{subsection.218.2}% 827
\BOOKMARK [1][-]{section.219}{Module cuon.Stock.stock}{}% 828
\BOOKMARK [2][-]{subsection.219.1}{Variables}{section.219}% 829
\BOOKMARK [2][-]{subsection.219.2}{Class stockwindow}{section.219}% 830
\BOOKMARK [3][-]{subsubsection.219.2.1}{Methods}{subsection.219.2}% 831
\BOOKMARK [1][-]{section.220}{Package cuon.SupportTicket}{}% 832
\BOOKMARK [2][-]{subsection.220.1}{Modules}{section.220}% 833
\BOOKMARK [2][-]{subsection.220.2}{Variables}{section.220}% 834
\BOOKMARK [1][-]{section.221}{Module cuon.SupportTicket.SingleSupportProject}{}% 835
\BOOKMARK [2][-]{subsection.221.1}{Variables}{section.221}% 836
\BOOKMARK [2][-]{subsection.221.2}{Class SingleSupportProject}{section.221}% 837
\BOOKMARK [3][-]{subsubsection.221.2.1}{Methods}{subsection.221.2}% 838
\BOOKMARK [1][-]{section.222}{Module cuon.SupportTicket.SingleSupportTicket}{}% 839
\BOOKMARK [2][-]{subsection.222.1}{Variables}{section.222}% 840
\BOOKMARK [2][-]{subsection.222.2}{Class SingleSupportTicket}{section.222}% 841
\BOOKMARK [3][-]{subsubsection.222.2.1}{Methods}{subsection.222.2}% 842
\BOOKMARK [1][-]{section.223}{Module cuon.SupportTicket.supportTicket}{}% 843
\BOOKMARK [2][-]{subsection.223.1}{Variables}{section.223}% 844
\BOOKMARK [2][-]{subsection.223.2}{Class supportticketwindow}{section.223}% 845
\BOOKMARK [3][-]{subsubsection.223.2.1}{Methods}{subsection.223.2}% 846
\BOOKMARK [1][-]{section.224}{Package cuon.Think}{}% 847
\BOOKMARK [2][-]{subsection.224.1}{Modules}{section.224}% 848
\BOOKMARK [2][-]{subsection.224.2}{Variables}{section.224}% 849
\BOOKMARK [1][-]{section.225}{Module cuon.Think.SingleMindmap}{}% 850
\BOOKMARK [2][-]{subsection.225.1}{Variables}{section.225}% 851
\BOOKMARK [2][-]{subsection.225.2}{Class SingleMindmap}{section.225}% 852
\BOOKMARK [3][-]{subsubsection.225.2.1}{Methods}{subsection.225.2}% 853
\BOOKMARK [1][-]{section.226}{Module cuon.Think.SingleThink}{}% 854
\BOOKMARK [2][-]{subsection.226.1}{Variables}{section.226}% 855
\BOOKMARK [2][-]{subsection.226.2}{Class SingleThink}{section.226}% 856
\BOOKMARK [3][-]{subsubsection.226.2.1}{Methods}{subsection.226.2}% 857
\BOOKMARK [1][-]{section.227}{Module cuon.Think.think}{}% 858
\BOOKMARK [2][-]{subsection.227.1}{Variables}{section.227}% 859
\BOOKMARK [2][-]{subsection.227.2}{Class thinkwindow}{section.227}% 860
\BOOKMARK [3][-]{subsubsection.227.2.1}{Methods}{subsection.227.2}% 861
\BOOKMARK [1][-]{section.228}{Package cuon.TypeDefs}{}% 862
\BOOKMARK [2][-]{subsection.228.1}{Modules}{section.228}% 863
\BOOKMARK [1][-]{section.229}{Module cuon.TypeDefs.constants}{}% 864
\BOOKMARK [2][-]{subsection.229.1}{Variables}{section.229}% 865
\BOOKMARK [2][-]{subsection.229.2}{Class constants}{section.229}% 866
\BOOKMARK [3][-]{subsubsection.229.2.1}{Methods}{subsection.229.2}% 867
\BOOKMARK [1][-]{section.230}{Module cuon.TypeDefs.defaultValues}{}% 868
\BOOKMARK [2][-]{subsection.230.1}{Variables}{section.230}% 869
\BOOKMARK [2][-]{subsection.230.2}{Class defaultValues}{section.230}% 870
\BOOKMARK [3][-]{subsubsection.230.2.1}{Methods}{subsection.230.2}% 871
\BOOKMARK [1][-]{section.231}{Module cuon.TypeDefs.typedefs}{}% 872
\BOOKMARK [2][-]{subsection.231.1}{Variables}{section.231}% 873
\BOOKMARK [2][-]{subsection.231.2}{Class typedefs}{section.231}% 874
\BOOKMARK [3][-]{subsubsection.231.2.1}{Methods}{subsection.231.2}% 875
\BOOKMARK [1][-]{section.232}{Module cuon.TypeDefs.typedefs\137server}{}% 876
\BOOKMARK [2][-]{subsection.232.1}{Variables}{section.232}% 877
\BOOKMARK [2][-]{subsection.232.2}{Class typedefs\137server}{section.232}% 878
\BOOKMARK [3][-]{subsubsection.232.2.1}{Methods}{subsection.232.2}% 879
\BOOKMARK [1][-]{section.233}{Package cuon.User}{}% 880
\BOOKMARK [2][-]{subsection.233.1}{Modules}{section.233}% 881
\BOOKMARK [2][-]{subsection.233.2}{Variables}{section.233}% 882
\BOOKMARK [1][-]{section.234}{Module cuon.User.user}{}% 883
\BOOKMARK [2][-]{subsection.234.1}{Variables}{section.234}% 884
\BOOKMARK [2][-]{subsection.234.2}{Class User}{section.234}% 885
\BOOKMARK [3][-]{subsubsection.234.2.1}{Methods}{subsection.234.2}% 886
\BOOKMARK [1][-]{section.235}{Package cuon.VTK}{}% 887
\BOOKMARK [2][-]{subsection.235.1}{Modules}{section.235}% 888
\BOOKMARK [2][-]{subsection.235.2}{Variables}{section.235}% 889
\BOOKMARK [1][-]{section.236}{Module cuon.VTK.mainLogo}{}% 890
\BOOKMARK [2][-]{subsection.236.1}{Variables}{section.236}% 891
\BOOKMARK [1][-]{section.237}{Module cuon.VTK.test}{}% 892
\BOOKMARK [2][-]{subsection.237.1}{Variables}{section.237}% 893
\BOOKMARK [2][-]{subsection.237.2}{Class test}{section.237}% 894
\BOOKMARK [3][-]{subsubsection.237.2.1}{Methods}{subsection.237.2}% 895
\BOOKMARK [1][-]{section.238}{Package cuon.WebShop}{}% 896
\BOOKMARK [2][-]{subsection.238.1}{Modules}{section.238}% 897
\BOOKMARK [2][-]{subsection.238.2}{Variables}{section.238}% 898
\BOOKMARK [1][-]{section.239}{Module cuon.WebShop.SingleWebshop}{}% 899
\BOOKMARK [2][-]{subsection.239.1}{Variables}{section.239}% 900
\BOOKMARK [2][-]{subsection.239.2}{Class SingleWebshop}{section.239}% 901
\BOOKMARK [3][-]{subsubsection.239.2.1}{Methods}{subsection.239.2}% 902
\BOOKMARK [1][-]{section.240}{Module cuon.WebShop.webshop}{}% 903
\BOOKMARK [2][-]{subsection.240.1}{Variables}{section.240}% 904
\BOOKMARK [2][-]{subsection.240.2}{Class webshopwindow}{section.240}% 905
\BOOKMARK [3][-]{subsubsection.240.2.1}{Methods}{subsection.240.2}% 906
\BOOKMARK [1][-]{section.241}{Package cuon.Windows}{}% 907
\BOOKMARK [2][-]{subsection.241.1}{Modules}{section.241}% 908
\BOOKMARK [1][-]{section.242}{Module cuon.Windows.chooseWindows}{}% 909
\BOOKMARK [2][-]{subsection.242.1}{Variables}{section.242}% 910
\BOOKMARK [2][-]{subsection.242.2}{Class chooseWindows}{section.242}% 911
\BOOKMARK [3][-]{subsubsection.242.2.1}{Methods}{subsection.242.2}% 912
\BOOKMARK [1][-]{section.243}{Module cuon.Windows.cyr\137load\137entries}{}% 913
\BOOKMARK [2][-]{subsection.243.1}{Variables}{section.243}% 914
\BOOKMARK [2][-]{subsection.243.2}{Class cyr\137load\137entries}{section.243}% 915
\BOOKMARK [3][-]{subsubsection.243.2.1}{Methods}{subsection.243.2}% 916
\BOOKMARK [1][-]{section.244}{Module cuon.Windows.dataEntry}{}% 917
\BOOKMARK [2][-]{subsection.244.1}{Variables}{section.244}% 918
\BOOKMARK [2][-]{subsection.244.2}{Class dataEntry}{section.244}% 919
\BOOKMARK [3][-]{subsubsection.244.2.1}{Methods}{subsection.244.2}% 920
\BOOKMARK [1][-]{section.245}{Module cuon.Windows.gladeXml}{}% 921
\BOOKMARK [2][-]{subsection.245.1}{Variables}{section.245}% 922
\BOOKMARK [2][-]{subsection.245.2}{Class gladeXml}{section.245}% 923
\BOOKMARK [3][-]{subsubsection.245.2.1}{Methods}{subsection.245.2}% 924
\BOOKMARK [1][-]{section.246}{Module cuon.Windows.rawWindow}{}% 925
\BOOKMARK [2][-]{subsection.246.1}{Variables}{section.246}% 926
\BOOKMARK [2][-]{subsection.246.2}{Class rawWindow}{section.246}% 927
\BOOKMARK [3][-]{subsubsection.246.2.1}{Methods}{subsection.246.2}% 928
\BOOKMARK [1][-]{section.247}{Module cuon.Windows.setOfEntries}{}% 929
\BOOKMARK [2][-]{subsection.247.1}{Variables}{section.247}% 930
\BOOKMARK [2][-]{subsection.247.2}{Class setOfEntries}{section.247}% 931
\BOOKMARK [3][-]{subsubsection.247.2.1}{Methods}{subsection.247.2}% 932
\BOOKMARK [1][-]{section.248}{Module cuon.Windows.windows}{}% 933
\BOOKMARK [2][-]{subsection.248.1}{Variables}{section.248}% 934
\BOOKMARK [2][-]{subsection.248.2}{Class windows}{section.248}% 935
\BOOKMARK [3][-]{subsubsection.248.2.1}{Methods}{subsection.248.2}% 936
\BOOKMARK [1][-]{section.249}{Package cuon.XML}{}% 937
\BOOKMARK [2][-]{subsection.249.1}{Modules}{section.249}% 938
\BOOKMARK [2][-]{subsection.249.2}{Variables}{section.249}% 939
\BOOKMARK [1][-]{section.250}{Module cuon.XML.MyXML}{}% 940
\BOOKMARK [2][-]{subsection.250.1}{Variables}{section.250}% 941
\BOOKMARK [2][-]{subsection.250.2}{Class MyXML}{section.250}% 942
\BOOKMARK [3][-]{subsubsection.250.2.1}{Methods}{subsection.250.2}% 943
\BOOKMARK [1][-]{section.251}{Package cuon.XMLRPC}{}% 944
\BOOKMARK [2][-]{subsection.251.1}{Modules}{section.251}% 945
\BOOKMARK [1][-]{section.252}{Module cuon.XMLRPC.xmlrpc}{}% 946
\BOOKMARK [2][-]{subsection.252.1}{Variables}{section.252}% 947
\BOOKMARK [2][-]{subsection.252.2}{Class myXmlRpc}{section.252}% 948
\BOOKMARK [3][-]{subsubsection.252.2.1}{Methods}{subsection.252.2}% 949
\BOOKMARK [1][-]{section.253}{Module cuon.cuon\137dia}{}% 950
\BOOKMARK [2][-]{subsection.253.1}{Functions}{section.253}% 951
\BOOKMARK [2][-]{subsection.253.2}{Class MyXmlrpc}{section.253}% 952
\BOOKMARK [3][-]{subsubsection.253.2.1}{Methods}{subsection.253.2}% 953
\BOOKMARK [2][-]{subsection.253.3}{Class CuonDia}{section.253}% 954
\BOOKMARK [3][-]{subsubsection.253.3.1}{Methods}{subsection.253.3}% 955
\BOOKMARK [2][-]{subsection.253.4}{Class PropInfo}{section.253}% 956
\BOOKMARK [3][-]{subsubsection.253.4.1}{Methods}{subsection.253.4}% 957
\BOOKMARK [1][-]{section.254}{Module cuon.standardChart}{}% 958
\BOOKMARK [2][-]{subsection.254.1}{Variables}{section.254}% 959
\BOOKMARK [2][-]{subsection.254.2}{Class chart}{section.254}% 960
\BOOKMARK [3][-]{subsubsection.254.2.1}{Methods}{subsection.254.2}% 961
\BOOKMARK [1][-]{section.255}{Module cuon.untar}{}% 962
\BOOKMARK [2][-]{subsection.255.1}{Variables}{section.255}% 963
\BOOKMARK [1][-]{section*.2}{Index}{}% 964
