\relax 
\providecommand\HyperFirstAtBeginDocument{\AtBeginDocument}
\HyperFirstAtBeginDocument{\ifx\hyper@anchor\@undefined
\global\let\oldcontentsline\contentsline
\gdef\contentsline#1#2#3#4{\oldcontentsline{#1}{#2}{#3}}
\global\let\oldnewlabel\newlabel
\gdef\newlabel#1#2{\newlabelxx{#1}#2}
\gdef\newlabelxx#1#2#3#4#5#6{\oldnewlabel{#1}{{#2}{#3}}}
\AtEndDocument{\ifx\hyper@anchor\@undefined
\let\contentsline\oldcontentsline
\let\newlabel\oldnewlabel
\fi}
\fi}
\global\let\hyper@last\relax 
\gdef\HyperFirstAtBeginDocument#1{#1}
\providecommand*\HyPL@Entry[1]{}
\HyPL@Entry{0<</P(1)>>}
\@writefile{toc}{\contentsline {section}{Contents}{1}{section*.1}}
\HyPL@Entry{1<</P(2)>>}
\HyPL@Entry{2<</P(3)>>}
\HyPL@Entry{3<</P(4)>>}
\HyPL@Entry{4<</P(5)>>}
\HyPL@Entry{5<</P(6)>>}
\HyPL@Entry{6<</P(7)>>}
\HyPL@Entry{7<</P(8)>>}
\HyPL@Entry{8<</P(9)>>}
\HyPL@Entry{9<</P(10)>>}
\HyPL@Entry{10<</P(11)>>}
\HyPL@Entry{11<</P(12)>>}
\HyPL@Entry{12<</P(13)>>}
\HyPL@Entry{13<</P(14)>>}
\HyPL@Entry{14<</P(15)>>}
\HyPL@Entry{15<</P(16)>>}
\HyPL@Entry{16<</P(17)>>}
\HyPL@Entry{17<</P(18)>>}
\HyPL@Entry{18<</P(19)>>}
\HyPL@Entry{19<</P(20)>>}
\HyPL@Entry{20<</P(21)>>}
\HyPL@Entry{21<</P(22)>>}
\HyPL@Entry{22<</P(23)>>}
\HyPL@Entry{23<</P(24)>>}
\@input{Cuon-module.aux}
\HyPL@Entry{24<</P(25)>>}
\HyPL@Entry{25<</P(26)>>}
\HyPL@Entry{26<</P(27)>>}
\HyPL@Entry{27<</P(28)>>}
\HyPL@Entry{28<</P(29)>>}
\HyPL@Entry{29<</P(30)>>}
\HyPL@Entry{30<</P(31)>>}
\HyPL@Entry{31<</P(32)>>}
\HyPL@Entry{32<</P(33)>>}
\HyPL@Entry{33<</P(34)>>}
\HyPL@Entry{34<</P(35)>>}
\@input{cuon-module.aux}
\HyPL@Entry{35<</P(36)>>}
\HyPL@Entry{36<</P(37)>>}
\HyPL@Entry{37<</P(38)>>}
\HyPL@Entry{38<</P(39)>>}
\HyPL@Entry{39<</P(40)>>}
\HyPL@Entry{40<</P(41)>>}
\@input{cuon.AI-module.aux}
\HyPL@Entry{41<</P(42)>>}
\@input{cuon.AI.ai-module.aux}
\HyPL@Entry{42<</P(43)>>}
\HyPL@Entry{43<</P(44)>>}
\HyPL@Entry{44<</P(45)>>}
\@input{cuon.AI.ai_main-module.aux}
\HyPL@Entry{45<</P(46)>>}
\@input{cuon.AI.gtkMiniClient-module.aux}
\HyPL@Entry{46<</P(47)>>}
\HyPL@Entry{47<</P(48)>>}
\@input{cuon.AI.miniClient-module.aux}
\HyPL@Entry{48<</P(49)>>}
\@input{cuon.AI.testcodec-module.aux}
\HyPL@Entry{49<</P(50)>>}
\@input{cuon.AI.tki1-module.aux}
\HyPL@Entry{50<</P(51)>>}
\@input{cuon.Addresses-module.aux}
\HyPL@Entry{51<</P(52)>>}
\@input{cuon.Addresses.SingleAddress-module.aux}
\HyPL@Entry{52<</P(53)>>}
\HyPL@Entry{53<</P(54)>>}
\HyPL@Entry{54<</P(55)>>}
\@input{cuon.Addresses.SingleAddressBank-module.aux}
\HyPL@Entry{55<</P(56)>>}
\HyPL@Entry{56<</P(57)>>}
\@input{cuon.Addresses.SingleContact-module.aux}
\HyPL@Entry{57<</P(58)>>}
\HyPL@Entry{58<</P(59)>>}
\HyPL@Entry{59<</P(60)>>}
\@input{cuon.Addresses.SingleCountry-module.aux}
\HyPL@Entry{60<</P(61)>>}
\HyPL@Entry{61<</P(62)>>}
\@input{cuon.Addresses.SingleMisc-module.aux}
\HyPL@Entry{62<</P(63)>>}
\HyPL@Entry{63<</P(64)>>}
\@input{cuon.Addresses.SingleNotes-module.aux}
\HyPL@Entry{64<</P(65)>>}
\HyPL@Entry{65<</P(66)>>}
\@input{cuon.Addresses.SinglePartner-module.aux}
\HyPL@Entry{66<</P(67)>>}
\HyPL@Entry{67<</P(68)>>}
\HyPL@Entry{68<</P(69)>>}
\@input{cuon.Addresses.SingleScheduling-module.aux}
\HyPL@Entry{69<</P(70)>>}
\HyPL@Entry{70<</P(71)>>}
\HyPL@Entry{71<</P(72)>>}
\@input{cuon.Addresses.addresses-module.aux}
\HyPL@Entry{72<</P(73)>>}
\HyPL@Entry{73<</P(74)>>}
\HyPL@Entry{74<</P(75)>>}
\HyPL@Entry{75<</P(76)>>}
\HyPL@Entry{76<</P(77)>>}
\HyPL@Entry{77<</P(78)>>}
\HyPL@Entry{78<</P(79)>>}
\HyPL@Entry{79<</P(80)>>}
\HyPL@Entry{80<</P(81)>>}
\HyPL@Entry{81<</P(82)>>}
\@input{cuon.Addresses.contact-module.aux}
\HyPL@Entry{82<</P(83)>>}
\HyPL@Entry{83<</P(84)>>}
\HyPL@Entry{84<</P(85)>>}
\HyPL@Entry{85<</P(86)>>}
\@input{cuon.Addresses.lists_addresses-module.aux}
\HyPL@Entry{86<</P(87)>>}
\@input{cuon.Addresses.lists_addresses_phone1-module.aux}
\HyPL@Entry{87<</P(88)>>}
\HyPL@Entry{88<</P(89)>>}
\@input{cuon.Addresses.lists_addresses_phone11-module.aux}
\HyPL@Entry{89<</P(90)>>}
\HyPL@Entry{90<</P(91)>>}
\@input{cuon.Addresses.lists_addresses_phone12-module.aux}
\HyPL@Entry{91<</P(92)>>}
\HyPL@Entry{92<</P(93)>>}
\@input{cuon.Addresses.lists_addresses_phone2-module.aux}
\HyPL@Entry{93<</P(94)>>}
\@input{cuon.Addresses.printAddress-module.aux}
\HyPL@Entry{94<</P(95)>>}
\@input{cuon.Addresses.selectionDialog-module.aux}
\HyPL@Entry{95<</P(96)>>}
\HyPL@Entry{96<</P(97)>>}
\HyPL@Entry{97<</P(98)>>}
\@input{cuon.Analysis-module.aux}
\HyPL@Entry{98<</P(99)>>}
\@input{cuon.Analysis.SingleAnalysis_cost-module.aux}
\HyPL@Entry{99<</P(100)>>}
\HyPL@Entry{100<</P(101)>>}
\@input{cuon.Analysis.analyse_costs-module.aux}
\HyPL@Entry{101<</P(102)>>}
\HyPL@Entry{102<</P(103)>>}
\HyPL@Entry{103<</P(104)>>}
\HyPL@Entry{104<</P(105)>>}
\@input{cuon.Articles-module.aux}
\HyPL@Entry{105<</P(106)>>}
\@input{cuon.Articles.ArticlesFastSelection-module.aux}
\HyPL@Entry{106<</P(107)>>}
\HyPL@Entry{107<</P(108)>>}
\@input{cuon.Articles.SingleArticle-module.aux}
\HyPL@Entry{108<</P(109)>>}
\HyPL@Entry{109<</P(110)>>}
\HyPL@Entry{110<</P(111)>>}
\@input{cuon.Articles.SingleArticleParts-module.aux}
\HyPL@Entry{111<</P(112)>>}
\HyPL@Entry{112<</P(113)>>}
\@input{cuon.Articles.SingleArticlePurchase-module.aux}
\HyPL@Entry{113<</P(114)>>}
\HyPL@Entry{114<</P(115)>>}
\@input{cuon.Articles.SingleArticleSale-module.aux}
\HyPL@Entry{115<</P(116)>>}
\HyPL@Entry{116<</P(117)>>}
\@input{cuon.Articles.SingleArticleStock-module.aux}
\HyPL@Entry{117<</P(118)>>}
\HyPL@Entry{118<</P(119)>>}
\HyPL@Entry{119<</P(120)>>}
\@input{cuon.Articles.SingleArticleWebshop-module.aux}
\HyPL@Entry{120<</P(121)>>}
\HyPL@Entry{121<</P(122)>>}
\@input{cuon.Articles.SingleMaterialgroups-module.aux}
\HyPL@Entry{122<</P(123)>>}
\HyPL@Entry{123<</P(124)>>}
\@input{cuon.Articles.SingleMaterialgroupsAccount-module.aux}
\HyPL@Entry{124<</P(125)>>}
\HyPL@Entry{125<</P(126)>>}
\@input{cuon.Articles.articles-module.aux}
\HyPL@Entry{126<</P(127)>>}
\HyPL@Entry{127<</P(128)>>}
\HyPL@Entry{128<</P(129)>>}
\HyPL@Entry{129<</P(130)>>}
\HyPL@Entry{130<</P(131)>>}
\HyPL@Entry{131<</P(132)>>}
\HyPL@Entry{132<</P(133)>>}
\@input{cuon.Articles.lists_articles_number1-module.aux}
\HyPL@Entry{133<</P(134)>>}
\HyPL@Entry{134<</P(135)>>}
\@input{cuon.Articles.materialgroup-module.aux}
\HyPL@Entry{135<</P(136)>>}
\HyPL@Entry{136<</P(137)>>}
\HyPL@Entry{137<</P(138)>>}
\HyPL@Entry{138<</P(139)>>}
\@input{cuon.Articles.pickles_articles-module.aux}
\HyPL@Entry{139<</P(140)>>}
\HyPL@Entry{140<</P(141)>>}
\@input{cuon.Bank-module.aux}
\HyPL@Entry{141<</P(142)>>}
\@input{cuon.Bank.SingleBank-module.aux}
\HyPL@Entry{142<</P(143)>>}
\HyPL@Entry{143<</P(144)>>}
\@input{cuon.Bank.bank-module.aux}
\HyPL@Entry{144<</P(145)>>}
\HyPL@Entry{145<</P(146)>>}
\HyPL@Entry{146<</P(147)>>}
\HyPL@Entry{147<</P(148)>>}
\@input{cuon.Biblio-module.aux}
\HyPL@Entry{148<</P(149)>>}
\@input{cuon.Biblio.SingleBiblio-module.aux}
\HyPL@Entry{149<</P(150)>>}
\HyPL@Entry{150<</P(151)>>}
\@input{cuon.Biblio.biblio-module.aux}
\HyPL@Entry{151<</P(152)>>}
\HyPL@Entry{152<</P(153)>>}
\HyPL@Entry{153<</P(154)>>}
\HyPL@Entry{154<</P(155)>>}
\@input{cuon.Calendar-module.aux}
\HyPL@Entry{155<</P(156)>>}
\@input{cuon.Calendar.calendar-module.aux}
\HyPL@Entry{156<</P(157)>>}
\HyPL@Entry{157<</P(158)>>}
\HyPL@Entry{158<</P(159)>>}
\@input{cuon.Chat-module.aux}
\HyPL@Entry{159<</P(160)>>}
\@input{cuon.Chat.chat-module.aux}
\HyPL@Entry{160<</P(161)>>}
\HyPL@Entry{161<</P(162)>>}
\HyPL@Entry{162<</P(163)>>}
\HyPL@Entry{163<</P(164)>>}
\HyPL@Entry{164<</P(165)>>}
\HyPL@Entry{165<</P(166)>>}
\@input{cuon.Chat.slandy-module.aux}
\HyPL@Entry{166<</P(167)>>}
\HyPL@Entry{167<</P(168)>>}
\@input{cuon.Chat.xmpp_client-module.aux}
\HyPL@Entry{168<</P(169)>>}
\@input{cuon.Clients-module.aux}
\HyPL@Entry{169<</P(170)>>}
\@input{cuon.Clients.SingleClient-module.aux}
\HyPL@Entry{170<</P(171)>>}
\HyPL@Entry{171<</P(172)>>}
\@input{cuon.Clients.clients-module.aux}
\HyPL@Entry{172<</P(173)>>}
\HyPL@Entry{173<</P(174)>>}
\HyPL@Entry{174<</P(175)>>}
\HyPL@Entry{175<</P(176)>>}
\@input{cuon.DMS-module.aux}
\HyPL@Entry{176<</P(177)>>}
\@input{cuon.DMS.SingleDMS-module.aux}
\HyPL@Entry{177<</P(178)>>}
\HyPL@Entry{178<</P(179)>>}
\HyPL@Entry{179<</P(180)>>}
\@input{cuon.DMS.dms-module.aux}
\HyPL@Entry{180<</P(181)>>}
\HyPL@Entry{181<</P(182)>>}
\HyPL@Entry{182<</P(183)>>}
\HyPL@Entry{183<</P(184)>>}
\HyPL@Entry{184<</P(185)>>}
\@input{cuon.DMS.documentTools-module.aux}
\HyPL@Entry{185<</P(186)>>}
\HyPL@Entry{186<</P(187)>>}
\@input{cuon.Databases-module.aux}
\HyPL@Entry{187<</P(188)>>}
\@input{cuon.Databases.SingleCuon-module.aux}
\HyPL@Entry{188<</P(189)>>}
\HyPL@Entry{189<</P(190)>>}
\@input{cuon.Databases.SingleData-module.aux}
\HyPL@Entry{190<</P(191)>>}
\HyPL@Entry{191<</P(192)>>}
\HyPL@Entry{192<</P(193)>>}
\HyPL@Entry{193<</P(194)>>}
\HyPL@Entry{194<</P(195)>>}
\HyPL@Entry{195<</P(196)>>}
\@input{cuon.Databases.SingleDataTreeModel-module.aux}
\HyPL@Entry{196<</P(197)>>}
\@input{cuon.Databases.SingleExport-module.aux}
\HyPL@Entry{197<</P(198)>>}
\HyPL@Entry{198<</P(199)>>}
\@input{cuon.Databases.SingleImport-module.aux}
\HyPL@Entry{199<</P(200)>>}
\HyPL@Entry{200<</P(201)>>}
\@input{cuon.Databases.SingleImportZip-module.aux}
\HyPL@Entry{201<</P(202)>>}
\HyPL@Entry{202<</P(203)>>}
\@input{cuon.Databases.cyr_column-module.aux}
\HyPL@Entry{203<</P(204)>>}
\@input{cuon.Databases.cyr_load_table-module.aux}
\HyPL@Entry{204<</P(205)>>}
\HyPL@Entry{205<</P(206)>>}
\HyPL@Entry{206<</P(207)>>}
\@input{cuon.Databases.cyr_table-module.aux}
\HyPL@Entry{207<</P(208)>>}
\@input{cuon.Databases.databases-module.aux}
\HyPL@Entry{208<</P(209)>>}
\HyPL@Entry{209<</P(210)>>}
\HyPL@Entry{210<</P(211)>>}
\HyPL@Entry{211<</P(212)>>}
\@input{cuon.Databases.dumps-module.aux}
\HyPL@Entry{212<</P(213)>>}
\HyPL@Entry{213<</P(214)>>}
\HyPL@Entry{214<</P(215)>>}
\@input{cuon.Databases.export_generic1-module.aux}
\HyPL@Entry{215<</P(216)>>}
\HyPL@Entry{216<</P(217)>>}
\HyPL@Entry{217<</P(218)>>}
\@input{cuon.Databases.import_generic1-module.aux}
\HyPL@Entry{218<</P(219)>>}
\HyPL@Entry{219<</P(220)>>}
\HyPL@Entry{220<</P(221)>>}
\@input{cuon.Databases.import_generic2-module.aux}
\HyPL@Entry{221<</P(222)>>}
\HyPL@Entry{222<</P(223)>>}
\HyPL@Entry{223<</P(224)>>}
\@input{cuon.Databases.xbase-module.aux}
\HyPL@Entry{224<</P(225)>>}
\@input{cuon.E_Mail-module.aux}
\HyPL@Entry{225<</P(226)>>}
\@input{cuon.E_Mail.imap_dms-module.aux}
\HyPL@Entry{226<</P(227)>>}
\HyPL@Entry{227<</P(228)>>}
\@input{cuon.E_Mail.incoming_mail-module.aux}
\HyPL@Entry{228<</P(229)>>}
\@input{cuon.E_Mail.sendEmail-module.aux}
\HyPL@Entry{229<</P(230)>>}
\HyPL@Entry{230<</P(231)>>}
\HyPL@Entry{231<</P(232)>>}
\@input{cuon.Editor-module.aux}
\HyPL@Entry{232<</P(233)>>}
\@input{cuon.Editor.editor-module.aux}
\HyPL@Entry{233<</P(234)>>}
\HyPL@Entry{234<</P(235)>>}
\HyPL@Entry{235<</P(236)>>}
\HyPL@Entry{236<</P(237)>>}
\HyPL@Entry{237<</P(238)>>}
\@input{cuon.Editor.programmersEditor-module.aux}
\HyPL@Entry{238<</P(239)>>}
\HyPL@Entry{239<</P(240)>>}
\HyPL@Entry{240<</P(241)>>}
\HyPL@Entry{241<</P(242)>>}
\@input{cuon.Enquiry-module.aux}
\HyPL@Entry{242<</P(243)>>}
\@input{cuon.Enquiry.SingleEnquiry-module.aux}
\HyPL@Entry{243<</P(244)>>}
\HyPL@Entry{244<</P(245)>>}
\HyPL@Entry{245<</P(246)>>}
\@input{cuon.Enquiry.SingleEnquiryGet-module.aux}
\HyPL@Entry{246<</P(247)>>}
\HyPL@Entry{247<</P(248)>>}
\HyPL@Entry{248<</P(249)>>}
\@input{cuon.Enquiry.SingleEnquiryInvoice-module.aux}
\HyPL@Entry{249<</P(250)>>}
\HyPL@Entry{250<</P(251)>>}
\@input{cuon.Enquiry.SingleEnquiryMisc-module.aux}
\HyPL@Entry{251<</P(252)>>}
\HyPL@Entry{252<</P(253)>>}
\@input{cuon.Enquiry.SingleEnquiryPayment-module.aux}
\HyPL@Entry{253<</P(254)>>}
\HyPL@Entry{254<</P(255)>>}
\@input{cuon.Enquiry.SingleEnquiryPosition-module.aux}
\HyPL@Entry{255<</P(256)>>}
\HyPL@Entry{256<</P(257)>>}
\@input{cuon.Enquiry.SingleEnquirySupply-module.aux}
\HyPL@Entry{257<</P(258)>>}
\HyPL@Entry{258<</P(259)>>}
\@input{cuon.Enquiry.enquiry-module.aux}
\HyPL@Entry{259<</P(260)>>}
\HyPL@Entry{260<</P(261)>>}
\HyPL@Entry{261<</P(262)>>}
\HyPL@Entry{262<</P(263)>>}
\HyPL@Entry{263<</P(264)>>}
\HyPL@Entry{264<</P(265)>>}
\HyPL@Entry{265<</P(266)>>}
\HyPL@Entry{266<</P(267)>>}
\@input{cuon.Finances-module.aux}
\HyPL@Entry{267<</P(268)>>}
\@input{cuon.Finances.Bookkeeping-module.aux}
\HyPL@Entry{268<</P(269)>>}
\@input{cuon.Finances.Bookkeeping.bookkeeping-module.aux}
\HyPL@Entry{269<</P(270)>>}
\HyPL@Entry{270<</P(271)>>}
\HyPL@Entry{271<</P(272)>>}
\HyPL@Entry{272<</P(273)>>}
\@input{cuon.Finances.CashAccountBook-module.aux}
\HyPL@Entry{273<</P(274)>>}
\@input{cuon.Finances.CashAccountBook.cashAccountBook-module.aux}
\HyPL@Entry{274<</P(275)>>}
\HyPL@Entry{275<</P(276)>>}
\HyPL@Entry{276<</P(277)>>}
\HyPL@Entry{277<</P(278)>>}
\@input{cuon.Finances.CashAccountBook.standard_cab_monthly-module.aux}
\HyPL@Entry{278<</P(279)>>}
\HyPL@Entry{279<</P(280)>>}
\HyPL@Entry{280<</P(281)>>}
\@input{cuon.Finances.InvoiceBook-module.aux}
\HyPL@Entry{281<</P(282)>>}
\@input{cuon.Finances.InvoiceBook.SingleInpayment-module.aux}
\HyPL@Entry{282<</P(283)>>}
\HyPL@Entry{283<</P(284)>>}
\@input{cuon.Finances.InvoiceBook.SingleListOfInvoice-module.aux}
\HyPL@Entry{284<</P(285)>>}
\HyPL@Entry{285<</P(286)>>}
\@input{cuon.Finances.InvoiceBook.invoicebook-module.aux}
\HyPL@Entry{286<</P(287)>>}
\HyPL@Entry{287<</P(288)>>}
\HyPL@Entry{288<</P(289)>>}
\HyPL@Entry{289<</P(290)>>}
\HyPL@Entry{290<</P(291)>>}
\@input{cuon.Finances.SingleAccountInfo-module.aux}
\HyPL@Entry{291<</P(292)>>}
\HyPL@Entry{292<</P(293)>>}
\@input{cuon.Finances.SingleAccountPlan-module.aux}
\HyPL@Entry{293<</P(294)>>}
\HyPL@Entry{294<</P(295)>>}
\@input{cuon.Finances.SingleAccountSentence-module.aux}
\HyPL@Entry{295<</P(296)>>}
\HyPL@Entry{296<</P(297)>>}
\@input{cuon.Finances.SingleAccountValues-module.aux}
\HyPL@Entry{297<</P(298)>>}
\HyPL@Entry{298<</P(299)>>}
\@input{cuon.Garden-module.aux}
\HyPL@Entry{299<</P(300)>>}
\@input{cuon.Garden.SingleBotany-module.aux}
\HyPL@Entry{300<</P(301)>>}
\HyPL@Entry{301<</P(302)>>}
\HyPL@Entry{302<</P(303)>>}
\@input{cuon.Garden.SingleBotanyClass-module.aux}
\HyPL@Entry{303<</P(304)>>}
\HyPL@Entry{304<</P(305)>>}
\@input{cuon.Garden.SingleBotanyDivisio-module.aux}
\HyPL@Entry{305<</P(306)>>}
\HyPL@Entry{306<</P(307)>>}
\@input{cuon.Garden.SingleBotanyFamily-module.aux}
\HyPL@Entry{307<</P(308)>>}
\HyPL@Entry{308<</P(309)>>}
\@input{cuon.Garden.SingleBotanyGenus-module.aux}
\HyPL@Entry{309<</P(310)>>}
\HyPL@Entry{310<</P(311)>>}
\@input{cuon.Garden.SingleBotanyOrdo-module.aux}
\HyPL@Entry{311<</P(312)>>}
\HyPL@Entry{312<</P(313)>>}
\@input{cuon.Garden.SingleHibernation-module.aux}
\HyPL@Entry{313<</P(314)>>}
\HyPL@Entry{314<</P(315)>>}
\HyPL@Entry{315<</P(316)>>}
\@input{cuon.Garden.SingleHibernationPlant-module.aux}
\HyPL@Entry{316<</P(317)>>}
\HyPL@Entry{317<</P(318)>>}
\HyPL@Entry{318<</P(319)>>}
\@input{cuon.Garden.address_hibernation-module.aux}
\HyPL@Entry{319<</P(320)>>}
\HyPL@Entry{320<</P(321)>>}
\@input{cuon.Garden.botany-module.aux}
\HyPL@Entry{321<</P(322)>>}
\HyPL@Entry{322<</P(323)>>}
\HyPL@Entry{323<</P(324)>>}
\HyPL@Entry{324<</P(325)>>}
\HyPL@Entry{325<</P(326)>>}
\@input{cuon.Garden.garden-module.aux}
\HyPL@Entry{326<</P(327)>>}
\HyPL@Entry{327<</P(328)>>}
\HyPL@Entry{328<</P(329)>>}
\HyPL@Entry{329<</P(330)>>}
\HyPL@Entry{330<</P(331)>>}
\@input{cuon.Garden.hibernation-module.aux}
\HyPL@Entry{331<</P(332)>>}
\HyPL@Entry{332<</P(333)>>}
\HyPL@Entry{333<</P(334)>>}
\HyPL@Entry{334<</P(335)>>}
\HyPL@Entry{335<</P(336)>>}
\@input{cuon.Graves-module.aux}
\HyPL@Entry{336<</P(337)>>}
\@input{cuon.Graves.SingleGrave-module.aux}
\HyPL@Entry{337<</P(338)>>}
\HyPL@Entry{338<</P(339)>>}
\@input{cuon.Graves.SingleGraveAutumn-module.aux}
\HyPL@Entry{339<</P(340)>>}
\HyPL@Entry{340<</P(341)>>}
\@input{cuon.Graves.SingleGraveHoliday-module.aux}
\HyPL@Entry{341<</P(342)>>}
\HyPL@Entry{342<</P(343)>>}
\@input{cuon.Graves.SingleGraveInvoices-module.aux}
\HyPL@Entry{343<</P(344)>>}
\HyPL@Entry{344<</P(345)>>}
\@input{cuon.Graves.SingleGraveMaintenance-module.aux}
\HyPL@Entry{345<</P(346)>>}
\HyPL@Entry{346<</P(347)>>}
\@input{cuon.Graves.SingleGraveServiceNotes-module.aux}
\HyPL@Entry{347<</P(348)>>}
\HyPL@Entry{348<</P(349)>>}
\@input{cuon.Graves.SingleGraveSingleevent-module.aux}
\HyPL@Entry{349<</P(350)>>}
\HyPL@Entry{350<</P(351)>>}
\@input{cuon.Graves.SingleGraveSpring-module.aux}
\HyPL@Entry{351<</P(352)>>}
\HyPL@Entry{352<</P(353)>>}
\@input{cuon.Graves.SingleGraveSummer-module.aux}
\HyPL@Entry{353<</P(354)>>}
\HyPL@Entry{354<</P(355)>>}
\@input{cuon.Graves.SingleGraveWinter-module.aux}
\HyPL@Entry{355<</P(356)>>}
\HyPL@Entry{356<</P(357)>>}
\@input{cuon.Graves.SingleGraveYear-module.aux}
\HyPL@Entry{357<</P(358)>>}
\HyPL@Entry{358<</P(359)>>}
\@input{cuon.Graves.SingleGraveyard-module.aux}
\HyPL@Entry{359<</P(360)>>}
\HyPL@Entry{360<</P(361)>>}
\@input{cuon.Graves.address_graves-module.aux}
\HyPL@Entry{361<</P(362)>>}
\HyPL@Entry{362<</P(363)>>}
\@input{cuon.Graves.grave-module.aux}
\HyPL@Entry{363<</P(364)>>}
\HyPL@Entry{364<</P(365)>>}
\HyPL@Entry{365<</P(366)>>}
\HyPL@Entry{366<</P(367)>>}
\HyPL@Entry{367<</P(368)>>}
\HyPL@Entry{368<</P(369)>>}
\HyPL@Entry{369<</P(370)>>}
\HyPL@Entry{370<</P(371)>>}
\@input{cuon.Graves.graveyard-module.aux}
\HyPL@Entry{371<</P(372)>>}
\HyPL@Entry{372<</P(373)>>}
\HyPL@Entry{373<</P(374)>>}
\HyPL@Entry{374<</P(375)>>}
\@input{cuon.Graves.plant_lists-module.aux}
\HyPL@Entry{375<</P(376)>>}
\HyPL@Entry{376<</P(377)>>}
\HyPL@Entry{377<</P(378)>>}
\@input{cuon.Help-module.aux}
\HyPL@Entry{378<</P(379)>>}
\@input{cuon.Help.help-module.aux}
\HyPL@Entry{379<</P(380)>>}
\HyPL@Entry{380<</P(381)>>}
\HyPL@Entry{381<</P(382)>>}
\@input{cuon.Leasing-module.aux}
\HyPL@Entry{382<</P(383)>>}
\@input{cuon.Leasing.SingleLeasing-module.aux}
\HyPL@Entry{383<</P(384)>>}
\HyPL@Entry{384<</P(385)>>}
\@input{cuon.Leasing.leasing-module.aux}
\HyPL@Entry{385<</P(386)>>}
\HyPL@Entry{386<</P(387)>>}
\HyPL@Entry{387<</P(388)>>}
\HyPL@Entry{388<</P(389)>>}
\HyPL@Entry{389<</P(390)>>}
\HyPL@Entry{390<</P(391)>>}
\@input{cuon.Logging-module.aux}
\HyPL@Entry{391<</P(392)>>}
\@input{cuon.Logging.logs-module.aux}
\HyPL@Entry{392<</P(393)>>}
\@input{cuon.Login-module.aux}
\HyPL@Entry{393<</P(394)>>}
\@input{cuon.Login.login-module.aux}
\HyPL@Entry{394<</P(395)>>}
\HyPL@Entry{395<</P(396)>>}
\HyPL@Entry{396<</P(397)>>}
\@input{cuon.Misc-module.aux}
\HyPL@Entry{397<</P(398)>>}
\@input{cuon.Misc.cuon_dialog-module.aux}
\HyPL@Entry{398<</P(399)>>}
\@input{cuon.Misc.cuonlists-module.aux}
\HyPL@Entry{399<</P(400)>>}
\HyPL@Entry{400<</P(401)>>}
\HyPL@Entry{401<</P(402)>>}
\@input{cuon.Misc.fileSelection-module.aux}
\HyPL@Entry{402<</P(403)>>}
\HyPL@Entry{403<</P(404)>>}
\HyPL@Entry{404<</P(405)>>}
\@input{cuon.Misc.messages-module.aux}
\HyPL@Entry{405<</P(406)>>}
\@input{cuon.Misc.misc-module.aux}
\HyPL@Entry{406<</P(407)>>}
\@input{cuon.OpenOffice-module.aux}
\HyPL@Entry{407<</P(408)>>}
\@input{cuon.OpenOffice.letter-module.aux}
\HyPL@Entry{408<</P(409)>>}
\@input{cuon.OpenOffice.ooMain-module.aux}
\HyPL@Entry{409<</P(410)>>}
\@input{cuon.OpenOffice.ooconnect-module.aux}
\HyPL@Entry{410<</P(411)>>}
\@input{cuon.Order-module.aux}
\HyPL@Entry{411<</P(412)>>}
\@input{cuon.Order.SingleOrder-module.aux}
\HyPL@Entry{412<</P(413)>>}
\HyPL@Entry{413<</P(414)>>}
\HyPL@Entry{414<</P(415)>>}
\@input{cuon.Order.SingleOrderGet-module.aux}
\HyPL@Entry{415<</P(416)>>}
\HyPL@Entry{416<</P(417)>>}
\HyPL@Entry{417<</P(418)>>}
\@input{cuon.Order.SingleOrderInvoice-module.aux}
\HyPL@Entry{418<</P(419)>>}
\HyPL@Entry{419<</P(420)>>}
\@input{cuon.Order.SingleOrderMisc-module.aux}
\HyPL@Entry{420<</P(421)>>}
\HyPL@Entry{421<</P(422)>>}
\@input{cuon.Order.SingleOrderPayment-module.aux}
\HyPL@Entry{422<</P(423)>>}
\HyPL@Entry{423<</P(424)>>}
\@input{cuon.Order.SingleOrderPosition-module.aux}
\HyPL@Entry{424<</P(425)>>}
\HyPL@Entry{425<</P(426)>>}
\@input{cuon.Order.SingleOrderSupply-module.aux}
\HyPL@Entry{426<</P(427)>>}
\HyPL@Entry{427<</P(428)>>}
\@input{cuon.Order.order-module.aux}
\HyPL@Entry{428<</P(429)>>}
\HyPL@Entry{429<</P(430)>>}
\HyPL@Entry{430<</P(431)>>}
\HyPL@Entry{431<</P(432)>>}
\HyPL@Entry{432<</P(433)>>}
\HyPL@Entry{433<</P(434)>>}
\HyPL@Entry{434<</P(435)>>}
\HyPL@Entry{435<</P(436)>>}
\HyPL@Entry{436<</P(437)>>}
\@input{cuon.Order.standard_bill-module.aux}
\HyPL@Entry{437<</P(438)>>}
\@input{cuon.Order.standard_delivery_note-module.aux}
\HyPL@Entry{438<</P(439)>>}
\@input{cuon.Order.standard_invoice-module.aux}
\HyPL@Entry{439<</P(440)>>}
\@input{cuon.Order.standard_pickup_note-module.aux}
\HyPL@Entry{440<</P(441)>>}
\@input{cuon.Preferences-module.aux}
\HyPL@Entry{441<</P(442)>>}
\@input{cuon.Preferences.SinglePreferences-module.aux}
\HyPL@Entry{442<</P(443)>>}
\HyPL@Entry{443<</P(444)>>}
\@input{cuon.Preferences.preferences-module.aux}
\HyPL@Entry{444<</P(445)>>}
\HyPL@Entry{445<</P(446)>>}
\HyPL@Entry{446<</P(447)>>}
\HyPL@Entry{447<</P(448)>>}
\@input{cuon.PrefsFinance-module.aux}
\HyPL@Entry{448<</P(449)>>}
\@input{cuon.PrefsFinance.SinglePrefsFinanceTop-module.aux}
\HyPL@Entry{449<</P(450)>>}
\HyPL@Entry{450<</P(451)>>}
\@input{cuon.PrefsFinance.SinglePrefsFinanceVat-module.aux}
\HyPL@Entry{451<</P(452)>>}
\HyPL@Entry{452<</P(453)>>}
\@input{cuon.PrefsFinance.prefsFinance-module.aux}
\HyPL@Entry{453<</P(454)>>}
\HyPL@Entry{454<</P(455)>>}
\HyPL@Entry{455<</P(456)>>}
\HyPL@Entry{456<</P(457)>>}
\@input{cuon.Project-module.aux}
\HyPL@Entry{457<</P(458)>>}
\@input{cuon.Project.SingleProject-module.aux}
\HyPL@Entry{458<</P(459)>>}
\HyPL@Entry{459<</P(460)>>}
\@input{cuon.Project.SingleProjectMaterialResources-module.aux}
\HyPL@Entry{460<</P(461)>>}
\HyPL@Entry{461<</P(462)>>}
\@input{cuon.Project.SingleProjectPhases-module.aux}
\HyPL@Entry{462<</P(463)>>}
\HyPL@Entry{463<</P(464)>>}
\@input{cuon.Project.SingleProjectProgramming-module.aux}
\HyPL@Entry{464<</P(465)>>}
\HyPL@Entry{465<</P(466)>>}
\@input{cuon.Project.SingleProjectStaffResources-module.aux}
\HyPL@Entry{466<</P(467)>>}
\HyPL@Entry{467<</P(468)>>}
\@input{cuon.Project.SingleProjectTasks-module.aux}
\HyPL@Entry{468<</P(469)>>}
\HyPL@Entry{469<</P(470)>>}
\@input{cuon.Project.project-module.aux}
\HyPL@Entry{470<</P(471)>>}
\HyPL@Entry{471<</P(472)>>}
\HyPL@Entry{472<</P(473)>>}
\HyPL@Entry{473<</P(474)>>}
\HyPL@Entry{474<</P(475)>>}
\HyPL@Entry{475<</P(476)>>}
\HyPL@Entry{476<</P(477)>>}
\@input{cuon.Proposal-module.aux}
\HyPL@Entry{477<</P(478)>>}
\@input{cuon.Proposal.SingleProposal-module.aux}
\HyPL@Entry{478<</P(479)>>}
\HyPL@Entry{479<</P(480)>>}
\HyPL@Entry{480<</P(481)>>}
\@input{cuon.Proposal.SingleProposalGet-module.aux}
\HyPL@Entry{481<</P(482)>>}
\HyPL@Entry{482<</P(483)>>}
\HyPL@Entry{483<</P(484)>>}
\@input{cuon.Proposal.SingleProposalInvoice-module.aux}
\HyPL@Entry{484<</P(485)>>}
\HyPL@Entry{485<</P(486)>>}
\@input{cuon.Proposal.SingleProposalMisc-module.aux}
\HyPL@Entry{486<</P(487)>>}
\HyPL@Entry{487<</P(488)>>}
\@input{cuon.Proposal.SingleProposalPayment-module.aux}
\HyPL@Entry{488<</P(489)>>}
\HyPL@Entry{489<</P(490)>>}
\@input{cuon.Proposal.SingleProposalPosition-module.aux}
\HyPL@Entry{490<</P(491)>>}
\HyPL@Entry{491<</P(492)>>}
\@input{cuon.Proposal.SingleProposalSupply-module.aux}
\HyPL@Entry{492<</P(493)>>}
\HyPL@Entry{493<</P(494)>>}
\@input{cuon.Proposal.proposal-module.aux}
\HyPL@Entry{494<</P(495)>>}
\HyPL@Entry{495<</P(496)>>}
\HyPL@Entry{496<</P(497)>>}
\HyPL@Entry{497<</P(498)>>}
\HyPL@Entry{498<</P(499)>>}
\HyPL@Entry{499<</P(500)>>}
\HyPL@Entry{500<</P(501)>>}
\@input{cuon.ReportBuilder-module.aux}
\HyPL@Entry{501<</P(502)>>}
\@input{cuon.ReportBuilder.drawingReport-module.aux}
\HyPL@Entry{502<</P(503)>>}
\HyPL@Entry{503<</P(504)>>}
\HyPL@Entry{504<</P(505)>>}
\@input{cuon.ReportBuilder.modifyEntry-module.aux}
\HyPL@Entry{505<</P(506)>>}
\HyPL@Entry{506<</P(507)>>}
\HyPL@Entry{507<</P(508)>>}
\@input{cuon.ReportBuilder.report-module.aux}
\HyPL@Entry{508<</P(509)>>}
\HyPL@Entry{509<</P(510)>>}
\HyPL@Entry{510<</P(511)>>}
\HyPL@Entry{511<</P(512)>>}
\@input{cuon.ReportBuilder.reportbuilder-module.aux}
\HyPL@Entry{512<</P(513)>>}
\HyPL@Entry{513<</P(514)>>}
\HyPL@Entry{514<</P(515)>>}
\HyPL@Entry{515<</P(516)>>}
\HyPL@Entry{516<</P(517)>>}
\@input{cuon.SQL_Shell-module.aux}
\HyPL@Entry{517<</P(518)>>}
\@input{cuon.SQL_Shell.sql_shell-module.aux}
\HyPL@Entry{518<</P(519)>>}
\HyPL@Entry{519<</P(520)>>}
\HyPL@Entry{520<</P(521)>>}
\@input{cuon.Skeleton-module.aux}
\HyPL@Entry{521<</P(522)>>}
\@input{cuon.Skeleton.SingleSkeleton-module.aux}
\HyPL@Entry{522<</P(523)>>}
\HyPL@Entry{523<</P(524)>>}
\@input{cuon.Skeleton.skeleton-module.aux}
\HyPL@Entry{524<</P(525)>>}
\HyPL@Entry{525<</P(526)>>}
\HyPL@Entry{526<</P(527)>>}
\HyPL@Entry{527<</P(528)>>}
\@input{cuon.Staff-module.aux}
\HyPL@Entry{528<</P(529)>>}
\@input{cuon.Staff.SingleStaff-module.aux}
\HyPL@Entry{529<</P(530)>>}
\HyPL@Entry{530<</P(531)>>}
\@input{cuon.Staff.SingleStaffDisease-module.aux}
\HyPL@Entry{531<</P(532)>>}
\HyPL@Entry{532<</P(533)>>}
\@input{cuon.Staff.SingleStaffFee-module.aux}
\HyPL@Entry{533<</P(534)>>}
\HyPL@Entry{534<</P(535)>>}
\@input{cuon.Staff.SingleStaffMisc-module.aux}
\HyPL@Entry{535<</P(536)>>}
\HyPL@Entry{536<</P(537)>>}
\@input{cuon.Staff.SingleStaffVacation-module.aux}
\HyPL@Entry{537<</P(538)>>}
\HyPL@Entry{538<</P(539)>>}
\@input{cuon.Staff.staff-module.aux}
\HyPL@Entry{539<</P(540)>>}
\HyPL@Entry{540<</P(541)>>}
\HyPL@Entry{541<</P(542)>>}
\HyPL@Entry{542<</P(543)>>}
\HyPL@Entry{543<</P(544)>>}
\@input{cuon.Stats-module.aux}
\HyPL@Entry{544<</P(545)>>}
\@input{cuon.Stats.stats-module.aux}
\HyPL@Entry{545<</P(546)>>}
\HyPL@Entry{546<</P(547)>>}
\HyPL@Entry{547<</P(548)>>}
\@input{cuon.Stock-module.aux}
\HyPL@Entry{548<</P(549)>>}
\@input{cuon.Stock.SingleStock-module.aux}
\HyPL@Entry{549<</P(550)>>}
\HyPL@Entry{550<</P(551)>>}
\@input{cuon.Stock.SingleStockGoods-module.aux}
\HyPL@Entry{551<</P(552)>>}
\HyPL@Entry{552<</P(553)>>}
\@input{cuon.Stock.lists_stockgoods_number1-module.aux}
\HyPL@Entry{553<</P(554)>>}
\@input{cuon.Stock.stock-module.aux}
\HyPL@Entry{554<</P(555)>>}
\HyPL@Entry{555<</P(556)>>}
\HyPL@Entry{556<</P(557)>>}
\HyPL@Entry{557<</P(558)>>}
\@input{cuon.SupportTicket-module.aux}
\HyPL@Entry{558<</P(559)>>}
\@input{cuon.SupportTicket.SingleSupportProject-module.aux}
\HyPL@Entry{559<</P(560)>>}
\HyPL@Entry{560<</P(561)>>}
\@input{cuon.SupportTicket.SingleSupportTicket-module.aux}
\HyPL@Entry{561<</P(562)>>}
\HyPL@Entry{562<</P(563)>>}
\@input{cuon.SupportTicket.supportTicket-module.aux}
\HyPL@Entry{563<</P(564)>>}
\HyPL@Entry{564<</P(565)>>}
\HyPL@Entry{565<</P(566)>>}
\HyPL@Entry{566<</P(567)>>}
\@input{cuon.Think-module.aux}
\HyPL@Entry{567<</P(568)>>}
\@input{cuon.Think.SingleMindmap-module.aux}
\HyPL@Entry{568<</P(569)>>}
\HyPL@Entry{569<</P(570)>>}
\@input{cuon.Think.SingleThink-module.aux}
\HyPL@Entry{570<</P(571)>>}
\HyPL@Entry{571<</P(572)>>}
\@input{cuon.Think.think-module.aux}
\HyPL@Entry{572<</P(573)>>}
\HyPL@Entry{573<</P(574)>>}
\HyPL@Entry{574<</P(575)>>}
\HyPL@Entry{575<</P(576)>>}
\@input{cuon.TypeDefs-module.aux}
\HyPL@Entry{576<</P(577)>>}
\@input{cuon.TypeDefs.constants-module.aux}
\HyPL@Entry{577<</P(578)>>}
\@input{cuon.TypeDefs.defaultValues-module.aux}
\HyPL@Entry{578<</P(579)>>}
\@input{cuon.TypeDefs.typedefs-module.aux}
\HyPL@Entry{579<</P(580)>>}
\@input{cuon.TypeDefs.typedefs_server-module.aux}
\HyPL@Entry{580<</P(581)>>}
\@input{cuon.User-module.aux}
\HyPL@Entry{581<</P(582)>>}
\@input{cuon.User.user-module.aux}
\HyPL@Entry{582<</P(583)>>}
\HyPL@Entry{583<</P(584)>>}
\HyPL@Entry{584<</P(585)>>}
\@input{cuon.VTK-module.aux}
\HyPL@Entry{585<</P(586)>>}
\@input{cuon.VTK.mainLogo-module.aux}
\HyPL@Entry{586<</P(587)>>}
\@input{cuon.VTK.test-module.aux}
\HyPL@Entry{587<</P(588)>>}
\@input{cuon.WebShop-module.aux}
\HyPL@Entry{588<</P(589)>>}
\@input{cuon.WebShop.SingleWebshop-module.aux}
\HyPL@Entry{589<</P(590)>>}
\HyPL@Entry{590<</P(591)>>}
\@input{cuon.WebShop.webshop-module.aux}
\HyPL@Entry{591<</P(592)>>}
\HyPL@Entry{592<</P(593)>>}
\HyPL@Entry{593<</P(594)>>}
\@input{cuon.Windows-module.aux}
\HyPL@Entry{594<</P(595)>>}
\@input{cuon.Windows.chooseWindows-module.aux}
\HyPL@Entry{595<</P(596)>>}
\HyPL@Entry{596<</P(597)>>}
\HyPL@Entry{597<</P(598)>>}
\@input{cuon.Windows.cyr_load_entries-module.aux}
\HyPL@Entry{598<</P(599)>>}
\HyPL@Entry{599<</P(600)>>}
\@input{cuon.Windows.dataEntry-module.aux}
\HyPL@Entry{600<</P(601)>>}
\HyPL@Entry{601<</P(602)>>}
\@input{cuon.Windows.gladeXml-module.aux}
\HyPL@Entry{602<</P(603)>>}
\HyPL@Entry{603<</P(604)>>}
\HyPL@Entry{604<</P(605)>>}
\@input{cuon.Windows.rawWindow-module.aux}
\HyPL@Entry{605<</P(606)>>}
\HyPL@Entry{606<</P(607)>>}
\@input{cuon.Windows.setOfEntries-module.aux}
\HyPL@Entry{607<</P(608)>>}
\@input{cuon.Windows.windows-module.aux}
\HyPL@Entry{608<</P(609)>>}
\HyPL@Entry{609<</P(610)>>}
\HyPL@Entry{610<</P(611)>>}
\HyPL@Entry{611<</P(612)>>}
\HyPL@Entry{612<</P(613)>>}
\HyPL@Entry{613<</P(614)>>}
\@input{cuon.XML-module.aux}
\HyPL@Entry{614<</P(615)>>}
\@input{cuon.XML.MyXML-module.aux}
\HyPL@Entry{615<</P(616)>>}
\HyPL@Entry{616<</P(617)>>}
\HyPL@Entry{617<</P(618)>>}
\HyPL@Entry{618<</P(619)>>}
\@input{cuon.XMLRPC-module.aux}
\HyPL@Entry{619<</P(620)>>}
\@input{cuon.XMLRPC.xmlrpc-module.aux}
\HyPL@Entry{620<</P(621)>>}
\HyPL@Entry{621<</P(622)>>}
\@input{cuon.cuon_dia-module.aux}
\HyPL@Entry{622<</P(623)>>}
\@input{cuon.standardChart-module.aux}
\HyPL@Entry{623<</P(624)>>}
\@input{cuon.untar-module.aux}
\HyPL@Entry{624<</P(625)>>}
\HyPL@Entry{625<</P(626)>>}
\@writefile{toc}{\contentsline {section}{Index}{626}{section*.2}}
\HyPL@Entry{626<</P(627)>>}
\HyPL@Entry{627<</P(628)>>}
\HyPL@Entry{628<</P(629)>>}
\HyPL@Entry{629<</P(630)>>}
\HyPL@Entry{630<</P(631)>>}
\HyPL@Entry{631<</P(632)>>}
