\contentsline {section}{Contents}{1}{section*.1}
\contentsline {section}{\numberline {1}Module Cuon}{25}{section.1}
\contentsline {subsection}{\numberline {1.1}Functions}{28}{subsection.1.1}
\contentsline {subsection}{\numberline {1.2}Variables}{28}{subsection.1.2}
\contentsline {subsection}{\numberline {1.3}Class MainWindow}{29}{subsection.1.3}
\contentsline {subsubsection}{\numberline {1.3.1}Methods}{30}{subsubsection.1.3.1}
\contentsline {section}{\numberline {2}Package cuon}{36}{section.2}
\contentsline {subsection}{\numberline {2.1}Modules}{36}{subsection.2.1}
\contentsline {subsection}{\numberline {2.2}Variables}{41}{subsection.2.2}
\contentsline {section}{\numberline {3}Package cuon.AI}{42}{section.3}
\contentsline {subsection}{\numberline {3.1}Modules}{42}{subsection.3.1}
\contentsline {subsection}{\numberline {3.2}Variables}{42}{subsection.3.2}
\contentsline {section}{\numberline {4}Module cuon.AI.ai}{43}{section.4}
\contentsline {subsection}{\numberline {4.1}Variables}{43}{subsection.4.1}
\contentsline {subsection}{\numberline {4.2}Class aiwindow}{43}{subsection.4.2}
\contentsline {subsubsection}{\numberline {4.2.1}Methods}{43}{subsubsection.4.2.1}
\contentsline {section}{\numberline {5}Module cuon.AI.ai\_main}{46}{section.5}
\contentsline {subsection}{\numberline {5.1}Variables}{46}{subsection.5.1}
\contentsline {subsection}{\numberline {5.2}Class ai\_main}{46}{subsection.5.2}
\contentsline {subsubsection}{\numberline {5.2.1}Methods}{46}{subsubsection.5.2.1}
\contentsline {section}{\numberline {6}Module cuon.AI.gtkMiniClient}{47}{section.6}
\contentsline {subsection}{\numberline {6.1}Variables}{47}{subsection.6.1}
\contentsline {subsection}{\numberline {6.2}Class simpleGlade}{47}{subsection.6.2}
\contentsline {subsubsection}{\numberline {6.2.1}Methods}{47}{subsubsection.6.2.1}
\contentsline {subsection}{\numberline {6.3}Class gtkMiniClient}{47}{subsection.6.3}
\contentsline {subsubsection}{\numberline {6.3.1}Methods}{47}{subsubsection.6.3.1}
\contentsline {section}{\numberline {7}Module cuon.AI.miniClient}{49}{section.7}
\contentsline {subsection}{\numberline {7.1}Variables}{49}{subsection.7.1}
\contentsline {section}{\numberline {8}Module cuon.AI.testcodec}{50}{section.8}
\contentsline {subsection}{\numberline {8.1}Functions}{50}{subsection.8.1}
\contentsline {subsection}{\numberline {8.2}Variables}{50}{subsection.8.2}
\contentsline {section}{\numberline {9}Module cuon.AI.tki1}{51}{section.9}
\contentsline {subsection}{\numberline {9.1}Variables}{51}{subsection.9.1}
\contentsline {subsection}{\numberline {9.2}Class tki1}{51}{subsection.9.2}
\contentsline {subsubsection}{\numberline {9.2.1}Methods}{51}{subsubsection.9.2.1}
\contentsline {section}{\numberline {10}Package cuon.Addresses}{52}{section.10}
\contentsline {subsection}{\numberline {10.1}Modules}{52}{subsection.10.1}
\contentsline {section}{\numberline {11}Module cuon.Addresses.SingleAddress}{53}{section.11}
\contentsline {subsection}{\numberline {11.1}Variables}{53}{subsection.11.1}
\contentsline {subsection}{\numberline {11.2}Class SingleAddress}{53}{subsection.11.2}
\contentsline {subsubsection}{\numberline {11.2.1}Methods}{53}{subsubsection.11.2.1}
\contentsline {section}{\numberline {12}Module cuon.Addresses.SingleAddressBank}{56}{section.12}
\contentsline {subsection}{\numberline {12.1}Variables}{56}{subsection.12.1}
\contentsline {subsection}{\numberline {12.2}Class SingleAddressBank}{56}{subsection.12.2}
\contentsline {subsubsection}{\numberline {12.2.1}Methods}{56}{subsubsection.12.2.1}
\contentsline {section}{\numberline {13}Module cuon.Addresses.SingleContact}{58}{section.13}
\contentsline {subsection}{\numberline {13.1}Variables}{58}{subsection.13.1}
\contentsline {subsection}{\numberline {13.2}Class SingleContact}{58}{subsection.13.2}
\contentsline {subsubsection}{\numberline {13.2.1}Methods}{58}{subsubsection.13.2.1}
\contentsline {section}{\numberline {14}Module cuon.Addresses.SingleCountry}{61}{section.14}
\contentsline {subsection}{\numberline {14.1}Variables}{61}{subsection.14.1}
\contentsline {subsection}{\numberline {14.2}Class SingleCountry}{61}{subsection.14.2}
\contentsline {subsubsection}{\numberline {14.2.1}Methods}{61}{subsubsection.14.2.1}
\contentsline {section}{\numberline {15}Module cuon.Addresses.SingleMisc}{63}{section.15}
\contentsline {subsection}{\numberline {15.1}Variables}{63}{subsection.15.1}
\contentsline {subsection}{\numberline {15.2}Class SingleMisc}{63}{subsection.15.2}
\contentsline {subsubsection}{\numberline {15.2.1}Methods}{63}{subsubsection.15.2.1}
\contentsline {section}{\numberline {16}Module cuon.Addresses.SingleNotes}{65}{section.16}
\contentsline {subsection}{\numberline {16.1}Variables}{65}{subsection.16.1}
\contentsline {subsection}{\numberline {16.2}Class SingleNotes}{65}{subsection.16.2}
\contentsline {subsubsection}{\numberline {16.2.1}Methods}{65}{subsubsection.16.2.1}
\contentsline {section}{\numberline {17}Module cuon.Addresses.SinglePartner}{67}{section.17}
\contentsline {subsection}{\numberline {17.1}Variables}{67}{subsection.17.1}
\contentsline {subsection}{\numberline {17.2}Class SinglePartner}{67}{subsection.17.2}
\contentsline {subsubsection}{\numberline {17.2.1}Methods}{67}{subsubsection.17.2.1}
\contentsline {section}{\numberline {18}Module cuon.Addresses.SingleScheduling}{70}{section.18}
\contentsline {subsection}{\numberline {18.1}Variables}{70}{subsection.18.1}
\contentsline {subsection}{\numberline {18.2}Class SingleScheduling}{70}{subsection.18.2}
\contentsline {subsubsection}{\numberline {18.2.1}Methods}{70}{subsubsection.18.2.1}
\contentsline {section}{\numberline {19}Module cuon.Addresses.addresses}{73}{section.19}
\contentsline {subsection}{\numberline {19.1}Variables}{73}{subsection.19.1}
\contentsline {subsection}{\numberline {19.2}Class addresswindow}{73}{subsection.19.2}
\contentsline {subsubsection}{\numberline {19.2.1}Methods}{74}{subsubsection.19.2.1}
\contentsline {section}{\numberline {20}Module cuon.Addresses.contact}{83}{section.20}
\contentsline {subsection}{\numberline {20.1}Variables}{83}{subsection.20.1}
\contentsline {subsection}{\numberline {20.2}Class contactwindow}{83}{subsection.20.2}
\contentsline {subsubsection}{\numberline {20.2.1}Methods}{83}{subsubsection.20.2.1}
\contentsline {section}{\numberline {21}Module cuon.Addresses.lists\_addresses}{87}{section.21}
\contentsline {subsection}{\numberline {21.1}Variables}{87}{subsection.21.1}
\contentsline {subsection}{\numberline {21.2}Class lists\_addresses}{87}{subsection.21.2}
\contentsline {subsubsection}{\numberline {21.2.1}Methods}{87}{subsubsection.21.2.1}
\contentsline {section}{\numberline {22}Module cuon.Addresses.lists\_addresses\_phone1}{88}{section.22}
\contentsline {subsection}{\numberline {22.1}Variables}{88}{subsection.22.1}
\contentsline {subsection}{\numberline {22.2}Class lists\_addresses\_phone1}{88}{subsection.22.2}
\contentsline {subsubsection}{\numberline {22.2.1}Methods}{88}{subsubsection.22.2.1}
\contentsline {section}{\numberline {23}Module cuon.Addresses.lists\_addresses\_phone11}{90}{section.23}
\contentsline {subsection}{\numberline {23.1}Variables}{90}{subsection.23.1}
\contentsline {subsection}{\numberline {23.2}Class lists\_addresses\_phone11}{90}{subsection.23.2}
\contentsline {subsubsection}{\numberline {23.2.1}Methods}{90}{subsubsection.23.2.1}
\contentsline {section}{\numberline {24}Module cuon.Addresses.lists\_addresses\_phone12}{92}{section.24}
\contentsline {subsection}{\numberline {24.1}Variables}{92}{subsection.24.1}
\contentsline {subsection}{\numberline {24.2}Class lists\_addresses\_phone12}{92}{subsection.24.2}
\contentsline {subsubsection}{\numberline {24.2.1}Methods}{92}{subsubsection.24.2.1}
\contentsline {section}{\numberline {25}Module cuon.Addresses.lists\_addresses\_phone2}{94}{section.25}
\contentsline {subsection}{\numberline {25.1}Class lists\_addresses\_phone2}{94}{subsection.25.1}
\contentsline {subsubsection}{\numberline {25.1.1}Methods}{94}{subsubsection.25.1.1}
\contentsline {section}{\numberline {26}Module cuon.Addresses.printAddress}{95}{section.26}
\contentsline {subsection}{\numberline {26.1}Variables}{95}{subsection.26.1}
\contentsline {subsection}{\numberline {26.2}Class printAddress}{95}{subsection.26.2}
\contentsline {subsubsection}{\numberline {26.2.1}Methods}{95}{subsubsection.26.2.1}
\contentsline {section}{\numberline {27}Module cuon.Addresses.selectionDialog}{96}{section.27}
\contentsline {subsection}{\numberline {27.1}Variables}{96}{subsection.27.1}
\contentsline {subsection}{\numberline {27.2}Class selectionDialog1}{96}{subsection.27.2}
\contentsline {subsubsection}{\numberline {27.2.1}Methods}{96}{subsubsection.27.2.1}
\contentsline {section}{\numberline {28}Package cuon.Analysis}{99}{section.28}
\contentsline {subsection}{\numberline {28.1}Modules}{99}{subsection.28.1}
\contentsline {subsection}{\numberline {28.2}Variables}{99}{subsection.28.2}
\contentsline {section}{\numberline {29}Module cuon.Analysis.SingleAnalysis\_cost}{100}{section.29}
\contentsline {subsection}{\numberline {29.1}Variables}{100}{subsection.29.1}
\contentsline {subsection}{\numberline {29.2}Class SingleClient}{100}{subsection.29.2}
\contentsline {subsubsection}{\numberline {29.2.1}Methods}{100}{subsubsection.29.2.1}
\contentsline {section}{\numberline {30}Module cuon.Analysis.analyse\_costs}{102}{section.30}
\contentsline {subsection}{\numberline {30.1}Variables}{102}{subsection.30.1}
\contentsline {subsection}{\numberline {30.2}Class clientswindow}{102}{subsection.30.2}
\contentsline {subsubsection}{\numberline {30.2.1}Methods}{102}{subsubsection.30.2.1}
\contentsline {section}{\numberline {31}Package cuon.Articles}{106}{section.31}
\contentsline {subsection}{\numberline {31.1}Modules}{106}{subsection.31.1}
\contentsline {section}{\numberline {32}Module cuon.Articles.ArticlesFastSelection}{107}{section.32}
\contentsline {subsection}{\numberline {32.1}Variables}{107}{subsection.32.1}
\contentsline {subsection}{\numberline {32.2}Class ArticlesFastSelection}{107}{subsection.32.2}
\contentsline {subsubsection}{\numberline {32.2.1}Methods}{107}{subsubsection.32.2.1}
\contentsline {section}{\numberline {33}Module cuon.Articles.SingleArticle}{109}{section.33}
\contentsline {subsection}{\numberline {33.1}Variables}{109}{subsection.33.1}
\contentsline {subsection}{\numberline {33.2}Class SingleArticle}{109}{subsection.33.2}
\contentsline {subsubsection}{\numberline {33.2.1}Methods}{109}{subsubsection.33.2.1}
\contentsline {section}{\numberline {34}Module cuon.Articles.SingleArticleParts}{112}{section.34}
\contentsline {subsection}{\numberline {34.1}Variables}{112}{subsection.34.1}
\contentsline {subsection}{\numberline {34.2}Class SingleArticleParts}{112}{subsection.34.2}
\contentsline {subsubsection}{\numberline {34.2.1}Methods}{112}{subsubsection.34.2.1}
\contentsline {section}{\numberline {35}Module cuon.Articles.SingleArticlePurchase}{114}{section.35}
\contentsline {subsection}{\numberline {35.1}Variables}{114}{subsection.35.1}
\contentsline {subsection}{\numberline {35.2}Class SingleArticlePurchase}{114}{subsection.35.2}
\contentsline {subsubsection}{\numberline {35.2.1}Methods}{114}{subsubsection.35.2.1}
\contentsline {section}{\numberline {36}Module cuon.Articles.SingleArticleSale}{116}{section.36}
\contentsline {subsection}{\numberline {36.1}Variables}{116}{subsection.36.1}
\contentsline {subsection}{\numberline {36.2}Class SingleArticleSale}{116}{subsection.36.2}
\contentsline {subsubsection}{\numberline {36.2.1}Methods}{116}{subsubsection.36.2.1}
\contentsline {section}{\numberline {37}Module cuon.Articles.SingleArticleStock}{118}{section.37}
\contentsline {subsection}{\numberline {37.1}Variables}{118}{subsection.37.1}
\contentsline {subsection}{\numberline {37.2}Class SingleArticleStock}{118}{subsection.37.2}
\contentsline {subsubsection}{\numberline {37.2.1}Methods}{118}{subsubsection.37.2.1}
\contentsline {section}{\numberline {38}Module cuon.Articles.SingleArticleWebshop}{121}{section.38}
\contentsline {subsection}{\numberline {38.1}Variables}{121}{subsection.38.1}
\contentsline {subsection}{\numberline {38.2}Class SingleArticleWebshop}{121}{subsection.38.2}
\contentsline {subsubsection}{\numberline {38.2.1}Methods}{121}{subsubsection.38.2.1}
\contentsline {section}{\numberline {39}Module cuon.Articles.SingleMaterialgroups}{123}{section.39}
\contentsline {subsection}{\numberline {39.1}Variables}{123}{subsection.39.1}
\contentsline {subsection}{\numberline {39.2}Class SingleMaterialgroups}{123}{subsection.39.2}
\contentsline {subsubsection}{\numberline {39.2.1}Methods}{123}{subsubsection.39.2.1}
\contentsline {section}{\numberline {40}Module cuon.Articles.SingleMaterialgroupsAccount}{125}{section.40}
\contentsline {subsection}{\numberline {40.1}Variables}{125}{subsection.40.1}
\contentsline {subsection}{\numberline {40.2}Class SingleMaterialgroupsAccount}{125}{subsection.40.2}
\contentsline {subsubsection}{\numberline {40.2.1}Methods}{125}{subsubsection.40.2.1}
\contentsline {section}{\numberline {41}Module cuon.Articles.articles}{127}{section.41}
\contentsline {subsection}{\numberline {41.1}Variables}{127}{subsection.41.1}
\contentsline {subsection}{\numberline {41.2}Class articleswindow}{127}{subsection.41.2}
\contentsline {subsubsection}{\numberline {41.2.1}Methods}{127}{subsubsection.41.2.1}
\contentsline {section}{\numberline {42}Module cuon.Articles.lists\_articles\_number1}{134}{section.42}
\contentsline {subsection}{\numberline {42.1}Variables}{134}{subsection.42.1}
\contentsline {subsection}{\numberline {42.2}Class lists\_articles\_number1}{134}{subsection.42.2}
\contentsline {subsubsection}{\numberline {42.2.1}Methods}{134}{subsubsection.42.2.1}
\contentsline {section}{\numberline {43}Module cuon.Articles.materialgroup}{136}{section.43}
\contentsline {subsection}{\numberline {43.1}Variables}{136}{subsection.43.1}
\contentsline {subsection}{\numberline {43.2}Class materialgroupwindow}{136}{subsection.43.2}
\contentsline {subsubsection}{\numberline {43.2.1}Methods}{136}{subsubsection.43.2.1}
\contentsline {section}{\numberline {44}Module cuon.Articles.pickles\_articles}{140}{section.44}
\contentsline {subsection}{\numberline {44.1}Variables}{140}{subsection.44.1}
\contentsline {subsection}{\numberline {44.2}Class pickles\_articles}{140}{subsection.44.2}
\contentsline {subsubsection}{\numberline {44.2.1}Methods}{140}{subsubsection.44.2.1}
\contentsline {section}{\numberline {45}Package cuon.Bank}{142}{section.45}
\contentsline {subsection}{\numberline {45.1}Modules}{142}{subsection.45.1}
\contentsline {subsection}{\numberline {45.2}Variables}{142}{subsection.45.2}
\contentsline {section}{\numberline {46}Module cuon.Bank.SingleBank}{143}{section.46}
\contentsline {subsection}{\numberline {46.1}Variables}{143}{subsection.46.1}
\contentsline {subsection}{\numberline {46.2}Class SingleBank}{143}{subsection.46.2}
\contentsline {subsubsection}{\numberline {46.2.1}Methods}{143}{subsubsection.46.2.1}
\contentsline {section}{\numberline {47}Module cuon.Bank.bank}{145}{section.47}
\contentsline {subsection}{\numberline {47.1}Variables}{145}{subsection.47.1}
\contentsline {subsection}{\numberline {47.2}Class bankwindow}{145}{subsection.47.2}
\contentsline {subsubsection}{\numberline {47.2.1}Methods}{145}{subsubsection.47.2.1}
\contentsline {section}{\numberline {48}Package cuon.Biblio}{149}{section.48}
\contentsline {subsection}{\numberline {48.1}Modules}{149}{subsection.48.1}
\contentsline {subsection}{\numberline {48.2}Variables}{149}{subsection.48.2}
\contentsline {section}{\numberline {49}Module cuon.Biblio.SingleBiblio}{150}{section.49}
\contentsline {subsection}{\numberline {49.1}Variables}{150}{subsection.49.1}
\contentsline {subsection}{\numberline {49.2}Class SingleBiblio}{150}{subsection.49.2}
\contentsline {subsubsection}{\numberline {49.2.1}Methods}{150}{subsubsection.49.2.1}
\contentsline {section}{\numberline {50}Module cuon.Biblio.biblio}{152}{section.50}
\contentsline {subsection}{\numberline {50.1}Variables}{152}{subsection.50.1}
\contentsline {subsection}{\numberline {50.2}Class bibliowindow}{152}{subsection.50.2}
\contentsline {subsubsection}{\numberline {50.2.1}Methods}{152}{subsubsection.50.2.1}
\contentsline {section}{\numberline {51}Package cuon.Calendar}{156}{section.51}
\contentsline {subsection}{\numberline {51.1}Modules}{156}{subsection.51.1}
\contentsline {subsection}{\numberline {51.2}Variables}{156}{subsection.51.2}
\contentsline {section}{\numberline {52}Module cuon.Calendar.calendar}{157}{section.52}
\contentsline {subsection}{\numberline {52.1}Variables}{157}{subsection.52.1}
\contentsline {subsection}{\numberline {52.2}Class calendarwindow}{157}{subsection.52.2}
\contentsline {subsubsection}{\numberline {52.2.1}Methods}{157}{subsubsection.52.2.1}
\contentsline {section}{\numberline {53}Package cuon.Chat}{160}{section.53}
\contentsline {subsection}{\numberline {53.1}Modules}{160}{subsection.53.1}
\contentsline {subsection}{\numberline {53.2}Variables}{160}{subsection.53.2}
\contentsline {section}{\numberline {54}Module cuon.Chat.chat}{161}{section.54}
\contentsline {subsection}{\numberline {54.1}Variables}{161}{subsection.54.1}
\contentsline {subsection}{\numberline {54.2}Class chatWindow}{162}{subsection.54.2}
\contentsline {subsubsection}{\numberline {54.2.1}Methods}{163}{subsubsection.54.2.1}
\contentsline {section}{\numberline {55}Module cuon.Chat.slandy}{167}{section.55}
\contentsline {subsection}{\numberline {55.1}Variables}{167}{subsection.55.1}
\contentsline {subsection}{\numberline {55.2}Class slandy}{167}{subsection.55.2}
\contentsline {subsubsection}{\numberline {55.2.1}Methods}{167}{subsubsection.55.2.1}
\contentsline {section}{\numberline {56}Module cuon.Chat.xmpp\_client}{169}{section.56}
\contentsline {subsection}{\numberline {56.1}Variables}{169}{subsection.56.1}
\contentsline {subsection}{\numberline {56.2}Class xmpp\_client}{169}{subsection.56.2}
\contentsline {subsubsection}{\numberline {56.2.1}Methods}{169}{subsubsection.56.2.1}
\contentsline {section}{\numberline {57}Package cuon.Clients}{170}{section.57}
\contentsline {subsection}{\numberline {57.1}Modules}{170}{subsection.57.1}
\contentsline {subsection}{\numberline {57.2}Variables}{170}{subsection.57.2}
\contentsline {section}{\numberline {58}Module cuon.Clients.SingleClient}{171}{section.58}
\contentsline {subsection}{\numberline {58.1}Variables}{171}{subsection.58.1}
\contentsline {subsection}{\numberline {58.2}Class SingleClient}{171}{subsection.58.2}
\contentsline {subsubsection}{\numberline {58.2.1}Methods}{171}{subsubsection.58.2.1}
\contentsline {section}{\numberline {59}Module cuon.Clients.clients}{173}{section.59}
\contentsline {subsection}{\numberline {59.1}Variables}{173}{subsection.59.1}
\contentsline {subsection}{\numberline {59.2}Class clientswindow}{173}{subsection.59.2}
\contentsline {subsubsection}{\numberline {59.2.1}Methods}{173}{subsubsection.59.2.1}
\contentsline {section}{\numberline {60}Package cuon.DMS}{177}{section.60}
\contentsline {subsection}{\numberline {60.1}Modules}{177}{subsection.60.1}
\contentsline {subsection}{\numberline {60.2}Variables}{177}{subsection.60.2}
\contentsline {section}{\numberline {61}Module cuon.DMS.SingleDMS}{178}{section.61}
\contentsline {subsection}{\numberline {61.1}Variables}{178}{subsection.61.1}
\contentsline {subsection}{\numberline {61.2}Class SingleDMS}{178}{subsection.61.2}
\contentsline {subsubsection}{\numberline {61.2.1}Methods}{178}{subsubsection.61.2.1}
\contentsline {section}{\numberline {62}Module cuon.DMS.dms}{181}{section.62}
\contentsline {subsection}{\numberline {62.1}Variables}{181}{subsection.62.1}
\contentsline {subsection}{\numberline {62.2}Class dmswindow}{181}{subsection.62.2}
\contentsline {subsubsection}{\numberline {62.2.1}Methods}{181}{subsubsection.62.2.1}
\contentsline {section}{\numberline {63}Module cuon.DMS.documentTools}{186}{section.63}
\contentsline {subsection}{\numberline {63.1}Variables}{186}{subsection.63.1}
\contentsline {subsection}{\numberline {63.2}Class documentTools}{186}{subsection.63.2}
\contentsline {subsubsection}{\numberline {63.2.1}Methods}{186}{subsubsection.63.2.1}
\contentsline {section}{\numberline {64}Package cuon.Databases}{188}{section.64}
\contentsline {subsection}{\numberline {64.1}Modules}{188}{subsection.64.1}
\contentsline {section}{\numberline {65}Module cuon.Databases.SingleCuon}{189}{section.65}
\contentsline {subsection}{\numberline {65.1}Variables}{189}{subsection.65.1}
\contentsline {subsection}{\numberline {65.2}Class SingleCuon}{189}{subsection.65.2}
\contentsline {subsubsection}{\numberline {65.2.1}Methods}{189}{subsubsection.65.2.1}
\contentsline {section}{\numberline {66}Module cuon.Databases.SingleData}{191}{section.66}
\contentsline {subsection}{\numberline {66.1}Variables}{191}{subsection.66.1}
\contentsline {subsection}{\numberline {66.2}Class SingleData}{191}{subsection.66.2}
\contentsline {subsubsection}{\numberline {66.2.1}Methods}{192}{subsubsection.66.2.1}
\contentsline {section}{\numberline {67}Module cuon.Databases.SingleDataTreeModel}{197}{section.67}
\contentsline {subsection}{\numberline {67.1}Variables}{197}{subsection.67.1}
\contentsline {subsection}{\numberline {67.2}Class SingleDataTreeModel}{197}{subsection.67.2}
\contentsline {subsubsection}{\numberline {67.2.1}Methods}{197}{subsubsection.67.2.1}
\contentsline {section}{\numberline {68}Module cuon.Databases.SingleExport}{198}{section.68}
\contentsline {subsection}{\numberline {68.1}Variables}{198}{subsection.68.1}
\contentsline {subsection}{\numberline {68.2}Class SingleExport}{198}{subsection.68.2}
\contentsline {subsubsection}{\numberline {68.2.1}Methods}{198}{subsubsection.68.2.1}
\contentsline {section}{\numberline {69}Module cuon.Databases.SingleImport}{200}{section.69}
\contentsline {subsection}{\numberline {69.1}Variables}{200}{subsection.69.1}
\contentsline {subsection}{\numberline {69.2}Class SingleImport}{200}{subsection.69.2}
\contentsline {subsubsection}{\numberline {69.2.1}Methods}{200}{subsubsection.69.2.1}
\contentsline {section}{\numberline {70}Module cuon.Databases.SingleImportZip}{202}{section.70}
\contentsline {subsection}{\numberline {70.1}Variables}{202}{subsection.70.1}
\contentsline {subsection}{\numberline {70.2}Class SingleImportZip}{202}{subsection.70.2}
\contentsline {subsubsection}{\numberline {70.2.1}Methods}{202}{subsubsection.70.2.1}
\contentsline {section}{\numberline {71}Module cuon.Databases.cyr\_column}{204}{section.71}
\contentsline {subsection}{\numberline {71.1}Variables}{204}{subsection.71.1}
\contentsline {subsection}{\numberline {71.2}Class cyr\_column}{204}{subsection.71.2}
\contentsline {subsubsection}{\numberline {71.2.1}Methods}{204}{subsubsection.71.2.1}
\contentsline {section}{\numberline {72}Module cuon.Databases.cyr\_load\_table}{205}{section.72}
\contentsline {subsection}{\numberline {72.1}Variables}{205}{subsection.72.1}
\contentsline {subsection}{\numberline {72.2}Class cyr\_load\_table}{205}{subsection.72.2}
\contentsline {subsubsection}{\numberline {72.2.1}Methods}{205}{subsubsection.72.2.1}
\contentsline {section}{\numberline {73}Module cuon.Databases.cyr\_table}{208}{section.73}
\contentsline {subsection}{\numberline {73.1}Variables}{208}{subsection.73.1}
\contentsline {subsection}{\numberline {73.2}Class cyr\_table}{208}{subsection.73.2}
\contentsline {subsubsection}{\numberline {73.2.1}Methods}{208}{subsubsection.73.2.1}
\contentsline {section}{\numberline {74}Module cuon.Databases.databases}{209}{section.74}
\contentsline {subsection}{\numberline {74.1}Variables}{209}{subsection.74.1}
\contentsline {subsection}{\numberline {74.2}Class databaseswindow}{209}{subsection.74.2}
\contentsline {subsubsection}{\numberline {74.2.1}Methods}{210}{subsubsection.74.2.1}
\contentsline {section}{\numberline {75}Module cuon.Databases.dumps}{213}{section.75}
\contentsline {subsection}{\numberline {75.1}Variables}{213}{subsection.75.1}
\contentsline {subsection}{\numberline {75.2}Class dumps}{213}{subsection.75.2}
\contentsline {subsubsection}{\numberline {75.2.1}Methods}{213}{subsubsection.75.2.1}
\contentsline {section}{\numberline {76}Module cuon.Databases.export\_generic1}{216}{section.76}
\contentsline {subsection}{\numberline {76.1}Variables}{216}{subsection.76.1}
\contentsline {subsection}{\numberline {76.2}Class export\_generic1}{216}{subsection.76.2}
\contentsline {subsubsection}{\numberline {76.2.1}Methods}{217}{subsubsection.76.2.1}
\contentsline {section}{\numberline {77}Module cuon.Databases.import\_generic1}{219}{section.77}
\contentsline {subsection}{\numberline {77.1}Variables}{219}{subsection.77.1}
\contentsline {subsection}{\numberline {77.2}Class import\_generic1}{219}{subsection.77.2}
\contentsline {subsubsection}{\numberline {77.2.1}Methods}{220}{subsubsection.77.2.1}
\contentsline {section}{\numberline {78}Module cuon.Databases.import\_generic2}{222}{section.78}
\contentsline {subsection}{\numberline {78.1}Variables}{222}{subsection.78.1}
\contentsline {subsection}{\numberline {78.2}Class import\_generic2}{222}{subsection.78.2}
\contentsline {subsubsection}{\numberline {78.2.1}Methods}{223}{subsubsection.78.2.1}
\contentsline {section}{\numberline {79}Module cuon.Databases.xbase}{225}{section.79}
\contentsline {subsection}{\numberline {79.1}Functions}{225}{subsection.79.1}
\contentsline {subsection}{\numberline {79.2}Variables}{225}{subsection.79.2}
\contentsline {section}{\numberline {80}Package cuon.E\_Mail}{226}{section.80}
\contentsline {subsection}{\numberline {80.1}Modules}{226}{subsection.80.1}
\contentsline {subsection}{\numberline {80.2}Variables}{226}{subsection.80.2}
\contentsline {section}{\numberline {81}Module cuon.E\_Mail.imap\_dms}{227}{section.81}
\contentsline {subsection}{\numberline {81.1}Variables}{227}{subsection.81.1}
\contentsline {subsection}{\numberline {81.2}Class imap\_dms}{227}{subsection.81.2}
\contentsline {subsubsection}{\numberline {81.2.1}Methods}{227}{subsubsection.81.2.1}
\contentsline {subsubsection}{\numberline {81.2.2}Properties}{228}{subsubsection.81.2.2}
\contentsline {section}{\numberline {82}Module cuon.E\_Mail.incoming\_mail}{229}{section.82}
\contentsline {subsection}{\numberline {82.1}Variables}{229}{subsection.82.1}
\contentsline {subsection}{\numberline {82.2}Class incoming\_mail}{229}{subsection.82.2}
\contentsline {subsubsection}{\numberline {82.2.1}Methods}{229}{subsubsection.82.2.1}
\contentsline {section}{\numberline {83}Module cuon.E\_Mail.sendEmail}{230}{section.83}
\contentsline {subsection}{\numberline {83.1}Variables}{230}{subsection.83.1}
\contentsline {subsection}{\numberline {83.2}Class sendEmail}{230}{subsection.83.2}
\contentsline {subsubsection}{\numberline {83.2.1}Methods}{230}{subsubsection.83.2.1}
\contentsline {section}{\numberline {84}Package cuon.Editor}{233}{section.84}
\contentsline {subsection}{\numberline {84.1}Modules}{233}{subsection.84.1}
\contentsline {subsection}{\numberline {84.2}Variables}{233}{subsection.84.2}
\contentsline {section}{\numberline {85}Module cuon.Editor.editor}{234}{section.85}
\contentsline {subsection}{\numberline {85.1}Variables}{234}{subsection.85.1}
\contentsline {subsection}{\numberline {85.2}Class editorwindow}{234}{subsection.85.2}
\contentsline {subsubsection}{\numberline {85.2.1}Methods}{234}{subsubsection.85.2.1}
\contentsline {section}{\numberline {86}Module cuon.Editor.programmersEditor}{239}{section.86}
\contentsline {subsection}{\numberline {86.1}Variables}{239}{subsection.86.1}
\contentsline {subsection}{\numberline {86.2}Class programmerseditor}{239}{subsection.86.2}
\contentsline {subsubsection}{\numberline {86.2.1}Methods}{239}{subsubsection.86.2.1}
\contentsline {section}{\numberline {87}Package cuon.Enquiry}{243}{section.87}
\contentsline {subsection}{\numberline {87.1}Modules}{243}{subsection.87.1}
\contentsline {subsection}{\numberline {87.2}Variables}{243}{subsection.87.2}
\contentsline {section}{\numberline {88}Module cuon.Enquiry.SingleEnquiry}{244}{section.88}
\contentsline {subsection}{\numberline {88.1}Variables}{244}{subsection.88.1}
\contentsline {subsection}{\numberline {88.2}Class SingleEnquiry}{244}{subsection.88.2}
\contentsline {subsubsection}{\numberline {88.2.1}Methods}{244}{subsubsection.88.2.1}
\contentsline {section}{\numberline {89}Module cuon.Enquiry.SingleEnquiryGet}{247}{section.89}
\contentsline {subsection}{\numberline {89.1}Variables}{247}{subsection.89.1}
\contentsline {subsection}{\numberline {89.2}Class SingleEnquiryGet}{247}{subsection.89.2}
\contentsline {subsubsection}{\numberline {89.2.1}Methods}{247}{subsubsection.89.2.1}
\contentsline {section}{\numberline {90}Module cuon.Enquiry.SingleEnquiryInvoice}{250}{section.90}
\contentsline {subsection}{\numberline {90.1}Variables}{250}{subsection.90.1}
\contentsline {subsection}{\numberline {90.2}Class SingleEnquiryInvoice}{250}{subsection.90.2}
\contentsline {subsubsection}{\numberline {90.2.1}Methods}{250}{subsubsection.90.2.1}
\contentsline {section}{\numberline {91}Module cuon.Enquiry.SingleEnquiryMisc}{252}{section.91}
\contentsline {subsection}{\numberline {91.1}Variables}{252}{subsection.91.1}
\contentsline {subsection}{\numberline {91.2}Class SingleEnquiryMisc}{252}{subsection.91.2}
\contentsline {subsubsection}{\numberline {91.2.1}Methods}{252}{subsubsection.91.2.1}
\contentsline {section}{\numberline {92}Module cuon.Enquiry.SingleEnquiryPayment}{254}{section.92}
\contentsline {subsection}{\numberline {92.1}Variables}{254}{subsection.92.1}
\contentsline {subsection}{\numberline {92.2}Class SingleEnquiryPayment}{254}{subsection.92.2}
\contentsline {subsubsection}{\numberline {92.2.1}Methods}{254}{subsubsection.92.2.1}
\contentsline {section}{\numberline {93}Module cuon.Enquiry.SingleEnquiryPosition}{256}{section.93}
\contentsline {subsection}{\numberline {93.1}Variables}{256}{subsection.93.1}
\contentsline {subsection}{\numberline {93.2}Class SingleEnquiryPosition}{256}{subsection.93.2}
\contentsline {subsubsection}{\numberline {93.2.1}Methods}{256}{subsubsection.93.2.1}
\contentsline {section}{\numberline {94}Module cuon.Enquiry.SingleEnquirySupply}{258}{section.94}
\contentsline {subsection}{\numberline {94.1}Variables}{258}{subsection.94.1}
\contentsline {subsection}{\numberline {94.2}Class SingleEnquirySupply}{258}{subsection.94.2}
\contentsline {subsubsection}{\numberline {94.2.1}Methods}{258}{subsubsection.94.2.1}
\contentsline {section}{\numberline {95}Module cuon.Enquiry.enquiry}{260}{section.95}
\contentsline {subsection}{\numberline {95.1}Variables}{260}{subsection.95.1}
\contentsline {subsection}{\numberline {95.2}Class enquirywindow}{261}{subsection.95.2}
\contentsline {subsubsection}{\numberline {95.2.1}Methods}{262}{subsubsection.95.2.1}
\contentsline {section}{\numberline {96}Package cuon.Finances}{268}{section.96}
\contentsline {subsection}{\numberline {96.1}Modules}{268}{subsection.96.1}
\contentsline {subsection}{\numberline {96.2}Variables}{268}{subsection.96.2}
\contentsline {section}{\numberline {97}Package cuon.Finances.Bookkeeping}{269}{section.97}
\contentsline {subsection}{\numberline {97.1}Modules}{269}{subsection.97.1}
\contentsline {subsection}{\numberline {97.2}Variables}{269}{subsection.97.2}
\contentsline {section}{\numberline {98}Module cuon.Finances.Bookkeeping.bookkeeping}{270}{section.98}
\contentsline {subsection}{\numberline {98.1}Class bookkeepingwindow}{270}{subsection.98.1}
\contentsline {subsubsection}{\numberline {98.1.1}Methods}{270}{subsubsection.98.1.1}
\contentsline {section}{\numberline {99}Package cuon.Finances.CashAccountBook}{274}{section.99}
\contentsline {subsection}{\numberline {99.1}Modules}{274}{subsection.99.1}
\contentsline {subsection}{\numberline {99.2}Variables}{274}{subsection.99.2}
\contentsline {section}{\numberline {100}Module cuon.Finances.CashAccountBook.cashAccountBook}{275}{section.100}
\contentsline {subsection}{\numberline {100.1}Class cashAccountBookwindow}{275}{subsection.100.1}
\contentsline {subsubsection}{\numberline {100.1.1}Methods}{275}{subsubsection.100.1.1}
\contentsline {section}{\numberline {101}Module cuon.Finances.CashAccountBook.standard\_cab\_monthly}{279}{section.101}
\contentsline {subsection}{\numberline {101.1}Variables}{279}{subsection.101.1}
\contentsline {subsection}{\numberline {101.2}Class standard\_cab\_monthly}{279}{subsection.101.2}
\contentsline {subsubsection}{\numberline {101.2.1}Methods}{279}{subsubsection.101.2.1}
\contentsline {section}{\numberline {102}Package cuon.Finances.InvoiceBook}{282}{section.102}
\contentsline {subsection}{\numberline {102.1}Modules}{282}{subsection.102.1}
\contentsline {subsection}{\numberline {102.2}Variables}{282}{subsection.102.2}
\contentsline {section}{\numberline {103}Module cuon.Finances.InvoiceBook.SingleInpayment}{283}{section.103}
\contentsline {subsection}{\numberline {103.1}Variables}{283}{subsection.103.1}
\contentsline {subsection}{\numberline {103.2}Class SingleInpayment}{283}{subsection.103.2}
\contentsline {subsubsection}{\numberline {103.2.1}Methods}{283}{subsubsection.103.2.1}
\contentsline {section}{\numberline {104}Module cuon.Finances.InvoiceBook.SingleListOfInvoice}{285}{section.104}
\contentsline {subsection}{\numberline {104.1}Variables}{285}{subsection.104.1}
\contentsline {subsection}{\numberline {104.2}Class SingleListOfInvoice}{285}{subsection.104.2}
\contentsline {subsubsection}{\numberline {104.2.1}Methods}{285}{subsubsection.104.2.1}
\contentsline {section}{\numberline {105}Module cuon.Finances.InvoiceBook.invoicebook}{287}{section.105}
\contentsline {subsection}{\numberline {105.1}Variables}{287}{subsection.105.1}
\contentsline {subsection}{\numberline {105.2}Class invoicebookwindow}{287}{subsection.105.2}
\contentsline {subsubsection}{\numberline {105.2.1}Methods}{287}{subsubsection.105.2.1}
\contentsline {section}{\numberline {106}Module cuon.Finances.SingleAccountInfo}{292}{section.106}
\contentsline {subsection}{\numberline {106.1}Variables}{292}{subsection.106.1}
\contentsline {subsection}{\numberline {106.2}Class SingleAccountInfo}{292}{subsection.106.2}
\contentsline {subsubsection}{\numberline {106.2.1}Methods}{292}{subsubsection.106.2.1}
\contentsline {section}{\numberline {107}Module cuon.Finances.SingleAccountPlan}{294}{section.107}
\contentsline {subsection}{\numberline {107.1}Variables}{294}{subsection.107.1}
\contentsline {subsection}{\numberline {107.2}Class SingleAccountPlan}{294}{subsection.107.2}
\contentsline {subsubsection}{\numberline {107.2.1}Methods}{294}{subsubsection.107.2.1}
\contentsline {section}{\numberline {108}Module cuon.Finances.SingleAccountSentence}{296}{section.108}
\contentsline {subsection}{\numberline {108.1}Variables}{296}{subsection.108.1}
\contentsline {subsection}{\numberline {108.2}Class SingleAccountSentence}{296}{subsection.108.2}
\contentsline {subsubsection}{\numberline {108.2.1}Methods}{296}{subsubsection.108.2.1}
\contentsline {section}{\numberline {109}Module cuon.Finances.SingleAccountValues}{298}{section.109}
\contentsline {subsection}{\numberline {109.1}Variables}{298}{subsection.109.1}
\contentsline {subsection}{\numberline {109.2}Class SingleAccountValues}{298}{subsection.109.2}
\contentsline {subsubsection}{\numberline {109.2.1}Methods}{298}{subsubsection.109.2.1}
\contentsline {section}{\numberline {110}Package cuon.Garden}{300}{section.110}
\contentsline {subsection}{\numberline {110.1}Modules}{300}{subsection.110.1}
\contentsline {subsection}{\numberline {110.2}Variables}{300}{subsection.110.2}
\contentsline {section}{\numberline {111}Module cuon.Garden.SingleBotany}{301}{section.111}
\contentsline {subsection}{\numberline {111.1}Variables}{301}{subsection.111.1}
\contentsline {subsection}{\numberline {111.2}Class SingleBotany}{301}{subsection.111.2}
\contentsline {subsubsection}{\numberline {111.2.1}Methods}{301}{subsubsection.111.2.1}
\contentsline {section}{\numberline {112}Module cuon.Garden.SingleBotanyClass}{304}{section.112}
\contentsline {subsection}{\numberline {112.1}Variables}{304}{subsection.112.1}
\contentsline {subsection}{\numberline {112.2}Class SingleBotanyClass}{304}{subsection.112.2}
\contentsline {subsubsection}{\numberline {112.2.1}Methods}{304}{subsubsection.112.2.1}
\contentsline {section}{\numberline {113}Module cuon.Garden.SingleBotanyDivisio}{306}{section.113}
\contentsline {subsection}{\numberline {113.1}Variables}{306}{subsection.113.1}
\contentsline {subsection}{\numberline {113.2}Class SingleBotanyDivisio}{306}{subsection.113.2}
\contentsline {subsubsection}{\numberline {113.2.1}Methods}{306}{subsubsection.113.2.1}
\contentsline {section}{\numberline {114}Module cuon.Garden.SingleBotanyFamily}{308}{section.114}
\contentsline {subsection}{\numberline {114.1}Variables}{308}{subsection.114.1}
\contentsline {subsection}{\numberline {114.2}Class SingleBotanyFamily}{308}{subsection.114.2}
\contentsline {subsubsection}{\numberline {114.2.1}Methods}{308}{subsubsection.114.2.1}
\contentsline {section}{\numberline {115}Module cuon.Garden.SingleBotanyGenus}{310}{section.115}
\contentsline {subsection}{\numberline {115.1}Variables}{310}{subsection.115.1}
\contentsline {subsection}{\numberline {115.2}Class SingleBotanyGenus}{310}{subsection.115.2}
\contentsline {subsubsection}{\numberline {115.2.1}Methods}{310}{subsubsection.115.2.1}
\contentsline {section}{\numberline {116}Module cuon.Garden.SingleBotanyOrdo}{312}{section.116}
\contentsline {subsection}{\numberline {116.1}Variables}{312}{subsection.116.1}
\contentsline {subsection}{\numberline {116.2}Class SingleBotanyOrdo}{312}{subsection.116.2}
\contentsline {subsubsection}{\numberline {116.2.1}Methods}{312}{subsubsection.116.2.1}
\contentsline {section}{\numberline {117}Module cuon.Garden.SingleHibernation}{314}{section.117}
\contentsline {subsection}{\numberline {117.1}Variables}{314}{subsection.117.1}
\contentsline {subsection}{\numberline {117.2}Class SingleHibernation}{314}{subsection.117.2}
\contentsline {subsubsection}{\numberline {117.2.1}Methods}{314}{subsubsection.117.2.1}
\contentsline {section}{\numberline {118}Module cuon.Garden.SingleHibernationPlant}{317}{section.118}
\contentsline {subsection}{\numberline {118.1}Variables}{317}{subsection.118.1}
\contentsline {subsection}{\numberline {118.2}Class SingleHibernationPlant}{317}{subsection.118.2}
\contentsline {subsubsection}{\numberline {118.2.1}Methods}{317}{subsubsection.118.2.1}
\contentsline {section}{\numberline {119}Module cuon.Garden.address\_hibernation}{320}{section.119}
\contentsline {subsection}{\numberline {119.1}Variables}{320}{subsection.119.1}
\contentsline {subsection}{\numberline {119.2}Class address\_hibernation}{320}{subsection.119.2}
\contentsline {subsubsection}{\numberline {119.2.1}Methods}{320}{subsubsection.119.2.1}
\contentsline {section}{\numberline {120}Module cuon.Garden.botany}{322}{section.120}
\contentsline {subsection}{\numberline {120.1}Variables}{322}{subsection.120.1}
\contentsline {subsection}{\numberline {120.2}Class botanywindow}{322}{subsection.120.2}
\contentsline {subsubsection}{\numberline {120.2.1}Methods}{322}{subsubsection.120.2.1}
\contentsline {section}{\numberline {121}Module cuon.Garden.garden}{327}{section.121}
\contentsline {subsection}{\numberline {121.1}Variables}{327}{subsection.121.1}
\contentsline {subsection}{\numberline {121.2}Class gardenwindow}{327}{subsection.121.2}
\contentsline {subsubsection}{\numberline {121.2.1}Methods}{327}{subsubsection.121.2.1}
\contentsline {section}{\numberline {122}Module cuon.Garden.hibernation}{332}{section.122}
\contentsline {subsection}{\numberline {122.1}Variables}{332}{subsection.122.1}
\contentsline {subsection}{\numberline {122.2}Class hibernationwindow}{332}{subsection.122.2}
\contentsline {subsubsection}{\numberline {122.2.1}Methods}{332}{subsubsection.122.2.1}
\contentsline {section}{\numberline {123}Package cuon.Graves}{337}{section.123}
\contentsline {subsection}{\numberline {123.1}Modules}{337}{subsection.123.1}
\contentsline {subsection}{\numberline {123.2}Variables}{337}{subsection.123.2}
\contentsline {section}{\numberline {124}Module cuon.Graves.SingleGrave}{338}{section.124}
\contentsline {subsection}{\numberline {124.1}Variables}{338}{subsection.124.1}
\contentsline {subsection}{\numberline {124.2}Class SingleGrave}{338}{subsection.124.2}
\contentsline {subsubsection}{\numberline {124.2.1}Methods}{338}{subsubsection.124.2.1}
\contentsline {section}{\numberline {125}Module cuon.Graves.SingleGraveAutumn}{340}{section.125}
\contentsline {subsection}{\numberline {125.1}Variables}{340}{subsection.125.1}
\contentsline {subsection}{\numberline {125.2}Class SingleGraveAutumn}{340}{subsection.125.2}
\contentsline {subsubsection}{\numberline {125.2.1}Methods}{340}{subsubsection.125.2.1}
\contentsline {section}{\numberline {126}Module cuon.Graves.SingleGraveHoliday}{342}{section.126}
\contentsline {subsection}{\numberline {126.1}Variables}{342}{subsection.126.1}
\contentsline {subsection}{\numberline {126.2}Class SingleGraveHoliday}{342}{subsection.126.2}
\contentsline {subsubsection}{\numberline {126.2.1}Methods}{342}{subsubsection.126.2.1}
\contentsline {section}{\numberline {127}Module cuon.Graves.SingleGraveInvoices}{344}{section.127}
\contentsline {subsection}{\numberline {127.1}Variables}{344}{subsection.127.1}
\contentsline {subsection}{\numberline {127.2}Class SingleGraveInvoices}{344}{subsection.127.2}
\contentsline {subsubsection}{\numberline {127.2.1}Methods}{344}{subsubsection.127.2.1}
\contentsline {section}{\numberline {128}Module cuon.Graves.SingleGraveMaintenance}{346}{section.128}
\contentsline {subsection}{\numberline {128.1}Variables}{346}{subsection.128.1}
\contentsline {subsection}{\numberline {128.2}Class SingleGraveMaintenance}{346}{subsection.128.2}
\contentsline {subsubsection}{\numberline {128.2.1}Methods}{346}{subsubsection.128.2.1}
\contentsline {section}{\numberline {129}Module cuon.Graves.SingleGraveServiceNotes}{348}{section.129}
\contentsline {subsection}{\numberline {129.1}Variables}{348}{subsection.129.1}
\contentsline {subsection}{\numberline {129.2}Class SingleGraveServiceNotes}{348}{subsection.129.2}
\contentsline {subsubsection}{\numberline {129.2.1}Methods}{348}{subsubsection.129.2.1}
\contentsline {section}{\numberline {130}Module cuon.Graves.SingleGraveSingleevent}{350}{section.130}
\contentsline {subsection}{\numberline {130.1}Variables}{350}{subsection.130.1}
\contentsline {subsection}{\numberline {130.2}Class SingleGraveSingleevent}{350}{subsection.130.2}
\contentsline {subsubsection}{\numberline {130.2.1}Methods}{350}{subsubsection.130.2.1}
\contentsline {section}{\numberline {131}Module cuon.Graves.SingleGraveSpring}{352}{section.131}
\contentsline {subsection}{\numberline {131.1}Variables}{352}{subsection.131.1}
\contentsline {subsection}{\numberline {131.2}Class SingleGraveSpring}{352}{subsection.131.2}
\contentsline {subsubsection}{\numberline {131.2.1}Methods}{352}{subsubsection.131.2.1}
\contentsline {section}{\numberline {132}Module cuon.Graves.SingleGraveSummer}{354}{section.132}
\contentsline {subsection}{\numberline {132.1}Variables}{354}{subsection.132.1}
\contentsline {subsection}{\numberline {132.2}Class SingleGraveSummer}{354}{subsection.132.2}
\contentsline {subsubsection}{\numberline {132.2.1}Methods}{354}{subsubsection.132.2.1}
\contentsline {section}{\numberline {133}Module cuon.Graves.SingleGraveWinter}{356}{section.133}
\contentsline {subsection}{\numberline {133.1}Variables}{356}{subsection.133.1}
\contentsline {subsection}{\numberline {133.2}Class SingleGraveWinter}{356}{subsection.133.2}
\contentsline {subsubsection}{\numberline {133.2.1}Methods}{356}{subsubsection.133.2.1}
\contentsline {section}{\numberline {134}Module cuon.Graves.SingleGraveYear}{358}{section.134}
\contentsline {subsection}{\numberline {134.1}Variables}{358}{subsection.134.1}
\contentsline {subsection}{\numberline {134.2}Class SingleGraveYear}{358}{subsection.134.2}
\contentsline {subsubsection}{\numberline {134.2.1}Methods}{358}{subsubsection.134.2.1}
\contentsline {section}{\numberline {135}Module cuon.Graves.SingleGraveyard}{360}{section.135}
\contentsline {subsection}{\numberline {135.1}Variables}{360}{subsection.135.1}
\contentsline {subsection}{\numberline {135.2}Class SingleGraveyard}{360}{subsection.135.2}
\contentsline {subsubsection}{\numberline {135.2.1}Methods}{360}{subsubsection.135.2.1}
\contentsline {section}{\numberline {136}Module cuon.Graves.address\_graves}{362}{section.136}
\contentsline {subsection}{\numberline {136.1}Variables}{362}{subsection.136.1}
\contentsline {subsection}{\numberline {136.2}Class address\_graves}{362}{subsection.136.2}
\contentsline {subsubsection}{\numberline {136.2.1}Methods}{362}{subsubsection.136.2.1}
\contentsline {section}{\numberline {137}Module cuon.Graves.grave}{364}{section.137}
\contentsline {subsection}{\numberline {137.1}Variables}{364}{subsection.137.1}
\contentsline {subsection}{\numberline {137.2}Class graveswindow}{365}{subsection.137.2}
\contentsline {subsubsection}{\numberline {137.2.1}Methods}{366}{subsubsection.137.2.1}
\contentsline {section}{\numberline {138}Module cuon.Graves.graveyard}{372}{section.138}
\contentsline {subsection}{\numberline {138.1}Variables}{372}{subsection.138.1}
\contentsline {subsection}{\numberline {138.2}Class graveyardMainwindow}{372}{subsection.138.2}
\contentsline {subsubsection}{\numberline {138.2.1}Methods}{372}{subsubsection.138.2.1}
\contentsline {section}{\numberline {139}Module cuon.Graves.plant\_lists}{376}{section.139}
\contentsline {subsection}{\numberline {139.1}Variables}{376}{subsection.139.1}
\contentsline {subsection}{\numberline {139.2}Class plantlists}{376}{subsection.139.2}
\contentsline {subsubsection}{\numberline {139.2.1}Methods}{376}{subsubsection.139.2.1}
\contentsline {section}{\numberline {140}Package cuon.Help}{379}{section.140}
\contentsline {subsection}{\numberline {140.1}Modules}{379}{subsection.140.1}
\contentsline {subsection}{\numberline {140.2}Variables}{379}{subsection.140.2}
\contentsline {section}{\numberline {141}Module cuon.Help.help}{380}{section.141}
\contentsline {subsection}{\numberline {141.1}Variables}{380}{subsection.141.1}
\contentsline {subsection}{\numberline {141.2}Class helpwindow}{380}{subsection.141.2}
\contentsline {subsubsection}{\numberline {141.2.1}Methods}{380}{subsubsection.141.2.1}
\contentsline {section}{\numberline {142}Package cuon.Leasing}{383}{section.142}
\contentsline {subsection}{\numberline {142.1}Modules}{383}{subsection.142.1}
\contentsline {subsection}{\numberline {142.2}Variables}{383}{subsection.142.2}
\contentsline {section}{\numberline {143}Module cuon.Leasing.SingleLeasing}{384}{section.143}
\contentsline {subsection}{\numberline {143.1}Variables}{384}{subsection.143.1}
\contentsline {subsection}{\numberline {143.2}Class SingleLeasing}{384}{subsection.143.2}
\contentsline {subsubsection}{\numberline {143.2.1}Methods}{384}{subsubsection.143.2.1}
\contentsline {section}{\numberline {144}Module cuon.Leasing.leasing}{386}{section.144}
\contentsline {subsection}{\numberline {144.1}Variables}{386}{subsection.144.1}
\contentsline {subsection}{\numberline {144.2}Class leasingwindow}{386}{subsection.144.2}
\contentsline {subsubsection}{\numberline {144.2.1}Methods}{386}{subsubsection.144.2.1}
\contentsline {section}{\numberline {145}Package cuon.Logging}{392}{section.145}
\contentsline {subsection}{\numberline {145.1}Modules}{392}{subsection.145.1}
\contentsline {section}{\numberline {146}Module cuon.Logging.logs}{393}{section.146}
\contentsline {subsection}{\numberline {146.1}Variables}{393}{subsection.146.1}
\contentsline {subsection}{\numberline {146.2}Class logs}{393}{subsection.146.2}
\contentsline {subsubsection}{\numberline {146.2.1}Methods}{393}{subsubsection.146.2.1}
\contentsline {section}{\numberline {147}Package cuon.Login}{394}{section.147}
\contentsline {subsection}{\numberline {147.1}Modules}{394}{subsection.147.1}
\contentsline {section}{\numberline {148}Module cuon.Login.login}{395}{section.148}
\contentsline {subsection}{\numberline {148.1}Variables}{395}{subsection.148.1}
\contentsline {subsection}{\numberline {148.2}Class loginwindow}{395}{subsection.148.2}
\contentsline {subsubsection}{\numberline {148.2.1}Methods}{395}{subsubsection.148.2.1}
\contentsline {section}{\numberline {149}Package cuon.Misc}{398}{section.149}
\contentsline {subsection}{\numberline {149.1}Modules}{398}{subsection.149.1}
\contentsline {subsection}{\numberline {149.2}Variables}{398}{subsection.149.2}
\contentsline {section}{\numberline {150}Module cuon.Misc.cuon\_dialog}{399}{section.150}
\contentsline {subsection}{\numberline {150.1}Variables}{399}{subsection.150.1}
\contentsline {subsection}{\numberline {150.2}Class cuon\_dialog}{399}{subsection.150.2}
\contentsline {subsubsection}{\numberline {150.2.1}Methods}{399}{subsubsection.150.2.1}
\contentsline {section}{\numberline {151}Module cuon.Misc.cuonlists}{400}{section.151}
\contentsline {subsection}{\numberline {151.1}Variables}{400}{subsection.151.1}
\contentsline {subsection}{\numberline {151.2}Class cuonlists}{400}{subsection.151.2}
\contentsline {subsubsection}{\numberline {151.2.1}Methods}{400}{subsubsection.151.2.1}
\contentsline {section}{\numberline {152}Module cuon.Misc.fileSelection}{403}{section.152}
\contentsline {subsection}{\numberline {152.1}Variables}{403}{subsection.152.1}
\contentsline {subsection}{\numberline {152.2}Class fileSelection}{403}{subsection.152.2}
\contentsline {subsubsection}{\numberline {152.2.1}Methods}{404}{subsubsection.152.2.1}
\contentsline {section}{\numberline {153}Module cuon.Misc.messages}{406}{section.153}
\contentsline {subsection}{\numberline {153.1}Variables}{406}{subsection.153.1}
\contentsline {subsection}{\numberline {153.2}Class messages}{406}{subsection.153.2}
\contentsline {subsubsection}{\numberline {153.2.1}Methods}{406}{subsubsection.153.2.1}
\contentsline {section}{\numberline {154}Module cuon.Misc.misc}{407}{section.154}
\contentsline {subsection}{\numberline {154.1}Variables}{407}{subsection.154.1}
\contentsline {subsection}{\numberline {154.2}Class misc}{407}{subsection.154.2}
\contentsline {subsubsection}{\numberline {154.2.1}Methods}{407}{subsubsection.154.2.1}
\contentsline {subsection}{\numberline {154.3}Class sendAsEmail}{407}{subsection.154.3}
\contentsline {subsubsection}{\numberline {154.3.1}Methods}{407}{subsubsection.154.3.1}
\contentsline {subsection}{\numberline {154.4}Class Treeview}{407}{subsection.154.4}
\contentsline {subsubsection}{\numberline {154.4.1}Methods}{407}{subsubsection.154.4.1}
\contentsline {section}{\numberline {155}Package cuon.OpenOffice}{408}{section.155}
\contentsline {subsection}{\numberline {155.1}Modules}{408}{subsection.155.1}
\contentsline {subsection}{\numberline {155.2}Variables}{408}{subsection.155.2}
\contentsline {section}{\numberline {156}Module cuon.OpenOffice.letter}{409}{section.156}
\contentsline {subsection}{\numberline {156.1}Class letter}{409}{subsection.156.1}
\contentsline {subsubsection}{\numberline {156.1.1}Methods}{409}{subsubsection.156.1.1}
\contentsline {section}{\numberline {157}Module cuon.OpenOffice.ooMain}{410}{section.157}
\contentsline {subsection}{\numberline {157.1}Variables}{410}{subsection.157.1}
\contentsline {section}{\numberline {158}Module cuon.OpenOffice.ooconnect}{411}{section.158}
\contentsline {subsection}{\numberline {158.1}Class ooconnect}{411}{subsection.158.1}
\contentsline {subsubsection}{\numberline {158.1.1}Methods}{411}{subsubsection.158.1.1}
\contentsline {section}{\numberline {159}Package cuon.Order}{412}{section.159}
\contentsline {subsection}{\numberline {159.1}Modules}{412}{subsection.159.1}
\contentsline {subsection}{\numberline {159.2}Variables}{412}{subsection.159.2}
\contentsline {section}{\numberline {160}Module cuon.Order.SingleOrder}{413}{section.160}
\contentsline {subsection}{\numberline {160.1}Variables}{413}{subsection.160.1}
\contentsline {subsection}{\numberline {160.2}Class SingleOrder}{413}{subsection.160.2}
\contentsline {subsubsection}{\numberline {160.2.1}Methods}{413}{subsubsection.160.2.1}
\contentsline {section}{\numberline {161}Module cuon.Order.SingleOrderGet}{416}{section.161}
\contentsline {subsection}{\numberline {161.1}Variables}{416}{subsection.161.1}
\contentsline {subsection}{\numberline {161.2}Class SingleOrderGet}{416}{subsection.161.2}
\contentsline {subsubsection}{\numberline {161.2.1}Methods}{416}{subsubsection.161.2.1}
\contentsline {section}{\numberline {162}Module cuon.Order.SingleOrderInvoice}{419}{section.162}
\contentsline {subsection}{\numberline {162.1}Variables}{419}{subsection.162.1}
\contentsline {subsection}{\numberline {162.2}Class SingleOrderInvoice}{419}{subsection.162.2}
\contentsline {subsubsection}{\numberline {162.2.1}Methods}{419}{subsubsection.162.2.1}
\contentsline {section}{\numberline {163}Module cuon.Order.SingleOrderMisc}{421}{section.163}
\contentsline {subsection}{\numberline {163.1}Variables}{421}{subsection.163.1}
\contentsline {subsection}{\numberline {163.2}Class SingleOrderMisc}{421}{subsection.163.2}
\contentsline {subsubsection}{\numberline {163.2.1}Methods}{421}{subsubsection.163.2.1}
\contentsline {section}{\numberline {164}Module cuon.Order.SingleOrderPayment}{423}{section.164}
\contentsline {subsection}{\numberline {164.1}Variables}{423}{subsection.164.1}
\contentsline {subsection}{\numberline {164.2}Class SingleOrderPayment}{423}{subsection.164.2}
\contentsline {subsubsection}{\numberline {164.2.1}Methods}{423}{subsubsection.164.2.1}
\contentsline {section}{\numberline {165}Module cuon.Order.SingleOrderPosition}{425}{section.165}
\contentsline {subsection}{\numberline {165.1}Variables}{425}{subsection.165.1}
\contentsline {subsection}{\numberline {165.2}Class SingleOrderPosition}{425}{subsection.165.2}
\contentsline {subsubsection}{\numberline {165.2.1}Methods}{425}{subsubsection.165.2.1}
\contentsline {section}{\numberline {166}Module cuon.Order.SingleOrderSupply}{427}{section.166}
\contentsline {subsection}{\numberline {166.1}Variables}{427}{subsection.166.1}
\contentsline {subsection}{\numberline {166.2}Class SingleOrderSupply}{427}{subsection.166.2}
\contentsline {subsubsection}{\numberline {166.2.1}Methods}{427}{subsubsection.166.2.1}
\contentsline {section}{\numberline {167}Module cuon.Order.order}{429}{section.167}
\contentsline {subsection}{\numberline {167.1}Variables}{429}{subsection.167.1}
\contentsline {subsection}{\numberline {167.2}Class orderwindow}{430}{subsection.167.2}
\contentsline {subsubsection}{\numberline {167.2.1}Methods}{431}{subsubsection.167.2.1}
\contentsline {section}{\numberline {168}Module cuon.Order.standard\_bill}{438}{section.168}
\contentsline {subsection}{\numberline {168.1}Variables}{438}{subsection.168.1}
\contentsline {subsection}{\numberline {168.2}Class standard\_bill}{438}{subsection.168.2}
\contentsline {subsubsection}{\numberline {168.2.1}Methods}{438}{subsubsection.168.2.1}
\contentsline {section}{\numberline {169}Module cuon.Order.standard\_delivery\_note}{439}{section.169}
\contentsline {subsection}{\numberline {169.1}Variables}{439}{subsection.169.1}
\contentsline {subsection}{\numberline {169.2}Class standard\_delivery\_note}{439}{subsection.169.2}
\contentsline {subsubsection}{\numberline {169.2.1}Methods}{439}{subsubsection.169.2.1}
\contentsline {section}{\numberline {170}Module cuon.Order.standard\_invoice}{440}{section.170}
\contentsline {subsection}{\numberline {170.1}Variables}{440}{subsection.170.1}
\contentsline {subsection}{\numberline {170.2}Class standard\_invoice}{440}{subsection.170.2}
\contentsline {subsubsection}{\numberline {170.2.1}Methods}{440}{subsubsection.170.2.1}
\contentsline {section}{\numberline {171}Module cuon.Order.standard\_pickup\_note}{441}{section.171}
\contentsline {subsection}{\numberline {171.1}Variables}{441}{subsection.171.1}
\contentsline {subsection}{\numberline {171.2}Class standard\_pickup\_note}{441}{subsection.171.2}
\contentsline {subsubsection}{\numberline {171.2.1}Methods}{441}{subsubsection.171.2.1}
\contentsline {section}{\numberline {172}Package cuon.Preferences}{442}{section.172}
\contentsline {subsection}{\numberline {172.1}Modules}{442}{subsection.172.1}
\contentsline {subsection}{\numberline {172.2}Variables}{442}{subsection.172.2}
\contentsline {section}{\numberline {173}Module cuon.Preferences.SinglePreferences}{443}{section.173}
\contentsline {subsection}{\numberline {173.1}Variables}{443}{subsection.173.1}
\contentsline {subsection}{\numberline {173.2}Class SinglePreferences}{443}{subsection.173.2}
\contentsline {subsubsection}{\numberline {173.2.1}Methods}{443}{subsubsection.173.2.1}
\contentsline {section}{\numberline {174}Module cuon.Preferences.preferences}{445}{section.174}
\contentsline {subsection}{\numberline {174.1}Variables}{445}{subsection.174.1}
\contentsline {subsection}{\numberline {174.2}Class preferenceswindow}{445}{subsection.174.2}
\contentsline {subsubsection}{\numberline {174.2.1}Methods}{445}{subsubsection.174.2.1}
\contentsline {section}{\numberline {175}Package cuon.PrefsFinance}{449}{section.175}
\contentsline {subsection}{\numberline {175.1}Modules}{449}{subsection.175.1}
\contentsline {subsection}{\numberline {175.2}Variables}{449}{subsection.175.2}
\contentsline {section}{\numberline {176}Module cuon.PrefsFinance.SinglePrefsFinanceTop}{450}{section.176}
\contentsline {subsection}{\numberline {176.1}Variables}{450}{subsection.176.1}
\contentsline {subsection}{\numberline {176.2}Class SinglePrefsFinanceTop}{450}{subsection.176.2}
\contentsline {subsubsection}{\numberline {176.2.1}Methods}{450}{subsubsection.176.2.1}
\contentsline {section}{\numberline {177}Module cuon.PrefsFinance.SinglePrefsFinanceVat}{452}{section.177}
\contentsline {subsection}{\numberline {177.1}Variables}{452}{subsection.177.1}
\contentsline {subsection}{\numberline {177.2}Class SinglePrefsFinanceVat}{452}{subsection.177.2}
\contentsline {subsubsection}{\numberline {177.2.1}Methods}{452}{subsubsection.177.2.1}
\contentsline {section}{\numberline {178}Module cuon.PrefsFinance.prefsFinance}{454}{section.178}
\contentsline {subsection}{\numberline {178.1}Variables}{454}{subsection.178.1}
\contentsline {subsection}{\numberline {178.2}Class prefsFinancewindow}{454}{subsection.178.2}
\contentsline {subsubsection}{\numberline {178.2.1}Methods}{454}{subsubsection.178.2.1}
\contentsline {section}{\numberline {179}Package cuon.Project}{458}{section.179}
\contentsline {subsection}{\numberline {179.1}Modules}{458}{subsection.179.1}
\contentsline {subsection}{\numberline {179.2}Variables}{458}{subsection.179.2}
\contentsline {section}{\numberline {180}Module cuon.Project.SingleProject}{459}{section.180}
\contentsline {subsection}{\numberline {180.1}Variables}{459}{subsection.180.1}
\contentsline {subsection}{\numberline {180.2}Class SingleProject}{459}{subsection.180.2}
\contentsline {subsubsection}{\numberline {180.2.1}Methods}{459}{subsubsection.180.2.1}
\contentsline {section}{\numberline {181}Module cuon.Project.SingleProjectMaterialResources}{461}{section.181}
\contentsline {subsection}{\numberline {181.1}Variables}{461}{subsection.181.1}
\contentsline {subsection}{\numberline {181.2}Class SingleProjectMaterialResources}{461}{subsection.181.2}
\contentsline {subsubsection}{\numberline {181.2.1}Methods}{461}{subsubsection.181.2.1}
\contentsline {section}{\numberline {182}Module cuon.Project.SingleProjectPhases}{463}{section.182}
\contentsline {subsection}{\numberline {182.1}Variables}{463}{subsection.182.1}
\contentsline {subsection}{\numberline {182.2}Class SingleProjectPhases}{463}{subsection.182.2}
\contentsline {subsubsection}{\numberline {182.2.1}Methods}{463}{subsubsection.182.2.1}
\contentsline {section}{\numberline {183}Module cuon.Project.SingleProjectProgramming}{465}{section.183}
\contentsline {subsection}{\numberline {183.1}Variables}{465}{subsection.183.1}
\contentsline {subsection}{\numberline {183.2}Class SingleProjectProgramming}{465}{subsection.183.2}
\contentsline {subsubsection}{\numberline {183.2.1}Methods}{465}{subsubsection.183.2.1}
\contentsline {section}{\numberline {184}Module cuon.Project.SingleProjectStaffResources}{467}{section.184}
\contentsline {subsection}{\numberline {184.1}Variables}{467}{subsection.184.1}
\contentsline {subsection}{\numberline {184.2}Class SingleProjectStaffResources}{467}{subsection.184.2}
\contentsline {subsubsection}{\numberline {184.2.1}Methods}{467}{subsubsection.184.2.1}
\contentsline {section}{\numberline {185}Module cuon.Project.SingleProjectTasks}{469}{section.185}
\contentsline {subsection}{\numberline {185.1}Variables}{469}{subsection.185.1}
\contentsline {subsection}{\numberline {185.2}Class SingleProjectTasks}{469}{subsection.185.2}
\contentsline {subsubsection}{\numberline {185.2.1}Methods}{469}{subsubsection.185.2.1}
\contentsline {section}{\numberline {186}Module cuon.Project.project}{471}{section.186}
\contentsline {subsection}{\numberline {186.1}Variables}{471}{subsection.186.1}
\contentsline {subsection}{\numberline {186.2}Class projectwindow}{471}{subsection.186.2}
\contentsline {subsubsection}{\numberline {186.2.1}Methods}{471}{subsubsection.186.2.1}
\contentsline {section}{\numberline {187}Package cuon.Proposal}{478}{section.187}
\contentsline {subsection}{\numberline {187.1}Modules}{478}{subsection.187.1}
\contentsline {subsection}{\numberline {187.2}Variables}{478}{subsection.187.2}
\contentsline {section}{\numberline {188}Module cuon.Proposal.SingleProposal}{479}{section.188}
\contentsline {subsection}{\numberline {188.1}Variables}{479}{subsection.188.1}
\contentsline {subsection}{\numberline {188.2}Class SingleProposal}{479}{subsection.188.2}
\contentsline {subsubsection}{\numberline {188.2.1}Methods}{479}{subsubsection.188.2.1}
\contentsline {section}{\numberline {189}Module cuon.Proposal.SingleProposalGet}{482}{section.189}
\contentsline {subsection}{\numberline {189.1}Variables}{482}{subsection.189.1}
\contentsline {subsection}{\numberline {189.2}Class SingleProposalGet}{482}{subsection.189.2}
\contentsline {subsubsection}{\numberline {189.2.1}Methods}{482}{subsubsection.189.2.1}
\contentsline {section}{\numberline {190}Module cuon.Proposal.SingleProposalInvoice}{485}{section.190}
\contentsline {subsection}{\numberline {190.1}Variables}{485}{subsection.190.1}
\contentsline {subsection}{\numberline {190.2}Class SingleProposalInvoice}{485}{subsection.190.2}
\contentsline {subsubsection}{\numberline {190.2.1}Methods}{485}{subsubsection.190.2.1}
\contentsline {section}{\numberline {191}Module cuon.Proposal.SingleProposalMisc}{487}{section.191}
\contentsline {subsection}{\numberline {191.1}Variables}{487}{subsection.191.1}
\contentsline {subsection}{\numberline {191.2}Class SingleProposalMisc}{487}{subsection.191.2}
\contentsline {subsubsection}{\numberline {191.2.1}Methods}{487}{subsubsection.191.2.1}
\contentsline {section}{\numberline {192}Module cuon.Proposal.SingleProposalPayment}{489}{section.192}
\contentsline {subsection}{\numberline {192.1}Variables}{489}{subsection.192.1}
\contentsline {subsection}{\numberline {192.2}Class SingleProposalPayment}{489}{subsection.192.2}
\contentsline {subsubsection}{\numberline {192.2.1}Methods}{489}{subsubsection.192.2.1}
\contentsline {section}{\numberline {193}Module cuon.Proposal.SingleProposalPosition}{491}{section.193}
\contentsline {subsection}{\numberline {193.1}Variables}{491}{subsection.193.1}
\contentsline {subsection}{\numberline {193.2}Class SingleProposalPosition}{491}{subsection.193.2}
\contentsline {subsubsection}{\numberline {193.2.1}Methods}{491}{subsubsection.193.2.1}
\contentsline {section}{\numberline {194}Module cuon.Proposal.SingleProposalSupply}{493}{section.194}
\contentsline {subsection}{\numberline {194.1}Variables}{493}{subsection.194.1}
\contentsline {subsection}{\numberline {194.2}Class SingleProposalSupply}{493}{subsection.194.2}
\contentsline {subsubsection}{\numberline {194.2.1}Methods}{493}{subsubsection.194.2.1}
\contentsline {section}{\numberline {195}Module cuon.Proposal.proposal}{495}{section.195}
\contentsline {subsection}{\numberline {195.1}Variables}{495}{subsection.195.1}
\contentsline {subsection}{\numberline {195.2}Class proposalwindow}{496}{subsection.195.2}
\contentsline {subsubsection}{\numberline {195.2.1}Methods}{497}{subsubsection.195.2.1}
\contentsline {section}{\numberline {196}Package cuon.ReportBuilder}{502}{section.196}
\contentsline {subsection}{\numberline {196.1}Modules}{502}{subsection.196.1}
\contentsline {subsection}{\numberline {196.2}Variables}{502}{subsection.196.2}
\contentsline {section}{\numberline {197}Module cuon.ReportBuilder.drawingReport}{503}{section.197}
\contentsline {subsection}{\numberline {197.1}Variables}{503}{subsection.197.1}
\contentsline {subsection}{\numberline {197.2}Class drawingReport}{503}{subsection.197.2}
\contentsline {subsubsection}{\numberline {197.2.1}Methods}{503}{subsubsection.197.2.1}
\contentsline {section}{\numberline {198}Module cuon.ReportBuilder.modifyEntry}{506}{section.198}
\contentsline {subsection}{\numberline {198.1}Variables}{506}{subsection.198.1}
\contentsline {subsection}{\numberline {198.2}Class modifyEntryWindow}{506}{subsection.198.2}
\contentsline {subsubsection}{\numberline {198.2.1}Methods}{506}{subsubsection.198.2.1}
\contentsline {section}{\numberline {199}Module cuon.ReportBuilder.report}{509}{section.199}
\contentsline {subsection}{\numberline {199.1}Variables}{509}{subsection.199.1}
\contentsline {subsection}{\numberline {199.2}Class report}{509}{subsection.199.2}
\contentsline {subsubsection}{\numberline {199.2.1}Methods}{509}{subsubsection.199.2.1}
\contentsline {section}{\numberline {200}Module cuon.ReportBuilder.reportbuilder}{513}{section.200}
\contentsline {subsection}{\numberline {200.1}Variables}{513}{subsection.200.1}
\contentsline {subsection}{\numberline {200.2}Class reportbuilderwindow}{513}{subsection.200.2}
\contentsline {subsubsection}{\numberline {200.2.1}Methods}{514}{subsubsection.200.2.1}
\contentsline {section}{\numberline {201}Package cuon.SQL\_Shell}{518}{section.201}
\contentsline {subsection}{\numberline {201.1}Modules}{518}{subsection.201.1}
\contentsline {subsection}{\numberline {201.2}Variables}{518}{subsection.201.2}
\contentsline {section}{\numberline {202}Module cuon.SQL\_Shell.sql\_shell}{519}{section.202}
\contentsline {subsection}{\numberline {202.1}Variables}{519}{subsection.202.1}
\contentsline {subsection}{\numberline {202.2}Class sql\_shell}{519}{subsection.202.2}
\contentsline {subsubsection}{\numberline {202.2.1}Methods}{519}{subsubsection.202.2.1}
\contentsline {section}{\numberline {203}Package cuon.Skeleton}{522}{section.203}
\contentsline {subsection}{\numberline {203.1}Modules}{522}{subsection.203.1}
\contentsline {subsection}{\numberline {203.2}Variables}{522}{subsection.203.2}
\contentsline {section}{\numberline {204}Module cuon.Skeleton.SingleSkeleton}{523}{section.204}
\contentsline {subsection}{\numberline {204.1}Variables}{523}{subsection.204.1}
\contentsline {subsection}{\numberline {204.2}Class SingleClient}{523}{subsection.204.2}
\contentsline {subsubsection}{\numberline {204.2.1}Methods}{523}{subsubsection.204.2.1}
\contentsline {section}{\numberline {205}Module cuon.Skeleton.skeleton}{525}{section.205}
\contentsline {subsection}{\numberline {205.1}Variables}{525}{subsection.205.1}
\contentsline {subsection}{\numberline {205.2}Class clientswindow}{525}{subsection.205.2}
\contentsline {subsubsection}{\numberline {205.2.1}Methods}{525}{subsubsection.205.2.1}
\contentsline {section}{\numberline {206}Package cuon.Staff}{529}{section.206}
\contentsline {subsection}{\numberline {206.1}Modules}{529}{subsection.206.1}
\contentsline {subsection}{\numberline {206.2}Variables}{529}{subsection.206.2}
\contentsline {section}{\numberline {207}Module cuon.Staff.SingleStaff}{530}{section.207}
\contentsline {subsection}{\numberline {207.1}Variables}{530}{subsection.207.1}
\contentsline {subsection}{\numberline {207.2}Class SingleStaff}{530}{subsection.207.2}
\contentsline {subsubsection}{\numberline {207.2.1}Methods}{530}{subsubsection.207.2.1}
\contentsline {section}{\numberline {208}Module cuon.Staff.SingleStaffDisease}{532}{section.208}
\contentsline {subsection}{\numberline {208.1}Variables}{532}{subsection.208.1}
\contentsline {subsection}{\numberline {208.2}Class SingleStaffDisease}{532}{subsection.208.2}
\contentsline {subsubsection}{\numberline {208.2.1}Methods}{532}{subsubsection.208.2.1}
\contentsline {section}{\numberline {209}Module cuon.Staff.SingleStaffFee}{534}{section.209}
\contentsline {subsection}{\numberline {209.1}Variables}{534}{subsection.209.1}
\contentsline {subsection}{\numberline {209.2}Class SingleStaffFee}{534}{subsection.209.2}
\contentsline {subsubsection}{\numberline {209.2.1}Methods}{534}{subsubsection.209.2.1}
\contentsline {section}{\numberline {210}Module cuon.Staff.SingleStaffMisc}{536}{section.210}
\contentsline {subsection}{\numberline {210.1}Variables}{536}{subsection.210.1}
\contentsline {subsection}{\numberline {210.2}Class SingleStaffMisc}{536}{subsection.210.2}
\contentsline {subsubsection}{\numberline {210.2.1}Methods}{536}{subsubsection.210.2.1}
\contentsline {section}{\numberline {211}Module cuon.Staff.SingleStaffVacation}{538}{section.211}
\contentsline {subsection}{\numberline {211.1}Variables}{538}{subsection.211.1}
\contentsline {subsection}{\numberline {211.2}Class SingleStaffVacation}{538}{subsection.211.2}
\contentsline {subsubsection}{\numberline {211.2.1}Methods}{538}{subsubsection.211.2.1}
\contentsline {section}{\numberline {212}Module cuon.Staff.staff}{540}{section.212}
\contentsline {subsection}{\numberline {212.1}Variables}{540}{subsection.212.1}
\contentsline {subsection}{\numberline {212.2}Class staffwindow}{540}{subsection.212.2}
\contentsline {subsubsection}{\numberline {212.2.1}Methods}{540}{subsubsection.212.2.1}
\contentsline {section}{\numberline {213}Package cuon.Stats}{545}{section.213}
\contentsline {subsection}{\numberline {213.1}Modules}{545}{subsection.213.1}
\contentsline {subsection}{\numberline {213.2}Variables}{545}{subsection.213.2}
\contentsline {section}{\numberline {214}Module cuon.Stats.stats}{546}{section.214}
\contentsline {subsection}{\numberline {214.1}Variables}{546}{subsection.214.1}
\contentsline {subsection}{\numberline {214.2}Class statswindow}{546}{subsection.214.2}
\contentsline {subsubsection}{\numberline {214.2.1}Methods}{546}{subsubsection.214.2.1}
\contentsline {section}{\numberline {215}Package cuon.Stock}{549}{section.215}
\contentsline {subsection}{\numberline {215.1}Modules}{549}{subsection.215.1}
\contentsline {subsection}{\numberline {215.2}Variables}{549}{subsection.215.2}
\contentsline {section}{\numberline {216}Module cuon.Stock.SingleStock}{550}{section.216}
\contentsline {subsection}{\numberline {216.1}Variables}{550}{subsection.216.1}
\contentsline {subsection}{\numberline {216.2}Class SingleStock}{550}{subsection.216.2}
\contentsline {subsubsection}{\numberline {216.2.1}Methods}{550}{subsubsection.216.2.1}
\contentsline {section}{\numberline {217}Module cuon.Stock.SingleStockGoods}{552}{section.217}
\contentsline {subsection}{\numberline {217.1}Variables}{552}{subsection.217.1}
\contentsline {subsection}{\numberline {217.2}Class SingleStockGoods}{552}{subsection.217.2}
\contentsline {subsubsection}{\numberline {217.2.1}Methods}{552}{subsubsection.217.2.1}
\contentsline {section}{\numberline {218}Module cuon.Stock.lists\_stockgoods\_number1}{554}{section.218}
\contentsline {subsection}{\numberline {218.1}Variables}{554}{subsection.218.1}
\contentsline {subsection}{\numberline {218.2}Class lists\_stockgoods\_number1}{554}{subsection.218.2}
\contentsline {subsubsection}{\numberline {218.2.1}Methods}{554}{subsubsection.218.2.1}
\contentsline {section}{\numberline {219}Module cuon.Stock.stock}{555}{section.219}
\contentsline {subsection}{\numberline {219.1}Variables}{555}{subsection.219.1}
\contentsline {subsection}{\numberline {219.2}Class stockwindow}{555}{subsection.219.2}
\contentsline {subsubsection}{\numberline {219.2.1}Methods}{556}{subsubsection.219.2.1}
\contentsline {section}{\numberline {220}Package cuon.SupportTicket}{559}{section.220}
\contentsline {subsection}{\numberline {220.1}Modules}{559}{subsection.220.1}
\contentsline {subsection}{\numberline {220.2}Variables}{559}{subsection.220.2}
\contentsline {section}{\numberline {221}Module cuon.SupportTicket.SingleSupportProject}{560}{section.221}
\contentsline {subsection}{\numberline {221.1}Variables}{560}{subsection.221.1}
\contentsline {subsection}{\numberline {221.2}Class SingleSupportProject}{560}{subsection.221.2}
\contentsline {subsubsection}{\numberline {221.2.1}Methods}{560}{subsubsection.221.2.1}
\contentsline {section}{\numberline {222}Module cuon.SupportTicket.SingleSupportTicket}{562}{section.222}
\contentsline {subsection}{\numberline {222.1}Variables}{562}{subsection.222.1}
\contentsline {subsection}{\numberline {222.2}Class SingleSupportTicket}{562}{subsection.222.2}
\contentsline {subsubsection}{\numberline {222.2.1}Methods}{562}{subsubsection.222.2.1}
\contentsline {section}{\numberline {223}Module cuon.SupportTicket.supportTicket}{564}{section.223}
\contentsline {subsection}{\numberline {223.1}Variables}{564}{subsection.223.1}
\contentsline {subsection}{\numberline {223.2}Class supportticketwindow}{564}{subsection.223.2}
\contentsline {subsubsection}{\numberline {223.2.1}Methods}{564}{subsubsection.223.2.1}
\contentsline {section}{\numberline {224}Package cuon.Think}{568}{section.224}
\contentsline {subsection}{\numberline {224.1}Modules}{568}{subsection.224.1}
\contentsline {subsection}{\numberline {224.2}Variables}{568}{subsection.224.2}
\contentsline {section}{\numberline {225}Module cuon.Think.SingleMindmap}{569}{section.225}
\contentsline {subsection}{\numberline {225.1}Variables}{569}{subsection.225.1}
\contentsline {subsection}{\numberline {225.2}Class SingleMindmap}{569}{subsection.225.2}
\contentsline {subsubsection}{\numberline {225.2.1}Methods}{569}{subsubsection.225.2.1}
\contentsline {section}{\numberline {226}Module cuon.Think.SingleThink}{571}{section.226}
\contentsline {subsection}{\numberline {226.1}Variables}{571}{subsection.226.1}
\contentsline {subsection}{\numberline {226.2}Class SingleThink}{571}{subsection.226.2}
\contentsline {subsubsection}{\numberline {226.2.1}Methods}{571}{subsubsection.226.2.1}
\contentsline {section}{\numberline {227}Module cuon.Think.think}{573}{section.227}
\contentsline {subsection}{\numberline {227.1}Variables}{573}{subsection.227.1}
\contentsline {subsection}{\numberline {227.2}Class thinkwindow}{573}{subsection.227.2}
\contentsline {subsubsection}{\numberline {227.2.1}Methods}{573}{subsubsection.227.2.1}
\contentsline {section}{\numberline {228}Package cuon.TypeDefs}{577}{section.228}
\contentsline {subsection}{\numberline {228.1}Modules}{577}{subsection.228.1}
\contentsline {section}{\numberline {229}Module cuon.TypeDefs.constants}{578}{section.229}
\contentsline {subsection}{\numberline {229.1}Variables}{578}{subsection.229.1}
\contentsline {subsection}{\numberline {229.2}Class constants}{578}{subsection.229.2}
\contentsline {subsubsection}{\numberline {229.2.1}Methods}{578}{subsubsection.229.2.1}
\contentsline {section}{\numberline {230}Module cuon.TypeDefs.defaultValues}{579}{section.230}
\contentsline {subsection}{\numberline {230.1}Variables}{579}{subsection.230.1}
\contentsline {subsection}{\numberline {230.2}Class defaultValues}{579}{subsection.230.2}
\contentsline {subsubsection}{\numberline {230.2.1}Methods}{579}{subsubsection.230.2.1}
\contentsline {section}{\numberline {231}Module cuon.TypeDefs.typedefs}{580}{section.231}
\contentsline {subsection}{\numberline {231.1}Variables}{580}{subsection.231.1}
\contentsline {subsection}{\numberline {231.2}Class typedefs}{580}{subsection.231.2}
\contentsline {subsubsection}{\numberline {231.2.1}Methods}{580}{subsubsection.231.2.1}
\contentsline {section}{\numberline {232}Module cuon.TypeDefs.typedefs\_server}{581}{section.232}
\contentsline {subsection}{\numberline {232.1}Variables}{581}{subsection.232.1}
\contentsline {subsection}{\numberline {232.2}Class typedefs\_server}{581}{subsection.232.2}
\contentsline {subsubsection}{\numberline {232.2.1}Methods}{581}{subsubsection.232.2.1}
\contentsline {section}{\numberline {233}Package cuon.User}{582}{section.233}
\contentsline {subsection}{\numberline {233.1}Modules}{582}{subsection.233.1}
\contentsline {subsection}{\numberline {233.2}Variables}{582}{subsection.233.2}
\contentsline {section}{\numberline {234}Module cuon.User.user}{583}{section.234}
\contentsline {subsection}{\numberline {234.1}Variables}{583}{subsection.234.1}
\contentsline {subsection}{\numberline {234.2}Class User}{583}{subsection.234.2}
\contentsline {subsubsection}{\numberline {234.2.1}Methods}{583}{subsubsection.234.2.1}
\contentsline {section}{\numberline {235}Package cuon.VTK}{586}{section.235}
\contentsline {subsection}{\numberline {235.1}Modules}{586}{subsection.235.1}
\contentsline {subsection}{\numberline {235.2}Variables}{586}{subsection.235.2}
\contentsline {section}{\numberline {236}Module cuon.VTK.mainLogo}{587}{section.236}
\contentsline {subsection}{\numberline {236.1}Variables}{587}{subsection.236.1}
\contentsline {section}{\numberline {237}Module cuon.VTK.test}{588}{section.237}
\contentsline {subsection}{\numberline {237.1}Variables}{588}{subsection.237.1}
\contentsline {subsection}{\numberline {237.2}Class test}{588}{subsection.237.2}
\contentsline {subsubsection}{\numberline {237.2.1}Methods}{588}{subsubsection.237.2.1}
\contentsline {section}{\numberline {238}Package cuon.WebShop}{589}{section.238}
\contentsline {subsection}{\numberline {238.1}Modules}{589}{subsection.238.1}
\contentsline {subsection}{\numberline {238.2}Variables}{589}{subsection.238.2}
\contentsline {section}{\numberline {239}Module cuon.WebShop.SingleWebshop}{590}{section.239}
\contentsline {subsection}{\numberline {239.1}Variables}{590}{subsection.239.1}
\contentsline {subsection}{\numberline {239.2}Class SingleWebshop}{590}{subsection.239.2}
\contentsline {subsubsection}{\numberline {239.2.1}Methods}{590}{subsubsection.239.2.1}
\contentsline {section}{\numberline {240}Module cuon.WebShop.webshop}{592}{section.240}
\contentsline {subsection}{\numberline {240.1}Variables}{592}{subsection.240.1}
\contentsline {subsection}{\numberline {240.2}Class webshopwindow}{592}{subsection.240.2}
\contentsline {subsubsection}{\numberline {240.2.1}Methods}{592}{subsubsection.240.2.1}
\contentsline {section}{\numberline {241}Package cuon.Windows}{595}{section.241}
\contentsline {subsection}{\numberline {241.1}Modules}{595}{subsection.241.1}
\contentsline {section}{\numberline {242}Module cuon.Windows.chooseWindows}{596}{section.242}
\contentsline {subsection}{\numberline {242.1}Variables}{596}{subsection.242.1}
\contentsline {subsection}{\numberline {242.2}Class chooseWindows}{596}{subsection.242.2}
\contentsline {subsubsection}{\numberline {242.2.1}Methods}{597}{subsubsection.242.2.1}
\contentsline {section}{\numberline {243}Module cuon.Windows.cyr\_load\_entries}{599}{section.243}
\contentsline {subsection}{\numberline {243.1}Variables}{599}{subsection.243.1}
\contentsline {subsection}{\numberline {243.2}Class cyr\_load\_entries}{599}{subsection.243.2}
\contentsline {subsubsection}{\numberline {243.2.1}Methods}{599}{subsubsection.243.2.1}
\contentsline {section}{\numberline {244}Module cuon.Windows.dataEntry}{601}{section.244}
\contentsline {subsection}{\numberline {244.1}Variables}{601}{subsection.244.1}
\contentsline {subsection}{\numberline {244.2}Class dataEntry}{601}{subsection.244.2}
\contentsline {subsubsection}{\numberline {244.2.1}Methods}{601}{subsubsection.244.2.1}
\contentsline {section}{\numberline {245}Module cuon.Windows.gladeXml}{603}{section.245}
\contentsline {subsection}{\numberline {245.1}Variables}{603}{subsection.245.1}
\contentsline {subsection}{\numberline {245.2}Class gladeXml}{603}{subsection.245.2}
\contentsline {subsubsection}{\numberline {245.2.1}Methods}{603}{subsubsection.245.2.1}
\contentsline {section}{\numberline {246}Module cuon.Windows.rawWindow}{606}{section.246}
\contentsline {subsection}{\numberline {246.1}Variables}{606}{subsection.246.1}
\contentsline {subsection}{\numberline {246.2}Class rawWindow}{606}{subsection.246.2}
\contentsline {subsubsection}{\numberline {246.2.1}Methods}{606}{subsubsection.246.2.1}
\contentsline {section}{\numberline {247}Module cuon.Windows.setOfEntries}{608}{section.247}
\contentsline {subsection}{\numberline {247.1}Variables}{608}{subsection.247.1}
\contentsline {subsection}{\numberline {247.2}Class setOfEntries}{608}{subsection.247.2}
\contentsline {subsubsection}{\numberline {247.2.1}Methods}{608}{subsubsection.247.2.1}
\contentsline {section}{\numberline {248}Module cuon.Windows.windows}{609}{section.248}
\contentsline {subsection}{\numberline {248.1}Variables}{609}{subsection.248.1}
\contentsline {subsection}{\numberline {248.2}Class windows}{609}{subsection.248.2}
\contentsline {subsubsection}{\numberline {248.2.1}Methods}{609}{subsubsection.248.2.1}
\contentsline {section}{\numberline {249}Package cuon.XML}{615}{section.249}
\contentsline {subsection}{\numberline {249.1}Modules}{615}{subsection.249.1}
\contentsline {subsection}{\numberline {249.2}Variables}{615}{subsection.249.2}
\contentsline {section}{\numberline {250}Module cuon.XML.MyXML}{616}{section.250}
\contentsline {subsection}{\numberline {250.1}Variables}{616}{subsection.250.1}
\contentsline {subsection}{\numberline {250.2}Class MyXML}{616}{subsection.250.2}
\contentsline {subsubsection}{\numberline {250.2.1}Methods}{616}{subsubsection.250.2.1}
\contentsline {section}{\numberline {251}Package cuon.XMLRPC}{620}{section.251}
\contentsline {subsection}{\numberline {251.1}Modules}{620}{subsection.251.1}
\contentsline {section}{\numberline {252}Module cuon.XMLRPC.xmlrpc}{621}{section.252}
\contentsline {subsection}{\numberline {252.1}Variables}{621}{subsection.252.1}
\contentsline {subsection}{\numberline {252.2}Class myXmlRpc}{621}{subsection.252.2}
\contentsline {subsubsection}{\numberline {252.2.1}Methods}{621}{subsubsection.252.2.1}
\contentsline {section}{\numberline {253}Module cuon.cuon\_dia}{623}{section.253}
\contentsline {subsection}{\numberline {253.1}Functions}{623}{subsection.253.1}
\contentsline {subsection}{\numberline {253.2}Class MyXmlrpc}{623}{subsection.253.2}
\contentsline {subsubsection}{\numberline {253.2.1}Methods}{623}{subsubsection.253.2.1}
\contentsline {subsection}{\numberline {253.3}Class CuonDia}{623}{subsection.253.3}
\contentsline {subsubsection}{\numberline {253.3.1}Methods}{623}{subsubsection.253.3.1}
\contentsline {subsection}{\numberline {253.4}Class PropInfo}{623}{subsection.253.4}
\contentsline {subsubsection}{\numberline {253.4.1}Methods}{623}{subsubsection.253.4.1}
\contentsline {section}{\numberline {254}Module cuon.standardChart}{624}{section.254}
\contentsline {subsection}{\numberline {254.1}Variables}{624}{subsection.254.1}
\contentsline {subsection}{\numberline {254.2}Class chart}{624}{subsection.254.2}
\contentsline {subsubsection}{\numberline {254.2.1}Methods}{624}{subsubsection.254.2.1}
\contentsline {section}{\numberline {255}Module cuon.untar}{625}{section.255}
\contentsline {subsection}{\numberline {255.1}Variables}{625}{subsection.255.1}
\contentsline {section}{Index}{626}{section*.2}
