\relax 
\gdef \LT@xcv {\LT@entry 
    {1}{152.92793pt}\LT@entry 
    {1}{258.72162pt}\LT@entry 
    {1}{12.0pt}}
\@writefile{toc}{\contentsline {section}{\numberline {99}Package cuon.Finances.CashAccountBook}{274}{section.99}}
\newlabel{cuon:Finances:CashAccountBook}{{99}{274}{Package cuon.Finances.CashAccountBook\relax }{section.99}{}}
\@writefile{toc}{\contentsline {subsection}{\numberline {99.1}Modules}{274}{subsection.99.1}}
\@writefile{toc}{\contentsline {subsection}{\numberline {99.2}Variables}{274}{subsection.99.2}}
\@setckpt{cuon.Finances.CashAccountBook-module}{
\setcounter{page}{275}
\setcounter{equation}{0}
\setcounter{enumi}{0}
\setcounter{enumii}{0}
\setcounter{enumiii}{0}
\setcounter{enumiv}{0}
\setcounter{footnote}{0}
\setcounter{mpfootnote}{0}
\setcounter{part}{0}
\setcounter{section}{99}
\setcounter{subsection}{2}
\setcounter{subsubsection}{0}
\setcounter{paragraph}{0}
\setcounter{subparagraph}{0}
\setcounter{figure}{0}
\setcounter{table}{95}
\setcounter{LT@tables}{95}
\setcounter{LT@chunks}{4}
\setcounter{Item}{0}
\setcounter{Hfootnote}{0}
\setcounter{bookmark@seq@number}{374}
\setcounter{section@level}{2}
}
