\relax 
\gdef \LT@xciv {\LT@entry 
    {1}{152.92793pt}\LT@entry 
    {1}{258.72162pt}\LT@entry 
    {1}{12.0pt}}
\@writefile{toc}{\contentsline {section}{\numberline {97}Package cuon.Finances.Bookkeeping}{269}{section.97}}
\newlabel{cuon:Finances:Bookkeeping}{{97}{269}{Package cuon.Finances.Bookkeeping\relax }{section.97}{}}
\@writefile{toc}{\contentsline {subsection}{\numberline {97.1}Modules}{269}{subsection.97.1}}
\@writefile{toc}{\contentsline {subsection}{\numberline {97.2}Variables}{269}{subsection.97.2}}
\@setckpt{cuon.Finances.Bookkeeping-module}{
\setcounter{page}{270}
\setcounter{equation}{0}
\setcounter{enumi}{0}
\setcounter{enumii}{0}
\setcounter{enumiii}{0}
\setcounter{enumiv}{0}
\setcounter{footnote}{0}
\setcounter{mpfootnote}{0}
\setcounter{part}{0}
\setcounter{section}{97}
\setcounter{subsection}{2}
\setcounter{subsubsection}{0}
\setcounter{paragraph}{0}
\setcounter{subparagraph}{0}
\setcounter{figure}{0}
\setcounter{table}{94}
\setcounter{LT@tables}{94}
\setcounter{LT@chunks}{4}
\setcounter{Item}{0}
\setcounter{Hfootnote}{0}
\setcounter{bookmark@seq@number}{368}
\setcounter{section@level}{2}
}
