\relax 
\gdef \LT@lxxxi {\LT@entry 
    {1}{152.92793pt}\LT@entry 
    {1}{258.72162pt}\LT@entry 
    {1}{12.0pt}}
\@writefile{toc}{\contentsline {section}{\numberline {84}Package cuon.Editor}{233}{section.84}}
\newlabel{cuon:Editor}{{84}{233}{Package cuon.Editor\relax }{section.84}{}}
\@writefile{toc}{\contentsline {subsection}{\numberline {84.1}Modules}{233}{subsection.84.1}}
\@writefile{toc}{\contentsline {subsection}{\numberline {84.2}Variables}{233}{subsection.84.2}}
\@setckpt{cuon.Editor-module}{
\setcounter{page}{234}
\setcounter{equation}{0}
\setcounter{enumi}{0}
\setcounter{enumii}{0}
\setcounter{enumiii}{0}
\setcounter{enumiv}{0}
\setcounter{footnote}{0}
\setcounter{mpfootnote}{0}
\setcounter{part}{0}
\setcounter{section}{84}
\setcounter{subsection}{2}
\setcounter{subsubsection}{0}
\setcounter{paragraph}{0}
\setcounter{subparagraph}{0}
\setcounter{figure}{0}
\setcounter{table}{81}
\setcounter{LT@tables}{81}
\setcounter{LT@chunks}{4}
\setcounter{Item}{0}
\setcounter{Hfootnote}{0}
\setcounter{bookmark@seq@number}{319}
\setcounter{section@level}{2}
}
