\relax 
\gdef \LT@cxxxiii {\LT@entry 
    {1}{152.92793pt}\LT@entry 
    {1}{258.72162pt}\LT@entry 
    {1}{12.0pt}}
\@writefile{toc}{\contentsline {section}{\numberline {138}Module cuon.Graves.graveyard}{372}{section.138}}
\newlabel{cuon:Graves:graveyard}{{138}{372}{Module cuon.Graves.graveyard\relax }{section.138}{}}
\@writefile{toc}{\contentsline {subsection}{\numberline {138.1}Variables}{372}{subsection.138.1}}
\@writefile{toc}{\contentsline {subsection}{\numberline {138.2}Class graveyardMainwindow}{372}{subsection.138.2}}
\newlabel{cuon:Graves:graveyard:graveyardMainwindow}{{138.2}{372}{Class graveyardMainwindow\relax }{subsection.138.2}{}}
\@writefile{toc}{\contentsline {subsubsection}{\numberline {138.2.1}Methods}{372}{subsubsection.138.2.1}}
\newlabel{cuon:Graves:graveyard:graveyardMainwindow:on_quit1_activate}{{138.2.1}{372}{Methods\relax }{subsubsection.138.2.1}{}}
\newlabel{cuon:Graves:graveyard:graveyardMainwindow:on_save1_activate}{{138.2.1}{373}{Methods\relax }{subsubsection.138.2.1}{}}
\newlabel{cuon:Graves:graveyard:graveyardMainwindow:on_new1_activate}{{138.2.1}{373}{Methods\relax }{subsubsection.138.2.1}{}}
\newlabel{cuon:Graves:graveyard:graveyardMainwindow:on_edit1_activate}{{138.2.1}{373}{Methods\relax }{subsubsection.138.2.1}{}}
\newlabel{cuon:Graves:graveyard:graveyardMainwindow:on_print1_activate}{{138.2.1}{373}{Methods\relax }{subsubsection.138.2.1}{}}
\newlabel{cuon:Graves:graveyard:graveyardMainwindow:on_delete1_activate}{{138.2.1}{373}{Methods\relax }{subsubsection.138.2.1}{}}
\newlabel{cuon:Graves:graveyard:graveyardMainwindow:on_NotesSave_activate}{{138.2.1}{373}{Methods\relax }{subsubsection.138.2.1}{}}
\newlabel{cuon:Graves:graveyard:graveyardMainwindow:on_NotesEdit1_activate}{{138.2.1}{373}{Methods\relax }{subsubsection.138.2.1}{}}
\newlabel{cuon:Graves:graveyard:graveyardMainwindow:on_bSearchTaxVat_clicked}{{138.2.1}{373}{Methods\relax }{subsubsection.138.2.1}{}}
\newlabel{cuon:Graves:graveyard:graveyardMainwindow:on_eAdressID_changed}{{138.2.1}{373}{Methods\relax }{subsubsection.138.2.1}{}}
\newlabel{cuon:Graves:graveyard:graveyardMainwindow:on_chooseGraveyard_activate}{{138.2.1}{373}{Methods\relax }{subsubsection.138.2.1}{}}
\newlabel{cuon:Graves:graveyard:graveyardMainwindow:on_tree1_row_activated}{{138.2.1}{373}{Methods\relax }{subsubsection.138.2.1}{}}
\newlabel{cuon:Graves:graveyard:graveyardMainwindow:refreshTree}{{138.2.1}{373}{Methods\relax }{subsubsection.138.2.1}{}}
\newlabel{cuon:Graves:graveyard:graveyardMainwindow:tabChanged}{{138.2.1}{373}{Methods\relax }{subsubsection.138.2.1}{}}
\@setckpt{cuon.Graves.graveyard-module}{
\setcounter{page}{376}
\setcounter{equation}{0}
\setcounter{enumi}{0}
\setcounter{enumii}{0}
\setcounter{enumiii}{0}
\setcounter{enumiv}{0}
\setcounter{footnote}{0}
\setcounter{mpfootnote}{0}
\setcounter{part}{0}
\setcounter{section}{138}
\setcounter{subsection}{2}
\setcounter{subsubsection}{1}
\setcounter{paragraph}{0}
\setcounter{subparagraph}{0}
\setcounter{figure}{0}
\setcounter{table}{133}
\setcounter{LT@tables}{133}
\setcounter{LT@chunks}{4}
\setcounter{Item}{0}
\setcounter{Hfootnote}{0}
\setcounter{bookmark@seq@number}{526}
\setcounter{section@level}{3}
}
