\relax 
\gdef \LT@ccxxiii {\LT@entry 
    {1}{152.92793pt}\LT@entry 
    {1}{258.72162pt}\LT@entry 
    {1}{12.0pt}}
\@writefile{toc}{\contentsline {section}{\numberline {233}Package cuon.User}{582}{section.233}}
\newlabel{cuon:User}{{233}{582}{Package cuon.User\relax }{section.233}{}}
\@writefile{toc}{\contentsline {subsection}{\numberline {233.1}Modules}{582}{subsection.233.1}}
\@writefile{toc}{\contentsline {subsection}{\numberline {233.2}Variables}{582}{subsection.233.2}}
\@setckpt{cuon.User-module}{
\setcounter{page}{583}
\setcounter{equation}{0}
\setcounter{enumi}{0}
\setcounter{enumii}{0}
\setcounter{enumiii}{0}
\setcounter{enumiv}{0}
\setcounter{footnote}{0}
\setcounter{mpfootnote}{0}
\setcounter{part}{0}
\setcounter{section}{233}
\setcounter{subsection}{2}
\setcounter{subsubsection}{0}
\setcounter{paragraph}{0}
\setcounter{subparagraph}{0}
\setcounter{figure}{0}
\setcounter{table}{223}
\setcounter{LT@tables}{223}
\setcounter{LT@chunks}{4}
\setcounter{Item}{0}
\setcounter{Hfootnote}{0}
\setcounter{bookmark@seq@number}{882}
\setcounter{section@level}{2}
}
