\relax 
\gdef \LT@cxvii {\LT@entry 
    {1}{152.92793pt}\LT@entry 
    {1}{258.72162pt}\LT@entry 
    {1}{12.0pt}}
\@writefile{toc}{\contentsline {section}{\numberline {122}Module cuon.Garden.hibernation}{332}{section.122}}
\newlabel{cuon:Garden:hibernation}{{122}{332}{Module cuon.Garden.hibernation\relax }{section.122}{}}
\@writefile{toc}{\contentsline {subsection}{\numberline {122.1}Variables}{332}{subsection.122.1}}
\@writefile{toc}{\contentsline {subsection}{\numberline {122.2}Class hibernationwindow}{332}{subsection.122.2}}
\newlabel{cuon:Garden:hibernation:hibernationwindow}{{122.2}{332}{Class hibernationwindow\relax }{subsection.122.2}{}}
\@writefile{toc}{\contentsline {subsubsection}{\numberline {122.2.1}Methods}{332}{subsubsection.122.2.1}}
\newlabel{cuon:Garden:hibernation:hibernationwindow:on_quit1_activate}{{122.2.1}{332}{Methods\relax }{subsubsection.122.2.1}{}}
\newlabel{cuon:Garden:hibernation:hibernationwindow:on_save1_activate}{{122.2.1}{333}{Methods\relax }{subsubsection.122.2.1}{}}
\newlabel{cuon:Garden:hibernation:hibernationwindow:on_new1_activate}{{122.2.1}{333}{Methods\relax }{subsubsection.122.2.1}{}}
\newlabel{cuon:Garden:hibernation:hibernationwindow:on_edit1_activate}{{122.2.1}{333}{Methods\relax }{subsubsection.122.2.1}{}}
\newlabel{cuon:Garden:hibernation:hibernationwindow:on_clear1_activate}{{122.2.1}{333}{Methods\relax }{subsubsection.122.2.1}{}}
\newlabel{cuon:Garden:hibernation:hibernationwindow:on_bChooseManufactor_clicked}{{122.2.1}{333}{Methods\relax }{subsubsection.122.2.1}{}}
\newlabel{cuon:Garden:hibernation:hibernationwindow:on_eManufactorNumber_changed}{{122.2.1}{333}{Methods\relax }{subsubsection.122.2.1}{}}
\newlabel{cuon:Garden:hibernation:hibernationwindow:on_bShowDMS_clicked}{{122.2.1}{333}{Methods\relax }{subsubsection.122.2.1}{}}
\newlabel{cuon:Garden:hibernation:hibernationwindow:on_PlantSave1_activate}{{122.2.1}{333}{Methods\relax }{subsubsection.122.2.1}{}}
\newlabel{cuon:Garden:hibernation:hibernationwindow:on_PlantNew1_activate}{{122.2.1}{333}{Methods\relax }{subsubsection.122.2.1}{}}
\newlabel{cuon:Garden:hibernation:hibernationwindow:on_PlantEdit1_activate}{{122.2.1}{333}{Methods\relax }{subsubsection.122.2.1}{}}
\newlabel{cuon:Garden:hibernation:hibernationwindow:on_PlantClear1_activate}{{122.2.1}{333}{Methods\relax }{subsubsection.122.2.1}{}}
\newlabel{cuon:Garden:hibernation:hibernationwindow:on_print_icoming_document1_activate}{{122.2.1}{333}{Methods\relax }{subsubsection.122.2.1}{}}
\newlabel{cuon:Garden:hibernation:hibernationwindow:on_print_pickup_document1_activate}{{122.2.1}{333}{Methods\relax }{subsubsection.122.2.1}{}}
\newlabel{cuon:Garden:hibernation:hibernationwindow:on_single_invoice1_activate}{{122.2.1}{333}{Methods\relax }{subsubsection.122.2.1}{}}
\newlabel{cuon:Garden:hibernation:hibernationwindow:on_print_outgoing_document1_activate}{{122.2.1}{333}{Methods\relax }{subsubsection.122.2.1}{}}
\newlabel{cuon:Garden:hibernation:hibernationwindow:on_all_invoices1_activate}{{122.2.1}{333}{Methods\relax }{subsubsection.122.2.1}{}}
\newlabel{cuon:Garden:hibernation:hibernationwindow:on_chooseHibernation_activate}{{122.2.1}{333}{Methods\relax }{subsubsection.122.2.1}{}}
\newlabel{cuon:Garden:hibernation:hibernationwindow:on_bChooseAddress_clicked}{{122.2.1}{333}{Methods\relax }{subsubsection.122.2.1}{}}
\newlabel{cuon:Garden:hibernation:hibernationwindow:on_eAddressNumber_changed}{{122.2.1}{333}{Methods\relax }{subsubsection.122.2.1}{}}
\newlabel{cuon:Garden:hibernation:hibernationwindow:on_bChooseBeginStaff_clicked}{{122.2.1}{333}{Methods\relax }{subsubsection.122.2.1}{}}
\newlabel{cuon:Garden:hibernation:hibernationwindow:on_eBeginStaffNumber_changed}{{122.2.1}{334}{Methods\relax }{subsubsection.122.2.1}{}}
\newlabel{cuon:Garden:hibernation:hibernationwindow:on_bChooseEndsStaff_clicked}{{122.2.1}{334}{Methods\relax }{subsubsection.122.2.1}{}}
\newlabel{cuon:Garden:hibernation:hibernationwindow:on_eEndsStaffNumber_changed}{{122.2.1}{334}{Methods\relax }{subsubsection.122.2.1}{}}
\newlabel{cuon:Garden:hibernation:hibernationwindow:on_bChooseBotany_clicked}{{122.2.1}{334}{Methods\relax }{subsubsection.122.2.1}{}}
\newlabel{cuon:Garden:hibernation:hibernationwindow:on_ePlantBotanyNumber_changed}{{122.2.1}{334}{Methods\relax }{subsubsection.122.2.1}{}}
\newlabel{cuon:Garden:hibernation:hibernationwindow:on_bSetSequence_clicked}{{122.2.1}{334}{Methods\relax }{subsubsection.122.2.1}{}}
\newlabel{cuon:Garden:hibernation:hibernationwindow:on_bGotoAddress_clicked}{{122.2.1}{334}{Methods\relax }{subsubsection.122.2.1}{}}
\newlabel{cuon:Garden:hibernation:hibernationwindow:on_bSearch_clicked}{{122.2.1}{334}{Methods\relax }{subsubsection.122.2.1}{}}
\newlabel{cuon:Garden:hibernation:hibernationwindow:on_eFindNumber_editing_done}{{122.2.1}{334}{Methods\relax }{subsubsection.122.2.1}{}}
\newlabel{cuon:Garden:hibernation:hibernationwindow:on_eFindButton_key_press_event}{{122.2.1}{334}{Methods\relax }{subsubsection.122.2.1}{}}
\newlabel{cuon:Garden:hibernation:hibernationwindow:on_bGotoBotany_clicked}{{122.2.1}{334}{Methods\relax }{subsubsection.122.2.1}{}}
\newlabel{cuon:Garden:hibernation:hibernationwindow:searchHibernation}{{122.2.1}{334}{Methods\relax }{subsubsection.122.2.1}{}}
\newlabel{cuon:Garden:hibernation:hibernationwindow:on_bDMS_clicked}{{122.2.1}{334}{Methods\relax }{subsubsection.122.2.1}{}}
\newlabel{cuon:Garden:hibernation:hibernationwindow:on_bPlantDMS_clicked}{{122.2.1}{334}{Methods\relax }{subsubsection.122.2.1}{}}
\newlabel{cuon:Garden:hibernation:hibernationwindow:on_bDupOrder_clicked}{{122.2.1}{334}{Methods\relax }{subsubsection.122.2.1}{}}
\newlabel{cuon:Garden:hibernation:hibernationwindow:on_bReorgPlantnumber_clicked}{{122.2.1}{334}{Methods\relax }{subsubsection.122.2.1}{}}
\newlabel{cuon:Garden:hibernation:hibernationwindow:getNewPlantNumber}{{122.2.1}{334}{Methods\relax }{subsubsection.122.2.1}{}}
\newlabel{cuon:Garden:hibernation:hibernationwindow:getHibernationInfo}{{122.2.1}{334}{Methods\relax }{subsubsection.122.2.1}{}}
\newlabel{cuon:Garden:hibernation:hibernationwindow:refreshTree}{{122.2.1}{335}{Methods\relax }{subsubsection.122.2.1}{}}
\newlabel{cuon:Garden:hibernation:hibernationwindow:tabChanged}{{122.2.1}{335}{Methods\relax }{subsubsection.122.2.1}{}}
\@setckpt{cuon.Garden.hibernation-module}{
\setcounter{page}{337}
\setcounter{equation}{0}
\setcounter{enumi}{0}
\setcounter{enumii}{0}
\setcounter{enumiii}{0}
\setcounter{enumiv}{0}
\setcounter{footnote}{0}
\setcounter{mpfootnote}{0}
\setcounter{part}{0}
\setcounter{section}{122}
\setcounter{subsection}{2}
\setcounter{subsubsection}{1}
\setcounter{paragraph}{0}
\setcounter{subparagraph}{0}
\setcounter{figure}{0}
\setcounter{table}{117}
\setcounter{LT@tables}{117}
\setcounter{LT@chunks}{4}
\setcounter{Item}{0}
\setcounter{Hfootnote}{0}
\setcounter{bookmark@seq@number}{463}
\setcounter{section@level}{3}
}
