\relax 
\gdef \LT@cxlix {\LT@entry 
    {1}{152.92793pt}\LT@entry 
    {1}{258.72162pt}\LT@entry 
    {1}{12.0pt}}
\@writefile{toc}{\contentsline {section}{\numberline {157}Module cuon.OpenOffice.ooMain}{410}{section.157}}
\newlabel{cuon:OpenOffice:ooMain}{{157}{410}{Module cuon.OpenOffice.ooMain\relax }{section.157}{}}
\@writefile{toc}{\contentsline {subsection}{\numberline {157.1}Variables}{410}{subsection.157.1}}
\@setckpt{cuon.OpenOffice.ooMain-module}{
\setcounter{page}{411}
\setcounter{equation}{0}
\setcounter{enumi}{0}
\setcounter{enumii}{0}
\setcounter{enumiii}{0}
\setcounter{enumiv}{0}
\setcounter{footnote}{0}
\setcounter{mpfootnote}{0}
\setcounter{part}{0}
\setcounter{section}{157}
\setcounter{subsection}{1}
\setcounter{subsubsection}{0}
\setcounter{paragraph}{0}
\setcounter{subparagraph}{0}
\setcounter{figure}{0}
\setcounter{table}{149}
\setcounter{LT@tables}{149}
\setcounter{LT@chunks}{4}
\setcounter{Item}{0}
\setcounter{Hfootnote}{0}
\setcounter{bookmark@seq@number}{595}
\setcounter{section@level}{2}
}
