\relax 
\gdef \LT@lxi {\LT@entry 
    {1}{152.92793pt}\LT@entry 
    {1}{258.72162pt}\LT@entry 
    {1}{12.0pt}}
\@writefile{toc}{\contentsline {section}{\numberline {65}Module cuon.Databases.SingleCuon}{189}{section.65}}
\newlabel{cuon:Databases:SingleCuon}{{65}{189}{Module cuon.Databases.SingleCuon\relax }{section.65}{}}
\@writefile{toc}{\contentsline {subsection}{\numberline {65.1}Variables}{189}{subsection.65.1}}
\@writefile{toc}{\contentsline {subsection}{\numberline {65.2}Class SingleCuon}{189}{subsection.65.2}}
\newlabel{cuon:Databases:SingleCuon:SingleCuon}{{65.2}{189}{Class SingleCuon\relax }{subsection.65.2}{}}
\@writefile{toc}{\contentsline {subsubsection}{\numberline {65.2.1}Methods}{189}{subsubsection.65.2.1}}
\newlabel{cuon:Databases:SingleCuon:SingleCuon:saveNewVersion}{{65.2.1}{189}{Methods\relax }{subsubsection.65.2.1}{}}
\@setckpt{cuon.Databases.SingleCuon-module}{
\setcounter{page}{191}
\setcounter{equation}{0}
\setcounter{enumi}{0}
\setcounter{enumii}{0}
\setcounter{enumiii}{0}
\setcounter{enumiv}{0}
\setcounter{footnote}{0}
\setcounter{mpfootnote}{0}
\setcounter{part}{0}
\setcounter{section}{65}
\setcounter{subsection}{2}
\setcounter{subsubsection}{1}
\setcounter{paragraph}{0}
\setcounter{subparagraph}{0}
\setcounter{figure}{0}
\setcounter{table}{61}
\setcounter{LT@tables}{61}
\setcounter{LT@chunks}{4}
\setcounter{Item}{0}
\setcounter{Hfootnote}{0}
\setcounter{bookmark@seq@number}{245}
\setcounter{section@level}{3}
}
