\relax 
\gdef \LT@cl {\LT@entry 
    {1}{152.92793pt}\LT@entry 
    {1}{258.72162pt}\LT@entry 
    {1}{12.0pt}}
\@writefile{toc}{\contentsline {section}{\numberline {159}Package cuon.Order}{412}{section.159}}
\newlabel{cuon:Order}{{159}{412}{Package cuon.Order\relax }{section.159}{}}
\@writefile{toc}{\contentsline {subsection}{\numberline {159.1}Modules}{412}{subsection.159.1}}
\@writefile{toc}{\contentsline {subsection}{\numberline {159.2}Variables}{412}{subsection.159.2}}
\@setckpt{cuon.Order-module}{
\setcounter{page}{413}
\setcounter{equation}{0}
\setcounter{enumi}{0}
\setcounter{enumii}{0}
\setcounter{enumiii}{0}
\setcounter{enumiv}{0}
\setcounter{footnote}{0}
\setcounter{mpfootnote}{0}
\setcounter{part}{0}
\setcounter{section}{159}
\setcounter{subsection}{2}
\setcounter{subsubsection}{0}
\setcounter{paragraph}{0}
\setcounter{subparagraph}{0}
\setcounter{figure}{0}
\setcounter{table}{150}
\setcounter{LT@tables}{150}
\setcounter{LT@chunks}{4}
\setcounter{Item}{0}
\setcounter{Hfootnote}{0}
\setcounter{bookmark@seq@number}{601}
\setcounter{section@level}{2}
}
