\relax 
\gdef \LT@ccvii {\LT@entry 
    {1}{152.92793pt}\LT@entry 
    {1}{258.72162pt}\LT@entry 
    {1}{12.0pt}}
\@writefile{toc}{\contentsline {section}{\numberline {216}Module cuon.Stock.SingleStock}{550}{section.216}}
\newlabel{cuon:Stock:SingleStock}{{216}{550}{Module cuon.Stock.SingleStock\relax }{section.216}{}}
\@writefile{toc}{\contentsline {subsection}{\numberline {216.1}Variables}{550}{subsection.216.1}}
\@writefile{toc}{\contentsline {subsection}{\numberline {216.2}Class SingleStock}{550}{subsection.216.2}}
\newlabel{cuon:Stock:SingleStock:SingleStock}{{216.2}{550}{Class SingleStock\relax }{subsection.216.2}{}}
\@writefile{toc}{\contentsline {subsubsection}{\numberline {216.2.1}Methods}{550}{subsubsection.216.2.1}}
\@setckpt{cuon.Stock.SingleStock-module}{
\setcounter{page}{552}
\setcounter{equation}{0}
\setcounter{enumi}{0}
\setcounter{enumii}{0}
\setcounter{enumiii}{0}
\setcounter{enumiv}{0}
\setcounter{footnote}{0}
\setcounter{mpfootnote}{0}
\setcounter{part}{0}
\setcounter{section}{216}
\setcounter{subsection}{2}
\setcounter{subsubsection}{1}
\setcounter{paragraph}{0}
\setcounter{subparagraph}{0}
\setcounter{figure}{0}
\setcounter{table}{207}
\setcounter{LT@tables}{207}
\setcounter{LT@chunks}{4}
\setcounter{Item}{0}
\setcounter{Hfootnote}{0}
\setcounter{bookmark@seq@number}{819}
\setcounter{section@level}{3}
}
