\relax 
\gdef \LT@clxv {\LT@entry 
    {1}{152.92793pt}\LT@entry 
    {1}{258.72162pt}\LT@entry 
    {1}{12.0pt}}
\@writefile{toc}{\contentsline {section}{\numberline {174}Module cuon.Preferences.preferences}{445}{section.174}}
\newlabel{cuon:Preferences:preferences}{{174}{445}{Module cuon.Preferences.preferences\relax }{section.174}{}}
\@writefile{toc}{\contentsline {subsection}{\numberline {174.1}Variables}{445}{subsection.174.1}}
\@writefile{toc}{\contentsline {subsection}{\numberline {174.2}Class preferenceswindow}{445}{subsection.174.2}}
\newlabel{cuon:Preferences:preferences:preferenceswindow}{{174.2}{445}{Class preferenceswindow\relax }{subsection.174.2}{}}
\@writefile{toc}{\contentsline {subsubsection}{\numberline {174.2.1}Methods}{445}{subsubsection.174.2.1}}
\newlabel{cuon:Preferences:preferences:preferenceswindow:on_save1_activate}{{174.2.1}{445}{Methods\relax }{subsubsection.174.2.1}{}}
\newlabel{cuon:Preferences:preferences:preferenceswindow:on_new1_activate}{{174.2.1}{445}{Methods\relax }{subsubsection.174.2.1}{}}
\newlabel{cuon:Preferences:preferences:preferenceswindow:on_choose_profile1_activate}{{174.2.1}{446}{Methods\relax }{subsubsection.174.2.1}{}}
\newlabel{cuon:Preferences:preferences:preferenceswindow:on_edit1_activate}{{174.2.1}{446}{Methods\relax }{subsubsection.174.2.1}{}}
\newlabel{cuon:Preferences:preferences:preferenceswindow:on_delete1_activate}{{174.2.1}{446}{Methods\relax }{subsubsection.174.2.1}{}}
\newlabel{cuon:Preferences:preferences:preferenceswindow:on_quit1_activate}{{174.2.1}{446}{Methods\relax }{subsubsection.174.2.1}{}}
\newlabel{cuon:Preferences:preferences:preferenceswindow:on_bListScanDevices_clicked}{{174.2.1}{446}{Methods\relax }{subsubsection.174.2.1}{}}
\newlabel{cuon:Preferences:preferences:preferenceswindow:on_colorBG_color_set}{{174.2.1}{446}{Methods\relax }{subsubsection.174.2.1}{}}
\newlabel{cuon:Preferences:preferences:preferenceswindow:on_colorFG_color_set}{{174.2.1}{446}{Methods\relax }{subsubsection.174.2.1}{}}
\newlabel{cuon:Preferences:preferences:preferenceswindow:on_colorDutyBG_color_set}{{174.2.1}{446}{Methods\relax }{subsubsection.174.2.1}{}}
\newlabel{cuon:Preferences:preferences:preferenceswindow:on_colorDutyFG_color_set}{{174.2.1}{446}{Methods\relax }{subsubsection.174.2.1}{}}
\newlabel{cuon:Preferences:preferences:preferenceswindow:refreshTree}{{174.2.1}{446}{Methods\relax }{subsubsection.174.2.1}{}}
\newlabel{cuon:Preferences:preferences:preferenceswindow:tabChanged}{{174.2.1}{446}{Methods\relax }{subsubsection.174.2.1}{}}
\@setckpt{cuon.Preferences.preferences-module}{
\setcounter{page}{449}
\setcounter{equation}{0}
\setcounter{enumi}{0}
\setcounter{enumii}{0}
\setcounter{enumiii}{0}
\setcounter{enumiv}{0}
\setcounter{footnote}{0}
\setcounter{mpfootnote}{0}
\setcounter{part}{0}
\setcounter{section}{174}
\setcounter{subsection}{2}
\setcounter{subsubsection}{1}
\setcounter{paragraph}{0}
\setcounter{subparagraph}{0}
\setcounter{figure}{0}
\setcounter{table}{165}
\setcounter{LT@tables}{165}
\setcounter{LT@chunks}{4}
\setcounter{Item}{0}
\setcounter{Hfootnote}{0}
\setcounter{bookmark@seq@number}{660}
\setcounter{section@level}{3}
}
