\relax 
\gdef \LT@c {\LT@entry 
    {1}{152.92793pt}\LT@entry 
    {1}{258.72162pt}\LT@entry 
    {1}{12.0pt}}
\@writefile{toc}{\contentsline {section}{\numberline {105}Module cuon.Finances.InvoiceBook.invoicebook}{287}{section.105}}
\newlabel{cuon:Finances:InvoiceBook:invoicebook}{{105}{287}{Module cuon.Finances.InvoiceBook.invoicebook\relax }{section.105}{}}
\@writefile{toc}{\contentsline {subsection}{\numberline {105.1}Variables}{287}{subsection.105.1}}
\@writefile{toc}{\contentsline {subsection}{\numberline {105.2}Class invoicebookwindow}{287}{subsection.105.2}}
\newlabel{cuon:Finances:InvoiceBook:invoicebook:invoicebookwindow}{{105.2}{287}{Class invoicebookwindow\relax }{subsection.105.2}{}}
\@writefile{toc}{\contentsline {subsubsection}{\numberline {105.2.1}Methods}{287}{subsubsection.105.2.1}}
\newlabel{cuon:Finances:InvoiceBook:invoicebook:invoicebookwindow:on_quit1_activate}{{105.2.1}{287}{Methods\relax }{subsubsection.105.2.1}{}}
\newlabel{cuon:Finances:InvoiceBook:invoicebook:invoicebookwindow:on_save_activate}{{105.2.1}{288}{Methods\relax }{subsubsection.105.2.1}{}}
\newlabel{cuon:Finances:InvoiceBook:invoicebook:invoicebookwindow:on_new_activate}{{105.2.1}{288}{Methods\relax }{subsubsection.105.2.1}{}}
\newlabel{cuon:Finances:InvoiceBook:invoicebook:invoicebookwindow:on_edit_activate}{{105.2.1}{288}{Methods\relax }{subsubsection.105.2.1}{}}
\newlabel{cuon:Finances:InvoiceBook:invoicebook:invoicebookwindow:on_delete_activate}{{105.2.1}{288}{Methods\relax }{subsubsection.105.2.1}{}}
\newlabel{cuon:Finances:InvoiceBook:invoicebook:invoicebookwindow:on_this_month_activate}{{105.2.1}{288}{Methods\relax }{subsubsection.105.2.1}{}}
\newlabel{cuon:Finances:InvoiceBook:invoicebook:invoicebookwindow:on_last_month_activate}{{105.2.1}{288}{Methods\relax }{subsubsection.105.2.1}{}}
\newlabel{cuon:Finances:InvoiceBook:invoicebook:invoicebookwindow:on_half_year1_activate}{{105.2.1}{288}{Methods\relax }{subsubsection.105.2.1}{}}
\newlabel{cuon:Finances:InvoiceBook:invoicebook:invoicebookwindow:on_current_year_1_activate}{{105.2.1}{288}{Methods\relax }{subsubsection.105.2.1}{}}
\newlabel{cuon:Finances:InvoiceBook:invoicebook:invoicebookwindow:printListOfInvoices}{{105.2.1}{288}{Methods\relax }{subsubsection.105.2.1}{}}
\newlabel{cuon:Finances:InvoiceBook:invoicebook:invoicebookwindow:on_inpayment_save1_activate}{{105.2.1}{288}{Methods\relax }{subsubsection.105.2.1}{}}
\newlabel{cuon:Finances:InvoiceBook:invoicebook:invoicebookwindow:on_inpayment_new1_activate}{{105.2.1}{288}{Methods\relax }{subsubsection.105.2.1}{}}
\newlabel{cuon:Finances:InvoiceBook:invoicebook:invoicebookwindow:on_inpayment_edit1_activate}{{105.2.1}{288}{Methods\relax }{subsubsection.105.2.1}{}}
\newlabel{cuon:Finances:InvoiceBook:invoicebook:invoicebookwindow:on_inpayment_delete1_activate}{{105.2.1}{288}{Methods\relax }{subsubsection.105.2.1}{}}
\newlabel{cuon:Finances:InvoiceBook:invoicebook:invoicebookwindow:on_inpayment_this_month1_activate}{{105.2.1}{288}{Methods\relax }{subsubsection.105.2.1}{}}
\newlabel{cuon:Finances:InvoiceBook:invoicebook:invoicebookwindow:on_inpayment_last_month1_activate}{{105.2.1}{288}{Methods\relax }{subsubsection.105.2.1}{}}
\newlabel{cuon:Finances:InvoiceBook:invoicebook:invoicebookwindow:on_last_year_1_activate}{{105.2.1}{288}{Methods\relax }{subsubsection.105.2.1}{}}
\newlabel{cuon:Finances:InvoiceBook:invoicebook:invoicebookwindow:printListOfInpayment}{{105.2.1}{288}{Methods\relax }{subsubsection.105.2.1}{}}
\newlabel{cuon:Finances:InvoiceBook:invoicebook:invoicebookwindow:on_all_outstanding_accounts1_activate}{{105.2.1}{288}{Methods\relax }{subsubsection.105.2.1}{}}
\newlabel{cuon:Finances:InvoiceBook:invoicebook:invoicebookwindow:printListOfResidue}{{105.2.1}{288}{Methods\relax }{subsubsection.105.2.1}{}}
\newlabel{cuon:Finances:InvoiceBook:invoicebook:invoicebookwindow:on_residue_custom_activate}{{105.2.1}{288}{Methods\relax }{subsubsection.105.2.1}{}}
\newlabel{cuon:Finances:InvoiceBook:invoicebook:invoicebookwindow:printListOfReminder}{{105.2.1}{289}{Methods\relax }{subsubsection.105.2.1}{}}
\newlabel{cuon:Finances:InvoiceBook:invoicebook:invoicebookwindow:on_all_reminder1_activate}{{105.2.1}{289}{Methods\relax }{subsubsection.105.2.1}{}}
\newlabel{cuon:Finances:InvoiceBook:invoicebook:invoicebookwindow:on_directdebit1_activate}{{105.2.1}{289}{Methods\relax }{subsubsection.105.2.1}{}}
\newlabel{cuon:Finances:InvoiceBook:invoicebook:invoicebookwindow:on_tb_save_clicked}{{105.2.1}{289}{Methods\relax }{subsubsection.105.2.1}{}}
\newlabel{cuon:Finances:InvoiceBook:invoicebook:invoicebookwindow:on_tb_new_clicked}{{105.2.1}{289}{Methods\relax }{subsubsection.105.2.1}{}}
\newlabel{cuon:Finances:InvoiceBook:invoicebook:invoicebookwindow:on_tb_edit_clicked}{{105.2.1}{289}{Methods\relax }{subsubsection.105.2.1}{}}
\newlabel{cuon:Finances:InvoiceBook:invoicebook:invoicebookwindow:getInvoiceInfos}{{105.2.1}{289}{Methods\relax }{subsubsection.105.2.1}{}}
\newlabel{cuon:Finances:InvoiceBook:invoicebook:invoicebookwindow:on_bDMS_clicked}{{105.2.1}{289}{Methods\relax }{subsubsection.105.2.1}{}}
\newlabel{cuon:Finances:InvoiceBook:invoicebook:invoicebookwindow:on_bLetter_clicked}{{105.2.1}{289}{Methods\relax }{subsubsection.105.2.1}{}}
\newlabel{cuon:Finances:InvoiceBook:invoicebook:invoicebookwindow:on_eSearch_key_press_event}{{105.2.1}{289}{Methods\relax }{subsubsection.105.2.1}{}}
\newlabel{cuon:Finances:InvoiceBook:invoicebook:invoicebookwindow:on_bSearch_clicked}{{105.2.1}{289}{Methods\relax }{subsubsection.105.2.1}{}}
\newlabel{cuon:Finances:InvoiceBook:invoicebook:invoicebookwindow:findInvoice}{{105.2.1}{289}{Methods\relax }{subsubsection.105.2.1}{}}
\newlabel{cuon:Finances:InvoiceBook:invoicebook:invoicebookwindow:refreshTree}{{105.2.1}{289}{Methods\relax }{subsubsection.105.2.1}{}}
\newlabel{cuon:Finances:InvoiceBook:invoicebook:invoicebookwindow:tabChanged}{{105.2.1}{289}{Methods\relax }{subsubsection.105.2.1}{}}
\@setckpt{cuon.Finances.InvoiceBook.invoicebook-module}{
\setcounter{page}{292}
\setcounter{equation}{0}
\setcounter{enumi}{0}
\setcounter{enumii}{0}
\setcounter{enumiii}{0}
\setcounter{enumiv}{0}
\setcounter{footnote}{0}
\setcounter{mpfootnote}{0}
\setcounter{part}{0}
\setcounter{section}{105}
\setcounter{subsection}{2}
\setcounter{subsubsection}{1}
\setcounter{paragraph}{0}
\setcounter{subparagraph}{0}
\setcounter{figure}{0}
\setcounter{table}{100}
\setcounter{LT@tables}{100}
\setcounter{LT@chunks}{4}
\setcounter{Item}{0}
\setcounter{Hfootnote}{0}
\setcounter{bookmark@seq@number}{396}
\setcounter{section@level}{3}
}
