\relax 
\gdef \LT@civ {\LT@entry 
    {1}{152.92793pt}\LT@entry 
    {1}{258.72162pt}\LT@entry 
    {1}{12.0pt}}
\@writefile{toc}{\contentsline {section}{\numberline {109}Module cuon.Finances.SingleAccountValues}{298}{section.109}}
\newlabel{cuon:Finances:SingleAccountValues}{{109}{298}{Module cuon.Finances.SingleAccountValues\relax }{section.109}{}}
\@writefile{toc}{\contentsline {subsection}{\numberline {109.1}Variables}{298}{subsection.109.1}}
\@writefile{toc}{\contentsline {subsection}{\numberline {109.2}Class SingleAccountValues}{298}{subsection.109.2}}
\newlabel{cuon:Finances:SingleAccountValues:SingleAccountValues}{{109.2}{298}{Class SingleAccountValues\relax }{subsection.109.2}{}}
\@writefile{toc}{\contentsline {subsubsection}{\numberline {109.2.1}Methods}{298}{subsubsection.109.2.1}}
\@setckpt{cuon.Finances.SingleAccountValues-module}{
\setcounter{page}{300}
\setcounter{equation}{0}
\setcounter{enumi}{0}
\setcounter{enumii}{0}
\setcounter{enumiii}{0}
\setcounter{enumiv}{0}
\setcounter{footnote}{0}
\setcounter{mpfootnote}{0}
\setcounter{part}{0}
\setcounter{section}{109}
\setcounter{subsection}{2}
\setcounter{subsubsection}{1}
\setcounter{paragraph}{0}
\setcounter{subparagraph}{0}
\setcounter{figure}{0}
\setcounter{table}{104}
\setcounter{LT@tables}{104}
\setcounter{LT@chunks}{4}
\setcounter{Item}{0}
\setcounter{Hfootnote}{0}
\setcounter{bookmark@seq@number}{412}
\setcounter{section@level}{3}
}
