\relax 
\gdef \LT@clxiii {\LT@entry 
    {1}{152.92793pt}\LT@entry 
    {1}{258.72162pt}\LT@entry 
    {1}{12.0pt}}
\@writefile{toc}{\contentsline {section}{\numberline {172}Package cuon.Preferences}{442}{section.172}}
\newlabel{cuon:Preferences}{{172}{442}{Package cuon.Preferences\relax }{section.172}{}}
\@writefile{toc}{\contentsline {subsection}{\numberline {172.1}Modules}{442}{subsection.172.1}}
\@writefile{toc}{\contentsline {subsection}{\numberline {172.2}Variables}{442}{subsection.172.2}}
\@setckpt{cuon.Preferences-module}{
\setcounter{page}{443}
\setcounter{equation}{0}
\setcounter{enumi}{0}
\setcounter{enumii}{0}
\setcounter{enumiii}{0}
\setcounter{enumiv}{0}
\setcounter{footnote}{0}
\setcounter{mpfootnote}{0}
\setcounter{part}{0}
\setcounter{section}{172}
\setcounter{subsection}{2}
\setcounter{subsubsection}{0}
\setcounter{paragraph}{0}
\setcounter{subparagraph}{0}
\setcounter{figure}{0}
\setcounter{table}{163}
\setcounter{LT@tables}{163}
\setcounter{LT@chunks}{4}
\setcounter{Item}{0}
\setcounter{Hfootnote}{0}
\setcounter{bookmark@seq@number}{652}
\setcounter{section@level}{2}
}
