\relax 
\gdef \LT@ccxxxvii {\LT@entry 
    {1}{152.92793pt}\LT@entry 
    {1}{258.72162pt}\LT@entry 
    {1}{12.0pt}}
\@writefile{toc}{\contentsline {section}{\numberline {248}Module cuon.Windows.windows}{609}{section.248}}
\newlabel{cuon:Windows:windows}{{248}{609}{Module cuon.Windows.windows\relax }{section.248}{}}
\@writefile{toc}{\contentsline {subsection}{\numberline {248.1}Variables}{609}{subsection.248.1}}
\@writefile{toc}{\contentsline {subsection}{\numberline {248.2}Class windows}{609}{subsection.248.2}}
\newlabel{cuon:Windows:windows:windows}{{248.2}{609}{Class windows\relax }{subsection.248.2}{}}
\@writefile{toc}{\contentsline {subsubsection}{\numberline {248.2.1}Methods}{609}{subsubsection.248.2.1}}
\newlabel{cuon:Windows:windows:windows:CleanUp}{{248.2.1}{609}{Methods\relax }{subsubsection.248.2.1}{}}
\newlabel{cuon:Windows:windows:windows:HTMLColorToRGB}{{248.2.1}{609}{Methods\relax }{subsubsection.248.2.1}{}}
\newlabel{cuon:Windows:windows:windows:MainwindowEventHandling}{{248.2.1}{610}{Methods\relax }{subsubsection.248.2.1}{}}
\newlabel{cuon:Windows:windows:windows:RGBToHTMLColor}{{248.2.1}{610}{Methods\relax }{subsubsection.248.2.1}{}}
\newlabel{cuon:Windows:windows:windows:activateClick}{{248.2.1}{610}{Methods\relax }{subsubsection.248.2.1}{}}
\newlabel{cuon:Windows:windows:windows:addDateTime}{{248.2.1}{610}{Methods\relax }{subsubsection.248.2.1}{}}
\newlabel{cuon:Windows:windows:windows:addOneDay}{{248.2.1}{610}{Methods\relax }{subsubsection.248.2.1}{}}
\newlabel{cuon:Windows:windows:windows:checkClient}{{248.2.1}{610}{Methods\relax }{subsubsection.248.2.1}{}}
\newlabel{cuon:Windows:windows:windows:checkKey}{{248.2.1}{610}{Methods\relax }{subsubsection.248.2.1}{}}
\newlabel{cuon:Windows:windows:windows:clearSearch}{{248.2.1}{610}{Methods\relax }{subsubsection.248.2.1}{}}
\newlabel{cuon:Windows:windows:windows:closeMenuEntries}{{248.2.1}{610}{Methods\relax }{subsubsection.248.2.1}{}}
\newlabel{cuon:Windows:windows:windows:closeWindow}{{248.2.1}{610}{Methods\relax }{subsubsection.248.2.1}{}}
\newlabel{cuon:Windows:windows:windows:delete_event}{{248.2.1}{610}{Methods\relax }{subsubsection.248.2.1}{}}
\newlabel{cuon:Windows:windows:windows:endEdit}{{248.2.1}{610}{Methods\relax }{subsubsection.248.2.1}{}}
\newlabel{cuon:Windows:windows:windows:fetchMainwindowKeys}{{248.2.1}{610}{Methods\relax }{subsubsection.248.2.1}{}}
\newlabel{cuon:Windows:windows:windows:getDataEntries}{{248.2.1}{610}{Methods\relax }{subsubsection.248.2.1}{}}
\newlabel{cuon:Windows:windows:windows:getDate}{{248.2.1}{610}{Methods\relax }{subsubsection.248.2.1}{}}
\newlabel{cuon:Windows:windows:windows:getStyle}{{248.2.1}{610}{Methods\relax }{subsubsection.248.2.1}{}}
\newlabel{cuon:Windows:windows:windows:getWhere}{{248.2.1}{611}{Methods\relax }{subsubsection.248.2.1}{}}
\newlabel{cuon:Windows:windows:windows:loadEntries}{{248.2.1}{611}{Methods\relax }{subsubsection.248.2.1}{}}
\newlabel{cuon:Windows:windows:windows:loadProfile}{{248.2.1}{611}{Methods\relax }{subsubsection.248.2.1}{}}
\newlabel{cuon:Windows:windows:windows:loadUserFromPreferences}{{248.2.1}{611}{Methods\relax }{subsubsection.248.2.1}{}}
\newlabel{cuon:Windows:windows:windows:on_Mainwindow_key_press_event}{{248.2.1}{611}{Methods\relax }{subsubsection.248.2.1}{}}
\newlabel{cuon:Windows:windows:windows:on_key_press_event}{{248.2.1}{611}{Methods\relax }{subsubsection.248.2.1}{}}
\newlabel{cuon:Windows:windows:windows:on_notebook1_switch_page}{{248.2.1}{611}{Methods\relax }{subsubsection.248.2.1}{}}
\newlabel{cuon:Windows:windows:windows:on_notebook2_switch_page}{{248.2.1}{611}{Methods\relax }{subsubsection.248.2.1}{}}
\newlabel{cuon:Windows:windows:windows:on_notebook3_switch_page}{{248.2.1}{611}{Methods\relax }{subsubsection.248.2.1}{}}
\newlabel{cuon:Windows:windows:windows:on_notebook4_switch_page}{{248.2.1}{611}{Methods\relax }{subsubsection.248.2.1}{}}
\newlabel{cuon:Windows:windows:windows:openWindow}{{248.2.1}{611}{Methods\relax }{subsubsection.248.2.1}{}}
\newlabel{cuon:Windows:windows:windows:readSearchDatafields}{{248.2.1}{611}{Methods\relax }{subsubsection.248.2.1}{}}
\newlabel{cuon:Windows:windows:windows:removeOneDay}{{248.2.1}{611}{Methods\relax }{subsubsection.248.2.1}{}}
\newlabel{cuon:Windows:windows:windows:restoreCursor}{{248.2.1}{611}{Methods\relax }{subsubsection.248.2.1}{}}
\newlabel{cuon:Windows:windows:windows:saveCursor}{{248.2.1}{612}{Methods\relax }{subsubsection.248.2.1}{}}
\newlabel{cuon:Windows:windows:windows:saveData}{{248.2.1}{612}{Methods\relax }{subsubsection.248.2.1}{}}
\newlabel{cuon:Windows:windows:windows:saveDataQuestion}{{248.2.1}{612}{Methods\relax }{subsubsection.248.2.1}{}}
\newlabel{cuon:Windows:windows:windows:setArticlePrice}{{248.2.1}{612}{Methods\relax }{subsubsection.248.2.1}{}}
\newlabel{cuon:Windows:windows:windows:setColor2Text}{{248.2.1}{612}{Methods\relax }{subsubsection.248.2.1}{}}
\newlabel{cuon:Windows:windows:windows:setDataEntries}{{248.2.1}{612}{Methods\relax }{subsubsection.248.2.1}{}}
\newlabel{cuon:Windows:windows:windows:setDate}{{248.2.1}{612}{Methods\relax }{subsubsection.248.2.1}{}}
\newlabel{cuon:Windows:windows:windows:setDateToCalendar}{{248.2.1}{612}{Methods\relax }{subsubsection.248.2.1}{}}
\newlabel{cuon:Windows:windows:windows:setDateToEntry}{{248.2.1}{612}{Methods\relax }{subsubsection.248.2.1}{}}
\newlabel{cuon:Windows:windows:windows:setEditCursor}{{248.2.1}{612}{Methods\relax }{subsubsection.248.2.1}{}}
\newlabel{cuon:Windows:windows:windows:setEntriesEditable}{{248.2.1}{612}{Methods\relax }{subsubsection.248.2.1}{}}
\newlabel{cuon:Windows:windows:windows:setMainwindowNotebook}{{248.2.1}{612}{Methods\relax }{subsubsection.248.2.1}{}}
\newlabel{cuon:Windows:windows:windows:setPageVisible}{{248.2.1}{612}{Methods\relax }{subsubsection.248.2.1}{}}
\newlabel{cuon:Windows:windows:windows:setProgressBar}{{248.2.1}{612}{Methods\relax }{subsubsection.248.2.1}{}}
\newlabel{cuon:Windows:windows:windows:setProperties}{{248.2.1}{612}{Methods\relax }{subsubsection.248.2.1}{}}
\newlabel{cuon:Windows:windows:windows:setStatusBar}{{248.2.1}{612}{Methods\relax }{subsubsection.248.2.1}{}}
\newlabel{cuon:Windows:windows:windows:setStatusbarText}{{248.2.1}{612}{Methods\relax }{subsubsection.248.2.1}{}}
\newlabel{cuon:Windows:windows:windows:setTreeVisible}{{248.2.1}{612}{Methods\relax }{subsubsection.248.2.1}{}}
\newlabel{cuon:Windows:windows:windows:startEdit}{{248.2.1}{613}{Methods\relax }{subsubsection.248.2.1}{}}
\newlabel{cuon:Windows:windows:windows:startFind}{{248.2.1}{613}{Methods\relax }{subsubsection.248.2.1}{}}
\newlabel{cuon:Windows:windows:windows:startProgressBar}{{248.2.1}{613}{Methods\relax }{subsubsection.248.2.1}{}}
\newlabel{cuon:Windows:windows:windows:stopProgressBar}{{248.2.1}{613}{Methods\relax }{subsubsection.248.2.1}{}}
\@setckpt{cuon.Windows.windows-module}{
\setcounter{page}{615}
\setcounter{equation}{0}
\setcounter{enumi}{1}
\setcounter{enumii}{0}
\setcounter{enumiii}{0}
\setcounter{enumiv}{0}
\setcounter{footnote}{0}
\setcounter{mpfootnote}{0}
\setcounter{part}{0}
\setcounter{section}{248}
\setcounter{subsection}{2}
\setcounter{subsubsection}{1}
\setcounter{paragraph}{0}
\setcounter{subparagraph}{0}
\setcounter{figure}{0}
\setcounter{table}{237}
\setcounter{LT@tables}{237}
\setcounter{LT@chunks}{4}
\setcounter{Item}{1}
\setcounter{Hfootnote}{0}
\setcounter{bookmark@seq@number}{936}
\setcounter{section@level}{3}
}
