\relax 
\gdef \LT@clxviii {\LT@entry 
    {1}{152.92793pt}\LT@entry 
    {1}{258.72162pt}\LT@entry 
    {1}{12.0pt}}
\@writefile{toc}{\contentsline {section}{\numberline {177}Module cuon.PrefsFinance.SinglePrefsFinanceVat}{452}{section.177}}
\newlabel{cuon:PrefsFinance:SinglePrefsFinanceVat}{{177}{452}{Module cuon.PrefsFinance.SinglePrefsFinanceVat\relax }{section.177}{}}
\@writefile{toc}{\contentsline {subsection}{\numberline {177.1}Variables}{452}{subsection.177.1}}
\@writefile{toc}{\contentsline {subsection}{\numberline {177.2}Class SinglePrefsFinanceVat}{452}{subsection.177.2}}
\newlabel{cuon:PrefsFinance:SinglePrefsFinanceVat:SinglePrefsFinanceVat}{{177.2}{452}{Class SinglePrefsFinanceVat\relax }{subsection.177.2}{}}
\@writefile{toc}{\contentsline {subsubsection}{\numberline {177.2.1}Methods}{452}{subsubsection.177.2.1}}
\newlabel{cuon:PrefsFinance:SinglePrefsFinanceVat:SinglePrefsFinanceVat:getNameAndDesignation}{{177.2.1}{452}{Methods\relax }{subsubsection.177.2.1}{}}
\@setckpt{cuon.PrefsFinance.SinglePrefsFinanceVat-module}{
\setcounter{page}{454}
\setcounter{equation}{0}
\setcounter{enumi}{0}
\setcounter{enumii}{0}
\setcounter{enumiii}{0}
\setcounter{enumiv}{0}
\setcounter{footnote}{0}
\setcounter{mpfootnote}{0}
\setcounter{part}{0}
\setcounter{section}{177}
\setcounter{subsection}{2}
\setcounter{subsubsection}{1}
\setcounter{paragraph}{0}
\setcounter{subparagraph}{0}
\setcounter{figure}{0}
\setcounter{table}{168}
\setcounter{LT@tables}{168}
\setcounter{LT@chunks}{4}
\setcounter{Item}{0}
\setcounter{Hfootnote}{0}
\setcounter{bookmark@seq@number}{671}
\setcounter{section@level}{3}
}
