\relax 
\gdef \LT@cci {\LT@entry 
    {1}{152.92793pt}\LT@entry 
    {1}{258.72162pt}\LT@entry 
    {1}{12.0pt}}
\@writefile{toc}{\contentsline {section}{\numberline {210}Module cuon.Staff.SingleStaffMisc}{536}{section.210}}
\newlabel{cuon:Staff:SingleStaffMisc}{{210}{536}{Module cuon.Staff.SingleStaffMisc\relax }{section.210}{}}
\@writefile{toc}{\contentsline {subsection}{\numberline {210.1}Variables}{536}{subsection.210.1}}
\@writefile{toc}{\contentsline {subsection}{\numberline {210.2}Class SingleStaffMisc}{536}{subsection.210.2}}
\newlabel{cuon:Staff:SingleStaffMisc:SingleStaffMisc}{{210.2}{536}{Class SingleStaffMisc\relax }{subsection.210.2}{}}
\@writefile{toc}{\contentsline {subsubsection}{\numberline {210.2.1}Methods}{536}{subsubsection.210.2.1}}
\@setckpt{cuon.Staff.SingleStaffMisc-module}{
\setcounter{page}{538}
\setcounter{equation}{0}
\setcounter{enumi}{0}
\setcounter{enumii}{0}
\setcounter{enumiii}{0}
\setcounter{enumiv}{0}
\setcounter{footnote}{0}
\setcounter{mpfootnote}{0}
\setcounter{part}{0}
\setcounter{section}{210}
\setcounter{subsection}{2}
\setcounter{subsubsection}{1}
\setcounter{paragraph}{0}
\setcounter{subparagraph}{0}
\setcounter{figure}{0}
\setcounter{table}{201}
\setcounter{LT@tables}{201}
\setcounter{LT@chunks}{4}
\setcounter{Item}{0}
\setcounter{Hfootnote}{0}
\setcounter{bookmark@seq@number}{797}
\setcounter{section@level}{3}
}
