\relax 
\gdef \LT@ci {\LT@entry 
    {1}{152.92793pt}\LT@entry 
    {1}{258.72162pt}\LT@entry 
    {1}{12.0pt}}
\@writefile{toc}{\contentsline {section}{\numberline {106}Module cuon.Finances.SingleAccountInfo}{292}{section.106}}
\newlabel{cuon:Finances:SingleAccountInfo}{{106}{292}{Module cuon.Finances.SingleAccountInfo\relax }{section.106}{}}
\@writefile{toc}{\contentsline {subsection}{\numberline {106.1}Variables}{292}{subsection.106.1}}
\@writefile{toc}{\contentsline {subsection}{\numberline {106.2}Class SingleAccountInfo}{292}{subsection.106.2}}
\newlabel{cuon:Finances:SingleAccountInfo:SingleAccountInfo}{{106.2}{292}{Class SingleAccountInfo\relax }{subsection.106.2}{}}
\@writefile{toc}{\contentsline {subsubsection}{\numberline {106.2.1}Methods}{292}{subsubsection.106.2.1}}
\newlabel{cuon:Finances:SingleAccountInfo:SingleAccountInfo:getInfoLine}{{106.2.1}{292}{Methods\relax }{subsubsection.106.2.1}{}}
\newlabel{cuon:Finances:SingleAccountInfo:SingleAccountInfo:getInfoLineForID}{{106.2.1}{292}{Methods\relax }{subsubsection.106.2.1}{}}
\@setckpt{cuon.Finances.SingleAccountInfo-module}{
\setcounter{page}{294}
\setcounter{equation}{0}
\setcounter{enumi}{0}
\setcounter{enumii}{0}
\setcounter{enumiii}{0}
\setcounter{enumiv}{0}
\setcounter{footnote}{0}
\setcounter{mpfootnote}{0}
\setcounter{part}{0}
\setcounter{section}{106}
\setcounter{subsection}{2}
\setcounter{subsubsection}{1}
\setcounter{paragraph}{0}
\setcounter{subparagraph}{0}
\setcounter{figure}{0}
\setcounter{table}{101}
\setcounter{LT@tables}{101}
\setcounter{LT@chunks}{4}
\setcounter{Item}{0}
\setcounter{Hfootnote}{0}
\setcounter{bookmark@seq@number}{400}
\setcounter{section@level}{3}
}
