\relax 
\gdef \LT@clxxv {\LT@entry 
    {1}{152.92793pt}\LT@entry 
    {1}{258.72162pt}\LT@entry 
    {1}{12.0pt}}
\@writefile{toc}{\contentsline {section}{\numberline {184}Module cuon.Project.SingleProjectStaffResources}{467}{section.184}}
\newlabel{cuon:Project:SingleProjectStaffResources}{{184}{467}{Module cuon.Project.SingleProjectStaffResources\relax }{section.184}{}}
\@writefile{toc}{\contentsline {subsection}{\numberline {184.1}Variables}{467}{subsection.184.1}}
\@writefile{toc}{\contentsline {subsection}{\numberline {184.2}Class SingleProjectStaffResources}{467}{subsection.184.2}}
\newlabel{cuon:Project:SingleProjectStaffResources:SingleProjectStaffResources}{{184.2}{467}{Class SingleProjectStaffResources\relax }{subsection.184.2}{}}
\@writefile{toc}{\contentsline {subsubsection}{\numberline {184.2.1}Methods}{467}{subsubsection.184.2.1}}
\@setckpt{cuon.Project.SingleProjectStaffResources-module}{
\setcounter{page}{469}
\setcounter{equation}{0}
\setcounter{enumi}{0}
\setcounter{enumii}{0}
\setcounter{enumiii}{0}
\setcounter{enumiv}{0}
\setcounter{footnote}{0}
\setcounter{mpfootnote}{0}
\setcounter{part}{0}
\setcounter{section}{184}
\setcounter{subsection}{2}
\setcounter{subsubsection}{1}
\setcounter{paragraph}{0}
\setcounter{subparagraph}{0}
\setcounter{figure}{0}
\setcounter{table}{175}
\setcounter{LT@tables}{175}
\setcounter{LT@chunks}{4}
\setcounter{Item}{0}
\setcounter{Hfootnote}{0}
\setcounter{bookmark@seq@number}{698}
\setcounter{section@level}{3}
}
