\relax 
\gdef \LT@cxli {\LT@entry 
    {1}{152.92793pt}\LT@entry 
    {1}{258.72162pt}\LT@entry 
    {1}{12.0pt}}
\@writefile{toc}{\contentsline {section}{\numberline {148}Module cuon.Login.login}{395}{section.148}}
\newlabel{cuon:Login:login}{{148}{395}{Module cuon.Login.login\relax }{section.148}{}}
\@writefile{toc}{\contentsline {subsection}{\numberline {148.1}Variables}{395}{subsection.148.1}}
\@writefile{toc}{\contentsline {subsection}{\numberline {148.2}Class loginwindow}{395}{subsection.148.2}}
\newlabel{cuon:Login:login:loginwindow}{{148.2}{395}{Class loginwindow\relax }{subsection.148.2}{}}
\@writefile{toc}{\contentsline {subsubsection}{\numberline {148.2.1}Methods}{395}{subsubsection.148.2.1}}
\newlabel{cuon:Login:login:loginwindow:on_TPassword_key_press_event}{{148.2.1}{396}{Methods\relax }{subsubsection.148.2.1}{}}
\newlabel{cuon:Login:login:loginwindow:on_TUserID_key_press_event}{{148.2.1}{396}{Methods\relax }{subsubsection.148.2.1}{}}
\newlabel{cuon:Login:login:loginwindow:on_okbutton1_clicked}{{148.2.1}{396}{Methods\relax }{subsubsection.148.2.1}{}}
\newlabel{cuon:Login:login:loginwindow:okButtonPressed}{{148.2.1}{396}{Methods\relax }{subsubsection.148.2.1}{}}
\newlabel{cuon:Login:login:loginwindow:on_cancelbutton1_clicked}{{148.2.1}{396}{Methods\relax }{subsubsection.148.2.1}{}}
\newlabel{cuon:Login:login:loginwindow:quitLogin}{{148.2.1}{396}{Methods\relax }{subsubsection.148.2.1}{}}
\@setckpt{cuon.Login.login-module}{
\setcounter{page}{398}
\setcounter{equation}{0}
\setcounter{enumi}{0}
\setcounter{enumii}{0}
\setcounter{enumiii}{0}
\setcounter{enumiv}{0}
\setcounter{footnote}{0}
\setcounter{mpfootnote}{0}
\setcounter{part}{0}
\setcounter{section}{148}
\setcounter{subsection}{2}
\setcounter{subsubsection}{1}
\setcounter{paragraph}{0}
\setcounter{subparagraph}{0}
\setcounter{figure}{0}
\setcounter{table}{141}
\setcounter{LT@tables}{141}
\setcounter{LT@chunks}{4}
\setcounter{Item}{0}
\setcounter{Hfootnote}{0}
\setcounter{bookmark@seq@number}{560}
\setcounter{section@level}{3}
}
