\relax 
\gdef \LT@xcvi {\LT@entry 
    {1}{152.92793pt}\LT@entry 
    {1}{258.72162pt}\LT@entry 
    {1}{12.0pt}}
\@writefile{toc}{\contentsline {section}{\numberline {101}Module cuon.Finances.CashAccountBook.standard\_cab\_monthly}{279}{section.101}}
\newlabel{cuon:Finances:CashAccountBook:standard_cab_monthly}{{101}{279}{Module cuon.Finances.CashAccountBook.standard\_cab\_monthly\relax }{section.101}{}}
\@writefile{toc}{\contentsline {subsection}{\numberline {101.1}Variables}{279}{subsection.101.1}}
\@writefile{toc}{\contentsline {subsection}{\numberline {101.2}Class standard\_cab\_monthly}{279}{subsection.101.2}}
\newlabel{cuon:Finances:CashAccountBook:standard_cab_monthly:standard_cab_monthly}{{101.2}{279}{Class standard\_cab\_monthly\relax }{subsection.101.2}{}}
\@writefile{toc}{\contentsline {subsubsection}{\numberline {101.2.1}Methods}{279}{subsubsection.101.2.1}}
\newlabel{cuon:Finances:CashAccountBook:standard_cab_monthly:standard_cab_monthly:on_okbutton1_clicked}{{101.2.1}{279}{Methods\relax }{subsubsection.101.2.1}{}}
\newlabel{cuon:Finances:CashAccountBook:standard_cab_monthly:standard_cab_monthly:on_cancelbutton1_clicked}{{101.2.1}{280}{Methods\relax }{subsubsection.101.2.1}{}}
\newlabel{cuon:Finances:CashAccountBook:standard_cab_monthly:standard_cab_monthly:on_bFileDialog_clicked}{{101.2.1}{280}{Methods\relax }{subsubsection.101.2.1}{}}
\@setckpt{cuon.Finances.CashAccountBook.standard_cab_monthly-module}{
\setcounter{page}{282}
\setcounter{equation}{0}
\setcounter{enumi}{0}
\setcounter{enumii}{0}
\setcounter{enumiii}{0}
\setcounter{enumiv}{0}
\setcounter{footnote}{0}
\setcounter{mpfootnote}{0}
\setcounter{part}{0}
\setcounter{section}{101}
\setcounter{subsection}{2}
\setcounter{subsubsection}{1}
\setcounter{paragraph}{0}
\setcounter{subparagraph}{0}
\setcounter{figure}{0}
\setcounter{table}{96}
\setcounter{LT@tables}{96}
\setcounter{LT@chunks}{4}
\setcounter{Item}{0}
\setcounter{Hfootnote}{0}
\setcounter{bookmark@seq@number}{381}
\setcounter{section@level}{3}
}
