\relax 
\gdef \LT@lxiv {\LT@entry 
    {1}{152.92793pt}\LT@entry 
    {1}{258.72162pt}\LT@entry 
    {1}{12.0pt}}
\@writefile{toc}{\contentsline {section}{\numberline {68}Module cuon.Databases.SingleExport}{198}{section.68}}
\newlabel{cuon:Databases:SingleExport}{{68}{198}{Module cuon.Databases.SingleExport\relax }{section.68}{}}
\@writefile{toc}{\contentsline {subsection}{\numberline {68.1}Variables}{198}{subsection.68.1}}
\@writefile{toc}{\contentsline {subsection}{\numberline {68.2}Class SingleExport}{198}{subsection.68.2}}
\newlabel{cuon:Databases:SingleExport:SingleExport}{{68.2}{198}{Class SingleExport\relax }{subsection.68.2}{}}
\@writefile{toc}{\contentsline {subsubsection}{\numberline {68.2.1}Methods}{198}{subsubsection.68.2.1}}
\newlabel{cuon:Databases:SingleExport:SingleExport:setExportTable}{{68.2.1}{198}{Methods\relax }{subsubsection.68.2.1}{}}
\@setckpt{cuon.Databases.SingleExport-module}{
\setcounter{page}{200}
\setcounter{equation}{0}
\setcounter{enumi}{0}
\setcounter{enumii}{0}
\setcounter{enumiii}{0}
\setcounter{enumiv}{0}
\setcounter{footnote}{0}
\setcounter{mpfootnote}{0}
\setcounter{part}{0}
\setcounter{section}{68}
\setcounter{subsection}{2}
\setcounter{subsubsection}{1}
\setcounter{paragraph}{0}
\setcounter{subparagraph}{0}
\setcounter{figure}{0}
\setcounter{table}{64}
\setcounter{LT@tables}{64}
\setcounter{LT@chunks}{4}
\setcounter{Item}{0}
\setcounter{Hfootnote}{0}
\setcounter{bookmark@seq@number}{257}
\setcounter{section@level}{3}
}
