\relax 
\gdef \LT@ccxiii {\LT@entry 
    {1}{152.92793pt}\LT@entry 
    {1}{258.72162pt}\LT@entry 
    {1}{12.0pt}}
\@writefile{toc}{\contentsline {section}{\numberline {222}Module cuon.SupportTicket.SingleSupportTicket}{562}{section.222}}
\newlabel{cuon:SupportTicket:SingleSupportTicket}{{222}{562}{Module cuon.SupportTicket.SingleSupportTicket\relax }{section.222}{}}
\@writefile{toc}{\contentsline {subsection}{\numberline {222.1}Variables}{562}{subsection.222.1}}
\@writefile{toc}{\contentsline {subsection}{\numberline {222.2}Class SingleSupportTicket}{562}{subsection.222.2}}
\newlabel{cuon:SupportTicket:SingleSupportTicket:SingleSupportTicket}{{222.2}{562}{Class SingleSupportTicket\relax }{subsection.222.2}{}}
\@writefile{toc}{\contentsline {subsubsection}{\numberline {222.2.1}Methods}{562}{subsubsection.222.2.1}}
\@setckpt{cuon.SupportTicket.SingleSupportTicket-module}{
\setcounter{page}{564}
\setcounter{equation}{0}
\setcounter{enumi}{0}
\setcounter{enumii}{0}
\setcounter{enumiii}{0}
\setcounter{enumiv}{0}
\setcounter{footnote}{0}
\setcounter{mpfootnote}{0}
\setcounter{part}{0}
\setcounter{section}{222}
\setcounter{subsection}{2}
\setcounter{subsubsection}{1}
\setcounter{paragraph}{0}
\setcounter{subparagraph}{0}
\setcounter{figure}{0}
\setcounter{table}{213}
\setcounter{LT@tables}{213}
\setcounter{LT@chunks}{4}
\setcounter{Item}{0}
\setcounter{Hfootnote}{0}
\setcounter{bookmark@seq@number}{842}
\setcounter{section@level}{3}
}
