\relax 
\gdef \LT@cvii {\LT@entry 
    {1}{152.92793pt}\LT@entry 
    {1}{258.72162pt}\LT@entry 
    {1}{12.0pt}}
\@writefile{toc}{\contentsline {section}{\numberline {112}Module cuon.Garden.SingleBotanyClass}{304}{section.112}}
\newlabel{cuon:Garden:SingleBotanyClass}{{112}{304}{Module cuon.Garden.SingleBotanyClass\relax }{section.112}{}}
\@writefile{toc}{\contentsline {subsection}{\numberline {112.1}Variables}{304}{subsection.112.1}}
\@writefile{toc}{\contentsline {subsection}{\numberline {112.2}Class SingleBotanyClass}{304}{subsection.112.2}}
\newlabel{cuon:Garden:SingleBotanyClass:SingleBotanyClass}{{112.2}{304}{Class SingleBotanyClass\relax }{subsection.112.2}{}}
\@writefile{toc}{\contentsline {subsubsection}{\numberline {112.2.1}Methods}{304}{subsubsection.112.2.1}}
\@setckpt{cuon.Garden.SingleBotanyClass-module}{
\setcounter{page}{306}
\setcounter{equation}{0}
\setcounter{enumi}{0}
\setcounter{enumii}{0}
\setcounter{enumiii}{0}
\setcounter{enumiv}{0}
\setcounter{footnote}{0}
\setcounter{mpfootnote}{0}
\setcounter{part}{0}
\setcounter{section}{112}
\setcounter{subsection}{2}
\setcounter{subsubsection}{1}
\setcounter{paragraph}{0}
\setcounter{subparagraph}{0}
\setcounter{figure}{0}
\setcounter{table}{107}
\setcounter{LT@tables}{107}
\setcounter{LT@chunks}{4}
\setcounter{Item}{0}
\setcounter{Hfootnote}{0}
\setcounter{bookmark@seq@number}{423}
\setcounter{section@level}{3}
}
