\relax 
\gdef \LT@cxv {\LT@entry 
    {1}{152.92793pt}\LT@entry 
    {1}{258.72162pt}\LT@entry 
    {1}{12.0pt}}
\@writefile{toc}{\contentsline {section}{\numberline {120}Module cuon.Garden.botany}{322}{section.120}}
\newlabel{cuon:Garden:botany}{{120}{322}{Module cuon.Garden.botany\relax }{section.120}{}}
\@writefile{toc}{\contentsline {subsection}{\numberline {120.1}Variables}{322}{subsection.120.1}}
\@writefile{toc}{\contentsline {subsection}{\numberline {120.2}Class botanywindow}{322}{subsection.120.2}}
\newlabel{cuon:Garden:botany:botanywindow}{{120.2}{322}{Class botanywindow\relax }{subsection.120.2}{}}
\@writefile{toc}{\contentsline {subsubsection}{\numberline {120.2.1}Methods}{322}{subsubsection.120.2.1}}
\newlabel{cuon:Garden:botany:botanywindow:on_quit1_activate}{{120.2.1}{322}{Methods\relax }{subsubsection.120.2.1}{}}
\newlabel{cuon:Garden:botany:botanywindow:on_divisio_save1_activate}{{120.2.1}{323}{Methods\relax }{subsubsection.120.2.1}{}}
\newlabel{cuon:Garden:botany:botanywindow:on_divisio_new1_activate}{{120.2.1}{323}{Methods\relax }{subsubsection.120.2.1}{}}
\newlabel{cuon:Garden:botany:botanywindow:on_divisio_edit1_activate}{{120.2.1}{323}{Methods\relax }{subsubsection.120.2.1}{}}
\newlabel{cuon:Garden:botany:botanywindow:on_divisio_clear1_activate}{{120.2.1}{323}{Methods\relax }{subsubsection.120.2.1}{}}
\newlabel{cuon:Garden:botany:botanywindow:on_class_save1_activate}{{120.2.1}{323}{Methods\relax }{subsubsection.120.2.1}{}}
\newlabel{cuon:Garden:botany:botanywindow:on_class_new1_activate}{{120.2.1}{323}{Methods\relax }{subsubsection.120.2.1}{}}
\newlabel{cuon:Garden:botany:botanywindow:on_class_edit1_activate}{{120.2.1}{323}{Methods\relax }{subsubsection.120.2.1}{}}
\newlabel{cuon:Garden:botany:botanywindow:on_class_clear1_activate}{{120.2.1}{323}{Methods\relax }{subsubsection.120.2.1}{}}
\newlabel{cuon:Garden:botany:botanywindow:on_ordo_save1_activate}{{120.2.1}{323}{Methods\relax }{subsubsection.120.2.1}{}}
\newlabel{cuon:Garden:botany:botanywindow:on_ordo_new1_activate}{{120.2.1}{323}{Methods\relax }{subsubsection.120.2.1}{}}
\newlabel{cuon:Garden:botany:botanywindow:on_ordo_edit1_activate}{{120.2.1}{323}{Methods\relax }{subsubsection.120.2.1}{}}
\newlabel{cuon:Garden:botany:botanywindow:on_ordo_clear1_activate}{{120.2.1}{323}{Methods\relax }{subsubsection.120.2.1}{}}
\newlabel{cuon:Garden:botany:botanywindow:on_family_save1_activate}{{120.2.1}{323}{Methods\relax }{subsubsection.120.2.1}{}}
\newlabel{cuon:Garden:botany:botanywindow:on_family_new1_activate}{{120.2.1}{323}{Methods\relax }{subsubsection.120.2.1}{}}
\newlabel{cuon:Garden:botany:botanywindow:on_family_edit1_activate}{{120.2.1}{323}{Methods\relax }{subsubsection.120.2.1}{}}
\newlabel{cuon:Garden:botany:botanywindow:on_family_clear1_activate}{{120.2.1}{323}{Methods\relax }{subsubsection.120.2.1}{}}
\newlabel{cuon:Garden:botany:botanywindow:on_genus_save1_activate}{{120.2.1}{323}{Methods\relax }{subsubsection.120.2.1}{}}
\newlabel{cuon:Garden:botany:botanywindow:on_genus_new1_activate}{{120.2.1}{323}{Methods\relax }{subsubsection.120.2.1}{}}
\newlabel{cuon:Garden:botany:botanywindow:on_genus_edit1_activate}{{120.2.1}{323}{Methods\relax }{subsubsection.120.2.1}{}}
\newlabel{cuon:Garden:botany:botanywindow:on_genus_clear1_activate}{{120.2.1}{323}{Methods\relax }{subsubsection.120.2.1}{}}
\newlabel{cuon:Garden:botany:botanywindow:on_save1_activate}{{120.2.1}{324}{Methods\relax }{subsubsection.120.2.1}{}}
\newlabel{cuon:Garden:botany:botanywindow:on_new1_activate}{{120.2.1}{324}{Methods\relax }{subsubsection.120.2.1}{}}
\newlabel{cuon:Garden:botany:botanywindow:on_edit1_activate}{{120.2.1}{324}{Methods\relax }{subsubsection.120.2.1}{}}
\newlabel{cuon:Garden:botany:botanywindow:on_clear1_activate}{{120.2.1}{324}{Methods\relax }{subsubsection.120.2.1}{}}
\newlabel{cuon:Garden:botany:botanywindow:on_bSearch_clicked}{{120.2.1}{324}{Methods\relax }{subsubsection.120.2.1}{}}
\newlabel{cuon:Garden:botany:botanywindow:on_eFindNumber_key_press_event}{{120.2.1}{324}{Methods\relax }{subsubsection.120.2.1}{}}
\newlabel{cuon:Garden:botany:botanywindow:on_eFindDesignation_key_press_event}{{120.2.1}{324}{Methods\relax }{subsubsection.120.2.1}{}}
\newlabel{cuon:Garden:botany:botanywindow:on_bBotanyDMS_clicked}{{120.2.1}{324}{Methods\relax }{subsubsection.120.2.1}{}}
\newlabel{cuon:Garden:botany:botanywindow:on_chooseBotany_activate}{{120.2.1}{324}{Methods\relax }{subsubsection.120.2.1}{}}
\newlabel{cuon:Garden:botany:botanywindow:on_tree1_row_activated}{{120.2.1}{324}{Methods\relax }{subsubsection.120.2.1}{}}
\newlabel{cuon:Garden:botany:botanywindow:on_bChooseArticle_clicked}{{120.2.1}{324}{Methods\relax }{subsubsection.120.2.1}{}}
\newlabel{cuon:Garden:botany:botanywindow:on_eArticleID_changed}{{120.2.1}{324}{Methods\relax }{subsubsection.120.2.1}{}}
\newlabel{cuon:Garden:botany:botanywindow:searchBotany}{{120.2.1}{324}{Methods\relax }{subsubsection.120.2.1}{}}
\newlabel{cuon:Garden:botany:botanywindow:refreshTree}{{120.2.1}{324}{Methods\relax }{subsubsection.120.2.1}{}}
\newlabel{cuon:Garden:botany:botanywindow:tabChanged}{{120.2.1}{324}{Methods\relax }{subsubsection.120.2.1}{}}
\@setckpt{cuon.Garden.botany-module}{
\setcounter{page}{327}
\setcounter{equation}{0}
\setcounter{enumi}{0}
\setcounter{enumii}{0}
\setcounter{enumiii}{0}
\setcounter{enumiv}{0}
\setcounter{footnote}{0}
\setcounter{mpfootnote}{0}
\setcounter{part}{0}
\setcounter{section}{120}
\setcounter{subsection}{2}
\setcounter{subsubsection}{1}
\setcounter{paragraph}{0}
\setcounter{subparagraph}{0}
\setcounter{figure}{0}
\setcounter{table}{115}
\setcounter{LT@tables}{115}
\setcounter{LT@chunks}{4}
\setcounter{Item}{0}
\setcounter{Hfootnote}{0}
\setcounter{bookmark@seq@number}{455}
\setcounter{section@level}{3}
}
