\relax 
\gdef \LT@ccxxv {\LT@entry 
    {1}{152.92793pt}\LT@entry 
    {1}{258.72162pt}\LT@entry 
    {1}{12.0pt}}
\@writefile{toc}{\contentsline {section}{\numberline {235}Package cuon.VTK}{586}{section.235}}
\newlabel{cuon:VTK}{{235}{586}{Package cuon.VTK\relax }{section.235}{}}
\@writefile{toc}{\contentsline {subsection}{\numberline {235.1}Modules}{586}{subsection.235.1}}
\@writefile{toc}{\contentsline {subsection}{\numberline {235.2}Variables}{586}{subsection.235.2}}
\@setckpt{cuon.VTK-module}{
\setcounter{page}{587}
\setcounter{equation}{0}
\setcounter{enumi}{1}
\setcounter{enumii}{0}
\setcounter{enumiii}{0}
\setcounter{enumiv}{0}
\setcounter{footnote}{0}
\setcounter{mpfootnote}{0}
\setcounter{part}{0}
\setcounter{section}{235}
\setcounter{subsection}{2}
\setcounter{subsubsection}{0}
\setcounter{paragraph}{0}
\setcounter{subparagraph}{0}
\setcounter{figure}{0}
\setcounter{table}{225}
\setcounter{LT@tables}{225}
\setcounter{LT@chunks}{4}
\setcounter{Item}{1}
\setcounter{Hfootnote}{0}
\setcounter{bookmark@seq@number}{889}
\setcounter{section@level}{2}
}
