\relax 
\gdef \LT@cxlvi {\LT@entry 
    {1}{152.92793pt}\LT@entry 
    {1}{258.72162pt}\LT@entry 
    {1}{12.0pt}}
\@writefile{toc}{\contentsline {section}{\numberline {153}Module cuon.Misc.messages}{406}{section.153}}
\newlabel{cuon:Misc:messages}{{153}{406}{Module cuon.Misc.messages\relax }{section.153}{}}
\@writefile{toc}{\contentsline {subsection}{\numberline {153.1}Variables}{406}{subsection.153.1}}
\@writefile{toc}{\contentsline {subsection}{\numberline {153.2}Class messages}{406}{subsection.153.2}}
\newlabel{cuon:Misc:messages:messages}{{153.2}{406}{Class messages\relax }{subsection.153.2}{}}
\@writefile{toc}{\contentsline {subsubsection}{\numberline {153.2.1}Methods}{406}{subsubsection.153.2.1}}
\newlabel{cuon:Misc:messages:messages:__init__}{{153.2.1}{406}{Methods\relax }{subsubsection.153.2.1}{}}
\newlabel{cuon:Misc:messages:messages:errorMsg}{{153.2.1}{406}{Methods\relax }{subsubsection.153.2.1}{}}
\newlabel{cuon:Misc:messages:messages:infoMsg}{{153.2.1}{406}{Methods\relax }{subsubsection.153.2.1}{}}
\newlabel{cuon:Misc:messages:messages:QuestionMsg}{{153.2.1}{406}{Methods\relax }{subsubsection.153.2.1}{}}
\@setckpt{cuon.Misc.messages-module}{
\setcounter{page}{407}
\setcounter{equation}{0}
\setcounter{enumi}{0}
\setcounter{enumii}{0}
\setcounter{enumiii}{0}
\setcounter{enumiv}{0}
\setcounter{footnote}{0}
\setcounter{mpfootnote}{0}
\setcounter{part}{0}
\setcounter{section}{153}
\setcounter{subsection}{2}
\setcounter{subsubsection}{1}
\setcounter{paragraph}{0}
\setcounter{subparagraph}{0}
\setcounter{figure}{0}
\setcounter{table}{146}
\setcounter{LT@tables}{146}
\setcounter{LT@chunks}{4}
\setcounter{Item}{0}
\setcounter{Hfootnote}{0}
\setcounter{bookmark@seq@number}{579}
\setcounter{section@level}{3}
}
