\relax 
\gdef \LT@lxxxiii {\LT@entry 
    {1}{152.92793pt}\LT@entry 
    {1}{258.72162pt}\LT@entry 
    {1}{12.0pt}}
\@writefile{toc}{\contentsline {section}{\numberline {86}Module cuon.Editor.programmersEditor}{239}{section.86}}
\newlabel{cuon:Editor:programmersEditor}{{86}{239}{Module cuon.Editor.programmersEditor\relax }{section.86}{}}
\@writefile{toc}{\contentsline {subsection}{\numberline {86.1}Variables}{239}{subsection.86.1}}
\@writefile{toc}{\contentsline {subsection}{\numberline {86.2}Class programmerseditor}{239}{subsection.86.2}}
\newlabel{cuon:Editor:programmersEditor:programmerseditor}{{86.2}{239}{Class programmerseditor\relax }{subsection.86.2}{}}
\@writefile{toc}{\contentsline {subsubsection}{\numberline {86.2.1}Methods}{239}{subsubsection.86.2.1}}
\newlabel{cuon:Editor:programmersEditor:programmerseditor:on_open1_activate}{{86.2.1}{240}{Methods\relax }{subsubsection.86.2.1}{}}
\newlabel{cuon:Editor:programmersEditor:programmerseditor:disconnectPrgFilesTree}{{86.2.1}{240}{Methods\relax }{subsubsection.86.2.1}{}}
\newlabel{cuon:Editor:programmersEditor:programmerseditor:connectPrgFilesTree}{{86.2.1}{240}{Methods\relax }{subsubsection.86.2.1}{}}
\newlabel{cuon:Editor:programmersEditor:programmerseditor:PrgFilesTree_select_callback}{{86.2.1}{240}{Methods\relax }{subsubsection.86.2.1}{}}
\newlabel{cuon:Editor:programmersEditor:programmerseditor:setPrgFiles}{{86.2.1}{240}{Methods\relax }{subsubsection.86.2.1}{}}
\newlabel{cuon:Editor:programmersEditor:programmerseditor:selectFile}{{86.2.1}{240}{Methods\relax }{subsubsection.86.2.1}{}}
\newlabel{cuon:Editor:programmersEditor:programmerseditor:setNewTextbuffer}{{86.2.1}{240}{Methods\relax }{subsubsection.86.2.1}{}}
\@setckpt{cuon.Editor.programmersEditor-module}{
\setcounter{page}{243}
\setcounter{equation}{0}
\setcounter{enumi}{0}
\setcounter{enumii}{0}
\setcounter{enumiii}{0}
\setcounter{enumiv}{0}
\setcounter{footnote}{0}
\setcounter{mpfootnote}{0}
\setcounter{part}{0}
\setcounter{section}{86}
\setcounter{subsection}{2}
\setcounter{subsubsection}{1}
\setcounter{paragraph}{0}
\setcounter{subparagraph}{0}
\setcounter{figure}{0}
\setcounter{table}{83}
\setcounter{LT@tables}{83}
\setcounter{LT@chunks}{4}
\setcounter{Item}{0}
\setcounter{Hfootnote}{0}
\setcounter{bookmark@seq@number}{327}
\setcounter{section@level}{3}
}
