\relax 
\gdef \LT@ccxii {\LT@entry 
    {1}{152.92793pt}\LT@entry 
    {1}{258.72162pt}\LT@entry 
    {1}{12.0pt}}
\@writefile{toc}{\contentsline {section}{\numberline {221}Module cuon.SupportTicket.SingleSupportProject}{560}{section.221}}
\newlabel{cuon:SupportTicket:SingleSupportProject}{{221}{560}{Module cuon.SupportTicket.SingleSupportProject\relax }{section.221}{}}
\@writefile{toc}{\contentsline {subsection}{\numberline {221.1}Variables}{560}{subsection.221.1}}
\@writefile{toc}{\contentsline {subsection}{\numberline {221.2}Class SingleSupportProject}{560}{subsection.221.2}}
\newlabel{cuon:SupportTicket:SingleSupportProject:SingleSupportProject}{{221.2}{560}{Class SingleSupportProject\relax }{subsection.221.2}{}}
\@writefile{toc}{\contentsline {subsubsection}{\numberline {221.2.1}Methods}{560}{subsubsection.221.2.1}}
\@setckpt{cuon.SupportTicket.SingleSupportProject-module}{
\setcounter{page}{562}
\setcounter{equation}{0}
\setcounter{enumi}{0}
\setcounter{enumii}{0}
\setcounter{enumiii}{0}
\setcounter{enumiv}{0}
\setcounter{footnote}{0}
\setcounter{mpfootnote}{0}
\setcounter{part}{0}
\setcounter{section}{221}
\setcounter{subsection}{2}
\setcounter{subsubsection}{1}
\setcounter{paragraph}{0}
\setcounter{subparagraph}{0}
\setcounter{figure}{0}
\setcounter{table}{212}
\setcounter{LT@tables}{212}
\setcounter{LT@chunks}{4}
\setcounter{Item}{0}
\setcounter{Hfootnote}{0}
\setcounter{bookmark@seq@number}{838}
\setcounter{section@level}{3}
}
