\relax 
\gdef \LT@cxxx {\LT@entry 
    {1}{152.92793pt}\LT@entry 
    {1}{258.72162pt}\LT@entry 
    {1}{12.0pt}}
\@writefile{toc}{\contentsline {section}{\numberline {135}Module cuon.Graves.SingleGraveyard}{360}{section.135}}
\newlabel{cuon:Graves:SingleGraveyard}{{135}{360}{Module cuon.Graves.SingleGraveyard\relax }{section.135}{}}
\@writefile{toc}{\contentsline {subsection}{\numberline {135.1}Variables}{360}{subsection.135.1}}
\@writefile{toc}{\contentsline {subsection}{\numberline {135.2}Class SingleGraveyard}{360}{subsection.135.2}}
\newlabel{cuon:Graves:SingleGraveyard:SingleGraveyard}{{135.2}{360}{Class SingleGraveyard\relax }{subsection.135.2}{}}
\@writefile{toc}{\contentsline {subsubsection}{\numberline {135.2.1}Methods}{360}{subsubsection.135.2.1}}
\newlabel{cuon:Graves:SingleGraveyard:SingleGraveyard:getAddress}{{135.2.1}{360}{Methods\relax }{subsubsection.135.2.1}{}}
\newlabel{cuon:Graves:SingleGraveyard:SingleGraveyard:getNameAndDesignation}{{135.2.1}{360}{Methods\relax }{subsubsection.135.2.1}{}}
\@setckpt{cuon.Graves.SingleGraveyard-module}{
\setcounter{page}{362}
\setcounter{equation}{0}
\setcounter{enumi}{0}
\setcounter{enumii}{0}
\setcounter{enumiii}{0}
\setcounter{enumiv}{0}
\setcounter{footnote}{0}
\setcounter{mpfootnote}{0}
\setcounter{part}{0}
\setcounter{section}{135}
\setcounter{subsection}{2}
\setcounter{subsubsection}{1}
\setcounter{paragraph}{0}
\setcounter{subparagraph}{0}
\setcounter{figure}{0}
\setcounter{table}{130}
\setcounter{LT@tables}{130}
\setcounter{LT@chunks}{4}
\setcounter{Item}{0}
\setcounter{Hfootnote}{0}
\setcounter{bookmark@seq@number}{514}
\setcounter{section@level}{3}
}
