\relax 
\gdef \LT@cxxii {\LT@entry 
    {1}{152.92793pt}\LT@entry 
    {1}{258.72162pt}\LT@entry 
    {1}{12.0pt}}
\@writefile{toc}{\contentsline {section}{\numberline {127}Module cuon.Graves.SingleGraveInvoices}{344}{section.127}}
\newlabel{cuon:Graves:SingleGraveInvoices}{{127}{344}{Module cuon.Graves.SingleGraveInvoices\relax }{section.127}{}}
\@writefile{toc}{\contentsline {subsection}{\numberline {127.1}Variables}{344}{subsection.127.1}}
\@writefile{toc}{\contentsline {subsection}{\numberline {127.2}Class SingleGraveInvoices}{344}{subsection.127.2}}
\newlabel{cuon:Graves:SingleGraveInvoices:SingleGraveInvoices}{{127.2}{344}{Class SingleGraveInvoices\relax }{subsection.127.2}{}}
\@writefile{toc}{\contentsline {subsubsection}{\numberline {127.2.1}Methods}{344}{subsubsection.127.2.1}}
\@setckpt{cuon.Graves.SingleGraveInvoices-module}{
\setcounter{page}{346}
\setcounter{equation}{0}
\setcounter{enumi}{0}
\setcounter{enumii}{0}
\setcounter{enumiii}{0}
\setcounter{enumiv}{0}
\setcounter{footnote}{0}
\setcounter{mpfootnote}{0}
\setcounter{part}{0}
\setcounter{section}{127}
\setcounter{subsection}{2}
\setcounter{subsubsection}{1}
\setcounter{paragraph}{0}
\setcounter{subparagraph}{0}
\setcounter{figure}{0}
\setcounter{table}{122}
\setcounter{LT@tables}{122}
\setcounter{LT@chunks}{4}
\setcounter{Item}{0}
\setcounter{Hfootnote}{0}
\setcounter{bookmark@seq@number}{482}
\setcounter{section@level}{3}
}
