\relax 
\gdef \LT@liv {\LT@entry 
    {1}{152.92793pt}\LT@entry 
    {1}{258.72162pt}\LT@entry 
    {1}{12.0pt}}
\@writefile{toc}{\contentsline {section}{\numberline {57}Package cuon.Clients}{170}{section.57}}
\newlabel{cuon:Clients}{{57}{170}{Package cuon.Clients\relax }{section.57}{}}
\@writefile{toc}{\contentsline {subsection}{\numberline {57.1}Modules}{170}{subsection.57.1}}
\@writefile{toc}{\contentsline {subsection}{\numberline {57.2}Variables}{170}{subsection.57.2}}
\@setckpt{cuon.Clients-module}{
\setcounter{page}{171}
\setcounter{equation}{0}
\setcounter{enumi}{0}
\setcounter{enumii}{0}
\setcounter{enumiii}{0}
\setcounter{enumiv}{0}
\setcounter{footnote}{0}
\setcounter{mpfootnote}{0}
\setcounter{part}{0}
\setcounter{section}{57}
\setcounter{subsection}{2}
\setcounter{subsubsection}{0}
\setcounter{paragraph}{0}
\setcounter{subparagraph}{0}
\setcounter{figure}{0}
\setcounter{table}{54}
\setcounter{LT@tables}{54}
\setcounter{LT@chunks}{4}
\setcounter{Item}{0}
\setcounter{Hfootnote}{0}
\setcounter{bookmark@seq@number}{216}
\setcounter{section@level}{2}
}
