\relax 
\gdef \LT@cxlii {\LT@entry 
    {1}{152.92793pt}\LT@entry 
    {1}{258.72162pt}\LT@entry 
    {1}{12.0pt}}
\@writefile{toc}{\contentsline {section}{\numberline {149}Package cuon.Misc}{398}{section.149}}
\newlabel{cuon:Misc}{{149}{398}{Package cuon.Misc\relax }{section.149}{}}
\@writefile{toc}{\contentsline {subsection}{\numberline {149.1}Modules}{398}{subsection.149.1}}
\@writefile{toc}{\contentsline {subsection}{\numberline {149.2}Variables}{398}{subsection.149.2}}
\@setckpt{cuon.Misc-module}{
\setcounter{page}{399}
\setcounter{equation}{0}
\setcounter{enumi}{0}
\setcounter{enumii}{0}
\setcounter{enumiii}{0}
\setcounter{enumiv}{0}
\setcounter{footnote}{0}
\setcounter{mpfootnote}{0}
\setcounter{part}{0}
\setcounter{section}{149}
\setcounter{subsection}{2}
\setcounter{subsubsection}{0}
\setcounter{paragraph}{0}
\setcounter{subparagraph}{0}
\setcounter{figure}{0}
\setcounter{table}{142}
\setcounter{LT@tables}{142}
\setcounter{LT@chunks}{4}
\setcounter{Item}{0}
\setcounter{Hfootnote}{0}
\setcounter{bookmark@seq@number}{563}
\setcounter{section@level}{2}
}
