\relax 
\gdef \LT@ccxxii {\LT@entry 
    {1}{152.92793pt}\LT@entry 
    {1}{258.72162pt}\LT@entry 
    {1}{12.0pt}}
\@writefile{toc}{\contentsline {section}{\numberline {232}Module cuon.TypeDefs.typedefs\_server}{581}{section.232}}
\newlabel{cuon:TypeDefs:typedefs_server}{{232}{581}{Module cuon.TypeDefs.typedefs\_server\relax }{section.232}{}}
\@writefile{toc}{\contentsline {subsection}{\numberline {232.1}Variables}{581}{subsection.232.1}}
\@writefile{toc}{\contentsline {subsection}{\numberline {232.2}Class typedefs\_server}{581}{subsection.232.2}}
\newlabel{cuon:TypeDefs:typedefs_server:typedefs_server}{{232.2}{581}{Class typedefs\_server\relax }{subsection.232.2}{}}
\@writefile{toc}{\contentsline {subsubsection}{\numberline {232.2.1}Methods}{581}{subsubsection.232.2.1}}
\@setckpt{cuon.TypeDefs.typedefs_server-module}{
\setcounter{page}{582}
\setcounter{equation}{0}
\setcounter{enumi}{0}
\setcounter{enumii}{0}
\setcounter{enumiii}{0}
\setcounter{enumiv}{0}
\setcounter{footnote}{0}
\setcounter{mpfootnote}{0}
\setcounter{part}{0}
\setcounter{section}{232}
\setcounter{subsection}{2}
\setcounter{subsubsection}{1}
\setcounter{paragraph}{0}
\setcounter{subparagraph}{0}
\setcounter{figure}{0}
\setcounter{table}{222}
\setcounter{LT@tables}{222}
\setcounter{LT@chunks}{4}
\setcounter{Item}{0}
\setcounter{Hfootnote}{0}
\setcounter{bookmark@seq@number}{879}
\setcounter{section@level}{3}
}
