\relax 
\gdef \LT@ccxxvi {\LT@entry 
    {1}{152.92793pt}\LT@entry 
    {1}{258.72162pt}\LT@entry 
    {1}{12.0pt}}
\@writefile{toc}{\contentsline {section}{\numberline {236}Module cuon.VTK.mainLogo}{587}{section.236}}
\newlabel{cuon:VTK:mainLogo}{{236}{587}{Module cuon.VTK.mainLogo\relax }{section.236}{}}
\@writefile{toc}{\contentsline {subsection}{\numberline {236.1}Variables}{587}{subsection.236.1}}
\@setckpt{cuon.VTK.mainLogo-module}{
\setcounter{page}{588}
\setcounter{equation}{0}
\setcounter{enumi}{1}
\setcounter{enumii}{0}
\setcounter{enumiii}{0}
\setcounter{enumiv}{0}
\setcounter{footnote}{0}
\setcounter{mpfootnote}{0}
\setcounter{part}{0}
\setcounter{section}{236}
\setcounter{subsection}{1}
\setcounter{subsubsection}{0}
\setcounter{paragraph}{0}
\setcounter{subparagraph}{0}
\setcounter{figure}{0}
\setcounter{table}{226}
\setcounter{LT@tables}{226}
\setcounter{LT@chunks}{4}
\setcounter{Item}{1}
\setcounter{Hfootnote}{0}
\setcounter{bookmark@seq@number}{891}
\setcounter{section@level}{2}
}
