\relax 
\gdef \LT@ccxxix {\LT@entry 
    {1}{152.92793pt}\LT@entry 
    {1}{258.72162pt}\LT@entry 
    {1}{12.0pt}}
\@writefile{toc}{\contentsline {section}{\numberline {239}Module cuon.WebShop.SingleWebshop}{590}{section.239}}
\newlabel{cuon:WebShop:SingleWebshop}{{239}{590}{Module cuon.WebShop.SingleWebshop\relax }{section.239}{}}
\@writefile{toc}{\contentsline {subsection}{\numberline {239.1}Variables}{590}{subsection.239.1}}
\@writefile{toc}{\contentsline {subsection}{\numberline {239.2}Class SingleWebshop}{590}{subsection.239.2}}
\newlabel{cuon:WebShop:SingleWebshop:SingleWebshop}{{239.2}{590}{Class SingleWebshop\relax }{subsection.239.2}{}}
\@writefile{toc}{\contentsline {subsubsection}{\numberline {239.2.1}Methods}{590}{subsubsection.239.2.1}}
\@setckpt{cuon.WebShop.SingleWebshop-module}{
\setcounter{page}{592}
\setcounter{equation}{0}
\setcounter{enumi}{1}
\setcounter{enumii}{0}
\setcounter{enumiii}{0}
\setcounter{enumiv}{0}
\setcounter{footnote}{0}
\setcounter{mpfootnote}{0}
\setcounter{part}{0}
\setcounter{section}{239}
\setcounter{subsection}{2}
\setcounter{subsubsection}{1}
\setcounter{paragraph}{0}
\setcounter{subparagraph}{0}
\setcounter{figure}{0}
\setcounter{table}{229}
\setcounter{LT@tables}{229}
\setcounter{LT@chunks}{4}
\setcounter{Item}{1}
\setcounter{Hfootnote}{0}
\setcounter{bookmark@seq@number}{902}
\setcounter{section@level}{3}
}
