\relax 
\gdef \LT@cxlviii {\LT@entry 
    {1}{152.92793pt}\LT@entry 
    {1}{258.72162pt}\LT@entry 
    {1}{12.0pt}}
\@writefile{toc}{\contentsline {section}{\numberline {155}Package cuon.OpenOffice}{408}{section.155}}
\newlabel{cuon:OpenOffice}{{155}{408}{Package cuon.OpenOffice\relax }{section.155}{}}
\@writefile{toc}{\contentsline {subsection}{\numberline {155.1}Modules}{408}{subsection.155.1}}
\@writefile{toc}{\contentsline {subsection}{\numberline {155.2}Variables}{408}{subsection.155.2}}
\@setckpt{cuon.OpenOffice-module}{
\setcounter{page}{409}
\setcounter{equation}{0}
\setcounter{enumi}{0}
\setcounter{enumii}{0}
\setcounter{enumiii}{0}
\setcounter{enumiv}{0}
\setcounter{footnote}{0}
\setcounter{mpfootnote}{0}
\setcounter{part}{0}
\setcounter{section}{155}
\setcounter{subsection}{2}
\setcounter{subsubsection}{0}
\setcounter{paragraph}{0}
\setcounter{subparagraph}{0}
\setcounter{figure}{0}
\setcounter{table}{148}
\setcounter{LT@tables}{148}
\setcounter{LT@chunks}{4}
\setcounter{Item}{0}
\setcounter{Hfootnote}{0}
\setcounter{bookmark@seq@number}{590}
\setcounter{section@level}{2}
}
