\relax 
\gdef \LT@cxi {\LT@entry 
    {1}{152.92793pt}\LT@entry 
    {1}{258.72162pt}\LT@entry 
    {1}{12.0pt}}
\@writefile{toc}{\contentsline {section}{\numberline {116}Module cuon.Garden.SingleBotanyOrdo}{312}{section.116}}
\newlabel{cuon:Garden:SingleBotanyOrdo}{{116}{312}{Module cuon.Garden.SingleBotanyOrdo\relax }{section.116}{}}
\@writefile{toc}{\contentsline {subsection}{\numberline {116.1}Variables}{312}{subsection.116.1}}
\@writefile{toc}{\contentsline {subsection}{\numberline {116.2}Class SingleBotanyOrdo}{312}{subsection.116.2}}
\newlabel{cuon:Garden:SingleBotanyOrdo:SingleBotanyOrdo}{{116.2}{312}{Class SingleBotanyOrdo\relax }{subsection.116.2}{}}
\@writefile{toc}{\contentsline {subsubsection}{\numberline {116.2.1}Methods}{312}{subsubsection.116.2.1}}
\@setckpt{cuon.Garden.SingleBotanyOrdo-module}{
\setcounter{page}{314}
\setcounter{equation}{0}
\setcounter{enumi}{0}
\setcounter{enumii}{0}
\setcounter{enumiii}{0}
\setcounter{enumiv}{0}
\setcounter{footnote}{0}
\setcounter{mpfootnote}{0}
\setcounter{part}{0}
\setcounter{section}{116}
\setcounter{subsection}{2}
\setcounter{subsubsection}{1}
\setcounter{paragraph}{0}
\setcounter{subparagraph}{0}
\setcounter{figure}{0}
\setcounter{table}{111}
\setcounter{LT@tables}{111}
\setcounter{LT@chunks}{4}
\setcounter{Item}{0}
\setcounter{Hfootnote}{0}
\setcounter{bookmark@seq@number}{439}
\setcounter{section@level}{3}
}
