\relax 
\gdef \LT@clv {\LT@entry 
    {1}{152.92793pt}\LT@entry 
    {1}{258.72162pt}\LT@entry 
    {1}{12.0pt}}
\@writefile{toc}{\contentsline {section}{\numberline {164}Module cuon.Order.SingleOrderPayment}{423}{section.164}}
\newlabel{cuon:Order:SingleOrderPayment}{{164}{423}{Module cuon.Order.SingleOrderPayment\relax }{section.164}{}}
\@writefile{toc}{\contentsline {subsection}{\numberline {164.1}Variables}{423}{subsection.164.1}}
\@writefile{toc}{\contentsline {subsection}{\numberline {164.2}Class SingleOrderPayment}{423}{subsection.164.2}}
\newlabel{cuon:Order:SingleOrderPayment:SingleOrderPayment}{{164.2}{423}{Class SingleOrderPayment\relax }{subsection.164.2}{}}
\@writefile{toc}{\contentsline {subsubsection}{\numberline {164.2.1}Methods}{423}{subsubsection.164.2.1}}
\@setckpt{cuon.Order.SingleOrderPayment-module}{
\setcounter{page}{425}
\setcounter{equation}{0}
\setcounter{enumi}{0}
\setcounter{enumii}{0}
\setcounter{enumiii}{0}
\setcounter{enumiv}{0}
\setcounter{footnote}{0}
\setcounter{mpfootnote}{0}
\setcounter{part}{0}
\setcounter{section}{164}
\setcounter{subsection}{2}
\setcounter{subsubsection}{1}
\setcounter{paragraph}{0}
\setcounter{subparagraph}{0}
\setcounter{figure}{0}
\setcounter{table}{155}
\setcounter{LT@tables}{155}
\setcounter{LT@chunks}{4}
\setcounter{Item}{0}
\setcounter{Hfootnote}{0}
\setcounter{bookmark@seq@number}{621}
\setcounter{section@level}{3}
}
