\relax 
\gdef \LT@ciii {\LT@entry 
    {1}{152.92793pt}\LT@entry 
    {1}{258.72162pt}\LT@entry 
    {1}{12.0pt}}
\@writefile{toc}{\contentsline {section}{\numberline {108}Module cuon.Finances.SingleAccountSentence}{296}{section.108}}
\newlabel{cuon:Finances:SingleAccountSentence}{{108}{296}{Module cuon.Finances.SingleAccountSentence\relax }{section.108}{}}
\@writefile{toc}{\contentsline {subsection}{\numberline {108.1}Variables}{296}{subsection.108.1}}
\@writefile{toc}{\contentsline {subsection}{\numberline {108.2}Class SingleAccountSentence}{296}{subsection.108.2}}
\newlabel{cuon:Finances:SingleAccountSentence:SingleAccountSentence}{{108.2}{296}{Class SingleAccountSentence\relax }{subsection.108.2}{}}
\@writefile{toc}{\contentsline {subsubsection}{\numberline {108.2.1}Methods}{296}{subsubsection.108.2.1}}
\@setckpt{cuon.Finances.SingleAccountSentence-module}{
\setcounter{page}{298}
\setcounter{equation}{0}
\setcounter{enumi}{0}
\setcounter{enumii}{0}
\setcounter{enumiii}{0}
\setcounter{enumiv}{0}
\setcounter{footnote}{0}
\setcounter{mpfootnote}{0}
\setcounter{part}{0}
\setcounter{section}{108}
\setcounter{subsection}{2}
\setcounter{subsubsection}{1}
\setcounter{paragraph}{0}
\setcounter{subparagraph}{0}
\setcounter{figure}{0}
\setcounter{table}{103}
\setcounter{LT@tables}{103}
\setcounter{LT@chunks}{4}
\setcounter{Item}{0}
\setcounter{Hfootnote}{0}
\setcounter{bookmark@seq@number}{408}
\setcounter{section@level}{3}
}
