\relax 
\gdef \LT@xxxix {\LT@entry 
    {1}{152.92793pt}\LT@entry 
    {1}{258.72162pt}\LT@entry 
    {1}{12.0pt}}
\@writefile{toc}{\contentsline {section}{\numberline {42}Module cuon.Articles.lists\_articles\_number1}{134}{section.42}}
\newlabel{cuon:Articles:lists_articles_number1}{{42}{134}{Module cuon.Articles.lists\_articles\_number1\relax }{section.42}{}}
\@writefile{toc}{\contentsline {subsection}{\numberline {42.1}Variables}{134}{subsection.42.1}}
\@writefile{toc}{\contentsline {subsection}{\numberline {42.2}Class lists\_articles\_number1}{134}{subsection.42.2}}
\newlabel{cuon:Articles:lists_articles_number1:lists_articles_number1}{{42.2}{134}{Class lists\_articles\_number1\relax }{subsection.42.2}{}}
\@writefile{toc}{\contentsline {subsubsection}{\numberline {42.2.1}Methods}{134}{subsubsection.42.2.1}}
\newlabel{cuon:Articles:lists_articles_number1:lists_articles_number1:on_okbutton1_clicked}{{42.2.1}{134}{Methods\relax }{subsubsection.42.2.1}{}}
\newlabel{cuon:Articles:lists_articles_number1:lists_articles_number1:on_cancelbutton1_clicked}{{42.2.1}{134}{Methods\relax }{subsubsection.42.2.1}{}}
\newlabel{cuon:Articles:lists_articles_number1:lists_articles_number1:readSearchDatafields}{{42.2.1}{134}{Methods\relax }{subsubsection.42.2.1}{}}
\@setckpt{cuon.Articles.lists_articles_number1-module}{
\setcounter{page}{136}
\setcounter{equation}{0}
\setcounter{enumi}{0}
\setcounter{enumii}{0}
\setcounter{enumiii}{0}
\setcounter{enumiv}{0}
\setcounter{footnote}{0}
\setcounter{mpfootnote}{0}
\setcounter{part}{0}
\setcounter{section}{42}
\setcounter{subsection}{2}
\setcounter{subsubsection}{1}
\setcounter{paragraph}{0}
\setcounter{subparagraph}{0}
\setcounter{figure}{0}
\setcounter{table}{39}
\setcounter{LT@tables}{39}
\setcounter{LT@chunks}{4}
\setcounter{Item}{0}
\setcounter{Hfootnote}{0}
\setcounter{bookmark@seq@number}{161}
\setcounter{section@level}{3}
}
