\relax 
\gdef \LT@cxcvi {\LT@entry 
    {1}{152.92793pt}\LT@entry 
    {1}{258.72162pt}\LT@entry 
    {1}{12.0pt}}
\@writefile{toc}{\contentsline {section}{\numberline {205}Module cuon.Skeleton.skeleton}{525}{section.205}}
\newlabel{cuon:Skeleton:skeleton}{{205}{525}{Module cuon.Skeleton.skeleton\relax }{section.205}{}}
\@writefile{toc}{\contentsline {subsection}{\numberline {205.1}Variables}{525}{subsection.205.1}}
\@writefile{toc}{\contentsline {subsection}{\numberline {205.2}Class clientswindow}{525}{subsection.205.2}}
\newlabel{cuon:Skeleton:skeleton:clientswindow}{{205.2}{525}{Class clientswindow\relax }{subsection.205.2}{}}
\@writefile{toc}{\contentsline {subsubsection}{\numberline {205.2.1}Methods}{525}{subsubsection.205.2.1}}
\newlabel{cuon:Skeleton:skeleton:clientswindow:on_quit1_activate}{{205.2.1}{525}{Methods\relax }{subsubsection.205.2.1}{}}
\newlabel{cuon:Skeleton:skeleton:clientswindow:on_save1_activate}{{205.2.1}{526}{Methods\relax }{subsubsection.205.2.1}{}}
\newlabel{cuon:Skeleton:skeleton:clientswindow:on_new1_activate}{{205.2.1}{526}{Methods\relax }{subsubsection.205.2.1}{}}
\newlabel{cuon:Skeleton:skeleton:clientswindow:on_edit1_activate}{{205.2.1}{526}{Methods\relax }{subsubsection.205.2.1}{}}
\newlabel{cuon:Skeleton:skeleton:clientswindow:on_delete1_activate}{{205.2.1}{526}{Methods\relax }{subsubsection.205.2.1}{}}
\newlabel{cuon:Skeleton:skeleton:clientswindow:on_MiscSave1_activate}{{205.2.1}{526}{Methods\relax }{subsubsection.205.2.1}{}}
\newlabel{cuon:Skeleton:skeleton:clientswindow:on_MiscEdit1_activate}{{205.2.1}{526}{Methods\relax }{subsubsection.205.2.1}{}}
\newlabel{cuon:Skeleton:skeleton:clientswindow:on_PartnerSave1_activate}{{205.2.1}{526}{Methods\relax }{subsubsection.205.2.1}{}}
\newlabel{cuon:Skeleton:skeleton:clientswindow:on_PartnerNew1_activate}{{205.2.1}{526}{Methods\relax }{subsubsection.205.2.1}{}}
\newlabel{cuon:Skeleton:skeleton:clientswindow:on_PartnerEdit1_activate}{{205.2.1}{526}{Methods\relax }{subsubsection.205.2.1}{}}
\newlabel{cuon:Skeleton:skeleton:clientswindow:on_PartnerDelete1_activate}{{205.2.1}{526}{Methods\relax }{subsubsection.205.2.1}{}}
\newlabel{cuon:Skeleton:skeleton:clientswindow:on_SchedulSave_activate}{{205.2.1}{526}{Methods\relax }{subsubsection.205.2.1}{}}
\newlabel{cuon:Skeleton:skeleton:clientswindow:on_SchedulEdit1_activate}{{205.2.1}{526}{Methods\relax }{subsubsection.205.2.1}{}}
\newlabel{cuon:Skeleton:skeleton:clientswindow:on_SchedulNew_activate}{{205.2.1}{526}{Methods\relax }{subsubsection.205.2.1}{}}
\newlabel{cuon:Skeleton:skeleton:clientswindow:on_SchedulDelete_activate}{{205.2.1}{526}{Methods\relax }{subsubsection.205.2.1}{}}
\newlabel{cuon:Skeleton:skeleton:clientswindow:on_gdeDate_date_changed}{{205.2.1}{526}{Methods\relax }{subsubsection.205.2.1}{}}
\newlabel{cuon:Skeleton:skeleton:clientswindow:on_liAddressesPhone1_activate}{{205.2.1}{526}{Methods\relax }{subsubsection.205.2.1}{}}
\newlabel{cuon:Skeleton:skeleton:clientswindow:on_liAddressesPhone11_activate}{{205.2.1}{526}{Methods\relax }{subsubsection.205.2.1}{}}
\newlabel{cuon:Skeleton:skeleton:clientswindow:on_newletter1_activate}{{205.2.1}{526}{Methods\relax }{subsubsection.205.2.1}{}}
\newlabel{cuon:Skeleton:skeleton:clientswindow:on_chooseAddress_activate}{{205.2.1}{526}{Methods\relax }{subsubsection.205.2.1}{}}
\newlabel{cuon:Skeleton:skeleton:clientswindow:on_bSearch_clicked}{{205.2.1}{526}{Methods\relax }{subsubsection.205.2.1}{}}
\newlabel{cuon:Skeleton:skeleton:clientswindow:refreshTree}{{205.2.1}{527}{Methods\relax }{subsubsection.205.2.1}{}}
\newlabel{cuon:Skeleton:skeleton:clientswindow:tabChanged}{{205.2.1}{527}{Methods\relax }{subsubsection.205.2.1}{}}
\@setckpt{cuon.Skeleton.skeleton-module}{
\setcounter{page}{529}
\setcounter{equation}{0}
\setcounter{enumi}{0}
\setcounter{enumii}{0}
\setcounter{enumiii}{0}
\setcounter{enumiv}{0}
\setcounter{footnote}{0}
\setcounter{mpfootnote}{0}
\setcounter{part}{0}
\setcounter{section}{205}
\setcounter{subsection}{2}
\setcounter{subsubsection}{1}
\setcounter{paragraph}{0}
\setcounter{subparagraph}{0}
\setcounter{figure}{0}
\setcounter{table}{196}
\setcounter{LT@tables}{196}
\setcounter{LT@chunks}{4}
\setcounter{Item}{0}
\setcounter{Hfootnote}{0}
\setcounter{bookmark@seq@number}{778}
\setcounter{section@level}{3}
}
