\relax 
\gdef \LT@xli {\LT@entry 
    {1}{152.92793pt}\LT@entry 
    {1}{258.72162pt}\LT@entry 
    {1}{12.0pt}}
\@writefile{toc}{\contentsline {section}{\numberline {44}Module cuon.Articles.pickles\_articles}{140}{section.44}}
\newlabel{cuon:Articles:pickles_articles}{{44}{140}{Module cuon.Articles.pickles\_articles\relax }{section.44}{}}
\@writefile{toc}{\contentsline {subsection}{\numberline {44.1}Variables}{140}{subsection.44.1}}
\@writefile{toc}{\contentsline {subsection}{\numberline {44.2}Class pickles\_articles}{140}{subsection.44.2}}
\newlabel{cuon:Articles:pickles_articles:pickles_articles}{{44.2}{140}{Class pickles\_articles\relax }{subsection.44.2}{}}
\@writefile{toc}{\contentsline {subsubsection}{\numberline {44.2.1}Methods}{140}{subsubsection.44.2.1}}
\newlabel{cuon:Articles:pickles_articles:pickles_articles:on_okbutton1_clicked}{{44.2.1}{140}{Methods\relax }{subsubsection.44.2.1}{}}
\newlabel{cuon:Articles:pickles_articles:pickles_articles:on_cancelbutton1_clicked}{{44.2.1}{140}{Methods\relax }{subsubsection.44.2.1}{}}
\newlabel{cuon:Articles:pickles_articles:pickles_articles:readSearchDatafields}{{44.2.1}{140}{Methods\relax }{subsubsection.44.2.1}{}}
\@setckpt{cuon.Articles.pickles_articles-module}{
\setcounter{page}{142}
\setcounter{equation}{0}
\setcounter{enumi}{0}
\setcounter{enumii}{0}
\setcounter{enumiii}{0}
\setcounter{enumiv}{0}
\setcounter{footnote}{0}
\setcounter{mpfootnote}{0}
\setcounter{part}{0}
\setcounter{section}{44}
\setcounter{subsection}{2}
\setcounter{subsubsection}{1}
\setcounter{paragraph}{0}
\setcounter{subparagraph}{0}
\setcounter{figure}{0}
\setcounter{table}{41}
\setcounter{LT@tables}{41}
\setcounter{LT@chunks}{4}
\setcounter{Item}{0}
\setcounter{Hfootnote}{0}
\setcounter{bookmark@seq@number}{169}
\setcounter{section@level}{3}
}
