\relax 
\gdef \LT@cliii {\LT@entry 
    {1}{152.92793pt}\LT@entry 
    {1}{258.72162pt}\LT@entry 
    {1}{12.0pt}}
\@writefile{toc}{\contentsline {section}{\numberline {162}Module cuon.Order.SingleOrderInvoice}{419}{section.162}}
\newlabel{cuon:Order:SingleOrderInvoice}{{162}{419}{Module cuon.Order.SingleOrderInvoice\relax }{section.162}{}}
\@writefile{toc}{\contentsline {subsection}{\numberline {162.1}Variables}{419}{subsection.162.1}}
\@writefile{toc}{\contentsline {subsection}{\numberline {162.2}Class SingleOrderInvoice}{419}{subsection.162.2}}
\newlabel{cuon:Order:SingleOrderInvoice:SingleOrderInvoice}{{162.2}{419}{Class SingleOrderInvoice\relax }{subsection.162.2}{}}
\@writefile{toc}{\contentsline {subsubsection}{\numberline {162.2.1}Methods}{419}{subsubsection.162.2.1}}
\@setckpt{cuon.Order.SingleOrderInvoice-module}{
\setcounter{page}{421}
\setcounter{equation}{0}
\setcounter{enumi}{0}
\setcounter{enumii}{0}
\setcounter{enumiii}{0}
\setcounter{enumiv}{0}
\setcounter{footnote}{0}
\setcounter{mpfootnote}{0}
\setcounter{part}{0}
\setcounter{section}{162}
\setcounter{subsection}{2}
\setcounter{subsubsection}{1}
\setcounter{paragraph}{0}
\setcounter{subparagraph}{0}
\setcounter{figure}{0}
\setcounter{table}{153}
\setcounter{LT@tables}{153}
\setcounter{LT@chunks}{4}
\setcounter{Item}{0}
\setcounter{Hfootnote}{0}
\setcounter{bookmark@seq@number}{613}
\setcounter{section@level}{3}
}
