\relax 
\gdef \LT@lxvii {\LT@entry 
    {1}{152.92793pt}\LT@entry 
    {1}{258.72162pt}\LT@entry 
    {1}{12.0pt}}
\@writefile{toc}{\contentsline {section}{\numberline {71}Module cuon.Databases.cyr\_column}{204}{section.71}}
\newlabel{cuon:Databases:cyr_column}{{71}{204}{Module cuon.Databases.cyr\_column\relax }{section.71}{}}
\@writefile{toc}{\contentsline {subsection}{\numberline {71.1}Variables}{204}{subsection.71.1}}
\@writefile{toc}{\contentsline {subsection}{\numberline {71.2}Class cyr\_column}{204}{subsection.71.2}}
\newlabel{cuon:Databases:cyr_column:cyr_column}{{71.2}{204}{Class cyr\_column\relax }{subsection.71.2}{}}
\@writefile{toc}{\contentsline {subsubsection}{\numberline {71.2.1}Methods}{204}{subsubsection.71.2.1}}
\newlabel{cuon:Databases:cyr_column:cyr_column:__init__}{{71.2.1}{204}{Methods\relax }{subsubsection.71.2.1}{}}
\newlabel{cuon:Databases:cyr_column:cyr_column:setName}{{71.2.1}{204}{Methods\relax }{subsubsection.71.2.1}{}}
\newlabel{cuon:Databases:cyr_column:cyr_column:getName}{{71.2.1}{204}{Methods\relax }{subsubsection.71.2.1}{}}
\newlabel{cuon:Databases:cyr_column:cyr_column:setType}{{71.2.1}{204}{Methods\relax }{subsubsection.71.2.1}{}}
\newlabel{cuon:Databases:cyr_column:cyr_column:getType}{{71.2.1}{204}{Methods\relax }{subsubsection.71.2.1}{}}
\newlabel{cuon:Databases:cyr_column:cyr_column:getSizeOfDatafield}{{71.2.1}{204}{Methods\relax }{subsubsection.71.2.1}{}}
\newlabel{cuon:Databases:cyr_column:cyr_column:setSizeOfDatafield}{{71.2.1}{204}{Methods\relax }{subsubsection.71.2.1}{}}
\newlabel{cuon:Databases:cyr_column:cyr_column:setAllowNull}{{71.2.1}{204}{Methods\relax }{subsubsection.71.2.1}{}}
\newlabel{cuon:Databases:cyr_column:cyr_column:isAllowNull}{{71.2.1}{204}{Methods\relax }{subsubsection.71.2.1}{}}
\newlabel{cuon:Databases:cyr_column:cyr_column:setPrimaryKey}{{71.2.1}{204}{Methods\relax }{subsubsection.71.2.1}{}}
\newlabel{cuon:Databases:cyr_column:cyr_column:getPrimaryKey}{{71.2.1}{204}{Methods\relax }{subsubsection.71.2.1}{}}
\newlabel{cuon:Databases:cyr_column:cyr_column:setDefaultValue}{{71.2.1}{204}{Methods\relax }{subsubsection.71.2.1}{}}
\newlabel{cuon:Databases:cyr_column:cyr_column:getDefaultValue}{{71.2.1}{204}{Methods\relax }{subsubsection.71.2.1}{}}
\@setckpt{cuon.Databases.cyr_column-module}{
\setcounter{page}{205}
\setcounter{equation}{0}
\setcounter{enumi}{0}
\setcounter{enumii}{0}
\setcounter{enumiii}{0}
\setcounter{enumiv}{0}
\setcounter{footnote}{0}
\setcounter{mpfootnote}{0}
\setcounter{part}{0}
\setcounter{section}{71}
\setcounter{subsection}{2}
\setcounter{subsubsection}{1}
\setcounter{paragraph}{0}
\setcounter{subparagraph}{0}
\setcounter{figure}{0}
\setcounter{table}{67}
\setcounter{LT@tables}{67}
\setcounter{LT@chunks}{4}
\setcounter{Item}{0}
\setcounter{Hfootnote}{0}
\setcounter{bookmark@seq@number}{269}
\setcounter{section@level}{3}
}
