\relax 
\gdef \LT@xx {\LT@entry 
    {1}{152.92793pt}\LT@entry 
    {1}{258.72162pt}\LT@entry 
    {1}{12.0pt}}
\@writefile{toc}{\contentsline {section}{\numberline {21}Module cuon.Addresses.lists\_addresses}{87}{section.21}}
\newlabel{cuon:Addresses:lists_addresses}{{21}{87}{Module cuon.Addresses.lists\_addresses\relax }{section.21}{}}
\@writefile{toc}{\contentsline {subsection}{\numberline {21.1}Variables}{87}{subsection.21.1}}
\@writefile{toc}{\contentsline {subsection}{\numberline {21.2}Class lists\_addresses}{87}{subsection.21.2}}
\newlabel{cuon:Addresses:lists_addresses:lists_addresses}{{21.2}{87}{Class lists\_addresses\relax }{subsection.21.2}{}}
\@writefile{toc}{\contentsline {subsubsection}{\numberline {21.2.1}Methods}{87}{subsubsection.21.2.1}}
\newlabel{cuon:Addresses:lists_addresses:lists_addresses:__init__}{{21.2.1}{87}{Methods\relax }{subsubsection.21.2.1}{}}
\newlabel{cuon:Addresses:lists_addresses:lists_addresses:readSearchDatafields}{{21.2.1}{87}{Methods\relax }{subsubsection.21.2.1}{}}
\@setckpt{cuon.Addresses.lists_addresses-module}{
\setcounter{page}{88}
\setcounter{equation}{0}
\setcounter{enumi}{0}
\setcounter{enumii}{0}
\setcounter{enumiii}{0}
\setcounter{enumiv}{0}
\setcounter{footnote}{0}
\setcounter{mpfootnote}{0}
\setcounter{part}{0}
\setcounter{section}{21}
\setcounter{subsection}{2}
\setcounter{subsubsection}{1}
\setcounter{paragraph}{0}
\setcounter{subparagraph}{0}
\setcounter{figure}{0}
\setcounter{table}{20}
\setcounter{LT@tables}{20}
\setcounter{LT@chunks}{4}
\setcounter{Item}{0}
\setcounter{Hfootnote}{0}
\setcounter{bookmark@seq@number}{81}
\setcounter{section@level}{3}
}
