\relax 
\gdef \LT@cxliii {\LT@entry 
    {1}{152.92793pt}\LT@entry 
    {1}{258.72162pt}\LT@entry 
    {1}{12.0pt}}
\@writefile{toc}{\contentsline {section}{\numberline {150}Module cuon.Misc.cuon\_dialog}{399}{section.150}}
\newlabel{cuon:Misc:cuon_dialog}{{150}{399}{Module cuon.Misc.cuon\_dialog\relax }{section.150}{}}
\@writefile{toc}{\contentsline {subsection}{\numberline {150.1}Variables}{399}{subsection.150.1}}
\@writefile{toc}{\contentsline {subsection}{\numberline {150.2}Class cuon\_dialog}{399}{subsection.150.2}}
\newlabel{cuon:Misc:cuon_dialog:cuon_dialog}{{150.2}{399}{Class cuon\_dialog\relax }{subsection.150.2}{}}
\@writefile{toc}{\contentsline {subsubsection}{\numberline {150.2.1}Methods}{399}{subsubsection.150.2.1}}
\newlabel{cuon:Misc:cuon_dialog:cuon_dialog:__init__}{{150.2.1}{399}{Methods\relax }{subsubsection.150.2.1}{}}
\newlabel{cuon:Misc:cuon_dialog:cuon_dialog:inputLine}{{150.2.1}{399}{Methods\relax }{subsubsection.150.2.1}{}}
\@setckpt{cuon.Misc.cuon_dialog-module}{
\setcounter{page}{400}
\setcounter{equation}{0}
\setcounter{enumi}{0}
\setcounter{enumii}{0}
\setcounter{enumiii}{0}
\setcounter{enumiv}{0}
\setcounter{footnote}{0}
\setcounter{mpfootnote}{0}
\setcounter{part}{0}
\setcounter{section}{150}
\setcounter{subsection}{2}
\setcounter{subsubsection}{1}
\setcounter{paragraph}{0}
\setcounter{subparagraph}{0}
\setcounter{figure}{0}
\setcounter{table}{143}
\setcounter{LT@tables}{143}
\setcounter{LT@chunks}{4}
\setcounter{Item}{0}
\setcounter{Hfootnote}{0}
\setcounter{bookmark@seq@number}{567}
\setcounter{section@level}{3}
}
