\relax 
\gdef \LT@clxxii {\LT@entry 
    {1}{152.92793pt}\LT@entry 
    {1}{258.72162pt}\LT@entry 
    {1}{12.0pt}}
\@writefile{toc}{\contentsline {section}{\numberline {181}Module cuon.Project.SingleProjectMaterialResources}{461}{section.181}}
\newlabel{cuon:Project:SingleProjectMaterialResources}{{181}{461}{Module cuon.Project.SingleProjectMaterialResources\relax }{section.181}{}}
\@writefile{toc}{\contentsline {subsection}{\numberline {181.1}Variables}{461}{subsection.181.1}}
\@writefile{toc}{\contentsline {subsection}{\numberline {181.2}Class SingleProjectMaterialResources}{461}{subsection.181.2}}
\newlabel{cuon:Project:SingleProjectMaterialResources:SingleProjectMaterialResources}{{181.2}{461}{Class SingleProjectMaterialResources\relax }{subsection.181.2}{}}
\@writefile{toc}{\contentsline {subsubsection}{\numberline {181.2.1}Methods}{461}{subsubsection.181.2.1}}
\@setckpt{cuon.Project.SingleProjectMaterialResources-module}{
\setcounter{page}{463}
\setcounter{equation}{0}
\setcounter{enumi}{0}
\setcounter{enumii}{0}
\setcounter{enumiii}{0}
\setcounter{enumiv}{0}
\setcounter{footnote}{0}
\setcounter{mpfootnote}{0}
\setcounter{part}{0}
\setcounter{section}{181}
\setcounter{subsection}{2}
\setcounter{subsubsection}{1}
\setcounter{paragraph}{0}
\setcounter{subparagraph}{0}
\setcounter{figure}{0}
\setcounter{table}{172}
\setcounter{LT@tables}{172}
\setcounter{LT@chunks}{4}
\setcounter{Item}{0}
\setcounter{Hfootnote}{0}
\setcounter{bookmark@seq@number}{686}
\setcounter{section@level}{3}
}
