\relax 
\gdef \LT@lxxiv {\LT@entry 
    {1}{152.92793pt}\LT@entry 
    {1}{258.72162pt}\LT@entry 
    {1}{12.0pt}}
\@writefile{toc}{\contentsline {section}{\numberline {78}Module cuon.Databases.import\_generic2}{222}{section.78}}
\newlabel{cuon:Databases:import_generic2}{{78}{222}{Module cuon.Databases.import\_generic2\relax }{section.78}{}}
\@writefile{toc}{\contentsline {subsection}{\numberline {78.1}Variables}{222}{subsection.78.1}}
\@writefile{toc}{\contentsline {subsection}{\numberline {78.2}Class import\_generic2}{222}{subsection.78.2}}
\newlabel{cuon:Databases:import_generic2:import_generic2}{{78.2}{222}{Class import\_generic2\relax }{subsection.78.2}{}}
\@writefile{toc}{\contentsline {subsubsection}{\numberline {78.2.1}Methods}{223}{subsubsection.78.2.1}}
\newlabel{cuon:Databases:import_generic2:import_generic2:on_ok_button1_clicked}{{78.2.1}{223}{Methods\relax }{subsubsection.78.2.1}{}}
\@setckpt{cuon.Databases.import_generic2-module}{
\setcounter{page}{225}
\setcounter{equation}{0}
\setcounter{enumi}{0}
\setcounter{enumii}{0}
\setcounter{enumiii}{0}
\setcounter{enumiv}{0}
\setcounter{footnote}{0}
\setcounter{mpfootnote}{0}
\setcounter{part}{0}
\setcounter{section}{78}
\setcounter{subsection}{2}
\setcounter{subsubsection}{1}
\setcounter{paragraph}{0}
\setcounter{subparagraph}{0}
\setcounter{figure}{0}
\setcounter{table}{74}
\setcounter{LT@tables}{74}
\setcounter{LT@chunks}{4}
\setcounter{Item}{0}
\setcounter{Hfootnote}{0}
\setcounter{bookmark@seq@number}{297}
\setcounter{section@level}{3}
}
