\relax 
\gdef \LT@cx {\LT@entry 
    {1}{152.92793pt}\LT@entry 
    {1}{258.72162pt}\LT@entry 
    {1}{12.0pt}}
\@writefile{toc}{\contentsline {section}{\numberline {115}Module cuon.Garden.SingleBotanyGenus}{310}{section.115}}
\newlabel{cuon:Garden:SingleBotanyGenus}{{115}{310}{Module cuon.Garden.SingleBotanyGenus\relax }{section.115}{}}
\@writefile{toc}{\contentsline {subsection}{\numberline {115.1}Variables}{310}{subsection.115.1}}
\@writefile{toc}{\contentsline {subsection}{\numberline {115.2}Class SingleBotanyGenus}{310}{subsection.115.2}}
\newlabel{cuon:Garden:SingleBotanyGenus:SingleBotanyGenus}{{115.2}{310}{Class SingleBotanyGenus\relax }{subsection.115.2}{}}
\@writefile{toc}{\contentsline {subsubsection}{\numberline {115.2.1}Methods}{310}{subsubsection.115.2.1}}
\newlabel{cuon:Garden:SingleBotanyGenus:SingleBotanyGenus:getGenusName}{{115.2.1}{310}{Methods\relax }{subsubsection.115.2.1}{}}
\@setckpt{cuon.Garden.SingleBotanyGenus-module}{
\setcounter{page}{312}
\setcounter{equation}{0}
\setcounter{enumi}{0}
\setcounter{enumii}{0}
\setcounter{enumiii}{0}
\setcounter{enumiv}{0}
\setcounter{footnote}{0}
\setcounter{mpfootnote}{0}
\setcounter{part}{0}
\setcounter{section}{115}
\setcounter{subsection}{2}
\setcounter{subsubsection}{1}
\setcounter{paragraph}{0}
\setcounter{subparagraph}{0}
\setcounter{figure}{0}
\setcounter{table}{110}
\setcounter{LT@tables}{110}
\setcounter{LT@chunks}{4}
\setcounter{Item}{0}
\setcounter{Hfootnote}{0}
\setcounter{bookmark@seq@number}{435}
\setcounter{section@level}{3}
}
