\relax 
\gdef \LT@cciv {\LT@entry 
    {1}{152.92793pt}\LT@entry 
    {1}{258.72162pt}\LT@entry 
    {1}{12.0pt}}
\@writefile{toc}{\contentsline {section}{\numberline {213}Package cuon.Stats}{545}{section.213}}
\newlabel{cuon:Stats}{{213}{545}{Package cuon.Stats\relax }{section.213}{}}
\@writefile{toc}{\contentsline {subsection}{\numberline {213.1}Modules}{545}{subsection.213.1}}
\@writefile{toc}{\contentsline {subsection}{\numberline {213.2}Variables}{545}{subsection.213.2}}
\@setckpt{cuon.Stats-module}{
\setcounter{page}{546}
\setcounter{equation}{0}
\setcounter{enumi}{0}
\setcounter{enumii}{0}
\setcounter{enumiii}{0}
\setcounter{enumiv}{0}
\setcounter{footnote}{0}
\setcounter{mpfootnote}{0}
\setcounter{part}{0}
\setcounter{section}{213}
\setcounter{subsection}{2}
\setcounter{subsubsection}{0}
\setcounter{paragraph}{0}
\setcounter{subparagraph}{0}
\setcounter{figure}{0}
\setcounter{table}{204}
\setcounter{LT@tables}{204}
\setcounter{LT@chunks}{4}
\setcounter{Item}{0}
\setcounter{Hfootnote}{0}
\setcounter{bookmark@seq@number}{808}
\setcounter{section@level}{2}
}
