\relax 
\gdef \LT@xlix {\LT@entry 
    {1}{152.92793pt}\LT@entry 
    {1}{258.72162pt}\LT@entry 
    {1}{12.0pt}}
\@writefile{toc}{\contentsline {section}{\numberline {52}Module cuon.Calendar.calendar}{157}{section.52}}
\newlabel{cuon:Calendar:calendar}{{52}{157}{Module cuon.Calendar.calendar\relax }{section.52}{}}
\@writefile{toc}{\contentsline {subsection}{\numberline {52.1}Variables}{157}{subsection.52.1}}
\@writefile{toc}{\contentsline {subsection}{\numberline {52.2}Class calendarwindow}{157}{subsection.52.2}}
\newlabel{cuon:Calendar:calendar:calendarwindow}{{52.2}{157}{Class calendarwindow\relax }{subsection.52.2}{}}
\@writefile{toc}{\contentsline {subsubsection}{\numberline {52.2.1}Methods}{157}{subsubsection.52.2.1}}
\newlabel{cuon:Calendar:calendar:calendarwindow:on_calendar1_day_selected}{{52.2.1}{157}{Methods\relax }{subsubsection.52.2.1}{}}
\newlabel{cuon:Calendar:calendar:calendarwindow:CalendarChanged}{{52.2.1}{157}{Methods\relax }{subsubsection.52.2.1}{}}
\@setckpt{cuon.Calendar.calendar-module}{
\setcounter{page}{160}
\setcounter{equation}{0}
\setcounter{enumi}{0}
\setcounter{enumii}{0}
\setcounter{enumiii}{0}
\setcounter{enumiv}{0}
\setcounter{footnote}{0}
\setcounter{mpfootnote}{0}
\setcounter{part}{0}
\setcounter{section}{52}
\setcounter{subsection}{2}
\setcounter{subsubsection}{1}
\setcounter{paragraph}{0}
\setcounter{subparagraph}{0}
\setcounter{figure}{0}
\setcounter{table}{49}
\setcounter{LT@tables}{49}
\setcounter{LT@chunks}{4}
\setcounter{Item}{0}
\setcounter{Hfootnote}{0}
\setcounter{bookmark@seq@number}{198}
\setcounter{section@level}{3}
}
