\relax 
\gdef \LT@clxiv {\LT@entry 
    {1}{152.92793pt}\LT@entry 
    {1}{258.72162pt}\LT@entry 
    {1}{12.0pt}}
\@writefile{toc}{\contentsline {section}{\numberline {173}Module cuon.Preferences.SinglePreferences}{443}{section.173}}
\newlabel{cuon:Preferences:SinglePreferences}{{173}{443}{Module cuon.Preferences.SinglePreferences\relax }{section.173}{}}
\@writefile{toc}{\contentsline {subsection}{\numberline {173.1}Variables}{443}{subsection.173.1}}
\@writefile{toc}{\contentsline {subsection}{\numberline {173.2}Class SinglePreferences}{443}{subsection.173.2}}
\newlabel{cuon:Preferences:SinglePreferences:SinglePreferences}{{173.2}{443}{Class SinglePreferences\relax }{subsection.173.2}{}}
\@writefile{toc}{\contentsline {subsubsection}{\numberline {173.2.1}Methods}{443}{subsubsection.173.2.1}}
\@setckpt{cuon.Preferences.SinglePreferences-module}{
\setcounter{page}{445}
\setcounter{equation}{0}
\setcounter{enumi}{0}
\setcounter{enumii}{0}
\setcounter{enumiii}{0}
\setcounter{enumiv}{0}
\setcounter{footnote}{0}
\setcounter{mpfootnote}{0}
\setcounter{part}{0}
\setcounter{section}{173}
\setcounter{subsection}{2}
\setcounter{subsubsection}{1}
\setcounter{paragraph}{0}
\setcounter{subparagraph}{0}
\setcounter{figure}{0}
\setcounter{table}{164}
\setcounter{LT@tables}{164}
\setcounter{LT@chunks}{4}
\setcounter{Item}{0}
\setcounter{Hfootnote}{0}
\setcounter{bookmark@seq@number}{656}
\setcounter{section@level}{3}
}
