\relax 
\gdef \LT@cxliv {\LT@entry 
    {1}{152.92793pt}\LT@entry 
    {1}{258.72162pt}\LT@entry 
    {1}{12.0pt}}
\@writefile{toc}{\contentsline {section}{\numberline {151}Module cuon.Misc.cuonlists}{400}{section.151}}
\newlabel{cuon:Misc:cuonlists}{{151}{400}{Module cuon.Misc.cuonlists\relax }{section.151}{}}
\@writefile{toc}{\contentsline {subsection}{\numberline {151.1}Variables}{400}{subsection.151.1}}
\@writefile{toc}{\contentsline {subsection}{\numberline {151.2}Class cuonlists}{400}{subsection.151.2}}
\newlabel{cuon:Misc:cuonlists:cuonlists}{{151.2}{400}{Class cuonlists\relax }{subsection.151.2}{}}
\@writefile{toc}{\contentsline {subsubsection}{\numberline {151.2.1}Methods}{400}{subsubsection.151.2.1}}
\newlabel{cuon:Misc:cuonlists:cuonlists:on_cancel_button1_clicked}{{151.2.1}{400}{Methods\relax }{subsubsection.151.2.1}{}}
\newlabel{cuon:Misc:cuonlists:cuonlists:showFinddialog}{{151.2.1}{400}{Methods\relax }{subsubsection.151.2.1}{}}
\newlabel{cuon:Misc:cuonlists:cuonlists:quitFinddialog}{{151.2.1}{401}{Methods\relax }{subsubsection.151.2.1}{}}
\newlabel{cuon:Misc:cuonlists:cuonlists:getFilenames}{{151.2.1}{401}{Methods\relax }{subsubsection.151.2.1}{}}
\newlabel{cuon:Misc:cuonlists:cuonlists:on_bNewPredefine_clicked}{{151.2.1}{401}{Methods\relax }{subsubsection.151.2.1}{}}
\newlabel{cuon:Misc:cuonlists:cuonlists:on_bEditPredefine_clicked}{{151.2.1}{401}{Methods\relax }{subsubsection.151.2.1}{}}
\newlabel{cuon:Misc:cuonlists:cuonlists:on_cbPredefined_changed}{{151.2.1}{401}{Methods\relax }{subsubsection.151.2.1}{}}
\newlabel{cuon:Misc:cuonlists:cuonlists:on_bDeletePredefine_clicked}{{151.2.1}{401}{Methods\relax }{subsubsection.151.2.1}{}}
\@setckpt{cuon.Misc.cuonlists-module}{
\setcounter{page}{403}
\setcounter{equation}{0}
\setcounter{enumi}{0}
\setcounter{enumii}{0}
\setcounter{enumiii}{0}
\setcounter{enumiv}{0}
\setcounter{footnote}{0}
\setcounter{mpfootnote}{0}
\setcounter{part}{0}
\setcounter{section}{151}
\setcounter{subsection}{2}
\setcounter{subsubsection}{1}
\setcounter{paragraph}{0}
\setcounter{subparagraph}{0}
\setcounter{figure}{0}
\setcounter{table}{144}
\setcounter{LT@tables}{144}
\setcounter{LT@chunks}{4}
\setcounter{Item}{0}
\setcounter{Hfootnote}{0}
\setcounter{bookmark@seq@number}{571}
\setcounter{section@level}{3}
}
