\relax 
\gdef \LT@cv {\LT@entry 
    {1}{152.92793pt}\LT@entry 
    {1}{258.72162pt}\LT@entry 
    {1}{12.0pt}}
\@writefile{toc}{\contentsline {section}{\numberline {110}Package cuon.Garden}{300}{section.110}}
\newlabel{cuon:Garden}{{110}{300}{Package cuon.Garden\relax }{section.110}{}}
\@writefile{toc}{\contentsline {subsection}{\numberline {110.1}Modules}{300}{subsection.110.1}}
\@writefile{toc}{\contentsline {subsection}{\numberline {110.2}Variables}{300}{subsection.110.2}}
\@setckpt{cuon.Garden-module}{
\setcounter{page}{301}
\setcounter{equation}{0}
\setcounter{enumi}{0}
\setcounter{enumii}{0}
\setcounter{enumiii}{0}
\setcounter{enumiv}{0}
\setcounter{footnote}{0}
\setcounter{mpfootnote}{0}
\setcounter{part}{0}
\setcounter{section}{110}
\setcounter{subsection}{2}
\setcounter{subsubsection}{0}
\setcounter{paragraph}{0}
\setcounter{subparagraph}{0}
\setcounter{figure}{0}
\setcounter{table}{105}
\setcounter{LT@tables}{105}
\setcounter{LT@chunks}{4}
\setcounter{Item}{0}
\setcounter{Hfootnote}{0}
\setcounter{bookmark@seq@number}{415}
\setcounter{section@level}{2}
}
