\relax 
\gdef \LT@xxiv {\LT@entry 
    {1}{152.92793pt}\LT@entry 
    {1}{258.72162pt}\LT@entry 
    {1}{12.0pt}}
\@writefile{toc}{\contentsline {section}{\numberline {26}Module cuon.Addresses.printAddress}{95}{section.26}}
\newlabel{cuon:Addresses:printAddress}{{26}{95}{Module cuon.Addresses.printAddress\relax }{section.26}{}}
\@writefile{toc}{\contentsline {subsection}{\numberline {26.1}Variables}{95}{subsection.26.1}}
\@writefile{toc}{\contentsline {subsection}{\numberline {26.2}Class printAddress}{95}{subsection.26.2}}
\newlabel{cuon:Addresses:printAddress:printAddress}{{26.2}{95}{Class printAddress\relax }{subsection.26.2}{}}
\@writefile{toc}{\contentsline {subsubsection}{\numberline {26.2.1}Methods}{95}{subsubsection.26.2.1}}
\newlabel{cuon:Addresses:printAddress:printAddress:__init__}{{26.2.1}{95}{Methods\relax }{subsubsection.26.2.1}{}}
\@setckpt{cuon.Addresses.printAddress-module}{
\setcounter{page}{96}
\setcounter{equation}{0}
\setcounter{enumi}{0}
\setcounter{enumii}{0}
\setcounter{enumiii}{0}
\setcounter{enumiv}{0}
\setcounter{footnote}{0}
\setcounter{mpfootnote}{0}
\setcounter{part}{0}
\setcounter{section}{26}
\setcounter{subsection}{2}
\setcounter{subsubsection}{1}
\setcounter{paragraph}{0}
\setcounter{subparagraph}{0}
\setcounter{figure}{0}
\setcounter{table}{24}
\setcounter{LT@tables}{24}
\setcounter{LT@chunks}{4}
\setcounter{Item}{0}
\setcounter{Hfootnote}{0}
\setcounter{bookmark@seq@number}{100}
\setcounter{section@level}{3}
}
