\relax 
\gdef \LT@ccix {\LT@entry 
    {1}{152.92793pt}\LT@entry 
    {1}{258.72162pt}\LT@entry 
    {1}{12.0pt}}
\@writefile{toc}{\contentsline {section}{\numberline {218}Module cuon.Stock.lists\_stockgoods\_number1}{554}{section.218}}
\newlabel{cuon:Stock:lists_stockgoods_number1}{{218}{554}{Module cuon.Stock.lists\_stockgoods\_number1\relax }{section.218}{}}
\@writefile{toc}{\contentsline {subsection}{\numberline {218.1}Variables}{554}{subsection.218.1}}
\@writefile{toc}{\contentsline {subsection}{\numberline {218.2}Class lists\_stockgoods\_number1}{554}{subsection.218.2}}
\newlabel{cuon:Stock:lists_stockgoods_number1:lists_stockgoods_number1}{{218.2}{554}{Class lists\_stockgoods\_number1\relax }{subsection.218.2}{}}
\@writefile{toc}{\contentsline {subsubsection}{\numberline {218.2.1}Methods}{554}{subsubsection.218.2.1}}
\newlabel{cuon:Stock:lists_stockgoods_number1:lists_stockgoods_number1:__init__}{{218.2.1}{554}{Methods\relax }{subsubsection.218.2.1}{}}
\newlabel{cuon:Stock:lists_stockgoods_number1:lists_stockgoods_number1:on_okbutton1_clicked}{{218.2.1}{554}{Methods\relax }{subsubsection.218.2.1}{}}
\newlabel{cuon:Stock:lists_stockgoods_number1:lists_stockgoods_number1:readSearchDatafields}{{218.2.1}{554}{Methods\relax }{subsubsection.218.2.1}{}}
\newlabel{cuon:Stock:lists_stockgoods_number1:lists_stockgoods_number1:on_cancelbutton1_clicked}{{218.2.1}{554}{Methods\relax }{subsubsection.218.2.1}{}}
\newlabel{cuon:Stock:lists_stockgoods_number1:lists_stockgoods_number1:on_bFileDialog_clicked}{{218.2.1}{554}{Methods\relax }{subsubsection.218.2.1}{}}
\@setckpt{cuon.Stock.lists_stockgoods_number1-module}{
\setcounter{page}{555}
\setcounter{equation}{0}
\setcounter{enumi}{0}
\setcounter{enumii}{0}
\setcounter{enumiii}{0}
\setcounter{enumiv}{0}
\setcounter{footnote}{0}
\setcounter{mpfootnote}{0}
\setcounter{part}{0}
\setcounter{section}{218}
\setcounter{subsection}{2}
\setcounter{subsubsection}{1}
\setcounter{paragraph}{0}
\setcounter{subparagraph}{0}
\setcounter{figure}{0}
\setcounter{table}{209}
\setcounter{LT@tables}{209}
\setcounter{LT@chunks}{4}
\setcounter{Item}{0}
\setcounter{Hfootnote}{0}
\setcounter{bookmark@seq@number}{827}
\setcounter{section@level}{3}
}
