\relax 
\gdef \LT@cxciv {\LT@entry 
    {1}{152.92793pt}\LT@entry 
    {1}{258.72162pt}\LT@entry 
    {1}{12.0pt}}
\@writefile{toc}{\contentsline {section}{\numberline {203}Package cuon.Skeleton}{522}{section.203}}
\newlabel{cuon:Skeleton}{{203}{522}{Package cuon.Skeleton\relax }{section.203}{}}
\@writefile{toc}{\contentsline {subsection}{\numberline {203.1}Modules}{522}{subsection.203.1}}
\@writefile{toc}{\contentsline {subsection}{\numberline {203.2}Variables}{522}{subsection.203.2}}
\@setckpt{cuon.Skeleton-module}{
\setcounter{page}{523}
\setcounter{equation}{0}
\setcounter{enumi}{0}
\setcounter{enumii}{0}
\setcounter{enumiii}{0}
\setcounter{enumiv}{0}
\setcounter{footnote}{0}
\setcounter{mpfootnote}{0}
\setcounter{part}{0}
\setcounter{section}{203}
\setcounter{subsection}{2}
\setcounter{subsubsection}{0}
\setcounter{paragraph}{0}
\setcounter{subparagraph}{0}
\setcounter{figure}{0}
\setcounter{table}{194}
\setcounter{LT@tables}{194}
\setcounter{LT@chunks}{4}
\setcounter{Item}{0}
\setcounter{Hfootnote}{0}
\setcounter{bookmark@seq@number}{770}
\setcounter{section@level}{2}
}
