\relax 
\gdef \LT@lxxix {\LT@entry 
    {1}{152.92793pt}\LT@entry 
    {1}{258.72162pt}\LT@entry 
    {1}{12.0pt}}
\@writefile{toc}{\contentsline {section}{\numberline {82}Module cuon.E\_Mail.incoming\_mail}{229}{section.82}}
\newlabel{cuon:E_Mail:incoming_mail}{{82}{229}{Module cuon.E\_Mail.incoming\_mail\relax }{section.82}{}}
\@writefile{toc}{\contentsline {subsection}{\numberline {82.1}Variables}{229}{subsection.82.1}}
\@writefile{toc}{\contentsline {subsection}{\numberline {82.2}Class incoming\_mail}{229}{subsection.82.2}}
\newlabel{cuon:E_Mail:incoming_mail:incoming_mail}{{82.2}{229}{Class incoming\_mail\relax }{subsection.82.2}{}}
\@writefile{toc}{\contentsline {subsubsection}{\numberline {82.2.1}Methods}{229}{subsubsection.82.2.1}}
\newlabel{cuon:E_Mail:incoming_mail:incoming_mail:__init__}{{82.2.1}{229}{Methods\relax }{subsubsection.82.2.1}{}}
\@setckpt{cuon.E_Mail.incoming_mail-module}{
\setcounter{page}{230}
\setcounter{equation}{0}
\setcounter{enumi}{0}
\setcounter{enumii}{0}
\setcounter{enumiii}{0}
\setcounter{enumiv}{0}
\setcounter{footnote}{0}
\setcounter{mpfootnote}{0}
\setcounter{part}{0}
\setcounter{section}{82}
\setcounter{subsection}{2}
\setcounter{subsubsection}{1}
\setcounter{paragraph}{0}
\setcounter{subparagraph}{0}
\setcounter{figure}{0}
\setcounter{table}{79}
\setcounter{LT@tables}{79}
\setcounter{LT@chunks}{4}
\setcounter{Item}{0}
\setcounter{Hfootnote}{0}
\setcounter{bookmark@seq@number}{312}
\setcounter{section@level}{3}
}
