\relax 
\gdef \LT@cxl {\LT@entry 
    {1}{152.92793pt}\LT@entry 
    {1}{258.72162pt}\LT@entry 
    {1}{12.0pt}}
\@writefile{toc}{\contentsline {section}{\numberline {146}Module cuon.Logging.logs}{393}{section.146}}
\newlabel{cuon:Logging:logs}{{146}{393}{Module cuon.Logging.logs\relax }{section.146}{}}
\@writefile{toc}{\contentsline {subsection}{\numberline {146.1}Variables}{393}{subsection.146.1}}
\@writefile{toc}{\contentsline {subsection}{\numberline {146.2}Class logs}{393}{subsection.146.2}}
\newlabel{cuon:Logging:logs:logs}{{146.2}{393}{Class logs\relax }{subsection.146.2}{}}
\@writefile{toc}{\contentsline {subsubsection}{\numberline {146.2.1}Methods}{393}{subsubsection.146.2.1}}
\newlabel{cuon:Logging:logs:logs:__init__}{{146.2.1}{393}{Methods\relax }{subsubsection.146.2.1}{}}
\newlabel{cuon:Logging:logs:logs:out}{{146.2.1}{393}{Methods\relax }{subsubsection.146.2.1}{}}
\newlabel{cuon:Logging:logs:logs:printOut}{{146.2.1}{393}{Methods\relax }{subsubsection.146.2.1}{}}
\newlabel{cuon:Logging:logs:logs:setLogLevel}{{146.2.1}{393}{Methods\relax }{subsubsection.146.2.1}{}}
\@setckpt{cuon.Logging.logs-module}{
\setcounter{page}{394}
\setcounter{equation}{0}
\setcounter{enumi}{0}
\setcounter{enumii}{0}
\setcounter{enumiii}{0}
\setcounter{enumiv}{0}
\setcounter{footnote}{0}
\setcounter{mpfootnote}{0}
\setcounter{part}{0}
\setcounter{section}{146}
\setcounter{subsection}{2}
\setcounter{subsubsection}{1}
\setcounter{paragraph}{0}
\setcounter{subparagraph}{0}
\setcounter{figure}{0}
\setcounter{table}{140}
\setcounter{LT@tables}{140}
\setcounter{LT@chunks}{4}
\setcounter{Item}{0}
\setcounter{Hfootnote}{0}
\setcounter{bookmark@seq@number}{554}
\setcounter{section@level}{3}
}
