\relax 
\gdef \LT@ccviii {\LT@entry 
    {1}{152.92793pt}\LT@entry 
    {1}{258.72162pt}\LT@entry 
    {1}{12.0pt}}
\@writefile{toc}{\contentsline {section}{\numberline {217}Module cuon.Stock.SingleStockGoods}{552}{section.217}}
\newlabel{cuon:Stock:SingleStockGoods}{{217}{552}{Module cuon.Stock.SingleStockGoods\relax }{section.217}{}}
\@writefile{toc}{\contentsline {subsection}{\numberline {217.1}Variables}{552}{subsection.217.1}}
\@writefile{toc}{\contentsline {subsection}{\numberline {217.2}Class SingleStockGoods}{552}{subsection.217.2}}
\newlabel{cuon:Stock:SingleStockGoods:SingleStockGoods}{{217.2}{552}{Class SingleStockGoods\relax }{subsection.217.2}{}}
\@writefile{toc}{\contentsline {subsubsection}{\numberline {217.2.1}Methods}{552}{subsubsection.217.2.1}}
\@setckpt{cuon.Stock.SingleStockGoods-module}{
\setcounter{page}{554}
\setcounter{equation}{0}
\setcounter{enumi}{0}
\setcounter{enumii}{0}
\setcounter{enumiii}{0}
\setcounter{enumiv}{0}
\setcounter{footnote}{0}
\setcounter{mpfootnote}{0}
\setcounter{part}{0}
\setcounter{section}{217}
\setcounter{subsection}{2}
\setcounter{subsubsection}{1}
\setcounter{paragraph}{0}
\setcounter{subparagraph}{0}
\setcounter{figure}{0}
\setcounter{table}{208}
\setcounter{LT@tables}{208}
\setcounter{LT@chunks}{4}
\setcounter{Item}{0}
\setcounter{Hfootnote}{0}
\setcounter{bookmark@seq@number}{823}
\setcounter{section@level}{3}
}
