\relax 
\gdef \LT@lxxvii {\LT@entry 
    {1}{152.92793pt}\LT@entry 
    {1}{258.72162pt}\LT@entry 
    {1}{12.0pt}}
\@writefile{toc}{\contentsline {section}{\numberline {81}Module cuon.E\_Mail.imap\_dms}{227}{section.81}}
\newlabel{cuon:E_Mail:imap_dms}{{81}{227}{Module cuon.E\_Mail.imap\_dms\relax }{section.81}{}}
\@writefile{toc}{\contentsline {subsection}{\numberline {81.1}Variables}{227}{subsection.81.1}}
\@writefile{toc}{\contentsline {subsection}{\numberline {81.2}Class imap\_dms}{227}{subsection.81.2}}
\newlabel{cuon:E_Mail:imap_dms:imap_dms}{{81.2}{227}{Class imap\_dms\relax }{subsection.81.2}{}}
\@writefile{toc}{\contentsline {subsubsection}{\numberline {81.2.1}Methods}{227}{subsubsection.81.2.1}}
\newlabel{cuon:E_Mail:imap_dms:imap_dms:decodeMailHeader}{{81.2.1}{227}{Methods\relax }{subsubsection.81.2.1}{}}
\newlabel{cuon:E_Mail:imap_dms:imap_dms:save}{{81.2.1}{227}{Methods\relax }{subsubsection.81.2.1}{}}
\newlabel{cuon:E_Mail:imap_dms:imap_dms:save2DMS}{{81.2.1}{227}{Methods\relax }{subsubsection.81.2.1}{}}
\gdef \LT@lxxviii {\LT@entry 
    {1}{152.92793pt}\LT@entry 
    {1}{258.72162pt}\LT@entry 
    {1}{12.0pt}}
\@writefile{toc}{\contentsline {subsubsection}{\numberline {81.2.2}Properties}{228}{subsubsection.81.2.2}}
\@setckpt{cuon.E_Mail.imap_dms-module}{
\setcounter{page}{229}
\setcounter{equation}{0}
\setcounter{enumi}{0}
\setcounter{enumii}{0}
\setcounter{enumiii}{0}
\setcounter{enumiv}{0}
\setcounter{footnote}{0}
\setcounter{mpfootnote}{0}
\setcounter{part}{0}
\setcounter{section}{81}
\setcounter{subsection}{2}
\setcounter{subsubsection}{2}
\setcounter{paragraph}{0}
\setcounter{subparagraph}{0}
\setcounter{figure}{0}
\setcounter{table}{78}
\setcounter{LT@tables}{78}
\setcounter{LT@chunks}{4}
\setcounter{Item}{0}
\setcounter{Hfootnote}{0}
\setcounter{bookmark@seq@number}{308}
\setcounter{section@level}{3}
}
