\relax 
\gdef \LT@ccvi {\LT@entry 
    {1}{152.92793pt}\LT@entry 
    {1}{258.72162pt}\LT@entry 
    {1}{12.0pt}}
\@writefile{toc}{\contentsline {section}{\numberline {215}Package cuon.Stock}{549}{section.215}}
\newlabel{cuon:Stock}{{215}{549}{Package cuon.Stock\relax }{section.215}{}}
\@writefile{toc}{\contentsline {subsection}{\numberline {215.1}Modules}{549}{subsection.215.1}}
\@writefile{toc}{\contentsline {subsection}{\numberline {215.2}Variables}{549}{subsection.215.2}}
\@setckpt{cuon.Stock-module}{
\setcounter{page}{550}
\setcounter{equation}{0}
\setcounter{enumi}{0}
\setcounter{enumii}{0}
\setcounter{enumiii}{0}
\setcounter{enumiv}{0}
\setcounter{footnote}{0}
\setcounter{mpfootnote}{0}
\setcounter{part}{0}
\setcounter{section}{215}
\setcounter{subsection}{2}
\setcounter{subsubsection}{0}
\setcounter{paragraph}{0}
\setcounter{subparagraph}{0}
\setcounter{figure}{0}
\setcounter{table}{206}
\setcounter{LT@tables}{206}
\setcounter{LT@chunks}{4}
\setcounter{Item}{0}
\setcounter{Hfootnote}{0}
\setcounter{bookmark@seq@number}{815}
\setcounter{section@level}{2}
}
