\relax 
\gdef \LT@ccxxxviii {\LT@entry 
    {1}{152.92793pt}\LT@entry 
    {1}{258.72162pt}\LT@entry 
    {1}{12.0pt}}
\@writefile{toc}{\contentsline {section}{\numberline {249}Package cuon.XML}{615}{section.249}}
\newlabel{cuon:XML}{{249}{615}{Package cuon.XML\relax }{section.249}{}}
\@writefile{toc}{\contentsline {subsection}{\numberline {249.1}Modules}{615}{subsection.249.1}}
\@writefile{toc}{\contentsline {subsection}{\numberline {249.2}Variables}{615}{subsection.249.2}}
\@setckpt{cuon.XML-module}{
\setcounter{page}{616}
\setcounter{equation}{0}
\setcounter{enumi}{1}
\setcounter{enumii}{0}
\setcounter{enumiii}{0}
\setcounter{enumiv}{0}
\setcounter{footnote}{0}
\setcounter{mpfootnote}{0}
\setcounter{part}{0}
\setcounter{section}{249}
\setcounter{subsection}{2}
\setcounter{subsubsection}{0}
\setcounter{paragraph}{0}
\setcounter{subparagraph}{0}
\setcounter{figure}{0}
\setcounter{table}{238}
\setcounter{LT@tables}{238}
\setcounter{LT@chunks}{4}
\setcounter{Item}{1}
\setcounter{Hfootnote}{0}
\setcounter{bookmark@seq@number}{939}
\setcounter{section@level}{2}
}
