\relax 
\gdef \LT@clviii {\LT@entry 
    {1}{152.92793pt}\LT@entry 
    {1}{258.72162pt}\LT@entry 
    {1}{12.0pt}}
\@writefile{toc}{\contentsline {section}{\numberline {167}Module cuon.Order.order}{429}{section.167}}
\newlabel{cuon:Order:order}{{167}{429}{Module cuon.Order.order\relax }{section.167}{}}
\@writefile{toc}{\contentsline {subsection}{\numberline {167.1}Variables}{429}{subsection.167.1}}
\@writefile{toc}{\contentsline {subsection}{\numberline {167.2}Class orderwindow}{430}{subsection.167.2}}
\newlabel{cuon:Order:order:orderwindow}{{167.2}{430}{Class orderwindow\relax }{subsection.167.2}{}}
\@writefile{toc}{\contentsline {subsubsection}{\numberline {167.2.1}Methods}{431}{subsubsection.167.2.1}}
\newlabel{cuon:Order:order:orderwindow:calcDiscount}{{167.2.1}{431}{Methods\relax }{subsubsection.167.2.1}{}}
\newlabel{cuon:Order:order:orderwindow:calcNew}{{167.2.1}{431}{Methods\relax }{subsubsection.167.2.1}{}}
\newlabel{cuon:Order:order:orderwindow:createSimplePayment}{{167.2.1}{431}{Methods\relax }{subsubsection.167.2.1}{}}
\newlabel{cuon:Order:order:orderwindow:ePaymentInvoiceAmount_changed}{{167.2.1}{431}{Methods\relax }{subsubsection.167.2.1}{}}
\newlabel{cuon:Order:order:orderwindow:findOrder}{{167.2.1}{431}{Methods\relax }{subsubsection.167.2.1}{}}
\newlabel{cuon:Order:order:orderwindow:getOrderInfo}{{167.2.1}{431}{Methods\relax }{subsubsection.167.2.1}{}}
\newlabel{cuon:Order:order:orderwindow:on_DMS_activate}{{167.2.1}{431}{Methods\relax }{subsubsection.167.2.1}{}}
\newlabel{cuon:Order:order:orderwindow:on_GetsDelete1_activate}{{167.2.1}{431}{Methods\relax }{subsubsection.167.2.1}{}}
\newlabel{cuon:Order:order:orderwindow:on_GetsEdit1_activate}{{167.2.1}{431}{Methods\relax }{subsubsection.167.2.1}{}}
\newlabel{cuon:Order:order:orderwindow:on_GetsNew1_activate}{{167.2.1}{431}{Methods\relax }{subsubsection.167.2.1}{}}
\newlabel{cuon:Order:order:orderwindow:on_GetsSave1_activate}{{167.2.1}{431}{Methods\relax }{subsubsection.167.2.1}{}}
\newlabel{cuon:Order:order:orderwindow:on_InvoiceEdit1_activate}{{167.2.1}{431}{Methods\relax }{subsubsection.167.2.1}{}}
\newlabel{cuon:Order:order:orderwindow:on_InvoiceSave1_activate}{{167.2.1}{431}{Methods\relax }{subsubsection.167.2.1}{}}
\newlabel{cuon:Order:order:orderwindow:on_MiscEdit_activate}{{167.2.1}{432}{Methods\relax }{subsubsection.167.2.1}{}}
\newlabel{cuon:Order:order:orderwindow:on_MiscSave_activate}{{167.2.1}{432}{Methods\relax }{subsubsection.167.2.1}{}}
\newlabel{cuon:Order:order:orderwindow:on_PositionDelete1_activate}{{167.2.1}{432}{Methods\relax }{subsubsection.167.2.1}{}}
\newlabel{cuon:Order:order:orderwindow:on_PositionEdit1_activate}{{167.2.1}{432}{Methods\relax }{subsubsection.167.2.1}{}}
\newlabel{cuon:Order:order:orderwindow:on_PositionNew1_activate}{{167.2.1}{432}{Methods\relax }{subsubsection.167.2.1}{}}
\newlabel{cuon:Order:order:orderwindow:on_PositionSave1_activate}{{167.2.1}{432}{Methods\relax }{subsubsection.167.2.1}{}}
\newlabel{cuon:Order:order:orderwindow:on_SupplyDelete1_activate}{{167.2.1}{432}{Methods\relax }{subsubsection.167.2.1}{}}
\newlabel{cuon:Order:order:orderwindow:on_SupplyEdit1_activate}{{167.2.1}{432}{Methods\relax }{subsubsection.167.2.1}{}}
\newlabel{cuon:Order:order:orderwindow:on_SupplyNew1_activate}{{167.2.1}{432}{Methods\relax }{subsubsection.167.2.1}{}}
\newlabel{cuon:Order:order:orderwindow:on_SupplySave1_activate}{{167.2.1}{432}{Methods\relax }{subsubsection.167.2.1}{}}
\newlabel{cuon:Order:order:orderwindow:on_all_open_invoice1_activate}{{167.2.1}{432}{Methods\relax }{subsubsection.167.2.1}{}}
\newlabel{cuon:Order:order:orderwindow:on_bArticleSearch_clicked}{{167.2.1}{432}{Methods\relax }{subsubsection.167.2.1}{}}
\newlabel{cuon:Order:order:orderwindow:on_bChooseDifferentBillingAddress_clicked}{{167.2.1}{432}{Methods\relax }{subsubsection.167.2.1}{}}
\newlabel{cuon:Order:order:orderwindow:on_bContactPerson_clicked}{{167.2.1}{432}{Methods\relax }{subsubsection.167.2.1}{}}
\newlabel{cuon:Order:order:orderwindow:on_bCreditCard1_clicked}{{167.2.1}{432}{Methods\relax }{subsubsection.167.2.1}{}}
\newlabel{cuon:Order:order:orderwindow:on_bDirectDebit1_clicked}{{167.2.1}{432}{Methods\relax }{subsubsection.167.2.1}{}}
\newlabel{cuon:Order:order:orderwindow:on_bDirectDebit2_clicked}{{167.2.1}{432}{Methods\relax }{subsubsection.167.2.1}{}}
\newlabel{cuon:Order:order:orderwindow:on_bDirectDebit3_clicked}{{167.2.1}{433}{Methods\relax }{subsubsection.167.2.1}{}}
\newlabel{cuon:Order:order:orderwindow:on_bInvoiceTOP_clicked}{{167.2.1}{433}{Methods\relax }{subsubsection.167.2.1}{}}
\newlabel{cuon:Order:order:orderwindow:on_bMiscJumpToProject_clicked}{{167.2.1}{433}{Methods\relax }{subsubsection.167.2.1}{}}
\newlabel{cuon:Order:order:orderwindow:on_bMiscSearchProject_clicked}{{167.2.1}{433}{Methods\relax }{subsubsection.167.2.1}{}}
\newlabel{cuon:Order:order:orderwindow:on_bPaymentSearchAccount_clicked}{{167.2.1}{433}{Methods\relax }{subsubsection.167.2.1}{}}
\newlabel{cuon:Order:order:orderwindow:on_bSearchCustom_clicked}{{167.2.1}{433}{Methods\relax }{subsubsection.167.2.1}{}}
\newlabel{cuon:Order:order:orderwindow:on_bSearchForwardingAgency_clicked}{{167.2.1}{433}{Methods\relax }{subsubsection.167.2.1}{}}
\newlabel{cuon:Order:order:orderwindow:on_bSearchGet_clicked}{{167.2.1}{433}{Methods\relax }{subsubsection.167.2.1}{}}
\newlabel{cuon:Order:order:orderwindow:on_bSearchGetsPartner_clicked}{{167.2.1}{433}{Methods\relax }{subsubsection.167.2.1}{}}
\newlabel{cuon:Order:order:orderwindow:on_bSearchPartnerID_clicked}{{167.2.1}{433}{Methods\relax }{subsubsection.167.2.1}{}}
\newlabel{cuon:Order:order:orderwindow:on_bSearchStaff_clicked}{{167.2.1}{433}{Methods\relax }{subsubsection.167.2.1}{}}
\newlabel{cuon:Order:order:orderwindow:on_bSearchSupply_clicked}{{167.2.1}{433}{Methods\relax }{subsubsection.167.2.1}{}}
\newlabel{cuon:Order:order:orderwindow:on_bSearch_clicked}{{167.2.1}{433}{Methods\relax }{subsubsection.167.2.1}{}}
\newlabel{cuon:Order:order:orderwindow:on_bShowExtInfo_clicked}{{167.2.1}{433}{Methods\relax }{subsubsection.167.2.1}{}}
\newlabel{cuon:Order:order:orderwindow:on_bShowPartner_clicked}{{167.2.1}{433}{Methods\relax }{subsubsection.167.2.1}{}}
\newlabel{cuon:Order:order:orderwindow:on_bSimpleBank1_clicked}{{167.2.1}{433}{Methods\relax }{subsubsection.167.2.1}{}}
\newlabel{cuon:Order:order:orderwindow:on_bSimpleBank2_clicked}{{167.2.1}{433}{Methods\relax }{subsubsection.167.2.1}{}}
\newlabel{cuon:Order:order:orderwindow:on_bSimpleBank3_clicked}{{167.2.1}{433}{Methods\relax }{subsubsection.167.2.1}{}}
\newlabel{cuon:Order:order:orderwindow:on_bSimpleCash1_clicked}{{167.2.1}{434}{Methods\relax }{subsubsection.167.2.1}{}}
\newlabel{cuon:Order:order:orderwindow:on_bSimpleCash2_clicked}{{167.2.1}{434}{Methods\relax }{subsubsection.167.2.1}{}}
\newlabel{cuon:Order:order:orderwindow:on_bTaxVatForAllPositions_clicked}{{167.2.1}{434}{Methods\relax }{subsubsection.167.2.1}{}}
\newlabel{cuon:Order:order:orderwindow:on_cbFindOrderTypes_changed}{{167.2.1}{434}{Methods\relax }{subsubsection.167.2.1}{}}
\newlabel{cuon:Order:order:orderwindow:on_delete1_activate}{{167.2.1}{434}{Methods\relax }{subsubsection.167.2.1}{}}
\newlabel{cuon:Order:order:orderwindow:on_eAccountNumber_changed}{{167.2.1}{434}{Methods\relax }{subsubsection.167.2.1}{}}
\newlabel{cuon:Order:order:orderwindow:on_eAddressNumber_changed}{{167.2.1}{434}{Methods\relax }{subsubsection.167.2.1}{}}
\newlabel{cuon:Order:order:orderwindow:on_eArticleID_changed}{{167.2.1}{434}{Methods\relax }{subsubsection.167.2.1}{}}
\newlabel{cuon:Order:order:orderwindow:on_eContactPerson_changed}{{167.2.1}{434}{Methods\relax }{subsubsection.167.2.1}{}}
\newlabel{cuon:Order:order:orderwindow:on_eDifferentBillingAddressID_changed}{{167.2.1}{434}{Methods\relax }{subsubsection.167.2.1}{}}
\newlabel{cuon:Order:order:orderwindow:on_eDiscountValue_changed}{{167.2.1}{434}{Methods\relax }{subsubsection.167.2.1}{}}
\newlabel{cuon:Order:order:orderwindow:on_eDiscount_key_press_event}{{167.2.1}{434}{Methods\relax }{subsubsection.167.2.1}{}}
\newlabel{cuon:Order:order:orderwindow:on_eForwardingAgency_changed}{{167.2.1}{434}{Methods\relax }{subsubsection.167.2.1}{}}
\newlabel{cuon:Order:order:orderwindow:on_eGetsNumber_changed}{{167.2.1}{434}{Methods\relax }{subsubsection.167.2.1}{}}
\newlabel{cuon:Order:order:orderwindow:on_eGetsPartner_changed}{{167.2.1}{434}{Methods\relax }{subsubsection.167.2.1}{}}
\newlabel{cuon:Order:order:orderwindow:on_eInvoiceTOPID_changed}{{167.2.1}{434}{Methods\relax }{subsubsection.167.2.1}{}}
\newlabel{cuon:Order:order:orderwindow:on_eMiscProjectID_changed}{{167.2.1}{434}{Methods\relax }{subsubsection.167.2.1}{}}
\newlabel{cuon:Order:order:orderwindow:on_ePartnerID_changed}{{167.2.1}{434}{Methods\relax }{subsubsection.167.2.1}{}}
\newlabel{cuon:Order:order:orderwindow:on_ePaymentAccountID_changed}{{167.2.1}{435}{Methods\relax }{subsubsection.167.2.1}{}}
\newlabel{cuon:Order:order:orderwindow:on_ePaymentCashDiscount_changed}{{167.2.1}{435}{Methods\relax }{subsubsection.167.2.1}{}}
\newlabel{cuon:Order:order:orderwindow:on_ePaymentInpayment_changed}{{167.2.1}{435}{Methods\relax }{subsubsection.167.2.1}{}}
\newlabel{cuon:Order:order:orderwindow:on_ePaymentInvoiceAmount_changed}{{167.2.1}{435}{Methods\relax }{subsubsection.167.2.1}{}}
\newlabel{cuon:Order:order:orderwindow:on_ePaymentPayments_changed}{{167.2.1}{435}{Methods\relax }{subsubsection.167.2.1}{}}
\newlabel{cuon:Order:order:orderwindow:on_eStaffNumber_changed}{{167.2.1}{435}{Methods\relax }{subsubsection.167.2.1}{}}
\newlabel{cuon:Order:order:orderwindow:on_eSupplyNumber_changed}{{167.2.1}{435}{Methods\relax }{subsubsection.167.2.1}{}}
\newlabel{cuon:Order:order:orderwindow:on_eTaxVatForAllPositionsID_changed}{{167.2.1}{435}{Methods\relax }{subsubsection.167.2.1}{}}
\newlabel{cuon:Order:order:orderwindow:on_edit1_activate}{{167.2.1}{435}{Methods\relax }{subsubsection.167.2.1}{}}
\newlabel{cuon:Order:order:orderwindow:on_new1_activate}{{167.2.1}{435}{Methods\relax }{subsubsection.167.2.1}{}}
\newlabel{cuon:Order:order:orderwindow:on_order_dup_activate}{{167.2.1}{435}{Methods\relax }{subsubsection.167.2.1}{}}
\newlabel{cuon:Order:order:orderwindow:on_payment_edit_activate}{{167.2.1}{435}{Methods\relax }{subsubsection.167.2.1}{}}
\newlabel{cuon:Order:order:orderwindow:on_payment_new_activate}{{167.2.1}{435}{Methods\relax }{subsubsection.167.2.1}{}}
\newlabel{cuon:Order:order:orderwindow:on_payment_save_activate}{{167.2.1}{435}{Methods\relax }{subsubsection.167.2.1}{}}
\newlabel{cuon:Order:order:orderwindow:on_print_delivery_note1_activate}{{167.2.1}{435}{Methods\relax }{subsubsection.167.2.1}{}}
\newlabel{cuon:Order:order:orderwindow:on_print_invoice1_activate}{{167.2.1}{435}{Methods\relax }{subsubsection.167.2.1}{}}
\newlabel{cuon:Order:order:orderwindow:on_print_pickup_note1_activate}{{167.2.1}{435}{Methods\relax }{subsubsection.167.2.1}{}}
\newlabel{cuon:Order:order:orderwindow:on_quit1_activate}{{167.2.1}{435}{Methods\relax }{subsubsection.167.2.1}{}}
\newlabel{cuon:Order:order:orderwindow:on_save1_activate}{{167.2.1}{435}{Methods\relax }{subsubsection.167.2.1}{}}
\newlabel{cuon:Order:order:orderwindow:on_tbDup_clicked}{{167.2.1}{435}{Methods\relax }{subsubsection.167.2.1}{}}
\newlabel{cuon:Order:order:orderwindow:on_tbEdit_clicked}{{167.2.1}{436}{Methods\relax }{subsubsection.167.2.1}{}}
\newlabel{cuon:Order:order:orderwindow:on_tbInfo_clicked}{{167.2.1}{436}{Methods\relax }{subsubsection.167.2.1}{}}
\newlabel{cuon:Order:order:orderwindow:on_tbNew_clicked}{{167.2.1}{436}{Methods\relax }{subsubsection.167.2.1}{}}
\newlabel{cuon:Order:order:orderwindow:on_tbSave_clicked}{{167.2.1}{436}{Methods\relax }{subsubsection.167.2.1}{}}
\newlabel{cuon:Order:order:orderwindow:refreshTree}{{167.2.1}{436}{Methods\relax }{subsubsection.167.2.1}{}}
\newlabel{cuon:Order:order:orderwindow:tabChanged}{{167.2.1}{436}{Methods\relax }{subsubsection.167.2.1}{}}
\@setckpt{cuon.Order.order-module}{
\setcounter{page}{438}
\setcounter{equation}{0}
\setcounter{enumi}{0}
\setcounter{enumii}{0}
\setcounter{enumiii}{0}
\setcounter{enumiv}{0}
\setcounter{footnote}{0}
\setcounter{mpfootnote}{0}
\setcounter{part}{0}
\setcounter{section}{167}
\setcounter{subsection}{2}
\setcounter{subsubsection}{1}
\setcounter{paragraph}{0}
\setcounter{subparagraph}{0}
\setcounter{figure}{0}
\setcounter{table}{158}
\setcounter{LT@tables}{158}
\setcounter{LT@chunks}{4}
\setcounter{Item}{0}
\setcounter{Hfootnote}{0}
\setcounter{bookmark@seq@number}{633}
\setcounter{section@level}{3}
}
