\relax 
\gdef \LT@cxxxvii {\LT@entry 
    {1}{152.92793pt}\LT@entry 
    {1}{258.72162pt}\LT@entry 
    {1}{12.0pt}}
\@writefile{toc}{\contentsline {section}{\numberline {142}Package cuon.Leasing}{383}{section.142}}
\newlabel{cuon:Leasing}{{142}{383}{Package cuon.Leasing\relax }{section.142}{}}
\@writefile{toc}{\contentsline {subsection}{\numberline {142.1}Modules}{383}{subsection.142.1}}
\@writefile{toc}{\contentsline {subsection}{\numberline {142.2}Variables}{383}{subsection.142.2}}
\@setckpt{cuon.Leasing-module}{
\setcounter{page}{384}
\setcounter{equation}{0}
\setcounter{enumi}{0}
\setcounter{enumii}{0}
\setcounter{enumiii}{0}
\setcounter{enumiv}{0}
\setcounter{footnote}{0}
\setcounter{mpfootnote}{0}
\setcounter{part}{0}
\setcounter{section}{142}
\setcounter{subsection}{2}
\setcounter{subsubsection}{0}
\setcounter{paragraph}{0}
\setcounter{subparagraph}{0}
\setcounter{figure}{0}
\setcounter{table}{137}
\setcounter{LT@tables}{137}
\setcounter{LT@chunks}{4}
\setcounter{Item}{0}
\setcounter{Hfootnote}{0}
\setcounter{bookmark@seq@number}{540}
\setcounter{section@level}{2}
}
