\relax 
\gdef \LT@ccii {\LT@entry 
    {1}{152.92793pt}\LT@entry 
    {1}{258.72162pt}\LT@entry 
    {1}{12.0pt}}
\@writefile{toc}{\contentsline {section}{\numberline {211}Module cuon.Staff.SingleStaffVacation}{538}{section.211}}
\newlabel{cuon:Staff:SingleStaffVacation}{{211}{538}{Module cuon.Staff.SingleStaffVacation\relax }{section.211}{}}
\@writefile{toc}{\contentsline {subsection}{\numberline {211.1}Variables}{538}{subsection.211.1}}
\@writefile{toc}{\contentsline {subsection}{\numberline {211.2}Class SingleStaffVacation}{538}{subsection.211.2}}
\newlabel{cuon:Staff:SingleStaffVacation:SingleStaffVacation}{{211.2}{538}{Class SingleStaffVacation\relax }{subsection.211.2}{}}
\@writefile{toc}{\contentsline {subsubsection}{\numberline {211.2.1}Methods}{538}{subsubsection.211.2.1}}
\@setckpt{cuon.Staff.SingleStaffVacation-module}{
\setcounter{page}{540}
\setcounter{equation}{0}
\setcounter{enumi}{0}
\setcounter{enumii}{0}
\setcounter{enumiii}{0}
\setcounter{enumiv}{0}
\setcounter{footnote}{0}
\setcounter{mpfootnote}{0}
\setcounter{part}{0}
\setcounter{section}{211}
\setcounter{subsection}{2}
\setcounter{subsubsection}{1}
\setcounter{paragraph}{0}
\setcounter{subparagraph}{0}
\setcounter{figure}{0}
\setcounter{table}{202}
\setcounter{LT@tables}{202}
\setcounter{LT@chunks}{4}
\setcounter{Item}{0}
\setcounter{Hfootnote}{0}
\setcounter{bookmark@seq@number}{801}
\setcounter{section@level}{3}
}
