\relax 
\gdef \LT@xlv {\LT@entry 
    {1}{152.92793pt}\LT@entry 
    {1}{258.72162pt}\LT@entry 
    {1}{12.0pt}}
\@writefile{toc}{\contentsline {section}{\numberline {48}Package cuon.Biblio}{149}{section.48}}
\newlabel{cuon:Biblio}{{48}{149}{Package cuon.Biblio\relax }{section.48}{}}
\@writefile{toc}{\contentsline {subsection}{\numberline {48.1}Modules}{149}{subsection.48.1}}
\@writefile{toc}{\contentsline {subsection}{\numberline {48.2}Variables}{149}{subsection.48.2}}
\@setckpt{cuon.Biblio-module}{
\setcounter{page}{150}
\setcounter{equation}{0}
\setcounter{enumi}{0}
\setcounter{enumii}{0}
\setcounter{enumiii}{0}
\setcounter{enumiv}{0}
\setcounter{footnote}{0}
\setcounter{mpfootnote}{0}
\setcounter{part}{0}
\setcounter{section}{48}
\setcounter{subsection}{2}
\setcounter{subsubsection}{0}
\setcounter{paragraph}{0}
\setcounter{subparagraph}{0}
\setcounter{figure}{0}
\setcounter{table}{45}
\setcounter{LT@tables}{45}
\setcounter{LT@chunks}{4}
\setcounter{Item}{0}
\setcounter{Hfootnote}{0}
\setcounter{bookmark@seq@number}{183}
\setcounter{section@level}{2}
}
