\relax 
\gdef \LT@ccxxxv {\LT@entry 
    {1}{152.92793pt}\LT@entry 
    {1}{258.72162pt}\LT@entry 
    {1}{12.0pt}}
\@writefile{toc}{\contentsline {section}{\numberline {246}Module cuon.Windows.rawWindow}{606}{section.246}}
\newlabel{cuon:Windows:rawWindow}{{246}{606}{Module cuon.Windows.rawWindow\relax }{section.246}{}}
\@writefile{toc}{\contentsline {subsection}{\numberline {246.1}Variables}{606}{subsection.246.1}}
\@writefile{toc}{\contentsline {subsection}{\numberline {246.2}Class rawWindow}{606}{subsection.246.2}}
\newlabel{cuon:Windows:rawWindow:rawWindow}{{246.2}{606}{Class rawWindow\relax }{subsection.246.2}{}}
\@writefile{toc}{\contentsline {subsubsection}{\numberline {246.2.1}Methods}{606}{subsubsection.246.2.1}}
\newlabel{cuon:Windows:rawWindow:rawWindow:getListOfParserItems}{{246.2.1}{606}{Methods\relax }{subsubsection.246.2.1}{}}
\newlabel{cuon:Windows:rawWindow:rawWindow:getListOfParserSections}{{246.2.1}{606}{Methods\relax }{subsubsection.246.2.1}{}}
\newlabel{cuon:Windows:rawWindow:rawWindow:loadUserInfo}{{246.2.1}{606}{Methods\relax }{subsubsection.246.2.1}{}}
\@setckpt{cuon.Windows.rawWindow-module}{
\setcounter{page}{608}
\setcounter{equation}{0}
\setcounter{enumi}{1}
\setcounter{enumii}{0}
\setcounter{enumiii}{0}
\setcounter{enumiv}{0}
\setcounter{footnote}{0}
\setcounter{mpfootnote}{0}
\setcounter{part}{0}
\setcounter{section}{246}
\setcounter{subsection}{2}
\setcounter{subsubsection}{1}
\setcounter{paragraph}{0}
\setcounter{subparagraph}{0}
\setcounter{figure}{0}
\setcounter{table}{235}
\setcounter{LT@tables}{235}
\setcounter{LT@chunks}{4}
\setcounter{Item}{1}
\setcounter{Hfootnote}{0}
\setcounter{bookmark@seq@number}{928}
\setcounter{section@level}{3}
}
