\relax 
\gdef \LT@cxiii {\LT@entry 
    {1}{152.92793pt}\LT@entry 
    {1}{258.72162pt}\LT@entry 
    {1}{12.0pt}}
\@writefile{toc}{\contentsline {section}{\numberline {118}Module cuon.Garden.SingleHibernationPlant}{317}{section.118}}
\newlabel{cuon:Garden:SingleHibernationPlant}{{118}{317}{Module cuon.Garden.SingleHibernationPlant\relax }{section.118}{}}
\@writefile{toc}{\contentsline {subsection}{\numberline {118.1}Variables}{317}{subsection.118.1}}
\@writefile{toc}{\contentsline {subsection}{\numberline {118.2}Class SingleHibernationPlant}{317}{subsection.118.2}}
\newlabel{cuon:Garden:SingleHibernationPlant:SingleHibernationPlant}{{118.2}{317}{Class SingleHibernationPlant\relax }{subsection.118.2}{}}
\@writefile{toc}{\contentsline {subsubsection}{\numberline {118.2.1}Methods}{317}{subsubsection.118.2.1}}
\newlabel{cuon:Garden:SingleHibernationPlant:SingleHibernationPlant:getHibernation}{{118.2.1}{317}{Methods\relax }{subsubsection.118.2.1}{}}
\newlabel{cuon:Garden:SingleHibernationPlant:SingleHibernationPlant:getLastNumber}{{118.2.1}{317}{Methods\relax }{subsubsection.118.2.1}{}}
\newlabel{cuon:Garden:SingleHibernationPlant:SingleHibernationPlant:getHibernationFields}{{118.2.1}{317}{Methods\relax }{subsubsection.118.2.1}{}}
\newlabel{cuon:Garden:SingleHibernationPlant:SingleHibernationPlant:getHibernationNumber}{{118.2.1}{317}{Methods\relax }{subsubsection.118.2.1}{}}
\@setckpt{cuon.Garden.SingleHibernationPlant-module}{
\setcounter{page}{320}
\setcounter{equation}{0}
\setcounter{enumi}{0}
\setcounter{enumii}{0}
\setcounter{enumiii}{0}
\setcounter{enumiv}{0}
\setcounter{footnote}{0}
\setcounter{mpfootnote}{0}
\setcounter{part}{0}
\setcounter{section}{118}
\setcounter{subsection}{2}
\setcounter{subsubsection}{1}
\setcounter{paragraph}{0}
\setcounter{subparagraph}{0}
\setcounter{figure}{0}
\setcounter{table}{113}
\setcounter{LT@tables}{113}
\setcounter{LT@chunks}{4}
\setcounter{Item}{0}
\setcounter{Hfootnote}{0}
\setcounter{bookmark@seq@number}{447}
\setcounter{section@level}{3}
}
