\relax 
\gdef \LT@clii {\LT@entry 
    {1}{152.92793pt}\LT@entry 
    {1}{258.72162pt}\LT@entry 
    {1}{12.0pt}}
\@writefile{toc}{\contentsline {section}{\numberline {161}Module cuon.Order.SingleOrderGet}{416}{section.161}}
\newlabel{cuon:Order:SingleOrderGet}{{161}{416}{Module cuon.Order.SingleOrderGet\relax }{section.161}{}}
\@writefile{toc}{\contentsline {subsection}{\numberline {161.1}Variables}{416}{subsection.161.1}}
\@writefile{toc}{\contentsline {subsection}{\numberline {161.2}Class SingleOrderGet}{416}{subsection.161.2}}
\newlabel{cuon:Order:SingleOrderGet:SingleOrderGet}{{161.2}{416}{Class SingleOrderGet\relax }{subsection.161.2}{}}
\@writefile{toc}{\contentsline {subsubsection}{\numberline {161.2.1}Methods}{416}{subsubsection.161.2.1}}
\newlabel{cuon:Order:SingleOrderGet:SingleOrderGet:getPickupNumber}{{161.2.1}{416}{Methods\relax }{subsubsection.161.2.1}{}}
\newlabel{cuon:Order:SingleOrderGet:SingleOrderGet:getAddressNumber}{{161.2.1}{416}{Methods\relax }{subsubsection.161.2.1}{}}
\newlabel{cuon:Order:SingleOrderGet:SingleOrderGet:getPartnerNumber}{{161.2.1}{416}{Methods\relax }{subsubsection.161.2.1}{}}
\newlabel{cuon:Order:SingleOrderGet:SingleOrderGet:getForwardingAgencyNumber}{{161.2.1}{416}{Methods\relax }{subsubsection.161.2.1}{}}
\newlabel{cuon:Order:SingleOrderGet:SingleOrderGet:getContactPersonNumber}{{161.2.1}{417}{Methods\relax }{subsubsection.161.2.1}{}}
\@setckpt{cuon.Order.SingleOrderGet-module}{
\setcounter{page}{419}
\setcounter{equation}{0}
\setcounter{enumi}{0}
\setcounter{enumii}{0}
\setcounter{enumiii}{0}
\setcounter{enumiv}{0}
\setcounter{footnote}{0}
\setcounter{mpfootnote}{0}
\setcounter{part}{0}
\setcounter{section}{161}
\setcounter{subsection}{2}
\setcounter{subsubsection}{1}
\setcounter{paragraph}{0}
\setcounter{subparagraph}{0}
\setcounter{figure}{0}
\setcounter{table}{152}
\setcounter{LT@tables}{152}
\setcounter{LT@chunks}{4}
\setcounter{Item}{0}
\setcounter{Hfootnote}{0}
\setcounter{bookmark@seq@number}{609}
\setcounter{section@level}{3}
}
