\relax 
\gdef \LT@clxix {\LT@entry 
    {1}{152.92793pt}\LT@entry 
    {1}{258.72162pt}\LT@entry 
    {1}{12.0pt}}
\@writefile{toc}{\contentsline {section}{\numberline {178}Module cuon.PrefsFinance.prefsFinance}{454}{section.178}}
\newlabel{cuon:PrefsFinance:prefsFinance}{{178}{454}{Module cuon.PrefsFinance.prefsFinance\relax }{section.178}{}}
\@writefile{toc}{\contentsline {subsection}{\numberline {178.1}Variables}{454}{subsection.178.1}}
\@writefile{toc}{\contentsline {subsection}{\numberline {178.2}Class prefsFinancewindow}{454}{subsection.178.2}}
\newlabel{cuon:PrefsFinance:prefsFinance:prefsFinancewindow}{{178.2}{454}{Class prefsFinancewindow\relax }{subsection.178.2}{}}
\@writefile{toc}{\contentsline {subsubsection}{\numberline {178.2.1}Methods}{454}{subsubsection.178.2.1}}
\newlabel{cuon:PrefsFinance:prefsFinance:prefsFinancewindow:on_quit1_activate}{{178.2.1}{454}{Methods\relax }{subsubsection.178.2.1}{}}
\newlabel{cuon:PrefsFinance:prefsFinance:prefsFinancewindow:on_VatSave1_activate}{{178.2.1}{455}{Methods\relax }{subsubsection.178.2.1}{}}
\newlabel{cuon:PrefsFinance:prefsFinance:prefsFinancewindow:on_VatNew1_activate}{{178.2.1}{455}{Methods\relax }{subsubsection.178.2.1}{}}
\newlabel{cuon:PrefsFinance:prefsFinance:prefsFinancewindow:on_VatEdit1_activate}{{178.2.1}{455}{Methods\relax }{subsubsection.178.2.1}{}}
\newlabel{cuon:PrefsFinance:prefsFinance:prefsFinancewindow:on_VatClear1_activate}{{178.2.1}{455}{Methods\relax }{subsubsection.178.2.1}{}}
\newlabel{cuon:PrefsFinance:prefsFinance:prefsFinancewindow:on_chooseTaxVat_activate}{{178.2.1}{455}{Methods\relax }{subsubsection.178.2.1}{}}
\newlabel{cuon:PrefsFinance:prefsFinance:prefsFinancewindow:on_TopSave1_activate}{{178.2.1}{455}{Methods\relax }{subsubsection.178.2.1}{}}
\newlabel{cuon:PrefsFinance:prefsFinance:prefsFinancewindow:on_TopNew1_activate}{{178.2.1}{455}{Methods\relax }{subsubsection.178.2.1}{}}
\newlabel{cuon:PrefsFinance:prefsFinance:prefsFinancewindow:on_TopEdit1_activate}{{178.2.1}{455}{Methods\relax }{subsubsection.178.2.1}{}}
\newlabel{cuon:PrefsFinance:prefsFinance:prefsFinancewindow:on_TopClear1_activate}{{178.2.1}{455}{Methods\relax }{subsubsection.178.2.1}{}}
\newlabel{cuon:PrefsFinance:prefsFinance:prefsFinancewindow:on_chooseTop_activate}{{178.2.1}{455}{Methods\relax }{subsubsection.178.2.1}{}}
\newlabel{cuon:PrefsFinance:prefsFinance:prefsFinancewindow:on_AcctInfoSave1_activate}{{178.2.1}{455}{Methods\relax }{subsubsection.178.2.1}{}}
\newlabel{cuon:PrefsFinance:prefsFinance:prefsFinancewindow:on_AcctInfoNew1_activate}{{178.2.1}{455}{Methods\relax }{subsubsection.178.2.1}{}}
\newlabel{cuon:PrefsFinance:prefsFinance:prefsFinancewindow:on_AcctInfoEdit1_activate}{{178.2.1}{455}{Methods\relax }{subsubsection.178.2.1}{}}
\newlabel{cuon:PrefsFinance:prefsFinance:prefsFinancewindow:on_AcctInfoClear1_activate}{{178.2.1}{455}{Methods\relax }{subsubsection.178.2.1}{}}
\newlabel{cuon:PrefsFinance:prefsFinance:prefsFinancewindow:on_AcctPlanSave1_activate}{{178.2.1}{455}{Methods\relax }{subsubsection.178.2.1}{}}
\newlabel{cuon:PrefsFinance:prefsFinance:prefsFinancewindow:on_AcctPlanNew1_activate}{{178.2.1}{455}{Methods\relax }{subsubsection.178.2.1}{}}
\newlabel{cuon:PrefsFinance:prefsFinance:prefsFinancewindow:on_AcctPlanEdit1_activate}{{178.2.1}{455}{Methods\relax }{subsubsection.178.2.1}{}}
\newlabel{cuon:PrefsFinance:prefsFinance:prefsFinancewindow:on_AcctPlanClear1_activate}{{178.2.1}{455}{Methods\relax }{subsubsection.178.2.1}{}}
\newlabel{cuon:PrefsFinance:prefsFinance:prefsFinancewindow:on_tree1_row_activated}{{178.2.1}{455}{Methods\relax }{subsubsection.178.2.1}{}}
\newlabel{cuon:PrefsFinance:prefsFinance:prefsFinancewindow:on_bImportAcct_clicked}{{178.2.1}{455}{Methods\relax }{subsubsection.178.2.1}{}}
\newlabel{cuon:PrefsFinance:prefsFinance:prefsFinancewindow:on_eAddressNumber_changed}{{178.2.1}{456}{Methods\relax }{subsubsection.178.2.1}{}}
\newlabel{cuon:PrefsFinance:prefsFinance:prefsFinancewindow:on_eAcctAcctPlan_changed}{{178.2.1}{456}{Methods\relax }{subsubsection.178.2.1}{}}
\newlabel{cuon:PrefsFinance:prefsFinance:prefsFinancewindow:on_eFind_key_press_event}{{178.2.1}{456}{Methods\relax }{subsubsection.178.2.1}{}}
\newlabel{cuon:PrefsFinance:prefsFinance:prefsFinancewindow:on_bSearch_clicked}{{178.2.1}{456}{Methods\relax }{subsubsection.178.2.1}{}}
\newlabel{cuon:PrefsFinance:prefsFinance:prefsFinancewindow:refreshTree}{{178.2.1}{456}{Methods\relax }{subsubsection.178.2.1}{}}
\newlabel{cuon:PrefsFinance:prefsFinance:prefsFinancewindow:filesel_destroy}{{178.2.1}{456}{Methods\relax }{subsubsection.178.2.1}{}}
\newlabel{cuon:PrefsFinance:prefsFinance:prefsFinancewindow:filesel_ok}{{178.2.1}{456}{Methods\relax }{subsubsection.178.2.1}{}}
\newlabel{cuon:PrefsFinance:prefsFinance:prefsFinancewindow:importAcct}{{178.2.1}{456}{Methods\relax }{subsubsection.178.2.1}{}}
\newlabel{cuon:PrefsFinance:prefsFinance:prefsFinancewindow:tabChanged}{{178.2.1}{456}{Methods\relax }{subsubsection.178.2.1}{}}
\@setckpt{cuon.PrefsFinance.prefsFinance-module}{
\setcounter{page}{458}
\setcounter{equation}{0}
\setcounter{enumi}{0}
\setcounter{enumii}{0}
\setcounter{enumiii}{0}
\setcounter{enumiv}{0}
\setcounter{footnote}{0}
\setcounter{mpfootnote}{0}
\setcounter{part}{0}
\setcounter{section}{178}
\setcounter{subsection}{2}
\setcounter{subsubsection}{1}
\setcounter{paragraph}{0}
\setcounter{subparagraph}{0}
\setcounter{figure}{0}
\setcounter{table}{169}
\setcounter{LT@tables}{169}
\setcounter{LT@chunks}{4}
\setcounter{Item}{0}
\setcounter{Hfootnote}{0}
\setcounter{bookmark@seq@number}{675}
\setcounter{section@level}{3}
}
