\relax 
\gdef \LT@cxx {\LT@entry 
    {1}{152.92793pt}\LT@entry 
    {1}{258.72162pt}\LT@entry 
    {1}{12.0pt}}
\@writefile{toc}{\contentsline {section}{\numberline {125}Module cuon.Graves.SingleGraveAutumn}{340}{section.125}}
\newlabel{cuon:Graves:SingleGraveAutumn}{{125}{340}{Module cuon.Graves.SingleGraveAutumn\relax }{section.125}{}}
\@writefile{toc}{\contentsline {subsection}{\numberline {125.1}Variables}{340}{subsection.125.1}}
\@writefile{toc}{\contentsline {subsection}{\numberline {125.2}Class SingleGraveAutumn}{340}{subsection.125.2}}
\newlabel{cuon:Graves:SingleGraveAutumn:SingleGraveAutumn}{{125.2}{340}{Class SingleGraveAutumn\relax }{subsection.125.2}{}}
\@writefile{toc}{\contentsline {subsubsection}{\numberline {125.2.1}Methods}{340}{subsubsection.125.2.1}}
\@setckpt{cuon.Graves.SingleGraveAutumn-module}{
\setcounter{page}{342}
\setcounter{equation}{0}
\setcounter{enumi}{0}
\setcounter{enumii}{0}
\setcounter{enumiii}{0}
\setcounter{enumiv}{0}
\setcounter{footnote}{0}
\setcounter{mpfootnote}{0}
\setcounter{part}{0}
\setcounter{section}{125}
\setcounter{subsection}{2}
\setcounter{subsubsection}{1}
\setcounter{paragraph}{0}
\setcounter{subparagraph}{0}
\setcounter{figure}{0}
\setcounter{table}{120}
\setcounter{LT@tables}{120}
\setcounter{LT@chunks}{4}
\setcounter{Item}{0}
\setcounter{Hfootnote}{0}
\setcounter{bookmark@seq@number}{474}
\setcounter{section@level}{3}
}
