\relax 
\gdef \LT@clvii {\LT@entry 
    {1}{152.92793pt}\LT@entry 
    {1}{258.72162pt}\LT@entry 
    {1}{12.0pt}}
\@writefile{toc}{\contentsline {section}{\numberline {166}Module cuon.Order.SingleOrderSupply}{427}{section.166}}
\newlabel{cuon:Order:SingleOrderSupply}{{166}{427}{Module cuon.Order.SingleOrderSupply\relax }{section.166}{}}
\@writefile{toc}{\contentsline {subsection}{\numberline {166.1}Variables}{427}{subsection.166.1}}
\@writefile{toc}{\contentsline {subsection}{\numberline {166.2}Class SingleOrderSupply}{427}{subsection.166.2}}
\newlabel{cuon:Order:SingleOrderSupply:SingleOrderSupply}{{166.2}{427}{Class SingleOrderSupply\relax }{subsection.166.2}{}}
\@writefile{toc}{\contentsline {subsubsection}{\numberline {166.2.1}Methods}{427}{subsubsection.166.2.1}}
\newlabel{cuon:Order:SingleOrderSupply:SingleOrderSupply:getDeliveryNumber}{{166.2.1}{427}{Methods\relax }{subsubsection.166.2.1}{}}
\@setckpt{cuon.Order.SingleOrderSupply-module}{
\setcounter{page}{429}
\setcounter{equation}{0}
\setcounter{enumi}{0}
\setcounter{enumii}{0}
\setcounter{enumiii}{0}
\setcounter{enumiv}{0}
\setcounter{footnote}{0}
\setcounter{mpfootnote}{0}
\setcounter{part}{0}
\setcounter{section}{166}
\setcounter{subsection}{2}
\setcounter{subsubsection}{1}
\setcounter{paragraph}{0}
\setcounter{subparagraph}{0}
\setcounter{figure}{0}
\setcounter{table}{157}
\setcounter{LT@tables}{157}
\setcounter{LT@chunks}{4}
\setcounter{Item}{0}
\setcounter{Hfootnote}{0}
\setcounter{bookmark@seq@number}{629}
\setcounter{section@level}{3}
}
