\relax 
\gdef \LT@lx {\LT@entry 
    {1}{152.92793pt}\LT@entry 
    {1}{258.72162pt}\LT@entry 
    {1}{12.0pt}}
\@writefile{toc}{\contentsline {section}{\numberline {63}Module cuon.DMS.documentTools}{186}{section.63}}
\newlabel{cuon:DMS:documentTools}{{63}{186}{Module cuon.DMS.documentTools\relax }{section.63}{}}
\@writefile{toc}{\contentsline {subsection}{\numberline {63.1}Variables}{186}{subsection.63.1}}
\@writefile{toc}{\contentsline {subsection}{\numberline {63.2}Class documentTools}{186}{subsection.63.2}}
\newlabel{cuon:DMS:documentTools:documentTools}{{63.2}{186}{Class documentTools\relax }{subsection.63.2}{}}
\@writefile{toc}{\contentsline {subsubsection}{\numberline {63.2.1}Methods}{186}{subsubsection.63.2.1}}
\newlabel{cuon:DMS:documentTools:documentTools:viewDocument}{{63.2.1}{186}{Methods\relax }{subsubsection.63.2.1}{}}
\newlabel{cuon:DMS:documentTools:documentTools:scanDocument}{{63.2.1}{186}{Methods\relax }{subsubsection.63.2.1}{}}
\newlabel{cuon:DMS:documentTools:documentTools:importDocument}{{63.2.1}{186}{Methods\relax }{subsubsection.63.2.1}{}}
\newlabel{cuon:DMS:documentTools:documentTools:load_mainwindow_logo}{{63.2.1}{186}{Methods\relax }{subsubsection.63.2.1}{}}
\newlabel{cuon:DMS:documentTools:documentTools:load_article_catalogue_pic}{{63.2.1}{186}{Methods\relax }{subsubsection.63.2.1}{}}
\newlabel{cuon:DMS:documentTools:documentTools:replaceValues}{{63.2.1}{186}{Methods\relax }{subsubsection.63.2.1}{}}
\@setckpt{cuon.DMS.documentTools-module}{
\setcounter{page}{188}
\setcounter{equation}{0}
\setcounter{enumi}{0}
\setcounter{enumii}{0}
\setcounter{enumiii}{0}
\setcounter{enumiv}{0}
\setcounter{footnote}{0}
\setcounter{mpfootnote}{0}
\setcounter{part}{0}
\setcounter{section}{63}
\setcounter{subsection}{2}
\setcounter{subsubsection}{1}
\setcounter{paragraph}{0}
\setcounter{subparagraph}{0}
\setcounter{figure}{0}
\setcounter{table}{60}
\setcounter{LT@tables}{60}
\setcounter{LT@chunks}{4}
\setcounter{Item}{0}
\setcounter{Hfootnote}{0}
\setcounter{bookmark@seq@number}{239}
\setcounter{section@level}{3}
}
