\relax 
\@writefile{toc}{\contentsline {section}{\numberline {156}Module cuon.OpenOffice.letter}{409}{section.156}}
\newlabel{cuon:OpenOffice:letter}{{156}{409}{Module cuon.OpenOffice.letter\relax }{section.156}{}}
\@writefile{toc}{\contentsline {subsection}{\numberline {156.1}Class letter}{409}{subsection.156.1}}
\newlabel{cuon:OpenOffice:letter:letter}{{156.1}{409}{Class letter\relax }{subsection.156.1}{}}
\@writefile{toc}{\contentsline {subsubsection}{\numberline {156.1.1}Methods}{409}{subsubsection.156.1.1}}
\newlabel{cuon:OpenOffice:letter:letter:createAddress}{{156.1.1}{409}{Methods\relax }{subsubsection.156.1.1}{}}
\@setckpt{cuon.OpenOffice.letter-module}{
\setcounter{page}{410}
\setcounter{equation}{0}
\setcounter{enumi}{0}
\setcounter{enumii}{0}
\setcounter{enumiii}{0}
\setcounter{enumiv}{0}
\setcounter{footnote}{0}
\setcounter{mpfootnote}{0}
\setcounter{part}{0}
\setcounter{section}{156}
\setcounter{subsection}{1}
\setcounter{subsubsection}{1}
\setcounter{paragraph}{0}
\setcounter{subparagraph}{0}
\setcounter{figure}{0}
\setcounter{table}{148}
\setcounter{LT@tables}{148}
\setcounter{LT@chunks}{4}
\setcounter{Item}{0}
\setcounter{Hfootnote}{0}
\setcounter{bookmark@seq@number}{593}
\setcounter{section@level}{3}
}
