\relax 
\gdef \LT@cvi {\LT@entry 
    {1}{152.92793pt}\LT@entry 
    {1}{258.72162pt}\LT@entry 
    {1}{12.0pt}}
\@writefile{toc}{\contentsline {section}{\numberline {111}Module cuon.Garden.SingleBotany}{301}{section.111}}
\newlabel{cuon:Garden:SingleBotany}{{111}{301}{Module cuon.Garden.SingleBotany\relax }{section.111}{}}
\@writefile{toc}{\contentsline {subsection}{\numberline {111.1}Variables}{301}{subsection.111.1}}
\@writefile{toc}{\contentsline {subsection}{\numberline {111.2}Class SingleBotany}{301}{subsection.111.2}}
\newlabel{cuon:Garden:SingleBotany:SingleBotany}{{111.2}{301}{Class SingleBotany\relax }{subsection.111.2}{}}
\@writefile{toc}{\contentsline {subsubsection}{\numberline {111.2.1}Methods}{301}{subsubsection.111.2.1}}
\newlabel{cuon:Garden:SingleBotany:SingleBotany:getBotany}{{111.2.1}{301}{Methods\relax }{subsubsection.111.2.1}{}}
\newlabel{cuon:Garden:SingleBotany:SingleBotany:getBotanyFields}{{111.2.1}{301}{Methods\relax }{subsubsection.111.2.1}{}}
\newlabel{cuon:Garden:SingleBotany:SingleBotany:getBotanyNumber}{{111.2.1}{301}{Methods\relax }{subsubsection.111.2.1}{}}
\newlabel{cuon:Garden:SingleBotany:SingleBotany:getBotanyName}{{111.2.1}{301}{Methods\relax }{subsubsection.111.2.1}{}}
\newlabel{cuon:Garden:SingleBotany:SingleBotany:getAssociatedID}{{111.2.1}{302}{Methods\relax }{subsubsection.111.2.1}{}}
\@setckpt{cuon.Garden.SingleBotany-module}{
\setcounter{page}{304}
\setcounter{equation}{0}
\setcounter{enumi}{0}
\setcounter{enumii}{0}
\setcounter{enumiii}{0}
\setcounter{enumiv}{0}
\setcounter{footnote}{0}
\setcounter{mpfootnote}{0}
\setcounter{part}{0}
\setcounter{section}{111}
\setcounter{subsection}{2}
\setcounter{subsubsection}{1}
\setcounter{paragraph}{0}
\setcounter{subparagraph}{0}
\setcounter{figure}{0}
\setcounter{table}{106}
\setcounter{LT@tables}{106}
\setcounter{LT@chunks}{4}
\setcounter{Item}{0}
\setcounter{Hfootnote}{0}
\setcounter{bookmark@seq@number}{419}
\setcounter{section@level}{3}
}
