\relax 
\@writefile{toc}{\contentsline {section}{\numberline {147}Package cuon.Login}{394}{section.147}}
\newlabel{cuon:Login}{{147}{394}{Package cuon.Login\relax }{section.147}{}}
\@writefile{toc}{\contentsline {subsection}{\numberline {147.1}Modules}{394}{subsection.147.1}}
\@setckpt{cuon.Login-module}{
\setcounter{page}{395}
\setcounter{equation}{0}
\setcounter{enumi}{0}
\setcounter{enumii}{0}
\setcounter{enumiii}{0}
\setcounter{enumiv}{0}
\setcounter{footnote}{0}
\setcounter{mpfootnote}{0}
\setcounter{part}{0}
\setcounter{section}{147}
\setcounter{subsection}{1}
\setcounter{subsubsection}{0}
\setcounter{paragraph}{0}
\setcounter{subparagraph}{0}
\setcounter{figure}{0}
\setcounter{table}{140}
\setcounter{LT@tables}{140}
\setcounter{LT@chunks}{4}
\setcounter{Item}{0}
\setcounter{Hfootnote}{0}
\setcounter{bookmark@seq@number}{556}
\setcounter{section@level}{2}
}
