\relax 
\gdef \LT@lxxii {\LT@entry 
    {1}{152.92793pt}\LT@entry 
    {1}{258.72162pt}\LT@entry 
    {1}{12.0pt}}
\@writefile{toc}{\contentsline {section}{\numberline {76}Module cuon.Databases.export\_generic1}{216}{section.76}}
\newlabel{cuon:Databases:export_generic1}{{76}{216}{Module cuon.Databases.export\_generic1\relax }{section.76}{}}
\@writefile{toc}{\contentsline {subsection}{\numberline {76.1}Variables}{216}{subsection.76.1}}
\@writefile{toc}{\contentsline {subsection}{\numberline {76.2}Class export\_generic1}{216}{subsection.76.2}}
\newlabel{cuon:Databases:export_generic1:export_generic1}{{76.2}{216}{Class export\_generic1\relax }{subsection.76.2}{}}
\@writefile{toc}{\contentsline {subsubsection}{\numberline {76.2.1}Methods}{217}{subsubsection.76.2.1}}
\newlabel{cuon:Databases:export_generic1:export_generic1:readCtrlFile}{{76.2.1}{217}{Methods\relax }{subsubsection.76.2.1}{}}
\newlabel{cuon:Databases:export_generic1:export_generic1:standardExport}{{76.2.1}{217}{Methods\relax }{subsubsection.76.2.1}{}}
\newlabel{cuon:Databases:export_generic1:export_generic1:on_ok_button1_clicked}{{76.2.1}{217}{Methods\relax }{subsubsection.76.2.1}{}}
\@setckpt{cuon.Databases.export_generic1-module}{
\setcounter{page}{219}
\setcounter{equation}{0}
\setcounter{enumi}{0}
\setcounter{enumii}{0}
\setcounter{enumiii}{0}
\setcounter{enumiv}{0}
\setcounter{footnote}{0}
\setcounter{mpfootnote}{0}
\setcounter{part}{0}
\setcounter{section}{76}
\setcounter{subsection}{2}
\setcounter{subsubsection}{1}
\setcounter{paragraph}{0}
\setcounter{subparagraph}{0}
\setcounter{figure}{0}
\setcounter{table}{72}
\setcounter{LT@tables}{72}
\setcounter{LT@chunks}{4}
\setcounter{Item}{0}
\setcounter{Hfootnote}{0}
\setcounter{bookmark@seq@number}{289}
\setcounter{section@level}{3}
}
