\relax 
\gdef \LT@ccxxi {\LT@entry 
    {1}{152.92793pt}\LT@entry 
    {1}{258.72162pt}\LT@entry 
    {1}{12.0pt}}
\@writefile{toc}{\contentsline {section}{\numberline {231}Module cuon.TypeDefs.typedefs}{580}{section.231}}
\newlabel{cuon:TypeDefs:typedefs}{{231}{580}{Module cuon.TypeDefs.typedefs\relax }{section.231}{}}
\@writefile{toc}{\contentsline {subsection}{\numberline {231.1}Variables}{580}{subsection.231.1}}
\@writefile{toc}{\contentsline {subsection}{\numberline {231.2}Class typedefs}{580}{subsection.231.2}}
\newlabel{cuon:TypeDefs:typedefs:typedefs}{{231.2}{580}{Class typedefs\relax }{subsection.231.2}{}}
\@writefile{toc}{\contentsline {subsubsection}{\numberline {231.2.1}Methods}{580}{subsubsection.231.2.1}}
\newlabel{cuon:TypeDefs:typedefs:typedefs:__init__}{{231.2.1}{580}{Methods\relax }{subsubsection.231.2.1}{}}
\newlabel{cuon:TypeDefs:typedefs:typedefs:closeDB}{{231.2.1}{580}{Methods\relax }{subsubsection.231.2.1}{}}
\newlabel{cuon:TypeDefs:typedefs:typedefs:getConfigOption}{{231.2.1}{580}{Methods\relax }{subsubsection.231.2.1}{}}
\newlabel{cuon:TypeDefs:typedefs:typedefs:getConfigParser}{{231.2.1}{580}{Methods\relax }{subsubsection.231.2.1}{}}
\newlabel{cuon:TypeDefs:typedefs:typedefs:loadObject}{{231.2.1}{580}{Methods\relax }{subsubsection.231.2.1}{}}
\newlabel{cuon:TypeDefs:typedefs:typedefs:loadTD}{{231.2.1}{580}{Methods\relax }{subsubsection.231.2.1}{}}
\newlabel{cuon:TypeDefs:typedefs:typedefs:openDB}{{231.2.1}{580}{Methods\relax }{subsubsection.231.2.1}{}}
\newlabel{cuon:TypeDefs:typedefs:typedefs:pickleObject}{{231.2.1}{580}{Methods\relax }{subsubsection.231.2.1}{}}
\newlabel{cuon:TypeDefs:typedefs:typedefs:saveObject}{{231.2.1}{580}{Methods\relax }{subsubsection.231.2.1}{}}
\newlabel{cuon:TypeDefs:typedefs:typedefs:saveTD}{{231.2.1}{580}{Methods\relax }{subsubsection.231.2.1}{}}
\newlabel{cuon:TypeDefs:typedefs:typedefs:unpickleObject}{{231.2.1}{580}{Methods\relax }{subsubsection.231.2.1}{}}
\@setckpt{cuon.TypeDefs.typedefs-module}{
\setcounter{page}{581}
\setcounter{equation}{0}
\setcounter{enumi}{0}
\setcounter{enumii}{0}
\setcounter{enumiii}{0}
\setcounter{enumiv}{0}
\setcounter{footnote}{0}
\setcounter{mpfootnote}{0}
\setcounter{part}{0}
\setcounter{section}{231}
\setcounter{subsection}{2}
\setcounter{subsubsection}{1}
\setcounter{paragraph}{0}
\setcounter{subparagraph}{0}
\setcounter{figure}{0}
\setcounter{table}{221}
\setcounter{LT@tables}{221}
\setcounter{LT@chunks}{4}
\setcounter{Item}{0}
\setcounter{Hfootnote}{0}
\setcounter{bookmark@seq@number}{875}
\setcounter{section@level}{3}
}
