\relax 
\gdef \LT@clvi {\LT@entry 
    {1}{152.92793pt}\LT@entry 
    {1}{258.72162pt}\LT@entry 
    {1}{12.0pt}}
\@writefile{toc}{\contentsline {section}{\numberline {165}Module cuon.Order.SingleOrderPosition}{425}{section.165}}
\newlabel{cuon:Order:SingleOrderPosition}{{165}{425}{Module cuon.Order.SingleOrderPosition\relax }{section.165}{}}
\@writefile{toc}{\contentsline {subsection}{\numberline {165.1}Variables}{425}{subsection.165.1}}
\@writefile{toc}{\contentsline {subsection}{\numberline {165.2}Class SingleOrderPosition}{425}{subsection.165.2}}
\newlabel{cuon:Order:SingleOrderPosition:SingleOrderPosition}{{165.2}{425}{Class SingleOrderPosition\relax }{subsection.165.2}{}}
\@writefile{toc}{\contentsline {subsubsection}{\numberline {165.2.1}Methods}{425}{subsubsection.165.2.1}}
\@setckpt{cuon.Order.SingleOrderPosition-module}{
\setcounter{page}{427}
\setcounter{equation}{0}
\setcounter{enumi}{0}
\setcounter{enumii}{0}
\setcounter{enumiii}{0}
\setcounter{enumiv}{0}
\setcounter{footnote}{0}
\setcounter{mpfootnote}{0}
\setcounter{part}{0}
\setcounter{section}{165}
\setcounter{subsection}{2}
\setcounter{subsubsection}{1}
\setcounter{paragraph}{0}
\setcounter{subparagraph}{0}
\setcounter{figure}{0}
\setcounter{table}{156}
\setcounter{LT@tables}{156}
\setcounter{LT@chunks}{4}
\setcounter{Item}{0}
\setcounter{Hfootnote}{0}
\setcounter{bookmark@seq@number}{625}
\setcounter{section@level}{3}
}
