\relax 
\gdef \LT@cxlvii {\LT@entry 
    {1}{152.92793pt}\LT@entry 
    {1}{258.72162pt}\LT@entry 
    {1}{12.0pt}}
\@writefile{toc}{\contentsline {section}{\numberline {154}Module cuon.Misc.misc}{407}{section.154}}
\newlabel{cuon:Misc:misc}{{154}{407}{Module cuon.Misc.misc\relax }{section.154}{}}
\@writefile{toc}{\contentsline {subsection}{\numberline {154.1}Variables}{407}{subsection.154.1}}
\@writefile{toc}{\contentsline {subsection}{\numberline {154.2}Class misc}{407}{subsection.154.2}}
\newlabel{cuon:Misc:misc:misc}{{154.2}{407}{Class misc\relax }{subsection.154.2}{}}
\@writefile{toc}{\contentsline {subsubsection}{\numberline {154.2.1}Methods}{407}{subsubsection.154.2.1}}
\newlabel{cuon:Misc:misc:misc:__init__}{{154.2.1}{407}{Methods\relax }{subsubsection.154.2.1}{}}
\newlabel{cuon:Misc:misc:misc:getRandomFilename}{{154.2.1}{407}{Methods\relax }{subsubsection.154.2.1}{}}
\@writefile{toc}{\contentsline {subsection}{\numberline {154.3}Class sendAsEmail}{407}{subsection.154.3}}
\newlabel{cuon:Misc:misc:sendAsEmail}{{154.3}{407}{Class sendAsEmail\relax }{subsection.154.3}{}}
\@writefile{toc}{\contentsline {subsubsection}{\numberline {154.3.1}Methods}{407}{subsubsection.154.3.1}}
\newlabel{cuon:Misc:misc:sendAsEmail:__init__}{{154.3.1}{407}{Methods\relax }{subsubsection.154.3.1}{}}
\newlabel{cuon:Misc:misc:sendAsEmail:sendNormal}{{154.3.1}{407}{Methods\relax }{subsubsection.154.3.1}{}}
\@writefile{toc}{\contentsline {subsection}{\numberline {154.4}Class Treeview}{407}{subsection.154.4}}
\newlabel{cuon:Misc:misc:Treeview}{{154.4}{407}{Class Treeview\relax }{subsection.154.4}{}}
\@writefile{toc}{\contentsline {subsubsection}{\numberline {154.4.1}Methods}{407}{subsubsection.154.4.1}}
\newlabel{cuon:Misc:misc:Treeview:__init__}{{154.4.1}{407}{Methods\relax }{subsubsection.154.4.1}{}}
\newlabel{cuon:Misc:misc:Treeview:start}{{154.4.1}{407}{Methods\relax }{subsubsection.154.4.1}{}}
\newlabel{cuon:Misc:misc:Treeview:fillTree}{{154.4.1}{407}{Methods\relax }{subsubsection.154.4.1}{}}
\@setckpt{cuon.Misc.misc-module}{
\setcounter{page}{408}
\setcounter{equation}{0}
\setcounter{enumi}{0}
\setcounter{enumii}{0}
\setcounter{enumiii}{0}
\setcounter{enumiv}{0}
\setcounter{footnote}{0}
\setcounter{mpfootnote}{0}
\setcounter{part}{0}
\setcounter{section}{154}
\setcounter{subsection}{4}
\setcounter{subsubsection}{1}
\setcounter{paragraph}{0}
\setcounter{subparagraph}{0}
\setcounter{figure}{0}
\setcounter{table}{147}
\setcounter{LT@tables}{147}
\setcounter{LT@chunks}{4}
\setcounter{Item}{0}
\setcounter{Hfootnote}{0}
\setcounter{bookmark@seq@number}{587}
\setcounter{section@level}{3}
}
