\relax 
\gdef \LT@ccxx {\LT@entry 
    {1}{152.92793pt}\LT@entry 
    {1}{258.72162pt}\LT@entry 
    {1}{12.0pt}}
\@writefile{toc}{\contentsline {section}{\numberline {230}Module cuon.TypeDefs.defaultValues}{579}{section.230}}
\newlabel{cuon:TypeDefs:defaultValues}{{230}{579}{Module cuon.TypeDefs.defaultValues\relax }{section.230}{}}
\@writefile{toc}{\contentsline {subsection}{\numberline {230.1}Variables}{579}{subsection.230.1}}
\@writefile{toc}{\contentsline {subsection}{\numberline {230.2}Class defaultValues}{579}{subsection.230.2}}
\newlabel{cuon:TypeDefs:defaultValues:defaultValues}{{230.2}{579}{Class defaultValues\relax }{subsection.230.2}{}}
\@writefile{toc}{\contentsline {subsubsection}{\numberline {230.2.1}Methods}{579}{subsubsection.230.2.1}}
\@setckpt{cuon.TypeDefs.defaultValues-module}{
\setcounter{page}{580}
\setcounter{equation}{0}
\setcounter{enumi}{0}
\setcounter{enumii}{0}
\setcounter{enumiii}{0}
\setcounter{enumiv}{0}
\setcounter{footnote}{0}
\setcounter{mpfootnote}{0}
\setcounter{part}{0}
\setcounter{section}{230}
\setcounter{subsection}{2}
\setcounter{subsubsection}{1}
\setcounter{paragraph}{0}
\setcounter{subparagraph}{0}
\setcounter{figure}{0}
\setcounter{table}{220}
\setcounter{LT@tables}{220}
\setcounter{LT@chunks}{4}
\setcounter{Item}{0}
\setcounter{Hfootnote}{0}
\setcounter{bookmark@seq@number}{871}
\setcounter{section@level}{3}
}
