\relax 
\gdef \LT@xlviii {\LT@entry 
    {1}{152.92793pt}\LT@entry 
    {1}{258.72162pt}\LT@entry 
    {1}{12.0pt}}
\@writefile{toc}{\contentsline {section}{\numberline {51}Package cuon.Calendar}{156}{section.51}}
\newlabel{cuon:Calendar}{{51}{156}{Package cuon.Calendar\relax }{section.51}{}}
\@writefile{toc}{\contentsline {subsection}{\numberline {51.1}Modules}{156}{subsection.51.1}}
\@writefile{toc}{\contentsline {subsection}{\numberline {51.2}Variables}{156}{subsection.51.2}}
\@setckpt{cuon.Calendar-module}{
\setcounter{page}{157}
\setcounter{equation}{0}
\setcounter{enumi}{0}
\setcounter{enumii}{0}
\setcounter{enumiii}{0}
\setcounter{enumiv}{0}
\setcounter{footnote}{0}
\setcounter{mpfootnote}{0}
\setcounter{part}{0}
\setcounter{section}{51}
\setcounter{subsection}{2}
\setcounter{subsubsection}{0}
\setcounter{paragraph}{0}
\setcounter{subparagraph}{0}
\setcounter{figure}{0}
\setcounter{table}{48}
\setcounter{LT@tables}{48}
\setcounter{LT@chunks}{4}
\setcounter{Item}{0}
\setcounter{Hfootnote}{0}
\setcounter{bookmark@seq@number}{194}
\setcounter{section@level}{2}
}
