\relax 
\gdef \LT@ccxxxi {\LT@entry 
    {1}{152.92793pt}\LT@entry 
    {1}{258.72162pt}\LT@entry 
    {1}{12.0pt}}
\@writefile{toc}{\contentsline {section}{\numberline {242}Module cuon.Windows.chooseWindows}{596}{section.242}}
\newlabel{cuon:Windows:chooseWindows}{{242}{596}{Module cuon.Windows.chooseWindows\relax }{section.242}{}}
\@writefile{toc}{\contentsline {subsection}{\numberline {242.1}Variables}{596}{subsection.242.1}}
\@writefile{toc}{\contentsline {subsection}{\numberline {242.2}Class chooseWindows}{596}{subsection.242.2}}
\newlabel{cuon:Windows:chooseWindows:chooseWindows}{{242.2}{596}{Class chooseWindows\relax }{subsection.242.2}{}}
\@writefile{toc}{\contentsline {subsubsection}{\numberline {242.2.1}Methods}{597}{subsubsection.242.2.1}}
\newlabel{cuon:Windows:chooseWindows:chooseWindows:getChangedValue}{{242.2.1}{597}{Methods\relax }{subsubsection.242.2.1}{}}
\newlabel{cuon:Windows:chooseWindows:chooseWindows:pressChoosebutton}{{242.2.1}{597}{Methods\relax }{subsubsection.242.2.1}{}}
\newlabel{cuon:Windows:chooseWindows:chooseWindows:setChooseButton}{{242.2.1}{597}{Methods\relax }{subsubsection.242.2.1}{}}
\newlabel{cuon:Windows:chooseWindows:chooseWindows:setChooseEntry}{{242.2.1}{597}{Methods\relax }{subsubsection.242.2.1}{}}
\newlabel{cuon:Windows:chooseWindows:chooseWindows:setChooseValue}{{242.2.1}{597}{Methods\relax }{subsubsection.242.2.1}{}}
\@setckpt{cuon.Windows.chooseWindows-module}{
\setcounter{page}{599}
\setcounter{equation}{0}
\setcounter{enumi}{1}
\setcounter{enumii}{0}
\setcounter{enumiii}{0}
\setcounter{enumiv}{0}
\setcounter{footnote}{0}
\setcounter{mpfootnote}{0}
\setcounter{part}{0}
\setcounter{section}{242}
\setcounter{subsection}{2}
\setcounter{subsubsection}{1}
\setcounter{paragraph}{0}
\setcounter{subparagraph}{0}
\setcounter{figure}{0}
\setcounter{table}{231}
\setcounter{LT@tables}{231}
\setcounter{LT@chunks}{4}
\setcounter{Item}{1}
\setcounter{Hfootnote}{0}
\setcounter{bookmark@seq@number}{912}
\setcounter{section@level}{3}
}
