\relax 
\gdef \LT@cviii {\LT@entry 
    {1}{152.92793pt}\LT@entry 
    {1}{258.72162pt}\LT@entry 
    {1}{12.0pt}}
\@writefile{toc}{\contentsline {section}{\numberline {113}Module cuon.Garden.SingleBotanyDivisio}{306}{section.113}}
\newlabel{cuon:Garden:SingleBotanyDivisio}{{113}{306}{Module cuon.Garden.SingleBotanyDivisio\relax }{section.113}{}}
\@writefile{toc}{\contentsline {subsection}{\numberline {113.1}Variables}{306}{subsection.113.1}}
\@writefile{toc}{\contentsline {subsection}{\numberline {113.2}Class SingleBotanyDivisio}{306}{subsection.113.2}}
\newlabel{cuon:Garden:SingleBotanyDivisio:SingleBotanyDivisio}{{113.2}{306}{Class SingleBotanyDivisio\relax }{subsection.113.2}{}}
\@writefile{toc}{\contentsline {subsubsection}{\numberline {113.2.1}Methods}{306}{subsubsection.113.2.1}}
\@setckpt{cuon.Garden.SingleBotanyDivisio-module}{
\setcounter{page}{308}
\setcounter{equation}{0}
\setcounter{enumi}{0}
\setcounter{enumii}{0}
\setcounter{enumiii}{0}
\setcounter{enumiv}{0}
\setcounter{footnote}{0}
\setcounter{mpfootnote}{0}
\setcounter{part}{0}
\setcounter{section}{113}
\setcounter{subsection}{2}
\setcounter{subsubsection}{1}
\setcounter{paragraph}{0}
\setcounter{subparagraph}{0}
\setcounter{figure}{0}
\setcounter{table}{108}
\setcounter{LT@tables}{108}
\setcounter{LT@chunks}{4}
\setcounter{Item}{0}
\setcounter{Hfootnote}{0}
\setcounter{bookmark@seq@number}{427}
\setcounter{section@level}{3}
}
