\relax 
\gdef \LT@vii {\LT@entry 
    {1}{152.92793pt}\LT@entry 
    {1}{258.72162pt}\LT@entry 
    {1}{12.0pt}}
\@writefile{toc}{\contentsline {section}{\numberline {7}Module cuon.AI.miniClient}{49}{section.7}}
\newlabel{cuon:AI:miniClient}{{7}{49}{Module cuon.AI.miniClient\relax }{section.7}{}}
\@writefile{toc}{\contentsline {subsection}{\numberline {7.1}Variables}{49}{subsection.7.1}}
\@setckpt{cuon.AI.miniClient-module}{
\setcounter{page}{50}
\setcounter{equation}{0}
\setcounter{enumi}{0}
\setcounter{enumii}{0}
\setcounter{enumiii}{0}
\setcounter{enumiv}{0}
\setcounter{footnote}{0}
\setcounter{mpfootnote}{0}
\setcounter{part}{0}
\setcounter{section}{7}
\setcounter{subsection}{1}
\setcounter{subsubsection}{0}
\setcounter{paragraph}{0}
\setcounter{subparagraph}{0}
\setcounter{figure}{0}
\setcounter{table}{7}
\setcounter{LT@tables}{7}
\setcounter{LT@chunks}{4}
\setcounter{Item}{0}
\setcounter{Hfootnote}{0}
\setcounter{bookmark@seq@number}{28}
\setcounter{section@level}{2}
}
