\relax 
\gdef \LT@clxx {\LT@entry 
    {1}{152.92793pt}\LT@entry 
    {1}{258.72162pt}\LT@entry 
    {1}{12.0pt}}
\@writefile{toc}{\contentsline {section}{\numberline {179}Package cuon.Project}{458}{section.179}}
\newlabel{cuon:Project}{{179}{458}{Package cuon.Project\relax }{section.179}{}}
\@writefile{toc}{\contentsline {subsection}{\numberline {179.1}Modules}{458}{subsection.179.1}}
\@writefile{toc}{\contentsline {subsection}{\numberline {179.2}Variables}{458}{subsection.179.2}}
\@setckpt{cuon.Project-module}{
\setcounter{page}{459}
\setcounter{equation}{0}
\setcounter{enumi}{0}
\setcounter{enumii}{0}
\setcounter{enumiii}{0}
\setcounter{enumiv}{0}
\setcounter{footnote}{0}
\setcounter{mpfootnote}{0}
\setcounter{part}{0}
\setcounter{section}{179}
\setcounter{subsection}{2}
\setcounter{subsubsection}{0}
\setcounter{paragraph}{0}
\setcounter{subparagraph}{0}
\setcounter{figure}{0}
\setcounter{table}{170}
\setcounter{LT@tables}{170}
\setcounter{LT@chunks}{4}
\setcounter{Item}{0}
\setcounter{Hfootnote}{0}
\setcounter{bookmark@seq@number}{678}
\setcounter{section@level}{2}
}
