\relax 
\gdef \LT@clxvii {\LT@entry 
    {1}{152.92793pt}\LT@entry 
    {1}{258.72162pt}\LT@entry 
    {1}{12.0pt}}
\@writefile{toc}{\contentsline {section}{\numberline {176}Module cuon.PrefsFinance.SinglePrefsFinanceTop}{450}{section.176}}
\newlabel{cuon:PrefsFinance:SinglePrefsFinanceTop}{{176}{450}{Module cuon.PrefsFinance.SinglePrefsFinanceTop\relax }{section.176}{}}
\@writefile{toc}{\contentsline {subsection}{\numberline {176.1}Variables}{450}{subsection.176.1}}
\@writefile{toc}{\contentsline {subsection}{\numberline {176.2}Class SinglePrefsFinanceTop}{450}{subsection.176.2}}
\newlabel{cuon:PrefsFinance:SinglePrefsFinanceTop:SinglePrefsFinanceTop}{{176.2}{450}{Class SinglePrefsFinanceTop\relax }{subsection.176.2}{}}
\@writefile{toc}{\contentsline {subsubsection}{\numberline {176.2.1}Methods}{450}{subsubsection.176.2.1}}
\newlabel{cuon:PrefsFinance:SinglePrefsFinanceTop:SinglePrefsFinanceTop:getTOP}{{176.2.1}{450}{Methods\relax }{subsubsection.176.2.1}{}}
\@setckpt{cuon.PrefsFinance.SinglePrefsFinanceTop-module}{
\setcounter{page}{452}
\setcounter{equation}{0}
\setcounter{enumi}{0}
\setcounter{enumii}{0}
\setcounter{enumiii}{0}
\setcounter{enumiv}{0}
\setcounter{footnote}{0}
\setcounter{mpfootnote}{0}
\setcounter{part}{0}
\setcounter{section}{176}
\setcounter{subsection}{2}
\setcounter{subsubsection}{1}
\setcounter{paragraph}{0}
\setcounter{subparagraph}{0}
\setcounter{figure}{0}
\setcounter{table}{167}
\setcounter{LT@tables}{167}
\setcounter{LT@chunks}{4}
\setcounter{Item}{0}
\setcounter{Hfootnote}{0}
\setcounter{bookmark@seq@number}{667}
\setcounter{section@level}{3}
}
