\relax 
\gdef \LT@lxvi {\LT@entry 
    {1}{152.92793pt}\LT@entry 
    {1}{258.72162pt}\LT@entry 
    {1}{12.0pt}}
\@writefile{toc}{\contentsline {section}{\numberline {70}Module cuon.Databases.SingleImportZip}{202}{section.70}}
\newlabel{cuon:Databases:SingleImportZip}{{70}{202}{Module cuon.Databases.SingleImportZip\relax }{section.70}{}}
\@writefile{toc}{\contentsline {subsection}{\numberline {70.1}Variables}{202}{subsection.70.1}}
\@writefile{toc}{\contentsline {subsection}{\numberline {70.2}Class SingleImportZip}{202}{subsection.70.2}}
\newlabel{cuon:Databases:SingleImportZip:SingleImportZip}{{70.2}{202}{Class SingleImportZip\relax }{subsection.70.2}{}}
\@writefile{toc}{\contentsline {subsubsection}{\numberline {70.2.1}Methods}{202}{subsubsection.70.2.1}}
\@setckpt{cuon.Databases.SingleImportZip-module}{
\setcounter{page}{204}
\setcounter{equation}{0}
\setcounter{enumi}{0}
\setcounter{enumii}{0}
\setcounter{enumiii}{0}
\setcounter{enumiv}{0}
\setcounter{footnote}{0}
\setcounter{mpfootnote}{0}
\setcounter{part}{0}
\setcounter{section}{70}
\setcounter{subsection}{2}
\setcounter{subsubsection}{1}
\setcounter{paragraph}{0}
\setcounter{subparagraph}{0}
\setcounter{figure}{0}
\setcounter{table}{66}
\setcounter{LT@tables}{66}
\setcounter{LT@chunks}{4}
\setcounter{Item}{0}
\setcounter{Hfootnote}{0}
\setcounter{bookmark@seq@number}{265}
\setcounter{section@level}{3}
}
