\relax 
\gdef \LT@clxxviii {\LT@entry 
    {1}{152.92793pt}\LT@entry 
    {1}{258.72162pt}\LT@entry 
    {1}{12.0pt}}
\@writefile{toc}{\contentsline {section}{\numberline {187}Package cuon.Proposal}{478}{section.187}}
\newlabel{cuon:Proposal}{{187}{478}{Package cuon.Proposal\relax }{section.187}{}}
\@writefile{toc}{\contentsline {subsection}{\numberline {187.1}Modules}{478}{subsection.187.1}}
\@writefile{toc}{\contentsline {subsection}{\numberline {187.2}Variables}{478}{subsection.187.2}}
\@setckpt{cuon.Proposal-module}{
\setcounter{page}{479}
\setcounter{equation}{0}
\setcounter{enumi}{0}
\setcounter{enumii}{0}
\setcounter{enumiii}{0}
\setcounter{enumiv}{0}
\setcounter{footnote}{0}
\setcounter{mpfootnote}{0}
\setcounter{part}{0}
\setcounter{section}{187}
\setcounter{subsection}{2}
\setcounter{subsubsection}{0}
\setcounter{paragraph}{0}
\setcounter{subparagraph}{0}
\setcounter{figure}{0}
\setcounter{table}{178}
\setcounter{LT@tables}{178}
\setcounter{LT@chunks}{4}
\setcounter{Item}{0}
\setcounter{Hfootnote}{0}
\setcounter{bookmark@seq@number}{709}
\setcounter{section@level}{2}
}
