\relax 
\gdef \LT@xliv {\LT@entry 
    {1}{152.92793pt}\LT@entry 
    {1}{258.72162pt}\LT@entry 
    {1}{12.0pt}}
\@writefile{toc}{\contentsline {section}{\numberline {47}Module cuon.Bank.bank}{145}{section.47}}
\newlabel{cuon:Bank:bank}{{47}{145}{Module cuon.Bank.bank\relax }{section.47}{}}
\@writefile{toc}{\contentsline {subsection}{\numberline {47.1}Variables}{145}{subsection.47.1}}
\@writefile{toc}{\contentsline {subsection}{\numberline {47.2}Class bankwindow}{145}{subsection.47.2}}
\newlabel{cuon:Bank:bank:bankwindow}{{47.2}{145}{Class bankwindow\relax }{subsection.47.2}{}}
\@writefile{toc}{\contentsline {subsubsection}{\numberline {47.2.1}Methods}{145}{subsubsection.47.2.1}}
\newlabel{cuon:Bank:bank:bankwindow:on_quit1_activate}{{47.2.1}{146}{Methods\relax }{subsubsection.47.2.1}{}}
\newlabel{cuon:Bank:bank:bankwindow:on_save1_activate}{{47.2.1}{146}{Methods\relax }{subsubsection.47.2.1}{}}
\newlabel{cuon:Bank:bank:bankwindow:on_new1_activate}{{47.2.1}{146}{Methods\relax }{subsubsection.47.2.1}{}}
\newlabel{cuon:Bank:bank:bankwindow:on_edit1_activate}{{47.2.1}{146}{Methods\relax }{subsubsection.47.2.1}{}}
\newlabel{cuon:Bank:bank:bankwindow:on_delete1_activate}{{47.2.1}{146}{Methods\relax }{subsubsection.47.2.1}{}}
\newlabel{cuon:Bank:bank:bankwindow:on_bChooseAddressOfBank_clicked}{{47.2.1}{146}{Methods\relax }{subsubsection.47.2.1}{}}
\newlabel{cuon:Bank:bank:bankwindow:on_eAddressID_changed}{{47.2.1}{146}{Methods\relax }{subsubsection.47.2.1}{}}
\newlabel{cuon:Bank:bank:bankwindow:on_bSearch_clicked}{{47.2.1}{146}{Methods\relax }{subsubsection.47.2.1}{}}
\newlabel{cuon:Bank:bank:bankwindow:on_tree1_row_activated}{{47.2.1}{146}{Methods\relax }{subsubsection.47.2.1}{}}
\newlabel{cuon:Bank:bank:bankwindow:on_chooseBank_activate}{{47.2.1}{146}{Methods\relax }{subsubsection.47.2.1}{}}
\newlabel{cuon:Bank:bank:bankwindow:refreshTree}{{47.2.1}{146}{Methods\relax }{subsubsection.47.2.1}{}}
\newlabel{cuon:Bank:bank:bankwindow:tabChanged}{{47.2.1}{146}{Methods\relax }{subsubsection.47.2.1}{}}
\@setckpt{cuon.Bank.bank-module}{
\setcounter{page}{149}
\setcounter{equation}{0}
\setcounter{enumi}{0}
\setcounter{enumii}{0}
\setcounter{enumiii}{0}
\setcounter{enumiv}{0}
\setcounter{footnote}{0}
\setcounter{mpfootnote}{0}
\setcounter{part}{0}
\setcounter{section}{47}
\setcounter{subsection}{2}
\setcounter{subsubsection}{1}
\setcounter{paragraph}{0}
\setcounter{subparagraph}{0}
\setcounter{figure}{0}
\setcounter{table}{44}
\setcounter{LT@tables}{44}
\setcounter{LT@chunks}{4}
\setcounter{Item}{0}
\setcounter{Hfootnote}{0}
\setcounter{bookmark@seq@number}{180}
\setcounter{section@level}{3}
}
