\relax 
\gdef \LT@ccxi {\LT@entry 
    {1}{152.92793pt}\LT@entry 
    {1}{258.72162pt}\LT@entry 
    {1}{12.0pt}}
\@writefile{toc}{\contentsline {section}{\numberline {220}Package cuon.SupportTicket}{559}{section.220}}
\newlabel{cuon:SupportTicket}{{220}{559}{Package cuon.SupportTicket\relax }{section.220}{}}
\@writefile{toc}{\contentsline {subsection}{\numberline {220.1}Modules}{559}{subsection.220.1}}
\@writefile{toc}{\contentsline {subsection}{\numberline {220.2}Variables}{559}{subsection.220.2}}
\@setckpt{cuon.SupportTicket-module}{
\setcounter{page}{560}
\setcounter{equation}{0}
\setcounter{enumi}{0}
\setcounter{enumii}{0}
\setcounter{enumiii}{0}
\setcounter{enumiv}{0}
\setcounter{footnote}{0}
\setcounter{mpfootnote}{0}
\setcounter{part}{0}
\setcounter{section}{220}
\setcounter{subsection}{2}
\setcounter{subsubsection}{0}
\setcounter{paragraph}{0}
\setcounter{subparagraph}{0}
\setcounter{figure}{0}
\setcounter{table}{211}
\setcounter{LT@tables}{211}
\setcounter{LT@chunks}{4}
\setcounter{Item}{0}
\setcounter{Hfootnote}{0}
\setcounter{bookmark@seq@number}{834}
\setcounter{section@level}{2}
}
