\relax 
\gdef \LT@cxxxviii {\LT@entry 
    {1}{152.92793pt}\LT@entry 
    {1}{258.72162pt}\LT@entry 
    {1}{12.0pt}}
\@writefile{toc}{\contentsline {section}{\numberline {143}Module cuon.Leasing.SingleLeasing}{384}{section.143}}
\newlabel{cuon:Leasing:SingleLeasing}{{143}{384}{Module cuon.Leasing.SingleLeasing\relax }{section.143}{}}
\@writefile{toc}{\contentsline {subsection}{\numberline {143.1}Variables}{384}{subsection.143.1}}
\@writefile{toc}{\contentsline {subsection}{\numberline {143.2}Class SingleLeasing}{384}{subsection.143.2}}
\newlabel{cuon:Leasing:SingleLeasing:SingleLeasing}{{143.2}{384}{Class SingleLeasing\relax }{subsection.143.2}{}}
\@writefile{toc}{\contentsline {subsubsection}{\numberline {143.2.1}Methods}{384}{subsubsection.143.2.1}}
\newlabel{cuon:Leasing:SingleLeasing:SingleLeasing:getArticle}{{143.2.1}{384}{Methods\relax }{subsubsection.143.2.1}{}}
\newlabel{cuon:Leasing:SingleLeasing:SingleLeasing:getArticleFields}{{143.2.1}{384}{Methods\relax }{subsubsection.143.2.1}{}}
\newlabel{cuon:Leasing:SingleLeasing:SingleLeasing:getArticleNumber}{{143.2.1}{384}{Methods\relax }{subsubsection.143.2.1}{}}
\newlabel{cuon:Leasing:SingleLeasing:SingleLeasing:getArticleDesignation}{{143.2.1}{384}{Methods\relax }{subsubsection.143.2.1}{}}
\newlabel{cuon:Leasing:SingleLeasing:SingleLeasing:getArticleShort}{{143.2.1}{384}{Methods\relax }{subsubsection.143.2.1}{}}
\newlabel{cuon:Leasing:SingleLeasing:SingleLeasing:getArticleAssociatedWith}{{143.2.1}{384}{Methods\relax }{subsubsection.143.2.1}{}}
\@setckpt{cuon.Leasing.SingleLeasing-module}{
\setcounter{page}{386}
\setcounter{equation}{0}
\setcounter{enumi}{0}
\setcounter{enumii}{0}
\setcounter{enumiii}{0}
\setcounter{enumiv}{0}
\setcounter{footnote}{0}
\setcounter{mpfootnote}{0}
\setcounter{part}{0}
\setcounter{section}{143}
\setcounter{subsection}{2}
\setcounter{subsubsection}{1}
\setcounter{paragraph}{0}
\setcounter{subparagraph}{0}
\setcounter{figure}{0}
\setcounter{table}{138}
\setcounter{LT@tables}{138}
\setcounter{LT@chunks}{4}
\setcounter{Item}{0}
\setcounter{Hfootnote}{0}
\setcounter{bookmark@seq@number}{544}
\setcounter{section@level}{3}
}
