\relax 
\gdef \LT@ccxxvii {\LT@entry 
    {1}{152.92793pt}\LT@entry 
    {1}{258.72162pt}\LT@entry 
    {1}{12.0pt}}
\@writefile{toc}{\contentsline {section}{\numberline {237}Module cuon.VTK.test}{588}{section.237}}
\newlabel{cuon:VTK:test}{{237}{588}{Module cuon.VTK.test\relax }{section.237}{}}
\@writefile{toc}{\contentsline {subsection}{\numberline {237.1}Variables}{588}{subsection.237.1}}
\@writefile{toc}{\contentsline {subsection}{\numberline {237.2}Class test}{588}{subsection.237.2}}
\newlabel{cuon:VTK:test:test}{{237.2}{588}{Class test\relax }{subsection.237.2}{}}
\@writefile{toc}{\contentsline {subsubsection}{\numberline {237.2.1}Methods}{588}{subsubsection.237.2.1}}
\newlabel{cuon:VTK:test:test:__init__}{{237.2.1}{588}{Methods\relax }{subsubsection.237.2.1}{}}
\newlabel{cuon:VTK:test:test:show2}{{237.2.1}{588}{Methods\relax }{subsubsection.237.2.1}{}}
\newlabel{cuon:VTK:test:test:show3}{{237.2.1}{588}{Methods\relax }{subsubsection.237.2.1}{}}
\newlabel{cuon:VTK:test:test:show}{{237.2.1}{588}{Methods\relax }{subsubsection.237.2.1}{}}
\@setckpt{cuon.VTK.test-module}{
\setcounter{page}{589}
\setcounter{equation}{0}
\setcounter{enumi}{1}
\setcounter{enumii}{0}
\setcounter{enumiii}{0}
\setcounter{enumiv}{0}
\setcounter{footnote}{0}
\setcounter{mpfootnote}{0}
\setcounter{part}{0}
\setcounter{section}{237}
\setcounter{subsection}{2}
\setcounter{subsubsection}{1}
\setcounter{paragraph}{0}
\setcounter{subparagraph}{0}
\setcounter{figure}{0}
\setcounter{table}{227}
\setcounter{LT@tables}{227}
\setcounter{LT@chunks}{4}
\setcounter{Item}{1}
\setcounter{Hfootnote}{0}
\setcounter{bookmark@seq@number}{895}
\setcounter{section@level}{3}
}
