\relax 
\gdef \LT@lxix {\LT@entry 
    {1}{152.92793pt}\LT@entry 
    {1}{258.72162pt}\LT@entry 
    {1}{12.0pt}}
\@writefile{toc}{\contentsline {section}{\numberline {73}Module cuon.Databases.cyr\_table}{208}{section.73}}
\newlabel{cuon:Databases:cyr_table}{{73}{208}{Module cuon.Databases.cyr\_table\relax }{section.73}{}}
\@writefile{toc}{\contentsline {subsection}{\numberline {73.1}Variables}{208}{subsection.73.1}}
\@writefile{toc}{\contentsline {subsection}{\numberline {73.2}Class cyr\_table}{208}{subsection.73.2}}
\newlabel{cuon:Databases:cyr_table:cyr_table}{{73.2}{208}{Class cyr\_table\relax }{subsection.73.2}{}}
\@writefile{toc}{\contentsline {subsubsection}{\numberline {73.2.1}Methods}{208}{subsubsection.73.2.1}}
\newlabel{cuon:Databases:cyr_table:cyr_table:__init__}{{73.2.1}{208}{Methods\relax }{subsubsection.73.2.1}{}}
\newlabel{cuon:Databases:cyr_table:cyr_table:setName}{{73.2.1}{208}{Methods\relax }{subsubsection.73.2.1}{}}
\newlabel{cuon:Databases:cyr_table:cyr_table:getName}{{73.2.1}{208}{Methods\relax }{subsubsection.73.2.1}{}}
\newlabel{cuon:Databases:cyr_table:cyr_table:setSpecials}{{73.2.1}{208}{Methods\relax }{subsubsection.73.2.1}{}}
\newlabel{cuon:Databases:cyr_table:cyr_table:getSpecials}{{73.2.1}{208}{Methods\relax }{subsubsection.73.2.1}{}}
\newlabel{cuon:Databases:cyr_table:cyr_table:getForeignKey}{{73.2.1}{208}{Methods\relax }{subsubsection.73.2.1}{}}
\newlabel{cuon:Databases:cyr_table:cyr_table:setNameOfForeignKey}{{73.2.1}{208}{Methods\relax }{subsubsection.73.2.1}{}}
\newlabel{cuon:Databases:cyr_table:cyr_table:addColumn}{{73.2.1}{208}{Methods\relax }{subsubsection.73.2.1}{}}
\newlabel{cuon:Databases:cyr_table:cyr_table:getColumnAtIndex}{{73.2.1}{208}{Methods\relax }{subsubsection.73.2.1}{}}
\newlabel{cuon:Databases:cyr_table:cyr_table:getCountOfColumns}{{73.2.1}{208}{Methods\relax }{subsubsection.73.2.1}{}}
\newlabel{cuon:Databases:cyr_table:cyr_table:getColumns}{{73.2.1}{208}{Methods\relax }{subsubsection.73.2.1}{}}
\@setckpt{cuon.Databases.cyr_table-module}{
\setcounter{page}{209}
\setcounter{equation}{0}
\setcounter{enumi}{0}
\setcounter{enumii}{0}
\setcounter{enumiii}{0}
\setcounter{enumiv}{0}
\setcounter{footnote}{0}
\setcounter{mpfootnote}{0}
\setcounter{part}{0}
\setcounter{section}{73}
\setcounter{subsection}{2}
\setcounter{subsubsection}{1}
\setcounter{paragraph}{0}
\setcounter{subparagraph}{0}
\setcounter{figure}{0}
\setcounter{table}{69}
\setcounter{LT@tables}{69}
\setcounter{LT@chunks}{4}
\setcounter{Item}{0}
\setcounter{Hfootnote}{0}
\setcounter{bookmark@seq@number}{277}
\setcounter{section@level}{3}
}
