\relax 
\gdef \LT@lvi {\LT@entry 
    {1}{152.92793pt}\LT@entry 
    {1}{258.72162pt}\LT@entry 
    {1}{12.0pt}}
\@writefile{toc}{\contentsline {section}{\numberline {59}Module cuon.Clients.clients}{173}{section.59}}
\newlabel{cuon:Clients:clients}{{59}{173}{Module cuon.Clients.clients\relax }{section.59}{}}
\@writefile{toc}{\contentsline {subsection}{\numberline {59.1}Variables}{173}{subsection.59.1}}
\@writefile{toc}{\contentsline {subsection}{\numberline {59.2}Class clientswindow}{173}{subsection.59.2}}
\newlabel{cuon:Clients:clients:clientswindow}{{59.2}{173}{Class clientswindow\relax }{subsection.59.2}{}}
\@writefile{toc}{\contentsline {subsubsection}{\numberline {59.2.1}Methods}{173}{subsubsection.59.2.1}}
\newlabel{cuon:Clients:clients:clientswindow:on_quit1_activate}{{59.2.1}{174}{Methods\relax }{subsubsection.59.2.1}{}}
\newlabel{cuon:Clients:clients:clientswindow:on_bChooseClient_clicked}{{59.2.1}{174}{Methods\relax }{subsubsection.59.2.1}{}}
\newlabel{cuon:Clients:clients:clientswindow:on_tree1_row_activated}{{59.2.1}{174}{Methods\relax }{subsubsection.59.2.1}{}}
\newlabel{cuon:Clients:clients:clientswindow:on_save1_activate}{{59.2.1}{174}{Methods\relax }{subsubsection.59.2.1}{}}
\newlabel{cuon:Clients:clients:clientswindow:on_new1_activate}{{59.2.1}{174}{Methods\relax }{subsubsection.59.2.1}{}}
\newlabel{cuon:Clients:clients:clientswindow:on_edit1_activate}{{59.2.1}{174}{Methods\relax }{subsubsection.59.2.1}{}}
\newlabel{cuon:Clients:clients:clientswindow:on_delete1_activate}{{59.2.1}{174}{Methods\relax }{subsubsection.59.2.1}{}}
\newlabel{cuon:Clients:clients:clientswindow:on_bChooseAddress_clicked}{{59.2.1}{174}{Methods\relax }{subsubsection.59.2.1}{}}
\newlabel{cuon:Clients:clients:clientswindow:on_eAddressID_changed}{{59.2.1}{174}{Methods\relax }{subsubsection.59.2.1}{}}
\newlabel{cuon:Clients:clients:clientswindow:on_chooseAddress_activate}{{59.2.1}{174}{Methods\relax }{subsubsection.59.2.1}{}}
\newlabel{cuon:Clients:clients:clientswindow:on_bSearch_clicked}{{59.2.1}{174}{Methods\relax }{subsubsection.59.2.1}{}}
\newlabel{cuon:Clients:clients:clientswindow:refreshTree}{{59.2.1}{174}{Methods\relax }{subsubsection.59.2.1}{}}
\newlabel{cuon:Clients:clients:clientswindow:tabChanged}{{59.2.1}{174}{Methods\relax }{subsubsection.59.2.1}{}}
\@setckpt{cuon.Clients.clients-module}{
\setcounter{page}{177}
\setcounter{equation}{0}
\setcounter{enumi}{0}
\setcounter{enumii}{0}
\setcounter{enumiii}{0}
\setcounter{enumiv}{0}
\setcounter{footnote}{0}
\setcounter{mpfootnote}{0}
\setcounter{part}{0}
\setcounter{section}{59}
\setcounter{subsection}{2}
\setcounter{subsubsection}{1}
\setcounter{paragraph}{0}
\setcounter{subparagraph}{0}
\setcounter{figure}{0}
\setcounter{table}{56}
\setcounter{LT@tables}{56}
\setcounter{LT@chunks}{4}
\setcounter{Item}{0}
\setcounter{Hfootnote}{0}
\setcounter{bookmark@seq@number}{224}
\setcounter{section@level}{3}
}
