\relax 
\gdef \LT@lxxiii {\LT@entry 
    {1}{152.92793pt}\LT@entry 
    {1}{258.72162pt}\LT@entry 
    {1}{12.0pt}}
\@writefile{toc}{\contentsline {section}{\numberline {77}Module cuon.Databases.import\_generic1}{219}{section.77}}
\newlabel{cuon:Databases:import_generic1}{{77}{219}{Module cuon.Databases.import\_generic1\relax }{section.77}{}}
\@writefile{toc}{\contentsline {subsection}{\numberline {77.1}Variables}{219}{subsection.77.1}}
\@writefile{toc}{\contentsline {subsection}{\numberline {77.2}Class import\_generic1}{219}{subsection.77.2}}
\newlabel{cuon:Databases:import_generic1:import_generic1}{{77.2}{219}{Class import\_generic1\relax }{subsection.77.2}{}}
\@writefile{toc}{\contentsline {subsubsection}{\numberline {77.2.1}Methods}{220}{subsubsection.77.2.1}}
\newlabel{cuon:Databases:import_generic1:import_generic1:readCtrlFile}{{77.2.1}{220}{Methods\relax }{subsubsection.77.2.1}{}}
\newlabel{cuon:Databases:import_generic1:import_generic1:standardImport}{{77.2.1}{220}{Methods\relax }{subsubsection.77.2.1}{}}
\newlabel{cuon:Databases:import_generic1:import_generic1:executeSomeStuff}{{77.2.1}{220}{Methods\relax }{subsubsection.77.2.1}{}}
\newlabel{cuon:Databases:import_generic1:import_generic1:on_ok_button1_clicked}{{77.2.1}{220}{Methods\relax }{subsubsection.77.2.1}{}}
\@setckpt{cuon.Databases.import_generic1-module}{
\setcounter{page}{222}
\setcounter{equation}{0}
\setcounter{enumi}{0}
\setcounter{enumii}{0}
\setcounter{enumiii}{0}
\setcounter{enumiv}{0}
\setcounter{footnote}{0}
\setcounter{mpfootnote}{0}
\setcounter{part}{0}
\setcounter{section}{77}
\setcounter{subsection}{2}
\setcounter{subsubsection}{1}
\setcounter{paragraph}{0}
\setcounter{subparagraph}{0}
\setcounter{figure}{0}
\setcounter{table}{73}
\setcounter{LT@tables}{73}
\setcounter{LT@chunks}{4}
\setcounter{Item}{0}
\setcounter{Hfootnote}{0}
\setcounter{bookmark@seq@number}{293}
\setcounter{section@level}{3}
}
