\relax 
\@writefile{toc}{\contentsline {section}{\numberline {100}Module cuon.Finances.CashAccountBook.cashAccountBook}{275}{section.100}}
\newlabel{cuon:Finances:CashAccountBook:cashAccountBook}{{100}{275}{Module cuon.Finances.CashAccountBook.cashAccountBook\relax }{section.100}{}}
\@writefile{toc}{\contentsline {subsection}{\numberline {100.1}Class cashAccountBookwindow}{275}{subsection.100.1}}
\newlabel{cuon:Finances:CashAccountBook:cashAccountBook:cashAccountBookwindow}{{100.1}{275}{Class cashAccountBookwindow\relax }{subsection.100.1}{}}
\@writefile{toc}{\contentsline {subsubsection}{\numberline {100.1.1}Methods}{275}{subsubsection.100.1.1}}
\newlabel{cuon:Finances:CashAccountBook:cashAccountBook:cashAccountBookwindow:on_quit1_activate}{{100.1.1}{275}{Methods\relax }{subsubsection.100.1.1}{}}
\newlabel{cuon:Finances:CashAccountBook:cashAccountBook:cashAccountBookwindow:on_save1_activate}{{100.1.1}{275}{Methods\relax }{subsubsection.100.1.1}{}}
\newlabel{cuon:Finances:CashAccountBook:cashAccountBook:cashAccountBookwindow:on_new1_activate}{{100.1.1}{275}{Methods\relax }{subsubsection.100.1.1}{}}
\newlabel{cuon:Finances:CashAccountBook:cashAccountBook:cashAccountBookwindow:on_edit1_activate}{{100.1.1}{275}{Methods\relax }{subsubsection.100.1.1}{}}
\newlabel{cuon:Finances:CashAccountBook:cashAccountBook:cashAccountBookwindow:on_delete1_activate}{{100.1.1}{275}{Methods\relax }{subsubsection.100.1.1}{}}
\newlabel{cuon:Finances:CashAccountBook:cashAccountBook:cashAccountBookwindow:on_monthly1_activate}{{100.1.1}{276}{Methods\relax }{subsubsection.100.1.1}{}}
\newlabel{cuon:Finances:CashAccountBook:cashAccountBook:cashAccountBookwindow:on_bChooseManufactor_clicked}{{100.1.1}{276}{Methods\relax }{subsubsection.100.1.1}{}}
\newlabel{cuon:Finances:CashAccountBook:cashAccountBook:cashAccountBookwindow:on_eCAB1_changed}{{100.1.1}{276}{Methods\relax }{subsubsection.100.1.1}{}}
\newlabel{cuon:Finances:CashAccountBook:cashAccountBook:cashAccountBookwindow:on_eCAB2_changed}{{100.1.1}{276}{Methods\relax }{subsubsection.100.1.1}{}}
\newlabel{cuon:Finances:CashAccountBook:cashAccountBook:cashAccountBookwindow:on_eCAB3_changed}{{100.1.1}{276}{Methods\relax }{subsubsection.100.1.1}{}}
\newlabel{cuon:Finances:CashAccountBook:cashAccountBook:cashAccountBookwindow:on_eCAB4_changed}{{100.1.1}{276}{Methods\relax }{subsubsection.100.1.1}{}}
\newlabel{cuon:Finances:CashAccountBook:cashAccountBook:cashAccountBookwindow:setInfo}{{100.1.1}{276}{Methods\relax }{subsubsection.100.1.1}{}}
\newlabel{cuon:Finances:CashAccountBook:cashAccountBook:cashAccountBookwindow:on_eDate_key_press_event}{{100.1.1}{276}{Methods\relax }{subsubsection.100.1.1}{}}
\newlabel{cuon:Finances:CashAccountBook:cashAccountBook:cashAccountBookwindow:on_eShortKey_changed}{{100.1.1}{276}{Methods\relax }{subsubsection.100.1.1}{}}
\newlabel{cuon:Finances:CashAccountBook:cashAccountBook:cashAccountBookwindow:on_eShortKey_focus_out_event}{{100.1.1}{276}{Methods\relax }{subsubsection.100.1.1}{}}
\newlabel{cuon:Finances:CashAccountBook:cashAccountBook:cashAccountBookwindow:on_bSearch_clicked}{{100.1.1}{276}{Methods\relax }{subsubsection.100.1.1}{}}
\newlabel{cuon:Finances:CashAccountBook:cashAccountBook:cashAccountBookwindow:getAccountValues}{{100.1.1}{276}{Methods\relax }{subsubsection.100.1.1}{}}
\newlabel{cuon:Finances:CashAccountBook:cashAccountBook:cashAccountBookwindow:checkAccountValues}{{100.1.1}{276}{Methods\relax }{subsubsection.100.1.1}{}}
\newlabel{cuon:Finances:CashAccountBook:cashAccountBook:cashAccountBookwindow:getSqlValues}{{100.1.1}{276}{Methods\relax }{subsubsection.100.1.1}{}}
\newlabel{cuon:Finances:CashAccountBook:cashAccountBook:cashAccountBookwindow:refreshTree}{{100.1.1}{276}{Methods\relax }{subsubsection.100.1.1}{}}
\newlabel{cuon:Finances:CashAccountBook:cashAccountBook:cashAccountBookwindow:tabChanged}{{100.1.1}{276}{Methods\relax }{subsubsection.100.1.1}{}}
\@setckpt{cuon.Finances.CashAccountBook.cashAccountBook-module}{
\setcounter{page}{279}
\setcounter{equation}{0}
\setcounter{enumi}{0}
\setcounter{enumii}{0}
\setcounter{enumiii}{0}
\setcounter{enumiv}{0}
\setcounter{footnote}{0}
\setcounter{mpfootnote}{0}
\setcounter{part}{0}
\setcounter{section}{100}
\setcounter{subsection}{1}
\setcounter{subsubsection}{1}
\setcounter{paragraph}{0}
\setcounter{subparagraph}{0}
\setcounter{figure}{0}
\setcounter{table}{95}
\setcounter{LT@tables}{95}
\setcounter{LT@chunks}{4}
\setcounter{Item}{0}
\setcounter{Hfootnote}{0}
\setcounter{bookmark@seq@number}{377}
\setcounter{section@level}{3}
}
