\relax 
\gdef \LT@lxii {\LT@entry 
    {1}{152.92793pt}\LT@entry 
    {1}{258.72162pt}\LT@entry 
    {1}{12.0pt}}
\@writefile{toc}{\contentsline {section}{\numberline {66}Module cuon.Databases.SingleData}{191}{section.66}}
\newlabel{cuon:Databases:SingleData}{{66}{191}{Module cuon.Databases.SingleData\relax }{section.66}{}}
\@writefile{toc}{\contentsline {subsection}{\numberline {66.1}Variables}{191}{subsection.66.1}}
\@writefile{toc}{\contentsline {subsection}{\numberline {66.2}Class SingleData}{191}{subsection.66.2}}
\newlabel{cuon:Databases:SingleData:SingleData}{{66.2}{191}{Class SingleData\relax }{subsection.66.2}{}}
\@writefile{toc}{\contentsline {subsubsection}{\numberline {66.2.1}Methods}{192}{subsubsection.66.2.1}}
\newlabel{cuon:Databases:SingleData:SingleData:beforeLoad}{{66.2.1}{192}{Methods\relax }{subsubsection.66.2.1}{}}
\newlabel{cuon:Databases:SingleData:SingleData:clearAllFields}{{66.2.1}{192}{Methods\relax }{subsubsection.66.2.1}{}}
\newlabel{cuon:Databases:SingleData:SingleData:clearAllOtherFields}{{66.2.1}{192}{Methods\relax }{subsubsection.66.2.1}{}}
\newlabel{cuon:Databases:SingleData:SingleData:connectTree}{{66.2.1}{192}{Methods\relax }{subsubsection.66.2.1}{}}
\newlabel{cuon:Databases:SingleData:SingleData:deleteRecord}{{66.2.1}{192}{Methods\relax }{subsubsection.66.2.1}{}}
\newlabel{cuon:Databases:SingleData:SingleData:disconnectTree}{{66.2.1}{192}{Methods\relax }{subsubsection.66.2.1}{}}
\newlabel{cuon:Databases:SingleData:SingleData:fillEntries}{{66.2.1}{193}{Methods\relax }{subsubsection.66.2.1}{}}
\newlabel{cuon:Databases:SingleData:SingleData:fillExternalWidget}{{66.2.1}{193}{Methods\relax }{subsubsection.66.2.1}{}}
\newlabel{cuon:Databases:SingleData:SingleData:fillExtraEntries}{{66.2.1}{193}{Methods\relax }{subsubsection.66.2.1}{}}
\newlabel{cuon:Databases:SingleData:SingleData:fillOtherEntries}{{66.2.1}{193}{Methods\relax }{subsubsection.66.2.1}{}}
\newlabel{cuon:Databases:SingleData:SingleData:fillTree}{{66.2.1}{193}{Methods\relax }{subsubsection.66.2.1}{}}
\newlabel{cuon:Databases:SingleData:SingleData:findSingleId}{{66.2.1}{193}{Methods\relax }{subsubsection.66.2.1}{}}
\newlabel{cuon:Databases:SingleData:SingleData:getEntries}{{66.2.1}{193}{Methods\relax }{subsubsection.66.2.1}{}}
\newlabel{cuon:Databases:SingleData:SingleData:getFirstListRecord}{{66.2.1}{193}{Methods\relax }{subsubsection.66.2.1}{}}
\newlabel{cuon:Databases:SingleData:SingleData:getFirstRecord}{{66.2.1}{193}{Methods\relax }{subsubsection.66.2.1}{}}
\newlabel{cuon:Databases:SingleData:SingleData:getListEntries}{{66.2.1}{193}{Methods\relax }{subsubsection.66.2.1}{}}
\newlabel{cuon:Databases:SingleData:SingleData:getStaffID}{{66.2.1}{193}{Methods\relax }{subsubsection.66.2.1}{}}
\newlabel{cuon:Databases:SingleData:SingleData:getTreeModel}{{66.2.1}{193}{Methods\relax }{subsubsection.66.2.1}{}}
\newlabel{cuon:Databases:SingleData:SingleData:isNewRecord}{{66.2.1}{193}{Methods\relax }{subsubsection.66.2.1}{}}
\newlabel{cuon:Databases:SingleData:SingleData:load}{{66.2.1}{193}{Methods\relax }{subsubsection.66.2.1}{}}
\newlabel{cuon:Databases:SingleData:SingleData:loadCompleteTable}{{66.2.1}{193}{Methods\relax }{subsubsection.66.2.1}{}}
\newlabel{cuon:Databases:SingleData:SingleData:loadOtherDatatable}{{66.2.1}{193}{Methods\relax }{subsubsection.66.2.1}{}}
\newlabel{cuon:Databases:SingleData:SingleData:loadTable}{{66.2.1}{193}{Methods\relax }{subsubsection.66.2.1}{}}
\newlabel{cuon:Databases:SingleData:SingleData:newRecord}{{66.2.1}{194}{Methods\relax }{subsubsection.66.2.1}{}}
\newlabel{cuon:Databases:SingleData:SingleData:readEntries}{{66.2.1}{194}{Methods\relax }{subsubsection.66.2.1}{}}
\newlabel{cuon:Databases:SingleData:SingleData:readExtraEntries}{{66.2.1}{194}{Methods\relax }{subsubsection.66.2.1}{}}
\newlabel{cuon:Databases:SingleData:SingleData:readNonWidgetEntries}{{66.2.1}{194}{Methods\relax }{subsubsection.66.2.1}{}}
\newlabel{cuon:Databases:SingleData:SingleData:refreshTree}{{66.2.1}{194}{Methods\relax }{subsubsection.66.2.1}{}}
\newlabel{cuon:Databases:SingleData:SingleData:refreshTreeWithoutNewItems}{{66.2.1}{194}{Methods\relax }{subsubsection.66.2.1}{}}
\newlabel{cuon:Databases:SingleData:SingleData:save}{{66.2.1}{194}{Methods\relax }{subsubsection.66.2.1}{}}
\newlabel{cuon:Databases:SingleData:SingleData:saveExternalData}{{66.2.1}{194}{Methods\relax }{subsubsection.66.2.1}{}}
\newlabel{cuon:Databases:SingleData:SingleData:saveOtherDatatable}{{66.2.1}{194}{Methods\relax }{subsubsection.66.2.1}{}}
\newlabel{cuon:Databases:SingleData:SingleData:saveTable}{{66.2.1}{194}{Methods\relax }{subsubsection.66.2.1}{}}
\newlabel{cuon:Databases:SingleData:SingleData:saveValues}{{66.2.1}{194}{Methods\relax }{subsubsection.66.2.1}{}}
\newlabel{cuon:Databases:SingleData:SingleData:setEmptyEntries}{{66.2.1}{194}{Methods\relax }{subsubsection.66.2.1}{}}
\newlabel{cuon:Databases:SingleData:SingleData:setEntries}{{66.2.1}{194}{Methods\relax }{subsubsection.66.2.1}{}}
\newlabel{cuon:Databases:SingleData:SingleData:setGladeXml}{{66.2.1}{194}{Methods\relax }{subsubsection.66.2.1}{}}
\newlabel{cuon:Databases:SingleData:SingleData:setListHeader}{{66.2.1}{194}{Methods\relax }{subsubsection.66.2.1}{}}
\newlabel{cuon:Databases:SingleData:SingleData:setOtherEmptyEntries}{{66.2.1}{194}{Methods\relax }{subsubsection.66.2.1}{}}
\newlabel{cuon:Databases:SingleData:SingleData:setStore}{{66.2.1}{194}{Methods\relax }{subsubsection.66.2.1}{}}
\newlabel{cuon:Databases:SingleData:SingleData:setTree}{{66.2.1}{194}{Methods\relax }{subsubsection.66.2.1}{}}
\newlabel{cuon:Databases:SingleData:SingleData:setTreeFields}{{66.2.1}{194}{Methods\relax }{subsubsection.66.2.1}{}}
\newlabel{cuon:Databases:SingleData:SingleData:setTreeOrder}{{66.2.1}{194}{Methods\relax }{subsubsection.66.2.1}{}}
\newlabel{cuon:Databases:SingleData:SingleData:setTreeSensitive}{{66.2.1}{195}{Methods\relax }{subsubsection.66.2.1}{}}
\newlabel{cuon:Databases:SingleData:SingleData:treeSelectRow}{{66.2.1}{195}{Methods\relax }{subsubsection.66.2.1}{}}
\newlabel{cuon:Databases:SingleData:SingleData:treeSelectRowById}{{66.2.1}{195}{Methods\relax }{subsubsection.66.2.1}{}}
\newlabel{cuon:Databases:SingleData:SingleData:treeSelectRowByIter}{{66.2.1}{195}{Methods\relax }{subsubsection.66.2.1}{}}
\newlabel{cuon:Databases:SingleData:SingleData:tree_select_callback}{{66.2.1}{195}{Methods\relax }{subsubsection.66.2.1}{}}
\newlabel{cuon:Databases:SingleData:SingleData:verifyValues}{{66.2.1}{195}{Methods\relax }{subsubsection.66.2.1}{}}
\@setckpt{cuon.Databases.SingleData-module}{
\setcounter{page}{197}
\setcounter{equation}{0}
\setcounter{enumi}{0}
\setcounter{enumii}{0}
\setcounter{enumiii}{0}
\setcounter{enumiv}{0}
\setcounter{footnote}{0}
\setcounter{mpfootnote}{0}
\setcounter{part}{0}
\setcounter{section}{66}
\setcounter{subsection}{2}
\setcounter{subsubsection}{1}
\setcounter{paragraph}{0}
\setcounter{subparagraph}{0}
\setcounter{figure}{0}
\setcounter{table}{62}
\setcounter{LT@tables}{62}
\setcounter{LT@chunks}{4}
\setcounter{Item}{0}
\setcounter{Hfootnote}{0}
\setcounter{bookmark@seq@number}{249}
\setcounter{section@level}{3}
}
