\relax 
\gdef \LT@lxiii {\LT@entry 
    {1}{152.92793pt}\LT@entry 
    {1}{258.72162pt}\LT@entry 
    {1}{12.0pt}}
\@writefile{toc}{\contentsline {section}{\numberline {67}Module cuon.Databases.SingleDataTreeModel}{197}{section.67}}
\newlabel{cuon:Databases:SingleDataTreeModel}{{67}{197}{Module cuon.Databases.SingleDataTreeModel\relax }{section.67}{}}
\@writefile{toc}{\contentsline {subsection}{\numberline {67.1}Variables}{197}{subsection.67.1}}
\@writefile{toc}{\contentsline {subsection}{\numberline {67.2}Class SingleDataTreeModel}{197}{subsection.67.2}}
\newlabel{cuon:Databases:SingleDataTreeModel:SingleDataTreeModel}{{67.2}{197}{Class SingleDataTreeModel\relax }{subsection.67.2}{}}
\@writefile{toc}{\contentsline {subsubsection}{\numberline {67.2.1}Methods}{197}{subsubsection.67.2.1}}
\newlabel{cuon:Databases:SingleDataTreeModel:SingleDataTreeModel:__init__}{{67.2.1}{197}{Methods\relax }{subsubsection.67.2.1}{}}
\newlabel{cuon:Databases:SingleDataTreeModel:SingleDataTreeModel:createModel}{{67.2.1}{197}{Methods\relax }{subsubsection.67.2.1}{}}
\newlabel{cuon:Databases:SingleDataTreeModel:SingleDataTreeModel:setColumns}{{67.2.1}{197}{Methods\relax }{subsubsection.67.2.1}{}}
\newlabel{cuon:Databases:SingleDataTreeModel:SingleDataTreeModel:setStore}{{67.2.1}{197}{Methods\relax }{subsubsection.67.2.1}{}}
\newlabel{cuon:Databases:SingleDataTreeModel:SingleDataTreeModel:store_reordered}{{67.2.1}{197}{Methods\relax }{subsubsection.67.2.1}{}}
\@setckpt{cuon.Databases.SingleDataTreeModel-module}{
\setcounter{page}{198}
\setcounter{equation}{0}
\setcounter{enumi}{0}
\setcounter{enumii}{0}
\setcounter{enumiii}{0}
\setcounter{enumiv}{0}
\setcounter{footnote}{0}
\setcounter{mpfootnote}{0}
\setcounter{part}{0}
\setcounter{section}{67}
\setcounter{subsection}{2}
\setcounter{subsubsection}{1}
\setcounter{paragraph}{0}
\setcounter{subparagraph}{0}
\setcounter{figure}{0}
\setcounter{table}{63}
\setcounter{LT@tables}{63}
\setcounter{LT@chunks}{4}
\setcounter{Item}{0}
\setcounter{Hfootnote}{0}
\setcounter{bookmark@seq@number}{253}
\setcounter{section@level}{3}
}
