\relax 
\gdef \LT@cxxvi {\LT@entry 
    {1}{152.92793pt}\LT@entry 
    {1}{258.72162pt}\LT@entry 
    {1}{12.0pt}}
\@writefile{toc}{\contentsline {section}{\numberline {131}Module cuon.Graves.SingleGraveSpring}{352}{section.131}}
\newlabel{cuon:Graves:SingleGraveSpring}{{131}{352}{Module cuon.Graves.SingleGraveSpring\relax }{section.131}{}}
\@writefile{toc}{\contentsline {subsection}{\numberline {131.1}Variables}{352}{subsection.131.1}}
\@writefile{toc}{\contentsline {subsection}{\numberline {131.2}Class SingleGraveSpring}{352}{subsection.131.2}}
\newlabel{cuon:Graves:SingleGraveSpring:SingleGraveSpring}{{131.2}{352}{Class SingleGraveSpring\relax }{subsection.131.2}{}}
\@writefile{toc}{\contentsline {subsubsection}{\numberline {131.2.1}Methods}{352}{subsubsection.131.2.1}}
\@setckpt{cuon.Graves.SingleGraveSpring-module}{
\setcounter{page}{354}
\setcounter{equation}{0}
\setcounter{enumi}{0}
\setcounter{enumii}{0}
\setcounter{enumiii}{0}
\setcounter{enumiv}{0}
\setcounter{footnote}{0}
\setcounter{mpfootnote}{0}
\setcounter{part}{0}
\setcounter{section}{131}
\setcounter{subsection}{2}
\setcounter{subsubsection}{1}
\setcounter{paragraph}{0}
\setcounter{subparagraph}{0}
\setcounter{figure}{0}
\setcounter{table}{126}
\setcounter{LT@tables}{126}
\setcounter{LT@chunks}{4}
\setcounter{Item}{0}
\setcounter{Hfootnote}{0}
\setcounter{bookmark@seq@number}{498}
\setcounter{section@level}{3}
}
