\relax 
\gdef \LT@lxxxii {\LT@entry 
    {1}{152.92793pt}\LT@entry 
    {1}{258.72162pt}\LT@entry 
    {1}{12.0pt}}
\@writefile{toc}{\contentsline {section}{\numberline {85}Module cuon.Editor.editor}{234}{section.85}}
\newlabel{cuon:Editor:editor}{{85}{234}{Module cuon.Editor.editor\relax }{section.85}{}}
\@writefile{toc}{\contentsline {subsection}{\numberline {85.1}Variables}{234}{subsection.85.1}}
\@writefile{toc}{\contentsline {subsection}{\numberline {85.2}Class editorwindow}{234}{subsection.85.2}}
\newlabel{cuon:Editor:editor:editorwindow}{{85.2}{234}{Class editorwindow\relax }{subsection.85.2}{}}
\@writefile{toc}{\contentsline {subsubsection}{\numberline {85.2.1}Methods}{234}{subsubsection.85.2.1}}
\newlabel{cuon:Editor:editor:editorwindow:delete}{{85.2.1}{234}{Methods\relax }{subsubsection.85.2.1}{}}
\newlabel{cuon:Editor:editor:editorwindow:disable_wrap}{{85.2.1}{235}{Methods\relax }{subsubsection.85.2.1}{}}
\newlabel{cuon:Editor:editor:editorwindow:enable_wrap}{{85.2.1}{235}{Methods\relax }{subsubsection.85.2.1}{}}
\newlabel{cuon:Editor:editor:editorwindow:get_text}{{85.2.1}{235}{Methods\relax }{subsubsection.85.2.1}{}}
\newlabel{cuon:Editor:editor:editorwindow:on_copy1_activate}{{85.2.1}{235}{Methods\relax }{subsubsection.85.2.1}{}}
\newlabel{cuon:Editor:editor:editorwindow:on_cut1_activate}{{85.2.1}{235}{Methods\relax }{subsubsection.85.2.1}{}}
\newlabel{cuon:Editor:editor:editorwindow:on_paste1_activate}{{85.2.1}{235}{Methods\relax }{subsubsection.85.2.1}{}}
\newlabel{cuon:Editor:editor:editorwindow:on_quicksearch_activate}{{85.2.1}{235}{Methods\relax }{subsubsection.85.2.1}{}}
\newlabel{cuon:Editor:editor:editorwindow:on_quit1_activate}{{85.2.1}{235}{Methods\relax }{subsubsection.85.2.1}{}}
\newlabel{cuon:Editor:editor:editorwindow:on_redo1_activate}{{85.2.1}{235}{Methods\relax }{subsubsection.85.2.1}{}}
\newlabel{cuon:Editor:editor:editorwindow:on_save1_activate}{{85.2.1}{235}{Methods\relax }{subsubsection.85.2.1}{}}
\newlabel{cuon:Editor:editor:editorwindow:on_search_again}{{85.2.1}{235}{Methods\relax }{subsubsection.85.2.1}{}}
\newlabel{cuon:Editor:editor:editorwindow:on_tbCopy_clicked}{{85.2.1}{235}{Methods\relax }{subsubsection.85.2.1}{}}
\newlabel{cuon:Editor:editor:editorwindow:on_tbCut_clicked}{{85.2.1}{235}{Methods\relax }{subsubsection.85.2.1}{}}
\newlabel{cuon:Editor:editor:editorwindow:on_tbFindNext_clicked}{{85.2.1}{235}{Methods\relax }{subsubsection.85.2.1}{}}
\newlabel{cuon:Editor:editor:editorwindow:on_tbNew_clicked}{{85.2.1}{235}{Methods\relax }{subsubsection.85.2.1}{}}
\newlabel{cuon:Editor:editor:editorwindow:on_tbOpen_clicked}{{85.2.1}{235}{Methods\relax }{subsubsection.85.2.1}{}}
\newlabel{cuon:Editor:editor:editorwindow:on_tbPaste_clicked}{{85.2.1}{235}{Methods\relax }{subsubsection.85.2.1}{}}
\newlabel{cuon:Editor:editor:editorwindow:on_tbQuickSearch_clicked}{{85.2.1}{236}{Methods\relax }{subsubsection.85.2.1}{}}
\newlabel{cuon:Editor:editor:editorwindow:on_tbQuit_clicked}{{85.2.1}{236}{Methods\relax }{subsubsection.85.2.1}{}}
\newlabel{cuon:Editor:editor:editorwindow:on_tbRedo_clicked}{{85.2.1}{236}{Methods\relax }{subsubsection.85.2.1}{}}
\newlabel{cuon:Editor:editor:editorwindow:on_tbSave_clicked}{{85.2.1}{236}{Methods\relax }{subsubsection.85.2.1}{}}
\newlabel{cuon:Editor:editor:editorwindow:on_tbUndo_clicked}{{85.2.1}{236}{Methods\relax }{subsubsection.85.2.1}{}}
\newlabel{cuon:Editor:editor:editorwindow:on_undo1_activate}{{85.2.1}{236}{Methods\relax }{subsubsection.85.2.1}{}}
\newlabel{cuon:Editor:editor:editorwindow:on_xml_beautifier_activate}{{85.2.1}{236}{Methods\relax }{subsubsection.85.2.1}{}}
\newlabel{cuon:Editor:editor:editorwindow:open_file}{{85.2.1}{236}{Methods\relax }{subsubsection.85.2.1}{}}
\newlabel{cuon:Editor:editor:editorwindow:open_item_clicked}{{85.2.1}{236}{Methods\relax }{subsubsection.85.2.1}{}}
\newlabel{cuon:Editor:editor:editorwindow:open_plugin}{{85.2.1}{236}{Methods\relax }{subsubsection.85.2.1}{}}
\newlabel{cuon:Editor:editor:editorwindow:open_selected_file}{{85.2.1}{236}{Methods\relax }{subsubsection.85.2.1}{}}
\newlabel{cuon:Editor:editor:editorwindow:open_selected_plugin}{{85.2.1}{236}{Methods\relax }{subsubsection.85.2.1}{}}
\newlabel{cuon:Editor:editor:editorwindow:plugin_item_clicked}{{85.2.1}{236}{Methods\relax }{subsubsection.85.2.1}{}}
\newlabel{cuon:Editor:editor:editorwindow:save_as_item_clicked}{{85.2.1}{236}{Methods\relax }{subsubsection.85.2.1}{}}
\newlabel{cuon:Editor:editor:editorwindow:save_current_file}{{85.2.1}{236}{Methods\relax }{subsubsection.85.2.1}{}}
\newlabel{cuon:Editor:editor:editorwindow:save_file}{{85.2.1}{237}{Methods\relax }{subsubsection.85.2.1}{}}
\newlabel{cuon:Editor:editor:editorwindow:save_selected_file}{{85.2.1}{237}{Methods\relax }{subsubsection.85.2.1}{}}
\newlabel{cuon:Editor:editor:editorwindow:searchText}{{85.2.1}{237}{Methods\relax }{subsubsection.85.2.1}{}}
\newlabel{cuon:Editor:editor:editorwindow:setLanguage}{{85.2.1}{237}{Methods\relax }{subsubsection.85.2.1}{}}
\newlabel{cuon:Editor:editor:editorwindow:xmlBeautifier}{{85.2.1}{237}{Methods\relax }{subsubsection.85.2.1}{}}
\@setckpt{cuon.Editor.editor-module}{
\setcounter{page}{239}
\setcounter{equation}{0}
\setcounter{enumi}{0}
\setcounter{enumii}{0}
\setcounter{enumiii}{0}
\setcounter{enumiv}{0}
\setcounter{footnote}{0}
\setcounter{mpfootnote}{0}
\setcounter{part}{0}
\setcounter{section}{85}
\setcounter{subsection}{2}
\setcounter{subsubsection}{1}
\setcounter{paragraph}{0}
\setcounter{subparagraph}{0}
\setcounter{figure}{0}
\setcounter{table}{82}
\setcounter{LT@tables}{82}
\setcounter{LT@chunks}{4}
\setcounter{Item}{0}
\setcounter{Hfootnote}{0}
\setcounter{bookmark@seq@number}{323}
\setcounter{section@level}{3}
}
