\relax 
\gdef \LT@xcviii {\LT@entry 
    {1}{152.92793pt}\LT@entry 
    {1}{258.72162pt}\LT@entry 
    {1}{12.0pt}}
\@writefile{toc}{\contentsline {section}{\numberline {103}Module cuon.Finances.InvoiceBook.SingleInpayment}{283}{section.103}}
\newlabel{cuon:Finances:InvoiceBook:SingleInpayment}{{103}{283}{Module cuon.Finances.InvoiceBook.SingleInpayment\relax }{section.103}{}}
\@writefile{toc}{\contentsline {subsection}{\numberline {103.1}Variables}{283}{subsection.103.1}}
\@writefile{toc}{\contentsline {subsection}{\numberline {103.2}Class SingleInpayment}{283}{subsection.103.2}}
\newlabel{cuon:Finances:InvoiceBook:SingleInpayment:SingleInpayment}{{103.2}{283}{Class SingleInpayment\relax }{subsection.103.2}{}}
\@writefile{toc}{\contentsline {subsubsection}{\numberline {103.2.1}Methods}{283}{subsubsection.103.2.1}}
\@setckpt{cuon.Finances.InvoiceBook.SingleInpayment-module}{
\setcounter{page}{285}
\setcounter{equation}{0}
\setcounter{enumi}{0}
\setcounter{enumii}{0}
\setcounter{enumiii}{0}
\setcounter{enumiv}{0}
\setcounter{footnote}{0}
\setcounter{mpfootnote}{0}
\setcounter{part}{0}
\setcounter{section}{103}
\setcounter{subsection}{2}
\setcounter{subsubsection}{1}
\setcounter{paragraph}{0}
\setcounter{subparagraph}{0}
\setcounter{figure}{0}
\setcounter{table}{98}
\setcounter{LT@tables}{98}
\setcounter{LT@chunks}{4}
\setcounter{Item}{0}
\setcounter{Hfootnote}{0}
\setcounter{bookmark@seq@number}{388}
\setcounter{section@level}{3}
}
