\relax 
\gdef \LT@ccxxxii {\LT@entry 
    {1}{152.92793pt}\LT@entry 
    {1}{258.72162pt}\LT@entry 
    {1}{12.0pt}}
\@writefile{toc}{\contentsline {section}{\numberline {243}Module cuon.Windows.cyr\_load\_entries}{599}{section.243}}
\newlabel{cuon:Windows:cyr_load_entries}{{243}{599}{Module cuon.Windows.cyr\_load\_entries\relax }{section.243}{}}
\@writefile{toc}{\contentsline {subsection}{\numberline {243.1}Variables}{599}{subsection.243.1}}
\@writefile{toc}{\contentsline {subsection}{\numberline {243.2}Class cyr\_load\_entries}{599}{subsection.243.2}}
\newlabel{cuon:Windows:cyr_load_entries:cyr_load_entries}{{243.2}{599}{Class cyr\_load\_entries\relax }{subsection.243.2}{}}
\@writefile{toc}{\contentsline {subsubsection}{\numberline {243.2.1}Methods}{599}{subsubsection.243.2.1}}
\newlabel{cuon:Windows:cyr_load_entries:cyr_load_entries:getListOfEntriesNames}{{243.2.1}{599}{Methods\relax }{subsubsection.243.2.1}{}}
\newlabel{cuon:Windows:cyr_load_entries:cyr_load_entries:getEntriesDescription}{{243.2.1}{599}{Methods\relax }{subsubsection.243.2.1}{}}
\newlabel{cuon:Windows:cyr_load_entries:cyr_load_entries:getEntriesDefinition}{{243.2.1}{599}{Methods\relax }{subsubsection.243.2.1}{}}
\newlabel{cuon:Windows:cyr_load_entries:cyr_load_entries:saveEntries}{{243.2.1}{599}{Methods\relax }{subsubsection.243.2.1}{}}
\newlabel{cuon:Windows:cyr_load_entries:cyr_load_entries:loadEntries}{{243.2.1}{599}{Methods\relax }{subsubsection.243.2.1}{}}
\@setckpt{cuon.Windows.cyr_load_entries-module}{
\setcounter{page}{601}
\setcounter{equation}{0}
\setcounter{enumi}{1}
\setcounter{enumii}{0}
\setcounter{enumiii}{0}
\setcounter{enumiv}{0}
\setcounter{footnote}{0}
\setcounter{mpfootnote}{0}
\setcounter{part}{0}
\setcounter{section}{243}
\setcounter{subsection}{2}
\setcounter{subsubsection}{1}
\setcounter{paragraph}{0}
\setcounter{subparagraph}{0}
\setcounter{figure}{0}
\setcounter{table}{232}
\setcounter{LT@tables}{232}
\setcounter{LT@chunks}{4}
\setcounter{Item}{1}
\setcounter{Hfootnote}{0}
\setcounter{bookmark@seq@number}{916}
\setcounter{section@level}{3}
}
