\relax 
\@writefile{toc}{\contentsline {section}{\numberline {241}Package cuon.Windows}{595}{section.241}}
\newlabel{cuon:Windows}{{241}{595}{Package cuon.Windows\relax }{section.241}{}}
\@writefile{toc}{\contentsline {subsection}{\numberline {241.1}Modules}{595}{subsection.241.1}}
\@setckpt{cuon.Windows-module}{
\setcounter{page}{596}
\setcounter{equation}{0}
\setcounter{enumi}{1}
\setcounter{enumii}{0}
\setcounter{enumiii}{0}
\setcounter{enumiv}{0}
\setcounter{footnote}{0}
\setcounter{mpfootnote}{0}
\setcounter{part}{0}
\setcounter{section}{241}
\setcounter{subsection}{1}
\setcounter{subsubsection}{0}
\setcounter{paragraph}{0}
\setcounter{subparagraph}{0}
\setcounter{figure}{0}
\setcounter{table}{230}
\setcounter{LT@tables}{230}
\setcounter{LT@chunks}{4}
\setcounter{Item}{1}
\setcounter{Hfootnote}{0}
\setcounter{bookmark@seq@number}{908}
\setcounter{section@level}{2}
}
