\relax 
\@writefile{toc}{\contentsline {section}{\numberline {251}Package cuon.XMLRPC}{620}{section.251}}
\newlabel{cuon:XMLRPC}{{251}{620}{Package cuon.XMLRPC\relax }{section.251}{}}
\@writefile{toc}{\contentsline {subsection}{\numberline {251.1}Modules}{620}{subsection.251.1}}
\@setckpt{cuon.XMLRPC-module}{
\setcounter{page}{621}
\setcounter{equation}{0}
\setcounter{enumi}{1}
\setcounter{enumii}{0}
\setcounter{enumiii}{0}
\setcounter{enumiv}{0}
\setcounter{footnote}{0}
\setcounter{mpfootnote}{0}
\setcounter{part}{0}
\setcounter{section}{251}
\setcounter{subsection}{1}
\setcounter{subsubsection}{0}
\setcounter{paragraph}{0}
\setcounter{subparagraph}{0}
\setcounter{figure}{0}
\setcounter{table}{239}
\setcounter{LT@tables}{239}
\setcounter{LT@chunks}{4}
\setcounter{Item}{2}
\setcounter{Hfootnote}{0}
\setcounter{bookmark@seq@number}{945}
\setcounter{section@level}{2}
}
