\relax 
\@writefile{toc}{\contentsline {section}{\numberline {10}Package cuon.Addresses}{52}{section.10}}
\newlabel{cuon:Addresses}{{10}{52}{Package cuon.Addresses\relax }{section.10}{}}
\@writefile{toc}{\contentsline {subsection}{\numberline {10.1}Modules}{52}{subsection.10.1}}
\@setckpt{cuon.Addresses-module}{
\setcounter{page}{53}
\setcounter{equation}{0}
\setcounter{enumi}{0}
\setcounter{enumii}{0}
\setcounter{enumiii}{0}
\setcounter{enumiv}{0}
\setcounter{footnote}{0}
\setcounter{mpfootnote}{0}
\setcounter{part}{0}
\setcounter{section}{10}
\setcounter{subsection}{1}
\setcounter{subsubsection}{0}
\setcounter{paragraph}{0}
\setcounter{subparagraph}{0}
\setcounter{figure}{0}
\setcounter{table}{9}
\setcounter{LT@tables}{9}
\setcounter{LT@chunks}{4}
\setcounter{Item}{0}
\setcounter{Hfootnote}{0}
\setcounter{bookmark@seq@number}{37}
\setcounter{section@level}{2}
}
