\relax 
\gdef \LT@cxxxiv {\LT@entry 
    {1}{152.92793pt}\LT@entry 
    {1}{258.72162pt}\LT@entry 
    {1}{12.0pt}}
\@writefile{toc}{\contentsline {section}{\numberline {139}Module cuon.Graves.plant\_lists}{376}{section.139}}
\newlabel{cuon:Graves:plant_lists}{{139}{376}{Module cuon.Graves.plant\_lists\relax }{section.139}{}}
\@writefile{toc}{\contentsline {subsection}{\numberline {139.1}Variables}{376}{subsection.139.1}}
\@writefile{toc}{\contentsline {subsection}{\numberline {139.2}Class plantlists}{376}{subsection.139.2}}
\newlabel{cuon:Graves:plant_lists:plantlists}{{139.2}{376}{Class plantlists\relax }{subsection.139.2}{}}
\@writefile{toc}{\contentsline {subsubsection}{\numberline {139.2.1}Methods}{376}{subsubsection.139.2.1}}
\newlabel{cuon:Graves:plant_lists:plantlists:on_bOK_clicked}{{139.2.1}{376}{Methods\relax }{subsubsection.139.2.1}{}}
\newlabel{cuon:Graves:plant_lists:plantlists:on_cbTimeTab_changed}{{139.2.1}{377}{Methods\relax }{subsubsection.139.2.1}{}}
\@setckpt{cuon.Graves.plant_lists-module}{
\setcounter{page}{379}
\setcounter{equation}{0}
\setcounter{enumi}{0}
\setcounter{enumii}{0}
\setcounter{enumiii}{0}
\setcounter{enumiv}{0}
\setcounter{footnote}{0}
\setcounter{mpfootnote}{0}
\setcounter{part}{0}
\setcounter{section}{139}
\setcounter{subsection}{2}
\setcounter{subsubsection}{1}
\setcounter{paragraph}{0}
\setcounter{subparagraph}{0}
\setcounter{figure}{0}
\setcounter{table}{134}
\setcounter{LT@tables}{134}
\setcounter{LT@chunks}{4}
\setcounter{Item}{0}
\setcounter{Hfootnote}{0}
\setcounter{bookmark@seq@number}{530}
\setcounter{section@level}{3}
}
