\relax 
\gdef \LT@ccxix {\LT@entry 
    {1}{152.92793pt}\LT@entry 
    {1}{258.72162pt}\LT@entry 
    {1}{12.0pt}}
\@writefile{toc}{\contentsline {section}{\numberline {229}Module cuon.TypeDefs.constants}{578}{section.229}}
\newlabel{cuon:TypeDefs:constants}{{229}{578}{Module cuon.TypeDefs.constants\relax }{section.229}{}}
\@writefile{toc}{\contentsline {subsection}{\numberline {229.1}Variables}{578}{subsection.229.1}}
\@writefile{toc}{\contentsline {subsection}{\numberline {229.2}Class constants}{578}{subsection.229.2}}
\newlabel{cuon:TypeDefs:constants:constants}{{229.2}{578}{Class constants\relax }{subsection.229.2}{}}
\@writefile{toc}{\contentsline {subsubsection}{\numberline {229.2.1}Methods}{578}{subsubsection.229.2.1}}
\newlabel{cuon:TypeDefs:constants:constants:__init__}{{229.2.1}{578}{Methods\relax }{subsubsection.229.2.1}{}}
\@setckpt{cuon.TypeDefs.constants-module}{
\setcounter{page}{579}
\setcounter{equation}{0}
\setcounter{enumi}{0}
\setcounter{enumii}{0}
\setcounter{enumiii}{0}
\setcounter{enumiv}{0}
\setcounter{footnote}{0}
\setcounter{mpfootnote}{0}
\setcounter{part}{0}
\setcounter{section}{229}
\setcounter{subsection}{2}
\setcounter{subsubsection}{1}
\setcounter{paragraph}{0}
\setcounter{subparagraph}{0}
\setcounter{figure}{0}
\setcounter{table}{219}
\setcounter{LT@tables}{219}
\setcounter{LT@chunks}{4}
\setcounter{Item}{0}
\setcounter{Hfootnote}{0}
\setcounter{bookmark@seq@number}{867}
\setcounter{section@level}{3}
}
