\relax 
\gdef \LT@ccxlii {\LT@entry 
    {1}{152.92793pt}\LT@entry 
    {1}{258.72162pt}\LT@entry 
    {1}{12.0pt}}
\@writefile{toc}{\contentsline {section}{\numberline {255}Module cuon.untar}{625}{section.255}}
\newlabel{cuon:untar}{{255}{625}{Module cuon.untar\relax }{section.255}{}}
\@writefile{toc}{\contentsline {subsection}{\numberline {255.1}Variables}{625}{subsection.255.1}}
\@setckpt{cuon.untar-module}{
\setcounter{page}{626}
\setcounter{equation}{0}
\setcounter{enumi}{1}
\setcounter{enumii}{0}
\setcounter{enumiii}{0}
\setcounter{enumiv}{0}
\setcounter{footnote}{0}
\setcounter{mpfootnote}{0}
\setcounter{part}{0}
\setcounter{section}{255}
\setcounter{subsection}{1}
\setcounter{subsubsection}{0}
\setcounter{paragraph}{0}
\setcounter{subparagraph}{0}
\setcounter{figure}{0}
\setcounter{table}{242}
\setcounter{LT@tables}{242}
\setcounter{LT@chunks}{4}
\setcounter{Item}{2}
\setcounter{Hfootnote}{0}
\setcounter{bookmark@seq@number}{963}
\setcounter{section@level}{2}
}
