\relax 
\gdef \LT@clix {\LT@entry 
    {1}{152.92793pt}\LT@entry 
    {1}{258.72162pt}\LT@entry 
    {1}{12.0pt}}
\@writefile{toc}{\contentsline {section}{\numberline {168}Module cuon.Order.standard\_bill}{438}{section.168}}
\newlabel{cuon:Order:standard_bill}{{168}{438}{Module cuon.Order.standard\_bill\relax }{section.168}{}}
\@writefile{toc}{\contentsline {subsection}{\numberline {168.1}Variables}{438}{subsection.168.1}}
\@writefile{toc}{\contentsline {subsection}{\numberline {168.2}Class standard\_bill}{438}{subsection.168.2}}
\newlabel{cuon:Order:standard_bill:standard_bill}{{168.2}{438}{Class standard\_bill\relax }{subsection.168.2}{}}
\@writefile{toc}{\contentsline {subsubsection}{\numberline {168.2.1}Methods}{438}{subsubsection.168.2.1}}
\newlabel{cuon:Order:standard_bill:standard_bill:__init__}{{168.2.1}{438}{Methods\relax }{subsubsection.168.2.1}{}}
\@setckpt{cuon.Order.standard_bill-module}{
\setcounter{page}{439}
\setcounter{equation}{0}
\setcounter{enumi}{0}
\setcounter{enumii}{0}
\setcounter{enumiii}{0}
\setcounter{enumiv}{0}
\setcounter{footnote}{0}
\setcounter{mpfootnote}{0}
\setcounter{part}{0}
\setcounter{section}{168}
\setcounter{subsection}{2}
\setcounter{subsubsection}{1}
\setcounter{paragraph}{0}
\setcounter{subparagraph}{0}
\setcounter{figure}{0}
\setcounter{table}{159}
\setcounter{LT@tables}{159}
\setcounter{LT@chunks}{4}
\setcounter{Item}{0}
\setcounter{Hfootnote}{0}
\setcounter{bookmark@seq@number}{637}
\setcounter{section@level}{3}
}
