\relax 
\gdef \LT@clxxi {\LT@entry 
    {1}{152.92793pt}\LT@entry 
    {1}{258.72162pt}\LT@entry 
    {1}{12.0pt}}
\@writefile{toc}{\contentsline {section}{\numberline {180}Module cuon.Project.SingleProject}{459}{section.180}}
\newlabel{cuon:Project:SingleProject}{{180}{459}{Module cuon.Project.SingleProject\relax }{section.180}{}}
\@writefile{toc}{\contentsline {subsection}{\numberline {180.1}Variables}{459}{subsection.180.1}}
\@writefile{toc}{\contentsline {subsection}{\numberline {180.2}Class SingleProject}{459}{subsection.180.2}}
\newlabel{cuon:Project:SingleProject:SingleProject}{{180.2}{459}{Class SingleProject\relax }{subsection.180.2}{}}
\@writefile{toc}{\contentsline {subsubsection}{\numberline {180.2.1}Methods}{459}{subsubsection.180.2.1}}
\newlabel{cuon:Project:SingleProject:SingleProject:getInfoForID}{{180.2.1}{459}{Methods\relax }{subsubsection.180.2.1}{}}
\newlabel{cuon:Project:SingleProject:SingleProject:getCustomerID}{{180.2.1}{459}{Methods\relax }{subsubsection.180.2.1}{}}
\@setckpt{cuon.Project.SingleProject-module}{
\setcounter{page}{461}
\setcounter{equation}{0}
\setcounter{enumi}{0}
\setcounter{enumii}{0}
\setcounter{enumiii}{0}
\setcounter{enumiv}{0}
\setcounter{footnote}{0}
\setcounter{mpfootnote}{0}
\setcounter{part}{0}
\setcounter{section}{180}
\setcounter{subsection}{2}
\setcounter{subsubsection}{1}
\setcounter{paragraph}{0}
\setcounter{subparagraph}{0}
\setcounter{figure}{0}
\setcounter{table}{171}
\setcounter{LT@tables}{171}
\setcounter{LT@chunks}{4}
\setcounter{Item}{0}
\setcounter{Hfootnote}{0}
\setcounter{bookmark@seq@number}{682}
\setcounter{section@level}{3}
}
