\relax 
\gdef \LT@lix {\LT@entry 
    {1}{152.92793pt}\LT@entry 
    {1}{258.72162pt}\LT@entry 
    {1}{12.0pt}}
\@writefile{toc}{\contentsline {section}{\numberline {62}Module cuon.DMS.dms}{181}{section.62}}
\newlabel{cuon:DMS:dms}{{62}{181}{Module cuon.DMS.dms\relax }{section.62}{}}
\@writefile{toc}{\contentsline {subsection}{\numberline {62.1}Variables}{181}{subsection.62.1}}
\@writefile{toc}{\contentsline {subsection}{\numberline {62.2}Class dmswindow}{181}{subsection.62.2}}
\newlabel{cuon:DMS:dms:dmswindow}{{62.2}{181}{Class dmswindow\relax }{subsection.62.2}{}}
\@writefile{toc}{\contentsline {subsubsection}{\numberline {62.2.1}Methods}{181}{subsubsection.62.2.1}}
\newlabel{cuon:DMS:dms:dmswindow:on_save1_activate}{{62.2.1}{181}{Methods\relax }{subsubsection.62.2.1}{}}
\newlabel{cuon:DMS:dms:dmswindow:on_new1_activate}{{62.2.1}{182}{Methods\relax }{subsubsection.62.2.1}{}}
\newlabel{cuon:DMS:dms:dmswindow:on_edit1_activate}{{62.2.1}{182}{Methods\relax }{subsubsection.62.2.1}{}}
\newlabel{cuon:DMS:dms:dmswindow:on_clear1_activate}{{62.2.1}{182}{Methods\relax }{subsubsection.62.2.1}{}}
\newlabel{cuon:DMS:dms:dmswindow:on_quit1_activate}{{62.2.1}{182}{Methods\relax }{subsubsection.62.2.1}{}}
\newlabel{cuon:DMS:dms:dmswindow:on_chooseDMS_activate}{{62.2.1}{182}{Methods\relax }{subsubsection.62.2.1}{}}
\newlabel{cuon:DMS:dms:dmswindow:on_eDMSSearch_key_press_event}{{62.2.1}{182}{Methods\relax }{subsubsection.62.2.1}{}}
\newlabel{cuon:DMS:dms:dmswindow:on_bSearch_clicked}{{62.2.1}{182}{Methods\relax }{subsubsection.62.2.1}{}}
\newlabel{cuon:DMS:dms:dmswindow:findDMS}{{62.2.1}{182}{Methods\relax }{subsubsection.62.2.1}{}}
\newlabel{cuon:DMS:dms:dmswindow:on_bScan_clicked}{{62.2.1}{182}{Methods\relax }{subsubsection.62.2.1}{}}
\newlabel{cuon:DMS:dms:dmswindow:on_bScanMulti_clicked}{{62.2.1}{182}{Methods\relax }{subsubsection.62.2.1}{}}
\newlabel{cuon:DMS:dms:dmswindow:on_bImport_clicked}{{62.2.1}{182}{Methods\relax }{subsubsection.62.2.1}{}}
\newlabel{cuon:DMS:dms:dmswindow:on_bLink_clicked}{{62.2.1}{182}{Methods\relax }{subsubsection.62.2.1}{}}
\newlabel{cuon:DMS:dms:dmswindow:on_okbutton1_clicked}{{62.2.1}{182}{Methods\relax }{subsubsection.62.2.1}{}}
\newlabel{cuon:DMS:dms:dmswindow:on_cancelbutton1_clicked}{{62.2.1}{182}{Methods\relax }{subsubsection.62.2.1}{}}
\newlabel{cuon:DMS:dms:dmswindow:on_bFaxNewsletter_clicked}{{62.2.1}{182}{Methods\relax }{subsubsection.62.2.1}{}}
\newlabel{cuon:DMS:dms:dmswindow:on_bPrintNewsletter_clicked}{{62.2.1}{182}{Methods\relax }{subsubsection.62.2.1}{}}
\newlabel{cuon:DMS:dms:dmswindow:on_bFaxLastDocument_clicked}{{62.2.1}{182}{Methods\relax }{subsubsection.62.2.1}{}}
\newlabel{cuon:DMS:dms:dmswindow:on_bWriteLastDocument_clicked}{{62.2.1}{182}{Methods\relax }{subsubsection.62.2.1}{}}
\newlabel{cuon:DMS:dms:dmswindow:on_bWriteLastDocumentAs_clicked}{{62.2.1}{182}{Methods\relax }{subsubsection.62.2.1}{}}
\newlabel{cuon:DMS:dms:dmswindow:on_bView_clicked}{{62.2.1}{182}{Methods\relax }{subsubsection.62.2.1}{}}
\newlabel{cuon:DMS:dms:dmswindow:on_tree1_row_activated}{{62.2.1}{183}{Methods\relax }{subsubsection.62.2.1}{}}
\newlabel{cuon:DMS:dms:dmswindow:on_tree1_columns_changed}{{62.2.1}{183}{Methods\relax }{subsubsection.62.2.1}{}}
\newlabel{cuon:DMS:dms:dmswindow:on_bJumpToOrigin_clicked}{{62.2.1}{183}{Methods\relax }{subsubsection.62.2.1}{}}
\newlabel{cuon:DMS:dms:dmswindow:on_tbJumpToOrigin_clicked}{{62.2.1}{183}{Methods\relax }{subsubsection.62.2.1}{}}
\newlabel{cuon:DMS:dms:dmswindow:on_tbNew_clicked}{{62.2.1}{183}{Methods\relax }{subsubsection.62.2.1}{}}
\newlabel{cuon:DMS:dms:dmswindow:on_tbEdit_clicked}{{62.2.1}{183}{Methods\relax }{subsubsection.62.2.1}{}}
\newlabel{cuon:DMS:dms:dmswindow:on_tbSave_clicked}{{62.2.1}{183}{Methods\relax }{subsubsection.62.2.1}{}}
\newlabel{cuon:DMS:dms:dmswindow:on_tbDelete_clicked}{{62.2.1}{183}{Methods\relax }{subsubsection.62.2.1}{}}
\newlabel{cuon:DMS:dms:dmswindow:on_tbExit_clicked}{{62.2.1}{183}{Methods\relax }{subsubsection.62.2.1}{}}
\newlabel{cuon:DMS:dms:dmswindow:on_bSearchPairedID_clicked}{{62.2.1}{183}{Methods\relax }{subsubsection.62.2.1}{}}
\newlabel{cuon:DMS:dms:dmswindow:on_ePairedID_changed}{{62.2.1}{183}{Methods\relax }{subsubsection.62.2.1}{}}
\newlabel{cuon:DMS:dms:dmswindow:refreshTree}{{62.2.1}{183}{Methods\relax }{subsubsection.62.2.1}{}}
\newlabel{cuon:DMS:dms:dmswindow:tabChanged}{{62.2.1}{183}{Methods\relax }{subsubsection.62.2.1}{}}
\newlabel{cuon:DMS:dms:dmswindow:scanDocument}{{62.2.1}{183}{Methods\relax }{subsubsection.62.2.1}{}}
\@setckpt{cuon.DMS.dms-module}{
\setcounter{page}{186}
\setcounter{equation}{0}
\setcounter{enumi}{0}
\setcounter{enumii}{0}
\setcounter{enumiii}{0}
\setcounter{enumiv}{0}
\setcounter{footnote}{0}
\setcounter{mpfootnote}{0}
\setcounter{part}{0}
\setcounter{section}{62}
\setcounter{subsection}{2}
\setcounter{subsubsection}{1}
\setcounter{paragraph}{0}
\setcounter{subparagraph}{0}
\setcounter{figure}{0}
\setcounter{table}{59}
\setcounter{LT@tables}{59}
\setcounter{LT@chunks}{4}
\setcounter{Item}{0}
\setcounter{Hfootnote}{0}
\setcounter{bookmark@seq@number}{235}
\setcounter{section@level}{3}
}
