\relax 
\gdef \LT@cxlv {\LT@entry 
    {1}{152.92793pt}\LT@entry 
    {1}{258.72162pt}\LT@entry 
    {1}{12.0pt}}
\@writefile{toc}{\contentsline {section}{\numberline {152}Module cuon.Misc.fileSelection}{403}{section.152}}
\newlabel{cuon:Misc:fileSelection}{{152}{403}{Module cuon.Misc.fileSelection\relax }{section.152}{}}
\@writefile{toc}{\contentsline {subsection}{\numberline {152.1}Variables}{403}{subsection.152.1}}
\@writefile{toc}{\contentsline {subsection}{\numberline {152.2}Class fileSelection}{403}{subsection.152.2}}
\newlabel{cuon:Misc:fileSelection:fileSelection}{{152.2}{403}{Class fileSelection\relax }{subsection.152.2}{}}
\@writefile{toc}{\contentsline {subsubsection}{\numberline {152.2.1}Methods}{404}{subsubsection.152.2.1}}
\newlabel{cuon:Misc:fileSelection:fileSelection:add_filters}{{152.2.1}{404}{Methods\relax }{subsubsection.152.2.1}{}}
\newlabel{cuon:Misc:fileSelection:fileSelection:getFilenames}{{152.2.1}{404}{Methods\relax }{subsubsection.152.2.1}{}}
\newlabel{cuon:Misc:fileSelection:fileSelection:on_cancel_button1_clicked}{{152.2.1}{404}{Methods\relax }{subsubsection.152.2.1}{}}
\newlabel{cuon:Misc:fileSelection:fileSelection:on_ok_button_clicked}{{152.2.1}{404}{Methods\relax }{subsubsection.152.2.1}{}}
\newlabel{cuon:Misc:fileSelection:fileSelection:quitFiledialog}{{152.2.1}{404}{Methods\relax }{subsubsection.152.2.1}{}}
\newlabel{cuon:Misc:fileSelection:fileSelection:showFiledialog}{{152.2.1}{404}{Methods\relax }{subsubsection.152.2.1}{}}
\@setckpt{cuon.Misc.fileSelection-module}{
\setcounter{page}{406}
\setcounter{equation}{0}
\setcounter{enumi}{0}
\setcounter{enumii}{0}
\setcounter{enumiii}{0}
\setcounter{enumiv}{0}
\setcounter{footnote}{0}
\setcounter{mpfootnote}{0}
\setcounter{part}{0}
\setcounter{section}{152}
\setcounter{subsection}{2}
\setcounter{subsubsection}{1}
\setcounter{paragraph}{0}
\setcounter{subparagraph}{0}
\setcounter{figure}{0}
\setcounter{table}{145}
\setcounter{LT@tables}{145}
\setcounter{LT@chunks}{4}
\setcounter{Item}{0}
\setcounter{Hfootnote}{0}
\setcounter{bookmark@seq@number}{575}
\setcounter{section@level}{3}
}
