\relax 
\gdef \LT@ccx {\LT@entry 
    {1}{152.92793pt}\LT@entry 
    {1}{258.72162pt}\LT@entry 
    {1}{12.0pt}}
\@writefile{toc}{\contentsline {section}{\numberline {219}Module cuon.Stock.stock}{555}{section.219}}
\newlabel{cuon:Stock:stock}{{219}{555}{Module cuon.Stock.stock\relax }{section.219}{}}
\@writefile{toc}{\contentsline {subsection}{\numberline {219.1}Variables}{555}{subsection.219.1}}
\@writefile{toc}{\contentsline {subsection}{\numberline {219.2}Class stockwindow}{555}{subsection.219.2}}
\newlabel{cuon:Stock:stock:stockwindow}{{219.2}{555}{Class stockwindow\relax }{subsection.219.2}{}}
\@writefile{toc}{\contentsline {subsubsection}{\numberline {219.2.1}Methods}{556}{subsubsection.219.2.1}}
\newlabel{cuon:Stock:stock:stockwindow:on_quit1_activate}{{219.2.1}{556}{Methods\relax }{subsubsection.219.2.1}{}}
\newlabel{cuon:Stock:stock:stockwindow:on_Save1_activate}{{219.2.1}{556}{Methods\relax }{subsubsection.219.2.1}{}}
\newlabel{cuon:Stock:stock:stockwindow:on_New1_activate}{{219.2.1}{556}{Methods\relax }{subsubsection.219.2.1}{}}
\newlabel{cuon:Stock:stock:stockwindow:on_Edit1_activate}{{219.2.1}{556}{Methods\relax }{subsubsection.219.2.1}{}}
\newlabel{cuon:Stock:stock:stockwindow:on_Delete1_activate}{{219.2.1}{556}{Methods\relax }{subsubsection.219.2.1}{}}
\newlabel{cuon:Stock:stock:stockwindow:on_GoodsNew1_activate}{{219.2.1}{556}{Methods\relax }{subsubsection.219.2.1}{}}
\newlabel{cuon:Stock:stock:stockwindow:on_GoodsEdit1_activate}{{219.2.1}{556}{Methods\relax }{subsubsection.219.2.1}{}}
\newlabel{cuon:Stock:stock:stockwindow:on_GoodsSave1_activate}{{219.2.1}{556}{Methods\relax }{subsubsection.219.2.1}{}}
\newlabel{cuon:Stock:stock:stockwindow:on_GoodsClear1_activate}{{219.2.1}{556}{Methods\relax }{subsubsection.219.2.1}{}}
\newlabel{cuon:Stock:stock:stockwindow:on_articleList1_activate}{{219.2.1}{556}{Methods\relax }{subsubsection.219.2.1}{}}
\newlabel{cuon:Stock:stock:stockwindow:on_bSearch_clicked}{{219.2.1}{556}{Methods\relax }{subsubsection.219.2.1}{}}
\newlabel{cuon:Stock:stock:stockwindow:on_bSearchCustom_clicked}{{219.2.1}{556}{Methods\relax }{subsubsection.219.2.1}{}}
\newlabel{cuon:Stock:stock:stockwindow:on_bSearchSupply_clicked}{{219.2.1}{556}{Methods\relax }{subsubsection.219.2.1}{}}
\newlabel{cuon:Stock:stock:stockwindow:on_bArticleSearch_clicked}{{219.2.1}{556}{Methods\relax }{subsubsection.219.2.1}{}}
\newlabel{cuon:Stock:stock:stockwindow:on_eArticleID_changed}{{219.2.1}{556}{Methods\relax }{subsubsection.219.2.1}{}}
\newlabel{cuon:Stock:stock:stockwindow:refreshTree}{{219.2.1}{556}{Methods\relax }{subsubsection.219.2.1}{}}
\newlabel{cuon:Stock:stock:stockwindow:on_tbNew_clicked}{{219.2.1}{556}{Methods\relax }{subsubsection.219.2.1}{}}
\newlabel{cuon:Stock:stock:stockwindow:on_tbEdit_clicked}{{219.2.1}{556}{Methods\relax }{subsubsection.219.2.1}{}}
\newlabel{cuon:Stock:stock:stockwindow:on_tbSave_clicked}{{219.2.1}{557}{Methods\relax }{subsubsection.219.2.1}{}}
\newlabel{cuon:Stock:stock:stockwindow:tabChanged}{{219.2.1}{557}{Methods\relax }{subsubsection.219.2.1}{}}
\@setckpt{cuon.Stock.stock-module}{
\setcounter{page}{559}
\setcounter{equation}{0}
\setcounter{enumi}{0}
\setcounter{enumii}{0}
\setcounter{enumiii}{0}
\setcounter{enumiv}{0}
\setcounter{footnote}{0}
\setcounter{mpfootnote}{0}
\setcounter{part}{0}
\setcounter{section}{219}
\setcounter{subsection}{2}
\setcounter{subsubsection}{1}
\setcounter{paragraph}{0}
\setcounter{subparagraph}{0}
\setcounter{figure}{0}
\setcounter{table}{210}
\setcounter{LT@tables}{210}
\setcounter{LT@chunks}{4}
\setcounter{Item}{0}
\setcounter{Hfootnote}{0}
\setcounter{bookmark@seq@number}{831}
\setcounter{section@level}{3}
}
