\relax 
\@writefile{toc}{\contentsline {section}{\numberline {145}Package cuon.Logging}{392}{section.145}}
\newlabel{cuon:Logging}{{145}{392}{Package cuon.Logging\relax }{section.145}{}}
\@writefile{toc}{\contentsline {subsection}{\numberline {145.1}Modules}{392}{subsection.145.1}}
\@setckpt{cuon.Logging-module}{
\setcounter{page}{393}
\setcounter{equation}{0}
\setcounter{enumi}{0}
\setcounter{enumii}{0}
\setcounter{enumiii}{0}
\setcounter{enumiv}{0}
\setcounter{footnote}{0}
\setcounter{mpfootnote}{0}
\setcounter{part}{0}
\setcounter{section}{145}
\setcounter{subsection}{1}
\setcounter{subsubsection}{0}
\setcounter{paragraph}{0}
\setcounter{subparagraph}{0}
\setcounter{figure}{0}
\setcounter{table}{139}
\setcounter{LT@tables}{139}
\setcounter{LT@chunks}{4}
\setcounter{Item}{0}
\setcounter{Hfootnote}{0}
\setcounter{bookmark@seq@number}{550}
\setcounter{section@level}{2}
}
