\relax 
\gdef \LT@xxxvii {\LT@entry 
    {1}{152.92793pt}\LT@entry 
    {1}{258.72162pt}\LT@entry 
    {1}{12.0pt}}
\@writefile{toc}{\contentsline {section}{\numberline {40}Module cuon.Articles.SingleMaterialgroupsAccount}{125}{section.40}}
\newlabel{cuon:Articles:SingleMaterialgroupsAccount}{{40}{125}{Module cuon.Articles.SingleMaterialgroupsAccount\relax }{section.40}{}}
\@writefile{toc}{\contentsline {subsection}{\numberline {40.1}Variables}{125}{subsection.40.1}}
\@writefile{toc}{\contentsline {subsection}{\numberline {40.2}Class SingleMaterialgroupsAccount}{125}{subsection.40.2}}
\newlabel{cuon:Articles:SingleMaterialgroupsAccount:SingleMaterialgroupsAccount}{{40.2}{125}{Class SingleMaterialgroupsAccount\relax }{subsection.40.2}{}}
\@writefile{toc}{\contentsline {subsubsection}{\numberline {40.2.1}Methods}{125}{subsubsection.40.2.1}}
\@setckpt{cuon.Articles.SingleMaterialgroupsAccount-module}{
\setcounter{page}{127}
\setcounter{equation}{0}
\setcounter{enumi}{0}
\setcounter{enumii}{0}
\setcounter{enumiii}{0}
\setcounter{enumiv}{0}
\setcounter{footnote}{0}
\setcounter{mpfootnote}{0}
\setcounter{part}{0}
\setcounter{section}{40}
\setcounter{subsection}{2}
\setcounter{subsubsection}{1}
\setcounter{paragraph}{0}
\setcounter{subparagraph}{0}
\setcounter{figure}{0}
\setcounter{table}{37}
\setcounter{LT@tables}{37}
\setcounter{LT@chunks}{4}
\setcounter{Item}{0}
\setcounter{Hfootnote}{0}
\setcounter{bookmark@seq@number}{153}
\setcounter{section@level}{3}
}
