\relax 
\gdef \LT@cxxvii {\LT@entry 
    {1}{152.92793pt}\LT@entry 
    {1}{258.72162pt}\LT@entry 
    {1}{12.0pt}}
\@writefile{toc}{\contentsline {section}{\numberline {132}Module cuon.Graves.SingleGraveSummer}{354}{section.132}}
\newlabel{cuon:Graves:SingleGraveSummer}{{132}{354}{Module cuon.Graves.SingleGraveSummer\relax }{section.132}{}}
\@writefile{toc}{\contentsline {subsection}{\numberline {132.1}Variables}{354}{subsection.132.1}}
\@writefile{toc}{\contentsline {subsection}{\numberline {132.2}Class SingleGraveSummer}{354}{subsection.132.2}}
\newlabel{cuon:Graves:SingleGraveSummer:SingleGraveSummer}{{132.2}{354}{Class SingleGraveSummer\relax }{subsection.132.2}{}}
\@writefile{toc}{\contentsline {subsubsection}{\numberline {132.2.1}Methods}{354}{subsubsection.132.2.1}}
\@setckpt{cuon.Graves.SingleGraveSummer-module}{
\setcounter{page}{356}
\setcounter{equation}{0}
\setcounter{enumi}{0}
\setcounter{enumii}{0}
\setcounter{enumiii}{0}
\setcounter{enumiv}{0}
\setcounter{footnote}{0}
\setcounter{mpfootnote}{0}
\setcounter{part}{0}
\setcounter{section}{132}
\setcounter{subsection}{2}
\setcounter{subsubsection}{1}
\setcounter{paragraph}{0}
\setcounter{subparagraph}{0}
\setcounter{figure}{0}
\setcounter{table}{127}
\setcounter{LT@tables}{127}
\setcounter{LT@chunks}{4}
\setcounter{Item}{0}
\setcounter{Hfootnote}{0}
\setcounter{bookmark@seq@number}{502}
\setcounter{section@level}{3}
}
