\relax 
\gdef \LT@xxix {\LT@entry 
    {1}{152.92793pt}\LT@entry 
    {1}{258.72162pt}\LT@entry 
    {1}{12.0pt}}
\@writefile{toc}{\contentsline {section}{\numberline {32}Module cuon.Articles.ArticlesFastSelection}{107}{section.32}}
\newlabel{cuon:Articles:ArticlesFastSelection}{{32}{107}{Module cuon.Articles.ArticlesFastSelection\relax }{section.32}{}}
\@writefile{toc}{\contentsline {subsection}{\numberline {32.1}Variables}{107}{subsection.32.1}}
\@writefile{toc}{\contentsline {subsection}{\numberline {32.2}Class ArticlesFastSelection}{107}{subsection.32.2}}
\newlabel{cuon:Articles:ArticlesFastSelection:ArticlesFastSelection}{{32.2}{107}{Class ArticlesFastSelection\relax }{subsection.32.2}{}}
\@writefile{toc}{\contentsline {subsubsection}{\numberline {32.2.1}Methods}{107}{subsubsection.32.2.1}}
\newlabel{cuon:Articles:ArticlesFastSelection:ArticlesFastSelection:FastSelectionStart}{{32.2.1}{107}{Methods\relax }{subsubsection.32.2.1}{}}
\newlabel{cuon:Articles:ArticlesFastSelection:ArticlesFastSelection:fillMaterialGroup}{{32.2.1}{107}{Methods\relax }{subsubsection.32.2.1}{}}
\newlabel{cuon:Articles:ArticlesFastSelection:ArticlesFastSelection:disconnectArticlesTree}{{32.2.1}{107}{Methods\relax }{subsubsection.32.2.1}{}}
\newlabel{cuon:Articles:ArticlesFastSelection:ArticlesFastSelection:connectArticlesTree}{{32.2.1}{107}{Methods\relax }{subsubsection.32.2.1}{}}
\newlabel{cuon:Articles:ArticlesFastSelection:ArticlesFastSelection:ArticlesTree_select_callback}{{32.2.1}{107}{Methods\relax }{subsubsection.32.2.1}{}}
\newlabel{cuon:Articles:ArticlesFastSelection:ArticlesFastSelection:on_treeArticles_row_activated}{{32.2.1}{107}{Methods\relax }{subsubsection.32.2.1}{}}
\newlabel{cuon:Articles:ArticlesFastSelection:ArticlesFastSelection:on_bQuickAppend_clicked}{{32.2.1}{107}{Methods\relax }{subsubsection.32.2.1}{}}
\newlabel{cuon:Articles:ArticlesFastSelection:ArticlesFastSelection:fillArticles}{{32.2.1}{108}{Methods\relax }{subsubsection.32.2.1}{}}
\newlabel{cuon:Articles:ArticlesFastSelection:ArticlesFastSelection:disconnectMaterialGroupTree}{{32.2.1}{108}{Methods\relax }{subsubsection.32.2.1}{}}
\newlabel{cuon:Articles:ArticlesFastSelection:ArticlesFastSelection:connectMaterialGroupTree}{{32.2.1}{108}{Methods\relax }{subsubsection.32.2.1}{}}
\newlabel{cuon:Articles:ArticlesFastSelection:ArticlesFastSelection:MaterialGroupTree_select_callback}{{32.2.1}{108}{Methods\relax }{subsubsection.32.2.1}{}}
\@setckpt{cuon.Articles.ArticlesFastSelection-module}{
\setcounter{page}{109}
\setcounter{equation}{0}
\setcounter{enumi}{0}
\setcounter{enumii}{0}
\setcounter{enumiii}{0}
\setcounter{enumiv}{0}
\setcounter{footnote}{0}
\setcounter{mpfootnote}{0}
\setcounter{part}{0}
\setcounter{section}{32}
\setcounter{subsection}{2}
\setcounter{subsubsection}{1}
\setcounter{paragraph}{0}
\setcounter{subparagraph}{0}
\setcounter{figure}{0}
\setcounter{table}{29}
\setcounter{LT@tables}{29}
\setcounter{LT@chunks}{4}
\setcounter{Item}{0}
\setcounter{Hfootnote}{0}
\setcounter{bookmark@seq@number}{121}
\setcounter{section@level}{3}
}
