\relax 
\gdef \LT@xcvii {\LT@entry 
    {1}{152.92793pt}\LT@entry 
    {1}{258.72162pt}\LT@entry 
    {1}{12.0pt}}
\@writefile{toc}{\contentsline {section}{\numberline {102}Package cuon.Finances.InvoiceBook}{282}{section.102}}
\newlabel{cuon:Finances:InvoiceBook}{{102}{282}{Package cuon.Finances.InvoiceBook\relax }{section.102}{}}
\@writefile{toc}{\contentsline {subsection}{\numberline {102.1}Modules}{282}{subsection.102.1}}
\@writefile{toc}{\contentsline {subsection}{\numberline {102.2}Variables}{282}{subsection.102.2}}
\@setckpt{cuon.Finances.InvoiceBook-module}{
\setcounter{page}{283}
\setcounter{equation}{0}
\setcounter{enumi}{0}
\setcounter{enumii}{0}
\setcounter{enumiii}{0}
\setcounter{enumiv}{0}
\setcounter{footnote}{0}
\setcounter{mpfootnote}{0}
\setcounter{part}{0}
\setcounter{section}{102}
\setcounter{subsection}{2}
\setcounter{subsubsection}{0}
\setcounter{paragraph}{0}
\setcounter{subparagraph}{0}
\setcounter{figure}{0}
\setcounter{table}{97}
\setcounter{LT@tables}{97}
\setcounter{LT@chunks}{4}
\setcounter{Item}{0}
\setcounter{Hfootnote}{0}
\setcounter{bookmark@seq@number}{384}
\setcounter{section@level}{2}
}
