\relax 
\gdef \LT@clxi {\LT@entry 
    {1}{152.92793pt}\LT@entry 
    {1}{258.72162pt}\LT@entry 
    {1}{12.0pt}}
\@writefile{toc}{\contentsline {section}{\numberline {170}Module cuon.Order.standard\_invoice}{440}{section.170}}
\newlabel{cuon:Order:standard_invoice}{{170}{440}{Module cuon.Order.standard\_invoice\relax }{section.170}{}}
\@writefile{toc}{\contentsline {subsection}{\numberline {170.1}Variables}{440}{subsection.170.1}}
\@writefile{toc}{\contentsline {subsection}{\numberline {170.2}Class standard\_invoice}{440}{subsection.170.2}}
\newlabel{cuon:Order:standard_invoice:standard_invoice}{{170.2}{440}{Class standard\_invoice\relax }{subsection.170.2}{}}
\@writefile{toc}{\contentsline {subsubsection}{\numberline {170.2.1}Methods}{440}{subsubsection.170.2.1}}
\newlabel{cuon:Order:standard_invoice:standard_invoice:__init__}{{170.2.1}{440}{Methods\relax }{subsubsection.170.2.1}{}}
\newlabel{cuon:Order:standard_invoice:standard_invoice:on_ok_button1_clicked}{{170.2.1}{440}{Methods\relax }{subsubsection.170.2.1}{}}
\@setckpt{cuon.Order.standard_invoice-module}{
\setcounter{page}{441}
\setcounter{equation}{0}
\setcounter{enumi}{0}
\setcounter{enumii}{0}
\setcounter{enumiii}{0}
\setcounter{enumiv}{0}
\setcounter{footnote}{0}
\setcounter{mpfootnote}{0}
\setcounter{part}{0}
\setcounter{section}{170}
\setcounter{subsection}{2}
\setcounter{subsubsection}{1}
\setcounter{paragraph}{0}
\setcounter{subparagraph}{0}
\setcounter{figure}{0}
\setcounter{table}{161}
\setcounter{LT@tables}{161}
\setcounter{LT@chunks}{4}
\setcounter{Item}{0}
\setcounter{Hfootnote}{0}
\setcounter{bookmark@seq@number}{645}
\setcounter{section@level}{3}
}
