\relax 
\gdef \LT@cxxxii {\LT@entry 
    {1}{152.92793pt}\LT@entry 
    {1}{258.72162pt}\LT@entry 
    {1}{12.0pt}}
\@writefile{toc}{\contentsline {section}{\numberline {137}Module cuon.Graves.grave}{364}{section.137}}
\newlabel{cuon:Graves:grave}{{137}{364}{Module cuon.Graves.grave\relax }{section.137}{}}
\@writefile{toc}{\contentsline {subsection}{\numberline {137.1}Variables}{364}{subsection.137.1}}
\@writefile{toc}{\contentsline {subsection}{\numberline {137.2}Class graveswindow}{365}{subsection.137.2}}
\newlabel{cuon:Graves:grave:graveswindow}{{137.2}{365}{Class graveswindow\relax }{subsection.137.2}{}}
\@writefile{toc}{\contentsline {subsubsection}{\numberline {137.2.1}Methods}{366}{subsubsection.137.2.1}}
\newlabel{cuon:Graves:grave:graveswindow:on_quit1_activate}{{137.2.1}{366}{Methods\relax }{subsubsection.137.2.1}{}}
\newlabel{cuon:Graves:grave:graveswindow:on_save1_activate}{{137.2.1}{366}{Methods\relax }{subsubsection.137.2.1}{}}
\newlabel{cuon:Graves:grave:graveswindow:on_new1_activate}{{137.2.1}{366}{Methods\relax }{subsubsection.137.2.1}{}}
\newlabel{cuon:Graves:grave:graveswindow:on_edit1_activate}{{137.2.1}{366}{Methods\relax }{subsubsection.137.2.1}{}}
\newlabel{cuon:Graves:grave:graveswindow:on_plant_lists_activate}{{137.2.1}{366}{Methods\relax }{subsubsection.137.2.1}{}}
\newlabel{cuon:Graves:grave:graveswindow:on_clear1_activate}{{137.2.1}{366}{Methods\relax }{subsubsection.137.2.1}{}}
\newlabel{cuon:Graves:grave:graveswindow:on_calcPrices_activate}{{137.2.1}{366}{Methods\relax }{subsubsection.137.2.1}{}}
\newlabel{cuon:Graves:grave:graveswindow:on_InvoicesSave1_activate}{{137.2.1}{366}{Methods\relax }{subsubsection.137.2.1}{}}
\newlabel{cuon:Graves:grave:graveswindow:on_InvoicesNew1_activate}{{137.2.1}{366}{Methods\relax }{subsubsection.137.2.1}{}}
\newlabel{cuon:Graves:grave:graveswindow:on_InvoicesEdit1_activate}{{137.2.1}{366}{Methods\relax }{subsubsection.137.2.1}{}}
\newlabel{cuon:Graves:grave:graveswindow:on_InvoicesClear1_activate}{{137.2.1}{366}{Methods\relax }{subsubsection.137.2.1}{}}
\newlabel{cuon:Graves:grave:graveswindow:on_MaintenanceSave1_activate}{{137.2.1}{366}{Methods\relax }{subsubsection.137.2.1}{}}
\newlabel{cuon:Graves:grave:graveswindow:on_MaintenanceNew1_activate}{{137.2.1}{366}{Methods\relax }{subsubsection.137.2.1}{}}
\newlabel{cuon:Graves:grave:graveswindow:on_MaintenanceEdit1_activate}{{137.2.1}{366}{Methods\relax }{subsubsection.137.2.1}{}}
\newlabel{cuon:Graves:grave:graveswindow:on_MaintenanceClear1_activate}{{137.2.1}{366}{Methods\relax }{subsubsection.137.2.1}{}}
\newlabel{cuon:Graves:grave:graveswindow:on_SpringSave1_activate}{{137.2.1}{366}{Methods\relax }{subsubsection.137.2.1}{}}
\newlabel{cuon:Graves:grave:graveswindow:on_SpringNew1_activate}{{137.2.1}{366}{Methods\relax }{subsubsection.137.2.1}{}}
\newlabel{cuon:Graves:grave:graveswindow:on_SpringEdit1_activate}{{137.2.1}{366}{Methods\relax }{subsubsection.137.2.1}{}}
\newlabel{cuon:Graves:grave:graveswindow:on_SpringClear1_activate}{{137.2.1}{367}{Methods\relax }{subsubsection.137.2.1}{}}
\newlabel{cuon:Graves:grave:graveswindow:on_SummerSave1_activate}{{137.2.1}{367}{Methods\relax }{subsubsection.137.2.1}{}}
\newlabel{cuon:Graves:grave:graveswindow:on_SummerNew1_activate}{{137.2.1}{367}{Methods\relax }{subsubsection.137.2.1}{}}
\newlabel{cuon:Graves:grave:graveswindow:on_SummerEdit1_activate}{{137.2.1}{367}{Methods\relax }{subsubsection.137.2.1}{}}
\newlabel{cuon:Graves:grave:graveswindow:on_SummerClear1_activate}{{137.2.1}{367}{Methods\relax }{subsubsection.137.2.1}{}}
\newlabel{cuon:Graves:grave:graveswindow:on_AutumnSave1_activate}{{137.2.1}{367}{Methods\relax }{subsubsection.137.2.1}{}}
\newlabel{cuon:Graves:grave:graveswindow:on_AutumnNew1_activate}{{137.2.1}{367}{Methods\relax }{subsubsection.137.2.1}{}}
\newlabel{cuon:Graves:grave:graveswindow:on_AutumnEdit1_activate}{{137.2.1}{367}{Methods\relax }{subsubsection.137.2.1}{}}
\newlabel{cuon:Graves:grave:graveswindow:on_AutumnClear1_activate}{{137.2.1}{367}{Methods\relax }{subsubsection.137.2.1}{}}
\newlabel{cuon:Graves:grave:graveswindow:on_WinterSave1_activate}{{137.2.1}{367}{Methods\relax }{subsubsection.137.2.1}{}}
\newlabel{cuon:Graves:grave:graveswindow:on_WinterNew1_activate}{{137.2.1}{367}{Methods\relax }{subsubsection.137.2.1}{}}
\newlabel{cuon:Graves:grave:graveswindow:on_WinterEdit1_activate}{{137.2.1}{367}{Methods\relax }{subsubsection.137.2.1}{}}
\newlabel{cuon:Graves:grave:graveswindow:on_WinterClear1_activate}{{137.2.1}{367}{Methods\relax }{subsubsection.137.2.1}{}}
\newlabel{cuon:Graves:grave:graveswindow:on_HolidaysSave1_activate}{{137.2.1}{367}{Methods\relax }{subsubsection.137.2.1}{}}
\newlabel{cuon:Graves:grave:graveswindow:on_HolidaysNew1_activate}{{137.2.1}{367}{Methods\relax }{subsubsection.137.2.1}{}}
\newlabel{cuon:Graves:grave:graveswindow:on_HolidaysEdit1_activate}{{137.2.1}{367}{Methods\relax }{subsubsection.137.2.1}{}}
\newlabel{cuon:Graves:grave:graveswindow:on_HolidaysClear1_activate}{{137.2.1}{367}{Methods\relax }{subsubsection.137.2.1}{}}
\newlabel{cuon:Graves:grave:graveswindow:on_AnnualSave1_activate}{{137.2.1}{367}{Methods\relax }{subsubsection.137.2.1}{}}
\newlabel{cuon:Graves:grave:graveswindow:on_AnnualNew1_activate}{{137.2.1}{367}{Methods\relax }{subsubsection.137.2.1}{}}
\newlabel{cuon:Graves:grave:graveswindow:on_AnnualEdit1_activate}{{137.2.1}{367}{Methods\relax }{subsubsection.137.2.1}{}}
\newlabel{cuon:Graves:grave:graveswindow:on_AnnualClear1_activate}{{137.2.1}{368}{Methods\relax }{subsubsection.137.2.1}{}}
\newlabel{cuon:Graves:grave:graveswindow:on_UniqueSave1_activate}{{137.2.1}{368}{Methods\relax }{subsubsection.137.2.1}{}}
\newlabel{cuon:Graves:grave:graveswindow:on_UniqueNew1_activate}{{137.2.1}{368}{Methods\relax }{subsubsection.137.2.1}{}}
\newlabel{cuon:Graves:grave:graveswindow:on_UniqueEdit1_activate}{{137.2.1}{368}{Methods\relax }{subsubsection.137.2.1}{}}
\newlabel{cuon:Graves:grave:graveswindow:on_UniqueClear1_activate}{{137.2.1}{368}{Methods\relax }{subsubsection.137.2.1}{}}
\newlabel{cuon:Graves:grave:graveswindow:on_liAddressesPhone1_activate}{{137.2.1}{368}{Methods\relax }{subsubsection.137.2.1}{}}
\newlabel{cuon:Graves:grave:graveswindow:on_liAddressesPhone11_activate}{{137.2.1}{368}{Methods\relax }{subsubsection.137.2.1}{}}
\newlabel{cuon:Graves:grave:graveswindow:on_newletter1_activate}{{137.2.1}{368}{Methods\relax }{subsubsection.137.2.1}{}}
\newlabel{cuon:Graves:grave:graveswindow:on_tbNew_clicked}{{137.2.1}{368}{Methods\relax }{subsubsection.137.2.1}{}}
\newlabel{cuon:Graves:grave:graveswindow:on_tbEdit_clicked}{{137.2.1}{368}{Methods\relax }{subsubsection.137.2.1}{}}
\newlabel{cuon:Graves:grave:graveswindow:on_tbSave_clicked}{{137.2.1}{368}{Methods\relax }{subsubsection.137.2.1}{}}
\newlabel{cuon:Graves:grave:graveswindow:on_tbDelete_clicked}{{137.2.1}{368}{Methods\relax }{subsubsection.137.2.1}{}}
\newlabel{cuon:Graves:grave:graveswindow:on_bChooseAddress_clicked}{{137.2.1}{368}{Methods\relax }{subsubsection.137.2.1}{}}
\newlabel{cuon:Graves:grave:graveswindow:on_eAddressNumber_changed}{{137.2.1}{368}{Methods\relax }{subsubsection.137.2.1}{}}
\newlabel{cuon:Graves:grave:graveswindow:on_bGotoAddress_clicked}{{137.2.1}{368}{Methods\relax }{subsubsection.137.2.1}{}}
\newlabel{cuon:Graves:grave:graveswindow:on_bInvoiceChooseAddress_clicked}{{137.2.1}{368}{Methods\relax }{subsubsection.137.2.1}{}}
\newlabel{cuon:Graves:grave:graveswindow:on_eInvoiceAddressID_changed}{{137.2.1}{368}{Methods\relax }{subsubsection.137.2.1}{}}
\newlabel{cuon:Graves:grave:graveswindow:on_bInvoiceChooseTOP_clicked}{{137.2.1}{368}{Methods\relax }{subsubsection.137.2.1}{}}
\newlabel{cuon:Graves:grave:graveswindow:on_eInvoiceTOPID_changed}{{137.2.1}{368}{Methods\relax }{subsubsection.137.2.1}{}}
\newlabel{cuon:Graves:grave:graveswindow:on_chooseAddress_activate}{{137.2.1}{368}{Methods\relax }{subsubsection.137.2.1}{}}
\newlabel{cuon:Graves:grave:graveswindow:on_bChooseArticle_clicked}{{137.2.1}{369}{Methods\relax }{subsubsection.137.2.1}{}}
\newlabel{cuon:Graves:grave:graveswindow:on_bSearchGraveyard_clicked}{{137.2.1}{369}{Methods\relax }{subsubsection.137.2.1}{}}
\newlabel{cuon:Graves:grave:graveswindow:on_eGraveyardID_changed}{{137.2.1}{369}{Methods\relax }{subsubsection.137.2.1}{}}
\newlabel{cuon:Graves:grave:graveswindow:on_bSearch_clicked}{{137.2.1}{369}{Methods\relax }{subsubsection.137.2.1}{}}
\newlabel{cuon:Graves:grave:graveswindow:on_eFindButton_key_press_event}{{137.2.1}{369}{Methods\relax }{subsubsection.137.2.1}{}}
\newlabel{cuon:Graves:grave:graveswindow:on_cbFindGraveyard_changed}{{137.2.1}{369}{Methods\relax }{subsubsection.137.2.1}{}}
\newlabel{cuon:Graves:grave:graveswindow:findGrave}{{137.2.1}{369}{Methods\relax }{subsubsection.137.2.1}{}}
\newlabel{cuon:Graves:grave:graveswindow:on_eArticleID_changed}{{137.2.1}{369}{Methods\relax }{subsubsection.137.2.1}{}}
\newlabel{cuon:Graves:grave:graveswindow:on_bDMS_clicked}{{137.2.1}{369}{Methods\relax }{subsubsection.137.2.1}{}}
\newlabel{cuon:Graves:grave:graveswindow:on_bAddressDMS_clicked}{{137.2.1}{369}{Methods\relax }{subsubsection.137.2.1}{}}
\newlabel{cuon:Graves:grave:graveswindow:on_CreateSingleInvoice_activate}{{137.2.1}{369}{Methods\relax }{subsubsection.137.2.1}{}}
\newlabel{cuon:Graves:grave:graveswindow:on_CreateAllInvoices_activate}{{137.2.1}{369}{Methods\relax }{subsubsection.137.2.1}{}}
\newlabel{cuon:Graves:grave:graveswindow:on_bCIOK_clicked}{{137.2.1}{369}{Methods\relax }{subsubsection.137.2.1}{}}
\newlabel{cuon:Graves:grave:graveswindow:on_bCICancel_clicked}{{137.2.1}{369}{Methods\relax }{subsubsection.137.2.1}{}}
\newlabel{cuon:Graves:grave:graveswindow:refreshTree}{{137.2.1}{369}{Methods\relax }{subsubsection.137.2.1}{}}
\newlabel{cuon:Graves:grave:graveswindow:tabChanged}{{137.2.1}{369}{Methods\relax }{subsubsection.137.2.1}{}}
\@setckpt{cuon.Graves.grave-module}{
\setcounter{page}{372}
\setcounter{equation}{0}
\setcounter{enumi}{0}
\setcounter{enumii}{0}
\setcounter{enumiii}{0}
\setcounter{enumiv}{0}
\setcounter{footnote}{0}
\setcounter{mpfootnote}{0}
\setcounter{part}{0}
\setcounter{section}{137}
\setcounter{subsection}{2}
\setcounter{subsubsection}{1}
\setcounter{paragraph}{0}
\setcounter{subparagraph}{0}
\setcounter{figure}{0}
\setcounter{table}{132}
\setcounter{LT@tables}{132}
\setcounter{LT@chunks}{4}
\setcounter{Item}{0}
\setcounter{Hfootnote}{0}
\setcounter{bookmark@seq@number}{522}
\setcounter{section@level}{3}
}
