\relax 
\@writefile{toc}{\contentsline {section}{\numberline {98}Module cuon.Finances.Bookkeeping.bookkeeping}{270}{section.98}}
\newlabel{cuon:Finances:Bookkeeping:bookkeeping}{{98}{270}{Module cuon.Finances.Bookkeeping.bookkeeping\relax }{section.98}{}}
\@writefile{toc}{\contentsline {subsection}{\numberline {98.1}Class bookkeepingwindow}{270}{subsection.98.1}}
\newlabel{cuon:Finances:Bookkeeping:bookkeeping:bookkeepingwindow}{{98.1}{270}{Class bookkeepingwindow\relax }{subsection.98.1}{}}
\@writefile{toc}{\contentsline {subsubsection}{\numberline {98.1.1}Methods}{270}{subsubsection.98.1.1}}
\newlabel{cuon:Finances:Bookkeeping:bookkeeping:bookkeepingwindow:on_quit1_activate}{{98.1.1}{270}{Methods\relax }{subsubsection.98.1.1}{}}
\newlabel{cuon:Finances:Bookkeeping:bookkeeping:bookkeepingwindow:on_save1_activate}{{98.1.1}{270}{Methods\relax }{subsubsection.98.1.1}{}}
\newlabel{cuon:Finances:Bookkeeping:bookkeeping:bookkeepingwindow:on_new1_activate}{{98.1.1}{270}{Methods\relax }{subsubsection.98.1.1}{}}
\newlabel{cuon:Finances:Bookkeeping:bookkeeping:bookkeepingwindow:on_edit1_activate}{{98.1.1}{270}{Methods\relax }{subsubsection.98.1.1}{}}
\newlabel{cuon:Finances:Bookkeeping:bookkeeping:bookkeepingwindow:on_delete1_activate}{{98.1.1}{270}{Methods\relax }{subsubsection.98.1.1}{}}
\newlabel{cuon:Finances:Bookkeeping:bookkeeping:bookkeepingwindow:on_monthly1_activate}{{98.1.1}{271}{Methods\relax }{subsubsection.98.1.1}{}}
\newlabel{cuon:Finances:Bookkeeping:bookkeeping:bookkeepingwindow:on_bChooseManufactor_clicked}{{98.1.1}{271}{Methods\relax }{subsubsection.98.1.1}{}}
\newlabel{cuon:Finances:Bookkeeping:bookkeeping:bookkeepingwindow:on_eCAB1_changed}{{98.1.1}{271}{Methods\relax }{subsubsection.98.1.1}{}}
\newlabel{cuon:Finances:Bookkeeping:bookkeeping:bookkeepingwindow:on_eCAB2_changed}{{98.1.1}{271}{Methods\relax }{subsubsection.98.1.1}{}}
\newlabel{cuon:Finances:Bookkeeping:bookkeeping:bookkeepingwindow:on_eCAB3_changed}{{98.1.1}{271}{Methods\relax }{subsubsection.98.1.1}{}}
\newlabel{cuon:Finances:Bookkeeping:bookkeeping:bookkeepingwindow:on_eCAB4_changed}{{98.1.1}{271}{Methods\relax }{subsubsection.98.1.1}{}}
\newlabel{cuon:Finances:Bookkeeping:bookkeeping:bookkeepingwindow:setInfo}{{98.1.1}{271}{Methods\relax }{subsubsection.98.1.1}{}}
\newlabel{cuon:Finances:Bookkeeping:bookkeeping:bookkeepingwindow:on_eDate_key_press_event}{{98.1.1}{271}{Methods\relax }{subsubsection.98.1.1}{}}
\newlabel{cuon:Finances:Bookkeeping:bookkeeping:bookkeepingwindow:on_eShortKey_changed}{{98.1.1}{271}{Methods\relax }{subsubsection.98.1.1}{}}
\newlabel{cuon:Finances:Bookkeeping:bookkeeping:bookkeepingwindow:on_eShortKey_focus_out_event}{{98.1.1}{271}{Methods\relax }{subsubsection.98.1.1}{}}
\newlabel{cuon:Finances:Bookkeeping:bookkeeping:bookkeepingwindow:on_bSearch_clicked}{{98.1.1}{271}{Methods\relax }{subsubsection.98.1.1}{}}
\newlabel{cuon:Finances:Bookkeeping:bookkeeping:bookkeepingwindow:on_bJournalSearch_clicked}{{98.1.1}{271}{Methods\relax }{subsubsection.98.1.1}{}}
\newlabel{cuon:Finances:Bookkeeping:bookkeeping:bookkeepingwindow:getAccountValues}{{98.1.1}{271}{Methods\relax }{subsubsection.98.1.1}{}}
\newlabel{cuon:Finances:Bookkeeping:bookkeeping:bookkeepingwindow:checkAccountValues}{{98.1.1}{271}{Methods\relax }{subsubsection.98.1.1}{}}
\newlabel{cuon:Finances:Bookkeeping:bookkeeping:bookkeepingwindow:getSqlValues}{{98.1.1}{271}{Methods\relax }{subsubsection.98.1.1}{}}
\newlabel{cuon:Finances:Bookkeeping:bookkeeping:bookkeepingwindow:refreshTree}{{98.1.1}{271}{Methods\relax }{subsubsection.98.1.1}{}}
\newlabel{cuon:Finances:Bookkeeping:bookkeeping:bookkeepingwindow:tabChanged}{{98.1.1}{271}{Methods\relax }{subsubsection.98.1.1}{}}
\@setckpt{cuon.Finances.Bookkeeping.bookkeeping-module}{
\setcounter{page}{274}
\setcounter{equation}{0}
\setcounter{enumi}{0}
\setcounter{enumii}{0}
\setcounter{enumiii}{0}
\setcounter{enumiv}{0}
\setcounter{footnote}{0}
\setcounter{mpfootnote}{0}
\setcounter{part}{0}
\setcounter{section}{98}
\setcounter{subsection}{1}
\setcounter{subsubsection}{1}
\setcounter{paragraph}{0}
\setcounter{subparagraph}{0}
\setcounter{figure}{0}
\setcounter{table}{94}
\setcounter{LT@tables}{94}
\setcounter{LT@chunks}{4}
\setcounter{Item}{0}
\setcounter{Hfootnote}{0}
\setcounter{bookmark@seq@number}{371}
\setcounter{section@level}{3}
}
