\relax 
\gdef \LT@ccxxxvi {\LT@entry 
    {1}{152.92793pt}\LT@entry 
    {1}{258.72162pt}\LT@entry 
    {1}{12.0pt}}
\@writefile{toc}{\contentsline {section}{\numberline {247}Module cuon.Windows.setOfEntries}{608}{section.247}}
\newlabel{cuon:Windows:setOfEntries}{{247}{608}{Module cuon.Windows.setOfEntries\relax }{section.247}{}}
\@writefile{toc}{\contentsline {subsection}{\numberline {247.1}Variables}{608}{subsection.247.1}}
\@writefile{toc}{\contentsline {subsection}{\numberline {247.2}Class setOfEntries}{608}{subsection.247.2}}
\newlabel{cuon:Windows:setOfEntries:setOfEntries}{{247.2}{608}{Class setOfEntries\relax }{subsection.247.2}{}}
\@writefile{toc}{\contentsline {subsubsection}{\numberline {247.2.1}Methods}{608}{subsubsection.247.2.1}}
\newlabel{cuon:Windows:setOfEntries:setOfEntries:__init__}{{247.2.1}{608}{Methods\relax }{subsubsection.247.2.1}{}}
\newlabel{cuon:Windows:setOfEntries:setOfEntries:setXml}{{247.2.1}{608}{Methods\relax }{subsubsection.247.2.1}{}}
\newlabel{cuon:Windows:setOfEntries:setOfEntries:setName}{{247.2.1}{608}{Methods\relax }{subsubsection.247.2.1}{}}
\newlabel{cuon:Windows:setOfEntries:setOfEntries:getName}{{247.2.1}{608}{Methods\relax }{subsubsection.247.2.1}{}}
\newlabel{cuon:Windows:setOfEntries:setOfEntries:addEntry}{{247.2.1}{608}{Methods\relax }{subsubsection.247.2.1}{}}
\newlabel{cuon:Windows:setOfEntries:setOfEntries:getEntryAtIndex}{{247.2.1}{608}{Methods\relax }{subsubsection.247.2.1}{}}
\newlabel{cuon:Windows:setOfEntries:setOfEntries:getCountOfEntries}{{247.2.1}{608}{Methods\relax }{subsubsection.247.2.1}{}}
\newlabel{cuon:Windows:setOfEntries:setOfEntries:getEntryByName}{{247.2.1}{608}{Methods\relax }{subsubsection.247.2.1}{}}
\@setckpt{cuon.Windows.setOfEntries-module}{
\setcounter{page}{609}
\setcounter{equation}{0}
\setcounter{enumi}{1}
\setcounter{enumii}{0}
\setcounter{enumiii}{0}
\setcounter{enumiv}{0}
\setcounter{footnote}{0}
\setcounter{mpfootnote}{0}
\setcounter{part}{0}
\setcounter{section}{247}
\setcounter{subsection}{2}
\setcounter{subsubsection}{1}
\setcounter{paragraph}{0}
\setcounter{subparagraph}{0}
\setcounter{figure}{0}
\setcounter{table}{236}
\setcounter{LT@tables}{236}
\setcounter{LT@chunks}{4}
\setcounter{Item}{1}
\setcounter{Hfootnote}{0}
\setcounter{bookmark@seq@number}{932}
\setcounter{section@level}{3}
}
