\relax 
\gdef \LT@clxxiv {\LT@entry 
    {1}{152.92793pt}\LT@entry 
    {1}{258.72162pt}\LT@entry 
    {1}{12.0pt}}
\@writefile{toc}{\contentsline {section}{\numberline {183}Module cuon.Project.SingleProjectProgramming}{465}{section.183}}
\newlabel{cuon:Project:SingleProjectProgramming}{{183}{465}{Module cuon.Project.SingleProjectProgramming\relax }{section.183}{}}
\@writefile{toc}{\contentsline {subsection}{\numberline {183.1}Variables}{465}{subsection.183.1}}
\@writefile{toc}{\contentsline {subsection}{\numberline {183.2}Class SingleProjectProgramming}{465}{subsection.183.2}}
\newlabel{cuon:Project:SingleProjectProgramming:SingleProjectProgramming}{{183.2}{465}{Class SingleProjectProgramming\relax }{subsection.183.2}{}}
\@writefile{toc}{\contentsline {subsubsection}{\numberline {183.2.1}Methods}{465}{subsubsection.183.2.1}}
\@setckpt{cuon.Project.SingleProjectProgramming-module}{
\setcounter{page}{467}
\setcounter{equation}{0}
\setcounter{enumi}{0}
\setcounter{enumii}{0}
\setcounter{enumiii}{0}
\setcounter{enumiv}{0}
\setcounter{footnote}{0}
\setcounter{mpfootnote}{0}
\setcounter{part}{0}
\setcounter{section}{183}
\setcounter{subsection}{2}
\setcounter{subsubsection}{1}
\setcounter{paragraph}{0}
\setcounter{subparagraph}{0}
\setcounter{figure}{0}
\setcounter{table}{174}
\setcounter{LT@tables}{174}
\setcounter{LT@chunks}{4}
\setcounter{Item}{0}
\setcounter{Hfootnote}{0}
\setcounter{bookmark@seq@number}{694}
\setcounter{section@level}{3}
}
