\relax 
\gdef \LT@lv {\LT@entry 
    {1}{152.92793pt}\LT@entry 
    {1}{258.72162pt}\LT@entry 
    {1}{12.0pt}}
\@writefile{toc}{\contentsline {section}{\numberline {58}Module cuon.Clients.SingleClient}{171}{section.58}}
\newlabel{cuon:Clients:SingleClient}{{58}{171}{Module cuon.Clients.SingleClient\relax }{section.58}{}}
\@writefile{toc}{\contentsline {subsection}{\numberline {58.1}Variables}{171}{subsection.58.1}}
\@writefile{toc}{\contentsline {subsection}{\numberline {58.2}Class SingleClient}{171}{subsection.58.2}}
\newlabel{cuon:Clients:SingleClient:SingleClient}{{58.2}{171}{Class SingleClient\relax }{subsection.58.2}{}}
\@writefile{toc}{\contentsline {subsubsection}{\numberline {58.2.1}Methods}{171}{subsubsection.58.2.1}}
\newlabel{cuon:Clients:SingleClient:SingleClient:getAddress}{{58.2.1}{171}{Methods\relax }{subsubsection.58.2.1}{}}
\newlabel{cuon:Clients:SingleClient:SingleClient:getName}{{58.2.1}{171}{Methods\relax }{subsubsection.58.2.1}{}}
\@setckpt{cuon.Clients.SingleClient-module}{
\setcounter{page}{173}
\setcounter{equation}{0}
\setcounter{enumi}{0}
\setcounter{enumii}{0}
\setcounter{enumiii}{0}
\setcounter{enumiv}{0}
\setcounter{footnote}{0}
\setcounter{mpfootnote}{0}
\setcounter{part}{0}
\setcounter{section}{58}
\setcounter{subsection}{2}
\setcounter{subsubsection}{1}
\setcounter{paragraph}{0}
\setcounter{subparagraph}{0}
\setcounter{figure}{0}
\setcounter{table}{55}
\setcounter{LT@tables}{55}
\setcounter{LT@chunks}{4}
\setcounter{Item}{0}
\setcounter{Hfootnote}{0}
\setcounter{bookmark@seq@number}{220}
\setcounter{section@level}{3}
}
