\relax 
\gdef \LT@cli {\LT@entry 
    {1}{152.92793pt}\LT@entry 
    {1}{258.72162pt}\LT@entry 
    {1}{12.0pt}}
\@writefile{toc}{\contentsline {section}{\numberline {160}Module cuon.Order.SingleOrder}{413}{section.160}}
\newlabel{cuon:Order:SingleOrder}{{160}{413}{Module cuon.Order.SingleOrder\relax }{section.160}{}}
\@writefile{toc}{\contentsline {subsection}{\numberline {160.1}Variables}{413}{subsection.160.1}}
\@writefile{toc}{\contentsline {subsection}{\numberline {160.2}Class SingleOrder}{413}{subsection.160.2}}
\newlabel{cuon:Order:SingleOrder:SingleOrder}{{160.2}{413}{Class SingleOrder\relax }{subsection.160.2}{}}
\@writefile{toc}{\contentsline {subsubsection}{\numberline {160.2.1}Methods}{413}{subsubsection.160.2.1}}
\newlabel{cuon:Order:SingleOrder:SingleOrder:getInvoiceNumber}{{160.2.1}{413}{Methods\relax }{subsubsection.160.2.1}{}}
\newlabel{cuon:Order:SingleOrder:SingleOrder:getProposalNumber}{{160.2.1}{413}{Methods\relax }{subsubsection.160.2.1}{}}
\newlabel{cuon:Order:SingleOrder:SingleOrder:getSupplyNumber}{{160.2.1}{413}{Methods\relax }{subsubsection.160.2.1}{}}
\newlabel{cuon:Order:SingleOrder:SingleOrder:getPickupNumber}{{160.2.1}{413}{Methods\relax }{subsubsection.160.2.1}{}}
\newlabel{cuon:Order:SingleOrder:SingleOrder:getOrderNumber}{{160.2.1}{413}{Methods\relax }{subsubsection.160.2.1}{}}
\@setckpt{cuon.Order.SingleOrder-module}{
\setcounter{page}{416}
\setcounter{equation}{0}
\setcounter{enumi}{0}
\setcounter{enumii}{0}
\setcounter{enumiii}{0}
\setcounter{enumiv}{0}
\setcounter{footnote}{0}
\setcounter{mpfootnote}{0}
\setcounter{part}{0}
\setcounter{section}{160}
\setcounter{subsection}{2}
\setcounter{subsubsection}{1}
\setcounter{paragraph}{0}
\setcounter{subparagraph}{0}
\setcounter{figure}{0}
\setcounter{table}{151}
\setcounter{LT@tables}{151}
\setcounter{LT@chunks}{4}
\setcounter{Item}{0}
\setcounter{Hfootnote}{0}
\setcounter{bookmark@seq@number}{605}
\setcounter{section@level}{3}
}
