\relax 
\gdef \LT@ccxxx {\LT@entry 
    {1}{152.92793pt}\LT@entry 
    {1}{258.72162pt}\LT@entry 
    {1}{12.0pt}}
\@writefile{toc}{\contentsline {section}{\numberline {240}Module cuon.WebShop.webshop}{592}{section.240}}
\newlabel{cuon:WebShop:webshop}{{240}{592}{Module cuon.WebShop.webshop\relax }{section.240}{}}
\@writefile{toc}{\contentsline {subsection}{\numberline {240.1}Variables}{592}{subsection.240.1}}
\@writefile{toc}{\contentsline {subsection}{\numberline {240.2}Class webshopwindow}{592}{subsection.240.2}}
\newlabel{cuon:WebShop:webshop:webshopwindow}{{240.2}{592}{Class webshopwindow\relax }{subsection.240.2}{}}
\@writefile{toc}{\contentsline {subsubsection}{\numberline {240.2.1}Methods}{592}{subsubsection.240.2.1}}
\newlabel{cuon:WebShop:webshop:webshopwindow:on_choosePrinter1_activate}{{240.2.1}{592}{Methods\relax }{subsubsection.240.2.1}{}}
\newlabel{cuon:WebShop:webshop:webshopwindow:on_UpdateAddresses1_activate}{{240.2.1}{592}{Methods\relax }{subsubsection.240.2.1}{}}
\newlabel{cuon:WebShop:webshop:webshopwindow:updateAddress}{{240.2.1}{593}{Methods\relax }{subsubsection.240.2.1}{}}
\@setckpt{cuon.WebShop.webshop-module}{
\setcounter{page}{595}
\setcounter{equation}{0}
\setcounter{enumi}{1}
\setcounter{enumii}{0}
\setcounter{enumiii}{0}
\setcounter{enumiv}{0}
\setcounter{footnote}{0}
\setcounter{mpfootnote}{0}
\setcounter{part}{0}
\setcounter{section}{240}
\setcounter{subsection}{2}
\setcounter{subsubsection}{1}
\setcounter{paragraph}{0}
\setcounter{subparagraph}{0}
\setcounter{figure}{0}
\setcounter{table}{230}
\setcounter{LT@tables}{230}
\setcounter{LT@chunks}{4}
\setcounter{Item}{1}
\setcounter{Hfootnote}{0}
\setcounter{bookmark@seq@number}{906}
\setcounter{section@level}{3}
}
