\relax 
\gdef \LT@cxxxi {\LT@entry 
    {1}{152.92793pt}\LT@entry 
    {1}{258.72162pt}\LT@entry 
    {1}{12.0pt}}
\@writefile{toc}{\contentsline {section}{\numberline {136}Module cuon.Graves.address\_graves}{362}{section.136}}
\newlabel{cuon:Graves:address_graves}{{136}{362}{Module cuon.Graves.address\_graves\relax }{section.136}{}}
\@writefile{toc}{\contentsline {subsection}{\numberline {136.1}Variables}{362}{subsection.136.1}}
\@writefile{toc}{\contentsline {subsection}{\numberline {136.2}Class address\_graves}{362}{subsection.136.2}}
\newlabel{cuon:Graves:address_graves:address_graves}{{136.2}{362}{Class address\_graves\relax }{subsection.136.2}{}}
\@writefile{toc}{\contentsline {subsubsection}{\numberline {136.2.1}Methods}{362}{subsubsection.136.2.1}}
\newlabel{cuon:Graves:address_graves:address_graves:setTree}{{136.2.1}{362}{Methods\relax }{subsubsection.136.2.1}{}}
\newlabel{cuon:Graves:address_graves:address_graves:disconnectTree}{{136.2.1}{362}{Methods\relax }{subsubsection.136.2.1}{}}
\newlabel{cuon:Graves:address_graves:address_graves:connectTree}{{136.2.1}{362}{Methods\relax }{subsubsection.136.2.1}{}}
\newlabel{cuon:Graves:address_graves:address_graves:tree_select_callback}{{136.2.1}{362}{Methods\relax }{subsubsection.136.2.1}{}}
\newlabel{cuon:Graves:address_graves:address_graves:on_tree_row_activated}{{136.2.1}{362}{Methods\relax }{subsubsection.136.2.1}{}}
\newlabel{cuon:Graves:address_graves:address_graves:fillAddressGraves}{{136.2.1}{362}{Methods\relax }{subsubsection.136.2.1}{}}
\@setckpt{cuon.Graves.address_graves-module}{
\setcounter{page}{364}
\setcounter{equation}{0}
\setcounter{enumi}{0}
\setcounter{enumii}{0}
\setcounter{enumiii}{0}
\setcounter{enumiv}{0}
\setcounter{footnote}{0}
\setcounter{mpfootnote}{0}
\setcounter{part}{0}
\setcounter{section}{136}
\setcounter{subsection}{2}
\setcounter{subsubsection}{1}
\setcounter{paragraph}{0}
\setcounter{subparagraph}{0}
\setcounter{figure}{0}
\setcounter{table}{131}
\setcounter{LT@tables}{131}
\setcounter{LT@chunks}{4}
\setcounter{Item}{0}
\setcounter{Hfootnote}{0}
\setcounter{bookmark@seq@number}{518}
\setcounter{section@level}{3}
}
