\relax 
\gdef \LT@ccxxviii {\LT@entry 
    {1}{152.92793pt}\LT@entry 
    {1}{258.72162pt}\LT@entry 
    {1}{12.0pt}}
\@writefile{toc}{\contentsline {section}{\numberline {238}Package cuon.WebShop}{589}{section.238}}
\newlabel{cuon:WebShop}{{238}{589}{Package cuon.WebShop\relax }{section.238}{}}
\@writefile{toc}{\contentsline {subsection}{\numberline {238.1}Modules}{589}{subsection.238.1}}
\@writefile{toc}{\contentsline {subsection}{\numberline {238.2}Variables}{589}{subsection.238.2}}
\@setckpt{cuon.WebShop-module}{
\setcounter{page}{590}
\setcounter{equation}{0}
\setcounter{enumi}{1}
\setcounter{enumii}{0}
\setcounter{enumiii}{0}
\setcounter{enumiv}{0}
\setcounter{footnote}{0}
\setcounter{mpfootnote}{0}
\setcounter{part}{0}
\setcounter{section}{238}
\setcounter{subsection}{2}
\setcounter{subsubsection}{0}
\setcounter{paragraph}{0}
\setcounter{subparagraph}{0}
\setcounter{figure}{0}
\setcounter{table}{228}
\setcounter{LT@tables}{228}
\setcounter{LT@chunks}{4}
\setcounter{Item}{1}
\setcounter{Hfootnote}{0}
\setcounter{bookmark@seq@number}{898}
\setcounter{section@level}{2}
}
