\relax 
\gdef \LT@xciii {\LT@entry 
    {1}{152.92793pt}\LT@entry 
    {1}{258.72162pt}\LT@entry 
    {1}{12.0pt}}
\@writefile{toc}{\contentsline {section}{\numberline {96}Package cuon.Finances}{268}{section.96}}
\newlabel{cuon:Finances}{{96}{268}{Package cuon.Finances\relax }{section.96}{}}
\@writefile{toc}{\contentsline {subsection}{\numberline {96.1}Modules}{268}{subsection.96.1}}
\@writefile{toc}{\contentsline {subsection}{\numberline {96.2}Variables}{268}{subsection.96.2}}
\@setckpt{cuon.Finances-module}{
\setcounter{page}{269}
\setcounter{equation}{0}
\setcounter{enumi}{0}
\setcounter{enumii}{0}
\setcounter{enumiii}{0}
\setcounter{enumiv}{0}
\setcounter{footnote}{0}
\setcounter{mpfootnote}{0}
\setcounter{part}{0}
\setcounter{section}{96}
\setcounter{subsection}{2}
\setcounter{subsubsection}{0}
\setcounter{paragraph}{0}
\setcounter{subparagraph}{0}
\setcounter{figure}{0}
\setcounter{table}{93}
\setcounter{LT@tables}{93}
\setcounter{LT@chunks}{4}
\setcounter{Item}{0}
\setcounter{Hfootnote}{0}
\setcounter{bookmark@seq@number}{365}
\setcounter{section@level}{2}
}
