\relax 
\gdef \LT@v {\LT@entry 
    {1}{152.92793pt}\LT@entry 
    {1}{258.72162pt}\LT@entry 
    {1}{12.0pt}}
\@writefile{toc}{\contentsline {section}{\numberline {5}Module cuon.AI.ai\_main}{46}{section.5}}
\newlabel{cuon:AI:ai_main}{{5}{46}{Module cuon.AI.ai\_main\relax }{section.5}{}}
\@writefile{toc}{\contentsline {subsection}{\numberline {5.1}Variables}{46}{subsection.5.1}}
\@writefile{toc}{\contentsline {subsection}{\numberline {5.2}Class ai\_main}{46}{subsection.5.2}}
\newlabel{cuon:AI:ai_main:ai_main}{{5.2}{46}{Class ai\_main\relax }{subsection.5.2}{}}
\@writefile{toc}{\contentsline {subsubsection}{\numberline {5.2.1}Methods}{46}{subsubsection.5.2.1}}
\newlabel{cuon:AI:ai_main:ai_main:__init__}{{5.2.1}{46}{Methods\relax }{subsubsection.5.2.1}{}}
\newlabel{cuon:AI:ai_main:ai_main:checkQ}{{5.2.1}{46}{Methods\relax }{subsubsection.5.2.1}{}}
\@setckpt{cuon.AI.ai_main-module}{
\setcounter{page}{47}
\setcounter{equation}{0}
\setcounter{enumi}{0}
\setcounter{enumii}{0}
\setcounter{enumiii}{0}
\setcounter{enumiv}{0}
\setcounter{footnote}{0}
\setcounter{mpfootnote}{0}
\setcounter{part}{0}
\setcounter{section}{5}
\setcounter{subsection}{2}
\setcounter{subsubsection}{1}
\setcounter{paragraph}{0}
\setcounter{subparagraph}{0}
\setcounter{figure}{0}
\setcounter{table}{5}
\setcounter{LT@tables}{5}
\setcounter{LT@chunks}{4}
\setcounter{Item}{0}
\setcounter{Hfootnote}{0}
\setcounter{bookmark@seq@number}{20}
\setcounter{section@level}{3}
}
