\relax 
\gdef \LT@cxcv {\LT@entry 
    {1}{152.92793pt}\LT@entry 
    {1}{258.72162pt}\LT@entry 
    {1}{12.0pt}}
\@writefile{toc}{\contentsline {section}{\numberline {204}Module cuon.Skeleton.SingleSkeleton}{523}{section.204}}
\newlabel{cuon:Skeleton:SingleSkeleton}{{204}{523}{Module cuon.Skeleton.SingleSkeleton\relax }{section.204}{}}
\@writefile{toc}{\contentsline {subsection}{\numberline {204.1}Variables}{523}{subsection.204.1}}
\@writefile{toc}{\contentsline {subsection}{\numberline {204.2}Class SingleClient}{523}{subsection.204.2}}
\newlabel{cuon:Skeleton:SingleSkeleton:SingleClient}{{204.2}{523}{Class SingleClient\relax }{subsection.204.2}{}}
\@writefile{toc}{\contentsline {subsubsection}{\numberline {204.2.1}Methods}{523}{subsubsection.204.2.1}}
\newlabel{cuon:Skeleton:SingleSkeleton:SingleClient:getAddress}{{204.2.1}{523}{Methods\relax }{subsubsection.204.2.1}{}}
\@setckpt{cuon.Skeleton.SingleSkeleton-module}{
\setcounter{page}{525}
\setcounter{equation}{0}
\setcounter{enumi}{0}
\setcounter{enumii}{0}
\setcounter{enumiii}{0}
\setcounter{enumiv}{0}
\setcounter{footnote}{0}
\setcounter{mpfootnote}{0}
\setcounter{part}{0}
\setcounter{section}{204}
\setcounter{subsection}{2}
\setcounter{subsubsection}{1}
\setcounter{paragraph}{0}
\setcounter{subparagraph}{0}
\setcounter{figure}{0}
\setcounter{table}{195}
\setcounter{LT@tables}{195}
\setcounter{LT@chunks}{4}
\setcounter{Item}{0}
\setcounter{Hfootnote}{0}
\setcounter{bookmark@seq@number}{774}
\setcounter{section@level}{3}
}
