\relax 
\gdef \LT@clxvi {\LT@entry 
    {1}{152.92793pt}\LT@entry 
    {1}{258.72162pt}\LT@entry 
    {1}{12.0pt}}
\@writefile{toc}{\contentsline {section}{\numberline {175}Package cuon.PrefsFinance}{449}{section.175}}
\newlabel{cuon:PrefsFinance}{{175}{449}{Package cuon.PrefsFinance\relax }{section.175}{}}
\@writefile{toc}{\contentsline {subsection}{\numberline {175.1}Modules}{449}{subsection.175.1}}
\@writefile{toc}{\contentsline {subsection}{\numberline {175.2}Variables}{449}{subsection.175.2}}
\@setckpt{cuon.PrefsFinance-module}{
\setcounter{page}{450}
\setcounter{equation}{0}
\setcounter{enumi}{0}
\setcounter{enumii}{0}
\setcounter{enumiii}{0}
\setcounter{enumiv}{0}
\setcounter{footnote}{0}
\setcounter{mpfootnote}{0}
\setcounter{part}{0}
\setcounter{section}{175}
\setcounter{subsection}{2}
\setcounter{subsubsection}{0}
\setcounter{paragraph}{0}
\setcounter{subparagraph}{0}
\setcounter{figure}{0}
\setcounter{table}{166}
\setcounter{LT@tables}{166}
\setcounter{LT@chunks}{4}
\setcounter{Item}{0}
\setcounter{Hfootnote}{0}
\setcounter{bookmark@seq@number}{663}
\setcounter{section@level}{2}
}
