\relax 
\gdef \LT@ccxiv {\LT@entry 
    {1}{152.92793pt}\LT@entry 
    {1}{258.72162pt}\LT@entry 
    {1}{12.0pt}}
\@writefile{toc}{\contentsline {section}{\numberline {223}Module cuon.SupportTicket.supportTicket}{564}{section.223}}
\newlabel{cuon:SupportTicket:supportTicket}{{223}{564}{Module cuon.SupportTicket.supportTicket\relax }{section.223}{}}
\@writefile{toc}{\contentsline {subsection}{\numberline {223.1}Variables}{564}{subsection.223.1}}
\@writefile{toc}{\contentsline {subsection}{\numberline {223.2}Class supportticketwindow}{564}{subsection.223.2}}
\newlabel{cuon:SupportTicket:supportTicket:supportticketwindow}{{223.2}{564}{Class supportticketwindow\relax }{subsection.223.2}{}}
\@writefile{toc}{\contentsline {subsubsection}{\numberline {223.2.1}Methods}{564}{subsubsection.223.2.1}}
\newlabel{cuon:SupportTicket:supportTicket:supportticketwindow:on_quit1_activate}{{223.2.1}{564}{Methods\relax }{subsubsection.223.2.1}{}}
\newlabel{cuon:SupportTicket:supportTicket:supportticketwindow:on_new1_activate}{{223.2.1}{565}{Methods\relax }{subsubsection.223.2.1}{}}
\newlabel{cuon:SupportTicket:supportTicket:supportticketwindow:on_edit1_activate}{{223.2.1}{565}{Methods\relax }{subsubsection.223.2.1}{}}
\newlabel{cuon:SupportTicket:supportTicket:supportticketwindow:on_save1_activate}{{223.2.1}{565}{Methods\relax }{subsubsection.223.2.1}{}}
\newlabel{cuon:SupportTicket:supportTicket:supportticketwindow:on_delete1_activate}{{223.2.1}{565}{Methods\relax }{subsubsection.223.2.1}{}}
\newlabel{cuon:SupportTicket:supportTicket:supportticketwindow:on_ticket_new1_activate}{{223.2.1}{565}{Methods\relax }{subsubsection.223.2.1}{}}
\newlabel{cuon:SupportTicket:supportTicket:supportticketwindow:on_ticket_edit1_activate}{{223.2.1}{565}{Methods\relax }{subsubsection.223.2.1}{}}
\newlabel{cuon:SupportTicket:supportTicket:supportticketwindow:on_ticket_save1_activate}{{223.2.1}{565}{Methods\relax }{subsubsection.223.2.1}{}}
\newlabel{cuon:SupportTicket:supportTicket:supportticketwindow:on_ticket_delete1_activate}{{223.2.1}{565}{Methods\relax }{subsubsection.223.2.1}{}}
\newlabel{cuon:SupportTicket:supportTicket:supportticketwindow:on_dms1_activate}{{223.2.1}{565}{Methods\relax }{subsubsection.223.2.1}{}}
\newlabel{cuon:SupportTicket:supportTicket:supportticketwindow:on_tbNew_clicked}{{223.2.1}{565}{Methods\relax }{subsubsection.223.2.1}{}}
\newlabel{cuon:SupportTicket:supportTicket:supportticketwindow:on_tbEdit_clicked}{{223.2.1}{565}{Methods\relax }{subsubsection.223.2.1}{}}
\newlabel{cuon:SupportTicket:supportTicket:supportticketwindow:on_tbSave_clicked}{{223.2.1}{565}{Methods\relax }{subsubsection.223.2.1}{}}
\newlabel{cuon:SupportTicket:supportTicket:supportticketwindow:on_tbRemove_clicked}{{223.2.1}{565}{Methods\relax }{subsubsection.223.2.1}{}}
\newlabel{cuon:SupportTicket:supportTicket:supportticketwindow:on_bSearchProject_clicked}{{223.2.1}{565}{Methods\relax }{subsubsection.223.2.1}{}}
\newlabel{cuon:SupportTicket:supportTicket:supportticketwindow:on_eProjectPhaseID_changed}{{223.2.1}{565}{Methods\relax }{subsubsection.223.2.1}{}}
\newlabel{cuon:SupportTicket:supportTicket:supportticketwindow:on_bSearchAddress_clicked}{{223.2.1}{565}{Methods\relax }{subsubsection.223.2.1}{}}
\newlabel{cuon:SupportTicket:supportTicket:supportticketwindow:on_eAddressNumber_changed}{{223.2.1}{565}{Methods\relax }{subsubsection.223.2.1}{}}
\newlabel{cuon:SupportTicket:supportTicket:supportticketwindow:on_bGotoAddress_clicked}{{223.2.1}{565}{Methods\relax }{subsubsection.223.2.1}{}}
\newlabel{cuon:SupportTicket:supportTicket:supportticketwindow:on_bSearchPartner_clicked}{{223.2.1}{565}{Methods\relax }{subsubsection.223.2.1}{}}
\newlabel{cuon:SupportTicket:supportTicket:supportticketwindow:on_ePartnerID_changed}{{223.2.1}{565}{Methods\relax }{subsubsection.223.2.1}{}}
\newlabel{cuon:SupportTicket:supportTicket:supportticketwindow:on_bGotoPartner_clicked}{{223.2.1}{566}{Methods\relax }{subsubsection.223.2.1}{}}
\newlabel{cuon:SupportTicket:supportTicket:supportticketwindow:on_tbDMS_clicked}{{223.2.1}{566}{Methods\relax }{subsubsection.223.2.1}{}}
\newlabel{cuon:SupportTicket:supportTicket:supportticketwindow:refreshTree}{{223.2.1}{566}{Methods\relax }{subsubsection.223.2.1}{}}
\newlabel{cuon:SupportTicket:supportTicket:supportticketwindow:tabChanged}{{223.2.1}{566}{Methods\relax }{subsubsection.223.2.1}{}}
\@setckpt{cuon.SupportTicket.supportTicket-module}{
\setcounter{page}{568}
\setcounter{equation}{0}
\setcounter{enumi}{0}
\setcounter{enumii}{0}
\setcounter{enumiii}{0}
\setcounter{enumiv}{0}
\setcounter{footnote}{0}
\setcounter{mpfootnote}{0}
\setcounter{part}{0}
\setcounter{section}{223}
\setcounter{subsection}{2}
\setcounter{subsubsection}{1}
\setcounter{paragraph}{0}
\setcounter{subparagraph}{0}
\setcounter{figure}{0}
\setcounter{table}{214}
\setcounter{LT@tables}{214}
\setcounter{LT@chunks}{4}
\setcounter{Item}{0}
\setcounter{Hfootnote}{0}
\setcounter{bookmark@seq@number}{846}
\setcounter{section@level}{3}
}
