\relax 
\gdef \LT@ccxviii {\LT@entry 
    {1}{152.92793pt}\LT@entry 
    {1}{258.72162pt}\LT@entry 
    {1}{12.0pt}}
\@writefile{toc}{\contentsline {section}{\numberline {227}Module cuon.Think.think}{573}{section.227}}
\newlabel{cuon:Think:think}{{227}{573}{Module cuon.Think.think\relax }{section.227}{}}
\@writefile{toc}{\contentsline {subsection}{\numberline {227.1}Variables}{573}{subsection.227.1}}
\@writefile{toc}{\contentsline {subsection}{\numberline {227.2}Class thinkwindow}{573}{subsection.227.2}}
\newlabel{cuon:Think:think:thinkwindow}{{227.2}{573}{Class thinkwindow\relax }{subsection.227.2}{}}
\@writefile{toc}{\contentsline {subsubsection}{\numberline {227.2.1}Methods}{573}{subsubsection.227.2.1}}
\newlabel{cuon:Think:think:thinkwindow:on_quit1_activate}{{227.2.1}{573}{Methods\relax }{subsubsection.227.2.1}{}}
\newlabel{cuon:Think:think:thinkwindow:on_new1_activate}{{227.2.1}{573}{Methods\relax }{subsubsection.227.2.1}{}}
\newlabel{cuon:Think:think:thinkwindow:on_edit1_activate}{{227.2.1}{574}{Methods\relax }{subsubsection.227.2.1}{}}
\newlabel{cuon:Think:think:thinkwindow:on_save1_activate}{{227.2.1}{574}{Methods\relax }{subsubsection.227.2.1}{}}
\newlabel{cuon:Think:think:thinkwindow:on_delete1_activate}{{227.2.1}{574}{Methods\relax }{subsubsection.227.2.1}{}}
\newlabel{cuon:Think:think:thinkwindow:on_dms1_activate}{{227.2.1}{574}{Methods\relax }{subsubsection.227.2.1}{}}
\newlabel{cuon:Think:think:thinkwindow:on_tbNew_clicked}{{227.2.1}{574}{Methods\relax }{subsubsection.227.2.1}{}}
\newlabel{cuon:Think:think:thinkwindow:on_tbEdit_clicked}{{227.2.1}{574}{Methods\relax }{subsubsection.227.2.1}{}}
\newlabel{cuon:Think:think:thinkwindow:on_tbSave_clicked}{{227.2.1}{574}{Methods\relax }{subsubsection.227.2.1}{}}
\newlabel{cuon:Think:think:thinkwindow:on_tbRemove_clicked}{{227.2.1}{574}{Methods\relax }{subsubsection.227.2.1}{}}
\newlabel{cuon:Think:think:thinkwindow:on_tbDMS_clicked}{{227.2.1}{574}{Methods\relax }{subsubsection.227.2.1}{}}
\newlabel{cuon:Think:think:thinkwindow:refreshTree}{{227.2.1}{574}{Methods\relax }{subsubsection.227.2.1}{}}
\newlabel{cuon:Think:think:thinkwindow:tabChanged}{{227.2.1}{574}{Methods\relax }{subsubsection.227.2.1}{}}
\@setckpt{cuon.Think.think-module}{
\setcounter{page}{577}
\setcounter{equation}{0}
\setcounter{enumi}{0}
\setcounter{enumii}{0}
\setcounter{enumiii}{0}
\setcounter{enumiv}{0}
\setcounter{footnote}{0}
\setcounter{mpfootnote}{0}
\setcounter{part}{0}
\setcounter{section}{227}
\setcounter{subsection}{2}
\setcounter{subsubsection}{1}
\setcounter{paragraph}{0}
\setcounter{subparagraph}{0}
\setcounter{figure}{0}
\setcounter{table}{218}
\setcounter{LT@tables}{218}
\setcounter{LT@chunks}{4}
\setcounter{Item}{0}
\setcounter{Hfootnote}{0}
\setcounter{bookmark@seq@number}{861}
\setcounter{section@level}{3}
}
