\relax 
\gdef \LT@cxxv {\LT@entry 
    {1}{152.92793pt}\LT@entry 
    {1}{258.72162pt}\LT@entry 
    {1}{12.0pt}}
\@writefile{toc}{\contentsline {section}{\numberline {130}Module cuon.Graves.SingleGraveSingleevent}{350}{section.130}}
\newlabel{cuon:Graves:SingleGraveSingleevent}{{130}{350}{Module cuon.Graves.SingleGraveSingleevent\relax }{section.130}{}}
\@writefile{toc}{\contentsline {subsection}{\numberline {130.1}Variables}{350}{subsection.130.1}}
\@writefile{toc}{\contentsline {subsection}{\numberline {130.2}Class SingleGraveSingleevent}{350}{subsection.130.2}}
\newlabel{cuon:Graves:SingleGraveSingleevent:SingleGraveSingleevent}{{130.2}{350}{Class SingleGraveSingleevent\relax }{subsection.130.2}{}}
\@writefile{toc}{\contentsline {subsubsection}{\numberline {130.2.1}Methods}{350}{subsubsection.130.2.1}}
\@setckpt{cuon.Graves.SingleGraveSingleevent-module}{
\setcounter{page}{352}
\setcounter{equation}{0}
\setcounter{enumi}{0}
\setcounter{enumii}{0}
\setcounter{enumiii}{0}
\setcounter{enumiv}{0}
\setcounter{footnote}{0}
\setcounter{mpfootnote}{0}
\setcounter{part}{0}
\setcounter{section}{130}
\setcounter{subsection}{2}
\setcounter{subsubsection}{1}
\setcounter{paragraph}{0}
\setcounter{subparagraph}{0}
\setcounter{figure}{0}
\setcounter{table}{125}
\setcounter{LT@tables}{125}
\setcounter{LT@chunks}{4}
\setcounter{Item}{0}
\setcounter{Hfootnote}{0}
\setcounter{bookmark@seq@number}{494}
\setcounter{section@level}{3}
}
