\relax 
\gdef \LT@iii {\LT@entry 
    {1}{152.92793pt}\LT@entry 
    {1}{258.72162pt}\LT@entry 
    {1}{12.0pt}}
\@writefile{toc}{\contentsline {section}{\numberline {3}Package cuon.AI}{42}{section.3}}
\newlabel{cuon:AI}{{3}{42}{Package cuon.AI\relax }{section.3}{}}
\@writefile{toc}{\contentsline {subsection}{\numberline {3.1}Modules}{42}{subsection.3.1}}
\@writefile{toc}{\contentsline {subsection}{\numberline {3.2}Variables}{42}{subsection.3.2}}
\@setckpt{cuon.AI-module}{
\setcounter{page}{43}
\setcounter{equation}{0}
\setcounter{enumi}{0}
\setcounter{enumii}{0}
\setcounter{enumiii}{0}
\setcounter{enumiv}{0}
\setcounter{footnote}{0}
\setcounter{mpfootnote}{0}
\setcounter{part}{0}
\setcounter{section}{3}
\setcounter{subsection}{2}
\setcounter{subsubsection}{0}
\setcounter{paragraph}{0}
\setcounter{subparagraph}{0}
\setcounter{figure}{0}
\setcounter{table}{3}
\setcounter{LT@tables}{3}
\setcounter{LT@chunks}{4}
\setcounter{Item}{0}
\setcounter{Hfootnote}{0}
\setcounter{bookmark@seq@number}{12}
\setcounter{section@level}{2}
}
