\relax 
\gdef \LT@cciii {\LT@entry 
    {1}{152.92793pt}\LT@entry 
    {1}{258.72162pt}\LT@entry 
    {1}{12.0pt}}
\@writefile{toc}{\contentsline {section}{\numberline {212}Module cuon.Staff.staff}{540}{section.212}}
\newlabel{cuon:Staff:staff}{{212}{540}{Module cuon.Staff.staff\relax }{section.212}{}}
\@writefile{toc}{\contentsline {subsection}{\numberline {212.1}Variables}{540}{subsection.212.1}}
\@writefile{toc}{\contentsline {subsection}{\numberline {212.2}Class staffwindow}{540}{subsection.212.2}}
\newlabel{cuon:Staff:staff:staffwindow}{{212.2}{540}{Class staffwindow\relax }{subsection.212.2}{}}
\@writefile{toc}{\contentsline {subsubsection}{\numberline {212.2.1}Methods}{540}{subsubsection.212.2.1}}
\newlabel{cuon:Staff:staff:staffwindow:on_quit1_activate}{{212.2.1}{540}{Methods\relax }{subsubsection.212.2.1}{}}
\newlabel{cuon:Staff:staff:staffwindow:on_save1_activate}{{212.2.1}{541}{Methods\relax }{subsubsection.212.2.1}{}}
\newlabel{cuon:Staff:staff:staffwindow:on_new1_activate}{{212.2.1}{541}{Methods\relax }{subsubsection.212.2.1}{}}
\newlabel{cuon:Staff:staff:staffwindow:on_edit1_activate}{{212.2.1}{541}{Methods\relax }{subsubsection.212.2.1}{}}
\newlabel{cuon:Staff:staff:staffwindow:on_clear1_activate}{{212.2.1}{541}{Methods\relax }{subsubsection.212.2.1}{}}
\newlabel{cuon:Staff:staff:staffwindow:on_fee_save1_activate}{{212.2.1}{541}{Methods\relax }{subsubsection.212.2.1}{}}
\newlabel{cuon:Staff:staff:staffwindow:on_fee_new1_activate}{{212.2.1}{541}{Methods\relax }{subsubsection.212.2.1}{}}
\newlabel{cuon:Staff:staff:staffwindow:on_fee_edit1_activate}{{212.2.1}{541}{Methods\relax }{subsubsection.212.2.1}{}}
\newlabel{cuon:Staff:staff:staffwindow:on_fee_clear1_activate}{{212.2.1}{541}{Methods\relax }{subsubsection.212.2.1}{}}
\newlabel{cuon:Staff:staff:staffwindow:on_misc_save1_activate}{{212.2.1}{541}{Methods\relax }{subsubsection.212.2.1}{}}
\newlabel{cuon:Staff:staff:staffwindow:on_misc_new1_activate}{{212.2.1}{541}{Methods\relax }{subsubsection.212.2.1}{}}
\newlabel{cuon:Staff:staff:staffwindow:on_misc_edit1_activate}{{212.2.1}{541}{Methods\relax }{subsubsection.212.2.1}{}}
\newlabel{cuon:Staff:staff:staffwindow:on_misc_delete1_activate}{{212.2.1}{541}{Methods\relax }{subsubsection.212.2.1}{}}
\newlabel{cuon:Staff:staff:staffwindow:on_vacation_save1_activate}{{212.2.1}{541}{Methods\relax }{subsubsection.212.2.1}{}}
\newlabel{cuon:Staff:staff:staffwindow:on_vacation_new1_activate}{{212.2.1}{541}{Methods\relax }{subsubsection.212.2.1}{}}
\newlabel{cuon:Staff:staff:staffwindow:on_vacation_edit1_activate}{{212.2.1}{541}{Methods\relax }{subsubsection.212.2.1}{}}
\newlabel{cuon:Staff:staff:staffwindow:on_vacation_delete1_activate}{{212.2.1}{541}{Methods\relax }{subsubsection.212.2.1}{}}
\newlabel{cuon:Staff:staff:staffwindow:on_disease_save1_activate}{{212.2.1}{541}{Methods\relax }{subsubsection.212.2.1}{}}
\newlabel{cuon:Staff:staff:staffwindow:on_disease_new1_activate}{{212.2.1}{541}{Methods\relax }{subsubsection.212.2.1}{}}
\newlabel{cuon:Staff:staff:staffwindow:on_disease_edit1_activate}{{212.2.1}{541}{Methods\relax }{subsubsection.212.2.1}{}}
\newlabel{cuon:Staff:staff:staffwindow:on_disease_delete1_activate}{{212.2.1}{541}{Methods\relax }{subsubsection.212.2.1}{}}
\newlabel{cuon:Staff:staff:staffwindow:on_chooseStaff_activate}{{212.2.1}{542}{Methods\relax }{subsubsection.212.2.1}{}}
\newlabel{cuon:Staff:staff:staffwindow:on_bSearch_clicked}{{212.2.1}{542}{Methods\relax }{subsubsection.212.2.1}{}}
\newlabel{cuon:Staff:staff:staffwindow:on_eFindNumber_editing_done}{{212.2.1}{542}{Methods\relax }{subsubsection.212.2.1}{}}
\newlabel{cuon:Staff:staff:staffwindow:on_eFindNumber_key_press_event}{{212.2.1}{542}{Methods\relax }{subsubsection.212.2.1}{}}
\newlabel{cuon:Staff:staff:staffwindow:on_eFindDesignation_editing_done}{{212.2.1}{542}{Methods\relax }{subsubsection.212.2.1}{}}
\newlabel{cuon:Staff:staff:staffwindow:on_eFindDesignation_key_press_event}{{212.2.1}{542}{Methods\relax }{subsubsection.212.2.1}{}}
\newlabel{cuon:Staff:staff:staffwindow:on_tree1_row_activated}{{212.2.1}{542}{Methods\relax }{subsubsection.212.2.1}{}}
\newlabel{cuon:Staff:staff:staffwindow:searchStaff}{{212.2.1}{542}{Methods\relax }{subsubsection.212.2.1}{}}
\newlabel{cuon:Staff:staff:staffwindow:on_bShowStaffDMS_clicked}{{212.2.1}{542}{Methods\relax }{subsubsection.212.2.1}{}}
\newlabel{cuon:Staff:staff:staffwindow:refreshTree}{{212.2.1}{542}{Methods\relax }{subsubsection.212.2.1}{}}
\newlabel{cuon:Staff:staff:staffwindow:tabChanged}{{212.2.1}{542}{Methods\relax }{subsubsection.212.2.1}{}}
\@setckpt{cuon.Staff.staff-module}{
\setcounter{page}{545}
\setcounter{equation}{0}
\setcounter{enumi}{0}
\setcounter{enumii}{0}
\setcounter{enumiii}{0}
\setcounter{enumiv}{0}
\setcounter{footnote}{0}
\setcounter{mpfootnote}{0}
\setcounter{part}{0}
\setcounter{section}{212}
\setcounter{subsection}{2}
\setcounter{subsubsection}{1}
\setcounter{paragraph}{0}
\setcounter{subparagraph}{0}
\setcounter{figure}{0}
\setcounter{table}{203}
\setcounter{LT@tables}{203}
\setcounter{LT@chunks}{4}
\setcounter{Item}{0}
\setcounter{Hfootnote}{0}
\setcounter{bookmark@seq@number}{805}
\setcounter{section@level}{3}
}
