\relax 
\gdef \LT@ccxvi {\LT@entry 
    {1}{152.92793pt}\LT@entry 
    {1}{258.72162pt}\LT@entry 
    {1}{12.0pt}}
\@writefile{toc}{\contentsline {section}{\numberline {225}Module cuon.Think.SingleMindmap}{569}{section.225}}
\newlabel{cuon:Think:SingleMindmap}{{225}{569}{Module cuon.Think.SingleMindmap\relax }{section.225}{}}
\@writefile{toc}{\contentsline {subsection}{\numberline {225.1}Variables}{569}{subsection.225.1}}
\@writefile{toc}{\contentsline {subsection}{\numberline {225.2}Class SingleMindmap}{569}{subsection.225.2}}
\newlabel{cuon:Think:SingleMindmap:SingleMindmap}{{225.2}{569}{Class SingleMindmap\relax }{subsection.225.2}{}}
\@writefile{toc}{\contentsline {subsubsection}{\numberline {225.2.1}Methods}{569}{subsubsection.225.2.1}}
\@setckpt{cuon.Think.SingleMindmap-module}{
\setcounter{page}{571}
\setcounter{equation}{0}
\setcounter{enumi}{0}
\setcounter{enumii}{0}
\setcounter{enumiii}{0}
\setcounter{enumiv}{0}
\setcounter{footnote}{0}
\setcounter{mpfootnote}{0}
\setcounter{part}{0}
\setcounter{section}{225}
\setcounter{subsection}{2}
\setcounter{subsubsection}{1}
\setcounter{paragraph}{0}
\setcounter{subparagraph}{0}
\setcounter{figure}{0}
\setcounter{table}{216}
\setcounter{LT@tables}{216}
\setcounter{LT@chunks}{4}
\setcounter{Item}{0}
\setcounter{Hfootnote}{0}
\setcounter{bookmark@seq@number}{853}
\setcounter{section@level}{3}
}
