\relax 
\gdef \LT@clxxvii {\LT@entry 
    {1}{152.92793pt}\LT@entry 
    {1}{258.72162pt}\LT@entry 
    {1}{12.0pt}}
\@writefile{toc}{\contentsline {section}{\numberline {186}Module cuon.Project.project}{471}{section.186}}
\newlabel{cuon:Project:project}{{186}{471}{Module cuon.Project.project\relax }{section.186}{}}
\@writefile{toc}{\contentsline {subsection}{\numberline {186.1}Variables}{471}{subsection.186.1}}
\@writefile{toc}{\contentsline {subsection}{\numberline {186.2}Class projectwindow}{471}{subsection.186.2}}
\newlabel{cuon:Project:project:projectwindow}{{186.2}{471}{Class projectwindow\relax }{subsection.186.2}{}}
\@writefile{toc}{\contentsline {subsubsection}{\numberline {186.2.1}Methods}{471}{subsubsection.186.2.1}}
\newlabel{cuon:Project:project:projectwindow:on_quit1_activate}{{186.2.1}{471}{Methods\relax }{subsubsection.186.2.1}{}}
\newlabel{cuon:Project:project:projectwindow:on_save1_activate}{{186.2.1}{472}{Methods\relax }{subsubsection.186.2.1}{}}
\newlabel{cuon:Project:project:projectwindow:on_new1_activate}{{186.2.1}{472}{Methods\relax }{subsubsection.186.2.1}{}}
\newlabel{cuon:Project:project:projectwindow:on_edit1_activate}{{186.2.1}{472}{Methods\relax }{subsubsection.186.2.1}{}}
\newlabel{cuon:Project:project:projectwindow:on_delete1_activate}{{186.2.1}{472}{Methods\relax }{subsubsection.186.2.1}{}}
\newlabel{cuon:Project:project:projectwindow:on_phasesave1_activate}{{186.2.1}{472}{Methods\relax }{subsubsection.186.2.1}{}}
\newlabel{cuon:Project:project:projectwindow:on_phasenew1_activate}{{186.2.1}{472}{Methods\relax }{subsubsection.186.2.1}{}}
\newlabel{cuon:Project:project:projectwindow:on_phaseedit1_activate}{{186.2.1}{472}{Methods\relax }{subsubsection.186.2.1}{}}
\newlabel{cuon:Project:project:projectwindow:on_phasedelete1_activate}{{186.2.1}{472}{Methods\relax }{subsubsection.186.2.1}{}}
\newlabel{cuon:Project:project:projectwindow:on_task_save1_activate}{{186.2.1}{472}{Methods\relax }{subsubsection.186.2.1}{}}
\newlabel{cuon:Project:project:projectwindow:on_tasknew1_activate}{{186.2.1}{472}{Methods\relax }{subsubsection.186.2.1}{}}
\newlabel{cuon:Project:project:projectwindow:on_taskedit1_activate}{{186.2.1}{472}{Methods\relax }{subsubsection.186.2.1}{}}
\newlabel{cuon:Project:project:projectwindow:on_task_delete1_activate}{{186.2.1}{472}{Methods\relax }{subsubsection.186.2.1}{}}
\newlabel{cuon:Project:project:projectwindow:on_staff_resources_save1_activate}{{186.2.1}{472}{Methods\relax }{subsubsection.186.2.1}{}}
\newlabel{cuon:Project:project:projectwindow:on_staff_resources_new1_activate}{{186.2.1}{472}{Methods\relax }{subsubsection.186.2.1}{}}
\newlabel{cuon:Project:project:projectwindow:on_staff_resources_edit1_activate}{{186.2.1}{472}{Methods\relax }{subsubsection.186.2.1}{}}
\newlabel{cuon:Project:project:projectwindow:on_staff_resources_delete1_activate}{{186.2.1}{472}{Methods\relax }{subsubsection.186.2.1}{}}
\newlabel{cuon:Project:project:projectwindow:on_material_resources_save1_activate}{{186.2.1}{472}{Methods\relax }{subsubsection.186.2.1}{}}
\newlabel{cuon:Project:project:projectwindow:on_material_resources_new1_activate}{{186.2.1}{472}{Methods\relax }{subsubsection.186.2.1}{}}
\newlabel{cuon:Project:project:projectwindow:on_material_resources_edit1_activate}{{186.2.1}{472}{Methods\relax }{subsubsection.186.2.1}{}}
\newlabel{cuon:Project:project:projectwindow:on_material_resources_delete1_activate}{{186.2.1}{472}{Methods\relax }{subsubsection.186.2.1}{}}
\newlabel{cuon:Project:project:projectwindow:on_programming_main_save_activate}{{186.2.1}{473}{Methods\relax }{subsubsection.186.2.1}{}}
\newlabel{cuon:Project:project:projectwindow:on_programming_main_new_activate}{{186.2.1}{473}{Methods\relax }{subsubsection.186.2.1}{}}
\newlabel{cuon:Project:project:projectwindow:on_programming_main_edit_activate}{{186.2.1}{473}{Methods\relax }{subsubsection.186.2.1}{}}
\newlabel{cuon:Project:project:projectwindow:on_programming_main_delete_activate}{{186.2.1}{473}{Methods\relax }{subsubsection.186.2.1}{}}
\newlabel{cuon:Project:project:projectwindow:on_bShowDMS_clicked}{{186.2.1}{473}{Methods\relax }{subsubsection.186.2.1}{}}
\newlabel{cuon:Project:project:projectwindow:on_chooseProject_activate}{{186.2.1}{473}{Methods\relax }{subsubsection.186.2.1}{}}
\newlabel{cuon:Project:project:projectwindow:on_eFind_key_press_event}{{186.2.1}{473}{Methods\relax }{subsubsection.186.2.1}{}}
\newlabel{cuon:Project:project:projectwindow:on_bSearch_clicked}{{186.2.1}{473}{Methods\relax }{subsubsection.186.2.1}{}}
\newlabel{cuon:Project:project:projectwindow:findProject}{{186.2.1}{473}{Methods\relax }{subsubsection.186.2.1}{}}
\newlabel{cuon:Project:project:projectwindow:on_calendar1_day_selected_double_click}{{186.2.1}{473}{Methods\relax }{subsubsection.186.2.1}{}}
\newlabel{cuon:Project:project:projectwindow:on_calendar2_day_selected_double_click}{{186.2.1}{473}{Methods\relax }{subsubsection.186.2.1}{}}
\newlabel{cuon:Project:project:projectwindow:on_eProjectStartAt_changed}{{186.2.1}{473}{Methods\relax }{subsubsection.186.2.1}{}}
\newlabel{cuon:Project:project:projectwindow:on_eProjectEndsAt_changed}{{186.2.1}{473}{Methods\relax }{subsubsection.186.2.1}{}}
\newlabel{cuon:Project:project:projectwindow:on_bChoose_clicked}{{186.2.1}{473}{Methods\relax }{subsubsection.186.2.1}{}}
\newlabel{cuon:Project:project:projectwindow:on_eAddressNumber_changed}{{186.2.1}{473}{Methods\relax }{subsubsection.186.2.1}{}}
\newlabel{cuon:Project:project:projectwindow:on_bSearchPartner_clicked}{{186.2.1}{473}{Methods\relax }{subsubsection.186.2.1}{}}
\newlabel{cuon:Project:project:projectwindow:on_eProjectPartner_changed}{{186.2.1}{473}{Methods\relax }{subsubsection.186.2.1}{}}
\newlabel{cuon:Project:project:projectwindow:on_PhaseCalendar1_day_selected_double_click}{{186.2.1}{473}{Methods\relax }{subsubsection.186.2.1}{}}
\newlabel{cuon:Project:project:projectwindow:on_PhaseCalendar2_day_selected_double_click}{{186.2.1}{473}{Methods\relax }{subsubsection.186.2.1}{}}
\newlabel{cuon:Project:project:projectwindow:on_ePhaseStartAt_changed}{{186.2.1}{473}{Methods\relax }{subsubsection.186.2.1}{}}
\newlabel{cuon:Project:project:projectwindow:on_ePhaseEndsAt_changed}{{186.2.1}{474}{Methods\relax }{subsubsection.186.2.1}{}}
\newlabel{cuon:Project:project:projectwindow:on_TaskCalendar1_day_selected_double_click}{{186.2.1}{474}{Methods\relax }{subsubsection.186.2.1}{}}
\newlabel{cuon:Project:project:projectwindow:on_TaskCalendar2_day_selected_double_click}{{186.2.1}{474}{Methods\relax }{subsubsection.186.2.1}{}}
\newlabel{cuon:Project:project:projectwindow:on_eTaskStartAt_changed}{{186.2.1}{474}{Methods\relax }{subsubsection.186.2.1}{}}
\newlabel{cuon:Project:project:projectwindow:on_eTaskEndsAt_changed}{{186.2.1}{474}{Methods\relax }{subsubsection.186.2.1}{}}
\newlabel{cuon:Project:project:projectwindow:on_staffCalendar1_day_selected_double_click}{{186.2.1}{474}{Methods\relax }{subsubsection.186.2.1}{}}
\newlabel{cuon:Project:project:projectwindow:on_staffCalendar2_day_selected_double_click}{{186.2.1}{474}{Methods\relax }{subsubsection.186.2.1}{}}
\newlabel{cuon:Project:project:projectwindow:on_eSRPlanedDate_changed}{{186.2.1}{474}{Methods\relax }{subsubsection.186.2.1}{}}
\newlabel{cuon:Project:project:projectwindow:on_eSRRealDate_changed}{{186.2.1}{474}{Methods\relax }{subsubsection.186.2.1}{}}
\newlabel{cuon:Project:project:projectwindow:on_bChooseStaff_clicked}{{186.2.1}{474}{Methods\relax }{subsubsection.186.2.1}{}}
\newlabel{cuon:Project:project:projectwindow:on_eSRStaffNumber_changed}{{186.2.1}{474}{Methods\relax }{subsubsection.186.2.1}{}}
\newlabel{cuon:Project:project:projectwindow:on_bChooseArticle_clicked}{{186.2.1}{474}{Methods\relax }{subsubsection.186.2.1}{}}
\newlabel{cuon:Project:project:projectwindow:on_bProjectDMS_clicked}{{186.2.1}{474}{Methods\relax }{subsubsection.186.2.1}{}}
\newlabel{cuon:Project:project:projectwindow:on_bPhaseDMS_clicked}{{186.2.1}{474}{Methods\relax }{subsubsection.186.2.1}{}}
\newlabel{cuon:Project:project:projectwindow:on_bTaskDMS_clicked}{{186.2.1}{474}{Methods\relax }{subsubsection.186.2.1}{}}
\newlabel{cuon:Project:project:projectwindow:on_bStaffDMS_clicked}{{186.2.1}{474}{Methods\relax }{subsubsection.186.2.1}{}}
\newlabel{cuon:Project:project:projectwindow:on_bMaterialDMS_clicked}{{186.2.1}{474}{Methods\relax }{subsubsection.186.2.1}{}}
\newlabel{cuon:Project:project:projectwindow:on_bProgrammingDMS_clicked}{{186.2.1}{474}{Methods\relax }{subsubsection.186.2.1}{}}
\newlabel{cuon:Project:project:projectwindow:on_eMRArticleNumber_changed}{{186.2.1}{474}{Methods\relax }{subsubsection.186.2.1}{}}
\newlabel{cuon:Project:project:projectwindow:on_bGotoAddress_clicked}{{186.2.1}{474}{Methods\relax }{subsubsection.186.2.1}{}}
\newlabel{cuon:Project:project:projectwindow:on_bLetter_clicked}{{186.2.1}{475}{Methods\relax }{subsubsection.186.2.1}{}}
\newlabel{cuon:Project:project:projectwindow:on_bLetterPhase_clicked}{{186.2.1}{475}{Methods\relax }{subsubsection.186.2.1}{}}
\newlabel{cuon:Project:project:projectwindow:on_bLetterTask_clicked}{{186.2.1}{475}{Methods\relax }{subsubsection.186.2.1}{}}
\newlabel{cuon:Project:project:projectwindow:on_bLetterMaterial_clicked}{{186.2.1}{475}{Methods\relax }{subsubsection.186.2.1}{}}
\newlabel{cuon:Project:project:projectwindow:on_bLetterStaff_clicked}{{186.2.1}{475}{Methods\relax }{subsubsection.186.2.1}{}}
\newlabel{cuon:Project:project:projectwindow:on_bLetterProgramming_clicked}{{186.2.1}{475}{Methods\relax }{subsubsection.186.2.1}{}}
\newlabel{cuon:Project:project:projectwindow:on_tbNew_clicked}{{186.2.1}{475}{Methods\relax }{subsubsection.186.2.1}{}}
\newlabel{cuon:Project:project:projectwindow:on_tbEdit_clicked}{{186.2.1}{475}{Methods\relax }{subsubsection.186.2.1}{}}
\newlabel{cuon:Project:project:projectwindow:on_tbSave_clicked}{{186.2.1}{475}{Methods\relax }{subsubsection.186.2.1}{}}
\newlabel{cuon:Project:project:projectwindow:on_tbDelete_clicked}{{186.2.1}{475}{Methods\relax }{subsubsection.186.2.1}{}}
\newlabel{cuon:Project:project:projectwindow:on_tbDMS_clicked}{{186.2.1}{475}{Methods\relax }{subsubsection.186.2.1}{}}
\newlabel{cuon:Project:project:projectwindow:on_tbLetter_clicked}{{186.2.1}{475}{Methods\relax }{subsubsection.186.2.1}{}}
\newlabel{cuon:Project:project:projectwindow:getProjectInfos}{{186.2.1}{475}{Methods\relax }{subsubsection.186.2.1}{}}
\newlabel{cuon:Project:project:projectwindow:disconnectOrderTree}{{186.2.1}{475}{Methods\relax }{subsubsection.186.2.1}{}}
\newlabel{cuon:Project:project:projectwindow:connectOrderTree}{{186.2.1}{475}{Methods\relax }{subsubsection.186.2.1}{}}
\newlabel{cuon:Project:project:projectwindow:OrderTree_select_callback}{{186.2.1}{475}{Methods\relax }{subsubsection.186.2.1}{}}
\newlabel{cuon:Project:project:projectwindow:on_tvProjectOrder_row_activated}{{186.2.1}{475}{Methods\relax }{subsubsection.186.2.1}{}}
\newlabel{cuon:Project:project:projectwindow:on_bOrderJumpTo_clicked}{{186.2.1}{475}{Methods\relax }{subsubsection.186.2.1}{}}
\newlabel{cuon:Project:project:projectwindow:setOrderValues}{{186.2.1}{475}{Methods\relax }{subsubsection.186.2.1}{}}
\newlabel{cuon:Project:project:projectwindow:on_bProgrammingEdit_clicked}{{186.2.1}{475}{Methods\relax }{subsubsection.186.2.1}{}}
\newlabel{cuon:Project:project:projectwindow:refreshTree}{{186.2.1}{476}{Methods\relax }{subsubsection.186.2.1}{}}
\newlabel{cuon:Project:project:projectwindow:tabChanged}{{186.2.1}{476}{Methods\relax }{subsubsection.186.2.1}{}}
\@setckpt{cuon.Project.project-module}{
\setcounter{page}{478}
\setcounter{equation}{0}
\setcounter{enumi}{0}
\setcounter{enumii}{0}
\setcounter{enumiii}{0}
\setcounter{enumiv}{0}
\setcounter{footnote}{0}
\setcounter{mpfootnote}{0}
\setcounter{part}{0}
\setcounter{section}{186}
\setcounter{subsection}{2}
\setcounter{subsubsection}{1}
\setcounter{paragraph}{0}
\setcounter{subparagraph}{0}
\setcounter{figure}{0}
\setcounter{table}{177}
\setcounter{LT@tables}{177}
\setcounter{LT@chunks}{4}
\setcounter{Item}{0}
\setcounter{Hfootnote}{0}
\setcounter{bookmark@seq@number}{706}
\setcounter{section@level}{3}
}
