\relax 
\gdef \LT@cii {\LT@entry 
    {1}{152.92793pt}\LT@entry 
    {1}{258.72162pt}\LT@entry 
    {1}{12.0pt}}
\@writefile{toc}{\contentsline {section}{\numberline {107}Module cuon.Finances.SingleAccountPlan}{294}{section.107}}
\newlabel{cuon:Finances:SingleAccountPlan}{{107}{294}{Module cuon.Finances.SingleAccountPlan\relax }{section.107}{}}
\@writefile{toc}{\contentsline {subsection}{\numberline {107.1}Variables}{294}{subsection.107.1}}
\@writefile{toc}{\contentsline {subsection}{\numberline {107.2}Class SingleAccountPlan}{294}{subsection.107.2}}
\newlabel{cuon:Finances:SingleAccountPlan:SingleAccountPlan}{{107.2}{294}{Class SingleAccountPlan\relax }{subsection.107.2}{}}
\@writefile{toc}{\contentsline {subsubsection}{\numberline {107.2.1}Methods}{294}{subsubsection.107.2.1}}
\@setckpt{cuon.Finances.SingleAccountPlan-module}{
\setcounter{page}{296}
\setcounter{equation}{0}
\setcounter{enumi}{0}
\setcounter{enumii}{0}
\setcounter{enumiii}{0}
\setcounter{enumiv}{0}
\setcounter{footnote}{0}
\setcounter{mpfootnote}{0}
\setcounter{part}{0}
\setcounter{section}{107}
\setcounter{subsection}{2}
\setcounter{subsubsection}{1}
\setcounter{paragraph}{0}
\setcounter{subparagraph}{0}
\setcounter{figure}{0}
\setcounter{table}{102}
\setcounter{LT@tables}{102}
\setcounter{LT@chunks}{4}
\setcounter{Item}{0}
\setcounter{Hfootnote}{0}
\setcounter{bookmark@seq@number}{404}
\setcounter{section@level}{3}
}
