\relax 
\gdef \LT@lxv {\LT@entry 
    {1}{152.92793pt}\LT@entry 
    {1}{258.72162pt}\LT@entry 
    {1}{12.0pt}}
\@writefile{toc}{\contentsline {section}{\numberline {69}Module cuon.Databases.SingleImport}{200}{section.69}}
\newlabel{cuon:Databases:SingleImport}{{69}{200}{Module cuon.Databases.SingleImport\relax }{section.69}{}}
\@writefile{toc}{\contentsline {subsection}{\numberline {69.1}Variables}{200}{subsection.69.1}}
\@writefile{toc}{\contentsline {subsection}{\numberline {69.2}Class SingleImport}{200}{subsection.69.2}}
\newlabel{cuon:Databases:SingleImport:SingleImport}{{69.2}{200}{Class SingleImport\relax }{subsection.69.2}{}}
\@writefile{toc}{\contentsline {subsubsection}{\numberline {69.2.1}Methods}{200}{subsubsection.69.2.1}}
\newlabel{cuon:Databases:SingleImport:SingleImport:setImportTable}{{69.2.1}{200}{Methods\relax }{subsubsection.69.2.1}{}}
\@setckpt{cuon.Databases.SingleImport-module}{
\setcounter{page}{202}
\setcounter{equation}{0}
\setcounter{enumi}{0}
\setcounter{enumii}{0}
\setcounter{enumiii}{0}
\setcounter{enumiv}{0}
\setcounter{footnote}{0}
\setcounter{mpfootnote}{0}
\setcounter{part}{0}
\setcounter{section}{69}
\setcounter{subsection}{2}
\setcounter{subsubsection}{1}
\setcounter{paragraph}{0}
\setcounter{subparagraph}{0}
\setcounter{figure}{0}
\setcounter{table}{65}
\setcounter{LT@tables}{65}
\setcounter{LT@chunks}{4}
\setcounter{Item}{0}
\setcounter{Hfootnote}{0}
\setcounter{bookmark@seq@number}{261}
\setcounter{section@level}{3}
}
