\relax 
\@writefile{toc}{\contentsline {section}{\numberline {31}Package cuon.Articles}{106}{section.31}}
\newlabel{cuon:Articles}{{31}{106}{Package cuon.Articles\relax }{section.31}{}}
\@writefile{toc}{\contentsline {subsection}{\numberline {31.1}Modules}{106}{subsection.31.1}}
\@setckpt{cuon.Articles-module}{
\setcounter{page}{107}
\setcounter{equation}{0}
\setcounter{enumi}{0}
\setcounter{enumii}{0}
\setcounter{enumiii}{0}
\setcounter{enumiv}{0}
\setcounter{footnote}{0}
\setcounter{mpfootnote}{0}
\setcounter{part}{0}
\setcounter{section}{31}
\setcounter{subsection}{1}
\setcounter{subsubsection}{0}
\setcounter{paragraph}{0}
\setcounter{subparagraph}{0}
\setcounter{figure}{0}
\setcounter{table}{28}
\setcounter{LT@tables}{28}
\setcounter{LT@chunks}{4}
\setcounter{Item}{0}
\setcounter{Hfootnote}{0}
\setcounter{bookmark@seq@number}{117}
\setcounter{section@level}{2}
}
