\relax 
\gdef \LT@ix {\LT@entry 
    {1}{152.92793pt}\LT@entry 
    {1}{258.72162pt}\LT@entry 
    {1}{12.0pt}}
\@writefile{toc}{\contentsline {section}{\numberline {9}Module cuon.AI.tki1}{51}{section.9}}
\newlabel{cuon:AI:tki1}{{9}{51}{Module cuon.AI.tki1\relax }{section.9}{}}
\@writefile{toc}{\contentsline {subsection}{\numberline {9.1}Variables}{51}{subsection.9.1}}
\@writefile{toc}{\contentsline {subsection}{\numberline {9.2}Class tki1}{51}{subsection.9.2}}
\newlabel{cuon:AI:tki1:tki1}{{9.2}{51}{Class tki1\relax }{subsection.9.2}{}}
\@writefile{toc}{\contentsline {subsubsection}{\numberline {9.2.1}Methods}{51}{subsubsection.9.2.1}}
\newlabel{cuon:AI:tki1:tki1:startAI}{{9.2.1}{51}{Methods\relax }{subsubsection.9.2.1}{}}
\@setckpt{cuon.AI.tki1-module}{
\setcounter{page}{52}
\setcounter{equation}{0}
\setcounter{enumi}{0}
\setcounter{enumii}{0}
\setcounter{enumiii}{0}
\setcounter{enumiv}{0}
\setcounter{footnote}{0}
\setcounter{mpfootnote}{0}
\setcounter{part}{0}
\setcounter{section}{9}
\setcounter{subsection}{2}
\setcounter{subsubsection}{1}
\setcounter{paragraph}{0}
\setcounter{subparagraph}{0}
\setcounter{figure}{0}
\setcounter{table}{9}
\setcounter{LT@tables}{9}
\setcounter{LT@chunks}{4}
\setcounter{Item}{0}
\setcounter{Hfootnote}{0}
\setcounter{bookmark@seq@number}{35}
\setcounter{section@level}{3}
}
