\relax 
\gdef \LT@cxxviii {\LT@entry 
    {1}{152.92793pt}\LT@entry 
    {1}{258.72162pt}\LT@entry 
    {1}{12.0pt}}
\@writefile{toc}{\contentsline {section}{\numberline {133}Module cuon.Graves.SingleGraveWinter}{356}{section.133}}
\newlabel{cuon:Graves:SingleGraveWinter}{{133}{356}{Module cuon.Graves.SingleGraveWinter\relax }{section.133}{}}
\@writefile{toc}{\contentsline {subsection}{\numberline {133.1}Variables}{356}{subsection.133.1}}
\@writefile{toc}{\contentsline {subsection}{\numberline {133.2}Class SingleGraveWinter}{356}{subsection.133.2}}
\newlabel{cuon:Graves:SingleGraveWinter:SingleGraveWinter}{{133.2}{356}{Class SingleGraveWinter\relax }{subsection.133.2}{}}
\@writefile{toc}{\contentsline {subsubsection}{\numberline {133.2.1}Methods}{356}{subsubsection.133.2.1}}
\@setckpt{cuon.Graves.SingleGraveWinter-module}{
\setcounter{page}{358}
\setcounter{equation}{0}
\setcounter{enumi}{0}
\setcounter{enumii}{0}
\setcounter{enumiii}{0}
\setcounter{enumiv}{0}
\setcounter{footnote}{0}
\setcounter{mpfootnote}{0}
\setcounter{part}{0}
\setcounter{section}{133}
\setcounter{subsection}{2}
\setcounter{subsubsection}{1}
\setcounter{paragraph}{0}
\setcounter{subparagraph}{0}
\setcounter{figure}{0}
\setcounter{table}{128}
\setcounter{LT@tables}{128}
\setcounter{LT@chunks}{4}
\setcounter{Item}{0}
\setcounter{Hfootnote}{0}
\setcounter{bookmark@seq@number}{506}
\setcounter{section@level}{3}
}
