\relax 
\gdef \LT@cxxix {\LT@entry 
    {1}{152.92793pt}\LT@entry 
    {1}{258.72162pt}\LT@entry 
    {1}{12.0pt}}
\@writefile{toc}{\contentsline {section}{\numberline {134}Module cuon.Graves.SingleGraveYear}{358}{section.134}}
\newlabel{cuon:Graves:SingleGraveYear}{{134}{358}{Module cuon.Graves.SingleGraveYear\relax }{section.134}{}}
\@writefile{toc}{\contentsline {subsection}{\numberline {134.1}Variables}{358}{subsection.134.1}}
\@writefile{toc}{\contentsline {subsection}{\numberline {134.2}Class SingleGraveYear}{358}{subsection.134.2}}
\newlabel{cuon:Graves:SingleGraveYear:SingleGraveYear}{{134.2}{358}{Class SingleGraveYear\relax }{subsection.134.2}{}}
\@writefile{toc}{\contentsline {subsubsection}{\numberline {134.2.1}Methods}{358}{subsubsection.134.2.1}}
\@setckpt{cuon.Graves.SingleGraveYear-module}{
\setcounter{page}{360}
\setcounter{equation}{0}
\setcounter{enumi}{0}
\setcounter{enumii}{0}
\setcounter{enumiii}{0}
\setcounter{enumiv}{0}
\setcounter{footnote}{0}
\setcounter{mpfootnote}{0}
\setcounter{part}{0}
\setcounter{section}{134}
\setcounter{subsection}{2}
\setcounter{subsubsection}{1}
\setcounter{paragraph}{0}
\setcounter{subparagraph}{0}
\setcounter{figure}{0}
\setcounter{table}{129}
\setcounter{LT@tables}{129}
\setcounter{LT@chunks}{4}
\setcounter{Item}{0}
\setcounter{Hfootnote}{0}
\setcounter{bookmark@seq@number}{510}
\setcounter{section@level}{3}
}
