\relax 
\gdef \LT@cxii {\LT@entry 
    {1}{152.92793pt}\LT@entry 
    {1}{258.72162pt}\LT@entry 
    {1}{12.0pt}}
\@writefile{toc}{\contentsline {section}{\numberline {117}Module cuon.Garden.SingleHibernation}{314}{section.117}}
\newlabel{cuon:Garden:SingleHibernation}{{117}{314}{Module cuon.Garden.SingleHibernation\relax }{section.117}{}}
\@writefile{toc}{\contentsline {subsection}{\numberline {117.1}Variables}{314}{subsection.117.1}}
\@writefile{toc}{\contentsline {subsection}{\numberline {117.2}Class SingleHibernation}{314}{subsection.117.2}}
\newlabel{cuon:Garden:SingleHibernation:SingleHibernation}{{117.2}{314}{Class SingleHibernation\relax }{subsection.117.2}{}}
\@writefile{toc}{\contentsline {subsubsection}{\numberline {117.2.1}Methods}{314}{subsubsection.117.2.1}}
\newlabel{cuon:Garden:SingleHibernation:SingleHibernation:getHibernation}{{117.2.1}{314}{Methods\relax }{subsubsection.117.2.1}{}}
\newlabel{cuon:Garden:SingleHibernation:SingleHibernation:getHibernationFields}{{117.2.1}{314}{Methods\relax }{subsubsection.117.2.1}{}}
\newlabel{cuon:Garden:SingleHibernation:SingleHibernation:getHibernationRecord}{{117.2.1}{314}{Methods\relax }{subsubsection.117.2.1}{}}
\newlabel{cuon:Garden:SingleHibernation:SingleHibernation:getHibernationNumber}{{117.2.1}{314}{Methods\relax }{subsubsection.117.2.1}{}}
\newlabel{cuon:Garden:SingleHibernation:SingleHibernation:getHibernationAddressNumber}{{117.2.1}{314}{Methods\relax }{subsubsection.117.2.1}{}}
\newlabel{cuon:Garden:SingleHibernation:SingleHibernation:getBeginEndDate}{{117.2.1}{314}{Methods\relax }{subsubsection.117.2.1}{}}
\@setckpt{cuon.Garden.SingleHibernation-module}{
\setcounter{page}{317}
\setcounter{equation}{0}
\setcounter{enumi}{0}
\setcounter{enumii}{0}
\setcounter{enumiii}{0}
\setcounter{enumiv}{0}
\setcounter{footnote}{0}
\setcounter{mpfootnote}{0}
\setcounter{part}{0}
\setcounter{section}{117}
\setcounter{subsection}{2}
\setcounter{subsubsection}{1}
\setcounter{paragraph}{0}
\setcounter{subparagraph}{0}
\setcounter{figure}{0}
\setcounter{table}{112}
\setcounter{LT@tables}{112}
\setcounter{LT@chunks}{4}
\setcounter{Item}{0}
\setcounter{Hfootnote}{0}
\setcounter{bookmark@seq@number}{443}
\setcounter{section@level}{3}
}
