\relax 
\gdef \LT@clxxvi {\LT@entry 
    {1}{152.92793pt}\LT@entry 
    {1}{258.72162pt}\LT@entry 
    {1}{12.0pt}}
\@writefile{toc}{\contentsline {section}{\numberline {185}Module cuon.Project.SingleProjectTasks}{469}{section.185}}
\newlabel{cuon:Project:SingleProjectTasks}{{185}{469}{Module cuon.Project.SingleProjectTasks\relax }{section.185}{}}
\@writefile{toc}{\contentsline {subsection}{\numberline {185.1}Variables}{469}{subsection.185.1}}
\@writefile{toc}{\contentsline {subsection}{\numberline {185.2}Class SingleProjectTasks}{469}{subsection.185.2}}
\newlabel{cuon:Project:SingleProjectTasks:SingleProjectTasks}{{185.2}{469}{Class SingleProjectTasks\relax }{subsection.185.2}{}}
\@writefile{toc}{\contentsline {subsubsection}{\numberline {185.2.1}Methods}{469}{subsubsection.185.2.1}}
\@setckpt{cuon.Project.SingleProjectTasks-module}{
\setcounter{page}{471}
\setcounter{equation}{0}
\setcounter{enumi}{0}
\setcounter{enumii}{0}
\setcounter{enumiii}{0}
\setcounter{enumiv}{0}
\setcounter{footnote}{0}
\setcounter{mpfootnote}{0}
\setcounter{part}{0}
\setcounter{section}{185}
\setcounter{subsection}{2}
\setcounter{subsubsection}{1}
\setcounter{paragraph}{0}
\setcounter{subparagraph}{0}
\setcounter{figure}{0}
\setcounter{table}{176}
\setcounter{LT@tables}{176}
\setcounter{LT@chunks}{4}
\setcounter{Item}{0}
\setcounter{Hfootnote}{0}
\setcounter{bookmark@seq@number}{702}
\setcounter{section@level}{3}
}
