\relax 
\gdef \LT@ccxxxiii {\LT@entry 
    {1}{152.92793pt}\LT@entry 
    {1}{258.72162pt}\LT@entry 
    {1}{12.0pt}}
\@writefile{toc}{\contentsline {section}{\numberline {244}Module cuon.Windows.dataEntry}{601}{section.244}}
\newlabel{cuon:Windows:dataEntry}{{244}{601}{Module cuon.Windows.dataEntry\relax }{section.244}{}}
\@writefile{toc}{\contentsline {subsection}{\numberline {244.1}Variables}{601}{subsection.244.1}}
\@writefile{toc}{\contentsline {subsection}{\numberline {244.2}Class dataEntry}{601}{subsection.244.2}}
\newlabel{cuon:Windows:dataEntry:dataEntry}{{244.2}{601}{Class dataEntry\relax }{subsection.244.2}{}}
\@writefile{toc}{\contentsline {subsubsection}{\numberline {244.2.1}Methods}{601}{subsubsection.244.2.1}}
\newlabel{cuon:Windows:dataEntry:dataEntry:__init__}{{244.2.1}{601}{Methods\relax }{subsubsection.244.2.1}{}}
\newlabel{cuon:Windows:dataEntry:dataEntry:setName}{{244.2.1}{601}{Methods\relax }{subsubsection.244.2.1}{}}
\newlabel{cuon:Windows:dataEntry:dataEntry:getName}{{244.2.1}{601}{Methods\relax }{subsubsection.244.2.1}{}}
\newlabel{cuon:Windows:dataEntry:dataEntry:setType}{{244.2.1}{601}{Methods\relax }{subsubsection.244.2.1}{}}
\newlabel{cuon:Windows:dataEntry:dataEntry:getType}{{244.2.1}{601}{Methods\relax }{subsubsection.244.2.1}{}}
\newlabel{cuon:Windows:dataEntry:dataEntry:setSizeOfEntry}{{244.2.1}{601}{Methods\relax }{subsubsection.244.2.1}{}}
\newlabel{cuon:Windows:dataEntry:dataEntry:getSizeOfEntry}{{244.2.1}{601}{Methods\relax }{subsubsection.244.2.1}{}}
\newlabel{cuon:Windows:dataEntry:dataEntry:setVerifyType}{{244.2.1}{601}{Methods\relax }{subsubsection.244.2.1}{}}
\newlabel{cuon:Windows:dataEntry:dataEntry:getVerifyType}{{244.2.1}{601}{Methods\relax }{subsubsection.244.2.1}{}}
\newlabel{cuon:Windows:dataEntry:dataEntry:setCreateSql}{{244.2.1}{601}{Methods\relax }{subsubsection.244.2.1}{}}
\newlabel{cuon:Windows:dataEntry:dataEntry:getCreateSql}{{244.2.1}{601}{Methods\relax }{subsubsection.244.2.1}{}}
\newlabel{cuon:Windows:dataEntry:dataEntry:setSqlField}{{244.2.1}{601}{Methods\relax }{subsubsection.244.2.1}{}}
\newlabel{cuon:Windows:dataEntry:dataEntry:getSqlField}{{244.2.1}{601}{Methods\relax }{subsubsection.244.2.1}{}}
\newlabel{cuon:Windows:dataEntry:dataEntry:setBgColor}{{244.2.1}{601}{Methods\relax }{subsubsection.244.2.1}{}}
\newlabel{cuon:Windows:dataEntry:dataEntry:getBgColor}{{244.2.1}{601}{Methods\relax }{subsubsection.244.2.1}{}}
\newlabel{cuon:Windows:dataEntry:dataEntry:setFgColor}{{244.2.1}{602}{Methods\relax }{subsubsection.244.2.1}{}}
\newlabel{cuon:Windows:dataEntry:dataEntry:getFgColor}{{244.2.1}{602}{Methods\relax }{subsubsection.244.2.1}{}}
\newlabel{cuon:Windows:dataEntry:dataEntry:setDuty}{{244.2.1}{602}{Methods\relax }{subsubsection.244.2.1}{}}
\newlabel{cuon:Windows:dataEntry:dataEntry:getDuty}{{244.2.1}{602}{Methods\relax }{subsubsection.244.2.1}{}}
\newlabel{cuon:Windows:dataEntry:dataEntry:setRound}{{244.2.1}{602}{Methods\relax }{subsubsection.244.2.1}{}}
\newlabel{cuon:Windows:dataEntry:dataEntry:getRound}{{244.2.1}{602}{Methods\relax }{subsubsection.244.2.1}{}}
\newlabel{cuon:Windows:dataEntry:dataEntry:setNextWidget}{{244.2.1}{602}{Methods\relax }{subsubsection.244.2.1}{}}
\newlabel{cuon:Windows:dataEntry:dataEntry:getNextWidget}{{244.2.1}{602}{Methods\relax }{subsubsection.244.2.1}{}}
\@setckpt{cuon.Windows.dataEntry-module}{
\setcounter{page}{603}
\setcounter{equation}{0}
\setcounter{enumi}{1}
\setcounter{enumii}{0}
\setcounter{enumiii}{0}
\setcounter{enumiv}{0}
\setcounter{footnote}{0}
\setcounter{mpfootnote}{0}
\setcounter{part}{0}
\setcounter{section}{244}
\setcounter{subsection}{2}
\setcounter{subsubsection}{1}
\setcounter{paragraph}{0}
\setcounter{subparagraph}{0}
\setcounter{figure}{0}
\setcounter{table}{233}
\setcounter{LT@tables}{233}
\setcounter{LT@chunks}{4}
\setcounter{Item}{1}
\setcounter{Hfootnote}{0}
\setcounter{bookmark@seq@number}{920}
\setcounter{section@level}{3}
}
