\relax 
\gdef \LT@ccxxxiv {\LT@entry 
    {1}{152.92793pt}\LT@entry 
    {1}{258.72162pt}\LT@entry 
    {1}{12.0pt}}
\@writefile{toc}{\contentsline {section}{\numberline {245}Module cuon.Windows.gladeXml}{603}{section.245}}
\newlabel{cuon:Windows:gladeXml}{{245}{603}{Module cuon.Windows.gladeXml\relax }{section.245}{}}
\@writefile{toc}{\contentsline {subsection}{\numberline {245.1}Variables}{603}{subsection.245.1}}
\@writefile{toc}{\contentsline {subsection}{\numberline {245.2}Class gladeXml}{603}{subsection.245.2}}
\newlabel{cuon:Windows:gladeXml:gladeXml}{{245.2}{603}{Class gladeXml\relax }{subsection.245.2}{}}
\@writefile{toc}{\contentsline {subsubsection}{\numberline {245.2.1}Methods}{603}{subsubsection.245.2.1}}
\newlabel{cuon:Windows:gladeXml:gladeXml:add2Textbuffer}{{245.2.1}{603}{Methods\relax }{subsubsection.245.2.1}{}}
\newlabel{cuon:Windows:gladeXml:gladeXml:addEnabledMenuItems}{{245.2.1}{603}{Methods\relax }{subsubsection.245.2.1}{}}
\newlabel{cuon:Windows:gladeXml:gladeXml:addKeyToItem}{{245.2.1}{603}{Methods\relax }{subsubsection.245.2.1}{}}
\newlabel{cuon:Windows:gladeXml:gladeXml:addMenuItem}{{245.2.1}{603}{Methods\relax }{subsubsection.245.2.1}{}}
\newlabel{cuon:Windows:gladeXml:gladeXml:checkMimeType}{{245.2.1}{603}{Methods\relax }{subsubsection.245.2.1}{}}
\newlabel{cuon:Windows:gladeXml:gladeXml:clearTextBuffer}{{245.2.1}{603}{Methods\relax }{subsubsection.245.2.1}{}}
\newlabel{cuon:Windows:gladeXml:gladeXml:disableAllMenuItems}{{245.2.1}{603}{Methods\relax }{subsubsection.245.2.1}{}}
\newlabel{cuon:Windows:gladeXml:gladeXml:disableMenuItem}{{245.2.1}{604}{Methods\relax }{subsubsection.245.2.1}{}}
\newlabel{cuon:Windows:gladeXml:gladeXml:enableAllMenuItems}{{245.2.1}{604}{Methods\relax }{subsubsection.245.2.1}{}}
\newlabel{cuon:Windows:gladeXml:gladeXml:enableMenuItem}{{245.2.1}{604}{Methods\relax }{subsubsection.245.2.1}{}}
\newlabel{cuon:Windows:gladeXml:gladeXml:getActiveText}{{245.2.1}{604}{Methods\relax }{subsubsection.245.2.1}{}}
\newlabel{cuon:Windows:gladeXml:gladeXml:getClipboard}{{245.2.1}{604}{Methods\relax }{subsubsection.245.2.1}{}}
\newlabel{cuon:Windows:gladeXml:gladeXml:getNotesEditor}{{245.2.1}{604}{Methods\relax }{subsubsection.245.2.1}{}}
\newlabel{cuon:Windows:gladeXml:gladeXml:getWidget}{{245.2.1}{604}{Methods\relax }{subsubsection.245.2.1}{}}
\newlabel{cuon:Windows:gladeXml:gladeXml:getWidgets}{{245.2.1}{604}{Methods\relax }{subsubsection.245.2.1}{}}
\newlabel{cuon:Windows:gladeXml:gladeXml:gotoTreeItem}{{245.2.1}{604}{Methods\relax }{subsubsection.245.2.1}{}}
\newlabel{cuon:Windows:gladeXml:gladeXml:initMenuItems}{{245.2.1}{604}{Methods\relax }{subsubsection.245.2.1}{}}
\newlabel{cuon:Windows:gladeXml:gladeXml:initMenuItemsMain}{{245.2.1}{604}{Methods\relax }{subsubsection.245.2.1}{}}
\newlabel{cuon:Windows:gladeXml:gladeXml:loadGlade}{{245.2.1}{604}{Methods\relax }{subsubsection.245.2.1}{}}
\newlabel{cuon:Windows:gladeXml:gladeXml:loadGladeComplete}{{245.2.1}{604}{Methods\relax }{subsubsection.245.2.1}{}}
\newlabel{cuon:Windows:gladeXml:gladeXml:loadGladeFile}{{245.2.1}{604}{Methods\relax }{subsubsection.245.2.1}{}}
\newlabel{cuon:Windows:gladeXml:gladeXml:readTextBuffer}{{245.2.1}{604}{Methods\relax }{subsubsection.245.2.1}{}}
\newlabel{cuon:Windows:gladeXml:gladeXml:removeEnabledMenuItems}{{245.2.1}{604}{Methods\relax }{subsubsection.245.2.1}{}}
\newlabel{cuon:Windows:gladeXml:gladeXml:setClipboard}{{245.2.1}{604}{Methods\relax }{subsubsection.245.2.1}{}}
\newlabel{cuon:Windows:gladeXml:gladeXml:setNormalCursor}{{245.2.1}{604}{Methods\relax }{subsubsection.245.2.1}{}}
\newlabel{cuon:Windows:gladeXml:gladeXml:setText2Widget}{{245.2.1}{605}{Methods\relax }{subsubsection.245.2.1}{}}
\newlabel{cuon:Windows:gladeXml:gladeXml:setTextBufferLanguage}{{245.2.1}{605}{Methods\relax }{subsubsection.245.2.1}{}}
\newlabel{cuon:Windows:gladeXml:gladeXml:setTextbuffer}{{245.2.1}{605}{Methods\relax }{subsubsection.245.2.1}{}}
\newlabel{cuon:Windows:gladeXml:gladeXml:setTitle}{{245.2.1}{605}{Methods\relax }{subsubsection.245.2.1}{}}
\newlabel{cuon:Windows:gladeXml:gladeXml:setWaitCursor}{{245.2.1}{605}{Methods\relax }{subsubsection.245.2.1}{}}
\newlabel{cuon:Windows:gladeXml:gladeXml:setWinAccelGroup}{{245.2.1}{605}{Methods\relax }{subsubsection.245.2.1}{}}
\newlabel{cuon:Windows:gladeXml:gladeXml:setWinProperty}{{245.2.1}{605}{Methods\relax }{subsubsection.245.2.1}{}}
\newlabel{cuon:Windows:gladeXml:gladeXml:setXml}{{245.2.1}{605}{Methods\relax }{subsubsection.245.2.1}{}}
\newlabel{cuon:Windows:gladeXml:gladeXml:setXmlAutoconnect}{{245.2.1}{605}{Methods\relax }{subsubsection.245.2.1}{}}
\newlabel{cuon:Windows:gladeXml:gladeXml:writeAllGladeFiles}{{245.2.1}{605}{Methods\relax }{subsubsection.245.2.1}{}}
\newlabel{cuon:Windows:gladeXml:gladeXml:writeGlade}{{245.2.1}{605}{Methods\relax }{subsubsection.245.2.1}{}}
\@setckpt{cuon.Windows.gladeXml-module}{
\setcounter{page}{606}
\setcounter{equation}{0}
\setcounter{enumi}{1}
\setcounter{enumii}{0}
\setcounter{enumiii}{0}
\setcounter{enumiv}{0}
\setcounter{footnote}{0}
\setcounter{mpfootnote}{0}
\setcounter{part}{0}
\setcounter{section}{245}
\setcounter{subsection}{2}
\setcounter{subsubsection}{1}
\setcounter{paragraph}{0}
\setcounter{subparagraph}{0}
\setcounter{figure}{0}
\setcounter{table}{234}
\setcounter{LT@tables}{234}
\setcounter{LT@chunks}{4}
\setcounter{Item}{1}
\setcounter{Hfootnote}{0}
\setcounter{bookmark@seq@number}{924}
\setcounter{section@level}{3}
}
