\relax 
\gdef \LT@ccxxiv {\LT@entry 
    {1}{152.92793pt}\LT@entry 
    {1}{258.72162pt}\LT@entry 
    {1}{12.0pt}}
\@writefile{toc}{\contentsline {section}{\numberline {234}Module cuon.User.user}{583}{section.234}}
\newlabel{cuon:User:user}{{234}{583}{Module cuon.User.user\relax }{section.234}{}}
\@writefile{toc}{\contentsline {subsection}{\numberline {234.1}Variables}{583}{subsection.234.1}}
\@writefile{toc}{\contentsline {subsection}{\numberline {234.2}Class User}{583}{subsection.234.2}}
\newlabel{cuon:User:user:User}{{234.2}{583}{Class User\relax }{subsection.234.2}{}}
\@writefile{toc}{\contentsline {subsubsection}{\numberline {234.2.1}Methods}{583}{subsubsection.234.2.1}}
\newlabel{cuon:User:user:User:setFileFormats}{{234.2.1}{583}{Methods\relax }{Item.1}{}}
\newlabel{cuon:User:user:User:refreshDicUser}{{234.2.1}{583}{Methods\relax }{Item.1}{}}
\newlabel{cuon:User:user:User:refreshSqlDicUser}{{234.2.1}{583}{Methods\relax }{Item.1}{}}
\newlabel{cuon:User:user:User:getUser}{{234.2.1}{584}{Methods\relax }{Item.1}{}}
\newlabel{cuon:User:user:User:getDicUser}{{234.2.1}{584}{Methods\relax }{Item.1}{}}
\newlabel{cuon:User:user:User:getSqlDicUser}{{234.2.1}{584}{Methods\relax }{Item.1}{}}
\newlabel{cuon:User:user:User:getDicUserKeys}{{234.2.1}{584}{Methods\relax }{Item.1}{}}
\newlabel{cuon:User:user:User:setDicUserKeys}{{234.2.1}{584}{Methods\relax }{Item.1}{}}
\newlabel{cuon:User:user:User:getInternetUser}{{234.2.1}{584}{Methods\relax }{Item.1}{}}
\newlabel{cuon:User:user:User:setUserName}{{234.2.1}{584}{Methods\relax }{Item.1}{}}
\newlabel{cuon:User:user:User:getUserName}{{234.2.1}{584}{Methods\relax }{Item.1}{}}
\newlabel{cuon:User:user:User:setSessionID}{{234.2.1}{584}{Methods\relax }{Item.1}{}}
\newlabel{cuon:User:user:User:getSessionID}{{234.2.1}{584}{Methods\relax }{Item.1}{}}
\newlabel{cuon:User:user:User:setDebug}{{234.2.1}{584}{Methods\relax }{Item.1}{}}
\newlabel{cuon:User:user:User:getDebug}{{234.2.1}{584}{Methods\relax }{Item.1}{}}
\@setckpt{cuon.User.user-module}{
\setcounter{page}{586}
\setcounter{equation}{0}
\setcounter{enumi}{1}
\setcounter{enumii}{0}
\setcounter{enumiii}{0}
\setcounter{enumiv}{0}
\setcounter{footnote}{0}
\setcounter{mpfootnote}{0}
\setcounter{part}{0}
\setcounter{section}{234}
\setcounter{subsection}{2}
\setcounter{subsubsection}{1}
\setcounter{paragraph}{0}
\setcounter{subparagraph}{0}
\setcounter{figure}{0}
\setcounter{table}{224}
\setcounter{LT@tables}{224}
\setcounter{LT@chunks}{4}
\setcounter{Item}{1}
\setcounter{Hfootnote}{0}
\setcounter{bookmark@seq@number}{886}
\setcounter{section@level}{3}
}
