\relax 
\gdef \LT@cxxiii {\LT@entry 
    {1}{152.92793pt}\LT@entry 
    {1}{258.72162pt}\LT@entry 
    {1}{12.0pt}}
\@writefile{toc}{\contentsline {section}{\numberline {128}Module cuon.Graves.SingleGraveMaintenance}{346}{section.128}}
\newlabel{cuon:Graves:SingleGraveMaintenance}{{128}{346}{Module cuon.Graves.SingleGraveMaintenance\relax }{section.128}{}}
\@writefile{toc}{\contentsline {subsection}{\numberline {128.1}Variables}{346}{subsection.128.1}}
\@writefile{toc}{\contentsline {subsection}{\numberline {128.2}Class SingleGraveMaintenance}{346}{subsection.128.2}}
\newlabel{cuon:Graves:SingleGraveMaintenance:SingleGraveMaintenance}{{128.2}{346}{Class SingleGraveMaintenance\relax }{subsection.128.2}{}}
\@writefile{toc}{\contentsline {subsubsection}{\numberline {128.2.1}Methods}{346}{subsubsection.128.2.1}}
\@setckpt{cuon.Graves.SingleGraveMaintenance-module}{
\setcounter{page}{348}
\setcounter{equation}{0}
\setcounter{enumi}{0}
\setcounter{enumii}{0}
\setcounter{enumiii}{0}
\setcounter{enumiv}{0}
\setcounter{footnote}{0}
\setcounter{mpfootnote}{0}
\setcounter{part}{0}
\setcounter{section}{128}
\setcounter{subsection}{2}
\setcounter{subsubsection}{1}
\setcounter{paragraph}{0}
\setcounter{subparagraph}{0}
\setcounter{figure}{0}
\setcounter{table}{123}
\setcounter{LT@tables}{123}
\setcounter{LT@chunks}{4}
\setcounter{Item}{0}
\setcounter{Hfootnote}{0}
\setcounter{bookmark@seq@number}{486}
\setcounter{section@level}{3}
}
