\relax 
\gdef \LT@cxix {\LT@entry 
    {1}{152.92793pt}\LT@entry 
    {1}{258.72162pt}\LT@entry 
    {1}{12.0pt}}
\@writefile{toc}{\contentsline {section}{\numberline {124}Module cuon.Graves.SingleGrave}{338}{section.124}}
\newlabel{cuon:Graves:SingleGrave}{{124}{338}{Module cuon.Graves.SingleGrave\relax }{section.124}{}}
\@writefile{toc}{\contentsline {subsection}{\numberline {124.1}Variables}{338}{subsection.124.1}}
\@writefile{toc}{\contentsline {subsection}{\numberline {124.2}Class SingleGrave}{338}{subsection.124.2}}
\newlabel{cuon:Graves:SingleGrave:SingleGrave}{{124.2}{338}{Class SingleGrave\relax }{subsection.124.2}{}}
\@writefile{toc}{\contentsline {subsubsection}{\numberline {124.2.1}Methods}{338}{subsubsection.124.2.1}}
\newlabel{cuon:Graves:SingleGrave:SingleGrave:getAddressID}{{124.2.1}{338}{Methods\relax }{subsubsection.124.2.1}{}}
\newlabel{cuon:Graves:SingleGrave:SingleGrave:getGraveyardID}{{124.2.1}{338}{Methods\relax }{subsubsection.124.2.1}{}}
\@setckpt{cuon.Graves.SingleGrave-module}{
\setcounter{page}{340}
\setcounter{equation}{0}
\setcounter{enumi}{0}
\setcounter{enumii}{0}
\setcounter{enumiii}{0}
\setcounter{enumiv}{0}
\setcounter{footnote}{0}
\setcounter{mpfootnote}{0}
\setcounter{part}{0}
\setcounter{section}{124}
\setcounter{subsection}{2}
\setcounter{subsubsection}{1}
\setcounter{paragraph}{0}
\setcounter{subparagraph}{0}
\setcounter{figure}{0}
\setcounter{table}{119}
\setcounter{LT@tables}{119}
\setcounter{LT@chunks}{4}
\setcounter{Item}{0}
\setcounter{Hfootnote}{0}
\setcounter{bookmark@seq@number}{470}
\setcounter{section@level}{3}
}
