\relax 
\gdef \LT@lxxx {\LT@entry 
    {1}{152.92793pt}\LT@entry 
    {1}{258.72162pt}\LT@entry 
    {1}{12.0pt}}
\@writefile{toc}{\contentsline {section}{\numberline {83}Module cuon.E\_Mail.sendEmail}{230}{section.83}}
\newlabel{cuon:E_Mail:sendEmail}{{83}{230}{Module cuon.E\_Mail.sendEmail\relax }{section.83}{}}
\@writefile{toc}{\contentsline {subsection}{\numberline {83.1}Variables}{230}{subsection.83.1}}
\@writefile{toc}{\contentsline {subsection}{\numberline {83.2}Class sendEmail}{230}{subsection.83.2}}
\newlabel{cuon:E_Mail:sendEmail:sendEmail}{{83.2}{230}{Class sendEmail\relax }{subsection.83.2}{}}
\@writefile{toc}{\contentsline {subsubsection}{\numberline {83.2.1}Methods}{230}{subsubsection.83.2.1}}
\newlabel{cuon:E_Mail:sendEmail:sendEmail:on_fcAttachment_file_activated}{{83.2.1}{230}{Methods\relax }{subsubsection.83.2.1}{}}
\newlabel{cuon:E_Mail:sendEmail:sendEmail:on_send_mail_activate}{{83.2.1}{231}{Methods\relax }{subsubsection.83.2.1}{}}
\newlabel{cuon:E_Mail:sendEmail:sendEmail:addAttachment}{{83.2.1}{231}{Methods\relax }{subsubsection.83.2.1}{}}
\@setckpt{cuon.E_Mail.sendEmail-module}{
\setcounter{page}{233}
\setcounter{equation}{0}
\setcounter{enumi}{0}
\setcounter{enumii}{0}
\setcounter{enumiii}{0}
\setcounter{enumiv}{0}
\setcounter{footnote}{0}
\setcounter{mpfootnote}{0}
\setcounter{part}{0}
\setcounter{section}{83}
\setcounter{subsection}{2}
\setcounter{subsubsection}{1}
\setcounter{paragraph}{0}
\setcounter{subparagraph}{0}
\setcounter{figure}{0}
\setcounter{table}{80}
\setcounter{LT@tables}{80}
\setcounter{LT@chunks}{4}
\setcounter{Item}{0}
\setcounter{Hfootnote}{0}
\setcounter{bookmark@seq@number}{316}
\setcounter{section@level}{3}
}
