\relax 
\gdef \LT@clxxxvi {\LT@entry 
    {1}{152.92793pt}\LT@entry 
    {1}{258.72162pt}\LT@entry 
    {1}{12.0pt}}
\@writefile{toc}{\contentsline {section}{\numberline {195}Module cuon.Proposal.proposal}{495}{section.195}}
\newlabel{cuon:Proposal:proposal}{{195}{495}{Module cuon.Proposal.proposal\relax }{section.195}{}}
\@writefile{toc}{\contentsline {subsection}{\numberline {195.1}Variables}{495}{subsection.195.1}}
\@writefile{toc}{\contentsline {subsection}{\numberline {195.2}Class proposalwindow}{496}{subsection.195.2}}
\newlabel{cuon:Proposal:proposal:proposalwindow}{{195.2}{496}{Class proposalwindow\relax }{subsection.195.2}{}}
\@writefile{toc}{\contentsline {subsubsection}{\numberline {195.2.1}Methods}{497}{subsubsection.195.2.1}}
\newlabel{cuon:Proposal:proposal:proposalwindow:on_create_order1_activate}{{195.2.1}{497}{Methods\relax }{subsubsection.195.2.1}{}}
\newlabel{cuon:Proposal:proposal:proposalwindow:on_print_proposal1_activate}{{195.2.1}{497}{Methods\relax }{subsubsection.195.2.1}{}}
\newlabel{cuon:Proposal:proposal:proposalwindow:on_tbCreateOrder_clicked}{{195.2.1}{497}{Methods\relax }{subsubsection.195.2.1}{}}
\@setckpt{cuon.Proposal.proposal-module}{
\setcounter{page}{502}
\setcounter{equation}{0}
\setcounter{enumi}{0}
\setcounter{enumii}{0}
\setcounter{enumiii}{0}
\setcounter{enumiv}{0}
\setcounter{footnote}{0}
\setcounter{mpfootnote}{0}
\setcounter{part}{0}
\setcounter{section}{195}
\setcounter{subsection}{2}
\setcounter{subsubsection}{1}
\setcounter{paragraph}{0}
\setcounter{subparagraph}{0}
\setcounter{figure}{0}
\setcounter{table}{186}
\setcounter{LT@tables}{186}
\setcounter{LT@chunks}{4}
\setcounter{Item}{0}
\setcounter{Hfootnote}{0}
\setcounter{bookmark@seq@number}{741}
\setcounter{section@level}{3}
}
