\relax 
\@writefile{toc}{\contentsline {section}{\numberline {158}Module cuon.OpenOffice.ooconnect}{411}{section.158}}
\newlabel{cuon:OpenOffice:ooconnect}{{158}{411}{Module cuon.OpenOffice.ooconnect\relax }{section.158}{}}
\@writefile{toc}{\contentsline {subsection}{\numberline {158.1}Class ooconnect}{411}{subsection.158.1}}
\newlabel{cuon:OpenOffice:ooconnect:ooconnect}{{158.1}{411}{Class ooconnect\relax }{subsection.158.1}{}}
\@writefile{toc}{\contentsline {subsubsection}{\numberline {158.1.1}Methods}{411}{subsubsection.158.1.1}}
\@setckpt{cuon.OpenOffice.ooconnect-module}{
\setcounter{page}{412}
\setcounter{equation}{0}
\setcounter{enumi}{0}
\setcounter{enumii}{0}
\setcounter{enumiii}{0}
\setcounter{enumiv}{0}
\setcounter{footnote}{0}
\setcounter{mpfootnote}{0}
\setcounter{part}{0}
\setcounter{section}{158}
\setcounter{subsection}{1}
\setcounter{subsubsection}{1}
\setcounter{paragraph}{0}
\setcounter{subparagraph}{0}
\setcounter{figure}{0}
\setcounter{table}{149}
\setcounter{LT@tables}{149}
\setcounter{LT@chunks}{4}
\setcounter{Item}{0}
\setcounter{Hfootnote}{0}
\setcounter{bookmark@seq@number}{598}
\setcounter{section@level}{3}
}
