\relax 
\gdef \LT@cxcix {\LT@entry 
    {1}{152.92793pt}\LT@entry 
    {1}{258.72162pt}\LT@entry 
    {1}{12.0pt}}
\@writefile{toc}{\contentsline {section}{\numberline {208}Module cuon.Staff.SingleStaffDisease}{532}{section.208}}
\newlabel{cuon:Staff:SingleStaffDisease}{{208}{532}{Module cuon.Staff.SingleStaffDisease\relax }{section.208}{}}
\@writefile{toc}{\contentsline {subsection}{\numberline {208.1}Variables}{532}{subsection.208.1}}
\@writefile{toc}{\contentsline {subsection}{\numberline {208.2}Class SingleStaffDisease}{532}{subsection.208.2}}
\newlabel{cuon:Staff:SingleStaffDisease:SingleStaffDisease}{{208.2}{532}{Class SingleStaffDisease\relax }{subsection.208.2}{}}
\@writefile{toc}{\contentsline {subsubsection}{\numberline {208.2.1}Methods}{532}{subsubsection.208.2.1}}
\@setckpt{cuon.Staff.SingleStaffDisease-module}{
\setcounter{page}{534}
\setcounter{equation}{0}
\setcounter{enumi}{0}
\setcounter{enumii}{0}
\setcounter{enumiii}{0}
\setcounter{enumiv}{0}
\setcounter{footnote}{0}
\setcounter{mpfootnote}{0}
\setcounter{part}{0}
\setcounter{section}{208}
\setcounter{subsection}{2}
\setcounter{subsubsection}{1}
\setcounter{paragraph}{0}
\setcounter{subparagraph}{0}
\setcounter{figure}{0}
\setcounter{table}{199}
\setcounter{LT@tables}{199}
\setcounter{LT@chunks}{4}
\setcounter{Item}{0}
\setcounter{Hfootnote}{0}
\setcounter{bookmark@seq@number}{789}
\setcounter{section@level}{3}
}
