\relax 
\gdef \LT@cxvi {\LT@entry 
    {1}{152.92793pt}\LT@entry 
    {1}{258.72162pt}\LT@entry 
    {1}{12.0pt}}
\@writefile{toc}{\contentsline {section}{\numberline {121}Module cuon.Garden.garden}{327}{section.121}}
\newlabel{cuon:Garden:garden}{{121}{327}{Module cuon.Garden.garden\relax }{section.121}{}}
\@writefile{toc}{\contentsline {subsection}{\numberline {121.1}Variables}{327}{subsection.121.1}}
\@writefile{toc}{\contentsline {subsection}{\numberline {121.2}Class gardenwindow}{327}{subsection.121.2}}
\newlabel{cuon:Garden:garden:gardenwindow}{{121.2}{327}{Class gardenwindow\relax }{subsection.121.2}{}}
\@writefile{toc}{\contentsline {subsubsection}{\numberline {121.2.1}Methods}{327}{subsubsection.121.2.1}}
\newlabel{cuon:Garden:garden:gardenwindow:on_quit1_activate}{{121.2.1}{327}{Methods\relax }{subsubsection.121.2.1}{}}
\newlabel{cuon:Garden:garden:gardenwindow:on_save1_activate}{{121.2.1}{328}{Methods\relax }{subsubsection.121.2.1}{}}
\newlabel{cuon:Garden:garden:gardenwindow:on_new1_activate}{{121.2.1}{328}{Methods\relax }{subsubsection.121.2.1}{}}
\newlabel{cuon:Garden:garden:gardenwindow:on_edit1_activate}{{121.2.1}{328}{Methods\relax }{subsubsection.121.2.1}{}}
\newlabel{cuon:Garden:garden:gardenwindow:on_delete1_activate}{{121.2.1}{328}{Methods\relax }{subsubsection.121.2.1}{}}
\newlabel{cuon:Garden:garden:gardenwindow:on_bChooseManufactor_clicked}{{121.2.1}{328}{Methods\relax }{subsubsection.121.2.1}{}}
\newlabel{cuon:Garden:garden:gardenwindow:on_eManufactorNumber_changed}{{121.2.1}{328}{Methods\relax }{subsubsection.121.2.1}{}}
\newlabel{cuon:Garden:garden:gardenwindow:on_bShowDMS_clicked}{{121.2.1}{328}{Methods\relax }{subsubsection.121.2.1}{}}
\newlabel{cuon:Garden:garden:gardenwindow:on_PurchaseSave1_activate}{{121.2.1}{328}{Methods\relax }{subsubsection.121.2.1}{}}
\newlabel{cuon:Garden:garden:gardenwindow:on_PurchaseNew1_activate}{{121.2.1}{328}{Methods\relax }{subsubsection.121.2.1}{}}
\newlabel{cuon:Garden:garden:gardenwindow:on_PurchaseEdit1_activate}{{121.2.1}{328}{Methods\relax }{subsubsection.121.2.1}{}}
\newlabel{cuon:Garden:garden:gardenwindow:on_PurchaseClear1_activate}{{121.2.1}{328}{Methods\relax }{subsubsection.121.2.1}{}}
\newlabel{cuon:Garden:garden:gardenwindow:on_SalesSave1_activate}{{121.2.1}{328}{Methods\relax }{subsubsection.121.2.1}{}}
\newlabel{cuon:Garden:garden:gardenwindow:on_SalesNew1_activate}{{121.2.1}{328}{Methods\relax }{subsubsection.121.2.1}{}}
\newlabel{cuon:Garden:garden:gardenwindow:on_SalesEdit1_activate}{{121.2.1}{328}{Methods\relax }{subsubsection.121.2.1}{}}
\newlabel{cuon:Garden:garden:gardenwindow:on_SalesClear1_activate}{{121.2.1}{328}{Methods\relax }{subsubsection.121.2.1}{}}
\newlabel{cuon:Garden:garden:gardenwindow:on_WebshopSave1_activate}{{121.2.1}{328}{Methods\relax }{subsubsection.121.2.1}{}}
\newlabel{cuon:Garden:garden:gardenwindow:on_WebshopNew1_activate}{{121.2.1}{328}{Methods\relax }{subsubsection.121.2.1}{}}
\newlabel{cuon:Garden:garden:gardenwindow:on_WebshopEdit1_activate}{{121.2.1}{328}{Methods\relax }{subsubsection.121.2.1}{}}
\newlabel{cuon:Garden:garden:gardenwindow:on_WebshopClear1_activate}{{121.2.1}{328}{Methods\relax }{subsubsection.121.2.1}{}}
\newlabel{cuon:Garden:garden:gardenwindow:on_StockSave1_activate}{{121.2.1}{328}{Methods\relax }{subsubsection.121.2.1}{}}
\newlabel{cuon:Garden:garden:gardenwindow:on_StockNew1_activate}{{121.2.1}{329}{Methods\relax }{subsubsection.121.2.1}{}}
\newlabel{cuon:Garden:garden:gardenwindow:on_StockEdit1_activate}{{121.2.1}{329}{Methods\relax }{subsubsection.121.2.1}{}}
\newlabel{cuon:Garden:garden:gardenwindow:on_StockClear1_activate}{{121.2.1}{329}{Methods\relax }{subsubsection.121.2.1}{}}
\newlabel{cuon:Garden:garden:gardenwindow:on_liArticlesNumber1_activate}{{121.2.1}{329}{Methods\relax }{subsubsection.121.2.1}{}}
\newlabel{cuon:Garden:garden:gardenwindow:on_chooseArticle_activate}{{121.2.1}{329}{Methods\relax }{subsubsection.121.2.1}{}}
\newlabel{cuon:Garden:garden:gardenwindow:on_bChooseVendor_clicked}{{121.2.1}{329}{Methods\relax }{subsubsection.121.2.1}{}}
\newlabel{cuon:Garden:garden:gardenwindow:on_eAddressNumber_changed}{{121.2.1}{329}{Methods\relax }{subsubsection.121.2.1}{}}
\newlabel{cuon:Garden:garden:gardenwindow:on_bSearch_clicked}{{121.2.1}{329}{Methods\relax }{subsubsection.121.2.1}{}}
\newlabel{cuon:Garden:garden:gardenwindow:on_eFindNumber_editing_done}{{121.2.1}{329}{Methods\relax }{subsubsection.121.2.1}{}}
\newlabel{cuon:Garden:garden:gardenwindow:on_eFindNumber_key_press_event}{{121.2.1}{329}{Methods\relax }{subsubsection.121.2.1}{}}
\newlabel{cuon:Garden:garden:gardenwindow:on_eFindDesignation_editing_done}{{121.2.1}{329}{Methods\relax }{subsubsection.121.2.1}{}}
\newlabel{cuon:Garden:garden:gardenwindow:on_eFindDesignation_key_press_event}{{121.2.1}{329}{Methods\relax }{subsubsection.121.2.1}{}}
\newlabel{cuon:Garden:garden:gardenwindow:searchArticle}{{121.2.1}{329}{Methods\relax }{subsubsection.121.2.1}{}}
\newlabel{cuon:Garden:garden:gardenwindow:refreshTree}{{121.2.1}{329}{Methods\relax }{subsubsection.121.2.1}{}}
\newlabel{cuon:Garden:garden:gardenwindow:tabChanged}{{121.2.1}{329}{Methods\relax }{subsubsection.121.2.1}{}}
\@setckpt{cuon.Garden.garden-module}{
\setcounter{page}{332}
\setcounter{equation}{0}
\setcounter{enumi}{0}
\setcounter{enumii}{0}
\setcounter{enumiii}{0}
\setcounter{enumiv}{0}
\setcounter{footnote}{0}
\setcounter{mpfootnote}{0}
\setcounter{part}{0}
\setcounter{section}{121}
\setcounter{subsection}{2}
\setcounter{subsubsection}{1}
\setcounter{paragraph}{0}
\setcounter{subparagraph}{0}
\setcounter{figure}{0}
\setcounter{table}{116}
\setcounter{LT@tables}{116}
\setcounter{LT@chunks}{4}
\setcounter{Item}{0}
\setcounter{Hfootnote}{0}
\setcounter{bookmark@seq@number}{459}
\setcounter{section@level}{3}
}
