\relax 
\@writefile{toc}{\contentsline {section}{\numberline {253}Module cuon.cuon\_dia}{623}{section.253}}
\newlabel{cuon:cuon_dia}{{253}{623}{Module cuon.cuon\_dia\relax }{section.253}{}}
\@writefile{toc}{\contentsline {subsection}{\numberline {253.1}Functions}{623}{subsection.253.1}}
\newlabel{cuon:cuon_dia:dia_objects_props_cb}{{253.1}{623}{Functions\relax }{subsection.253.1}{}}
\@writefile{toc}{\contentsline {subsection}{\numberline {253.2}Class MyXmlrpc}{623}{subsection.253.2}}
\newlabel{cuon:cuon_dia:MyXmlrpc}{{253.2}{623}{Class MyXmlrpc\relax }{subsection.253.2}{}}
\@writefile{toc}{\contentsline {subsubsection}{\numberline {253.2.1}Methods}{623}{subsubsection.253.2.1}}
\newlabel{cuon:cuon_dia:MyXmlrpc:__init__}{{253.2.1}{623}{Methods\relax }{subsubsection.253.2.1}{}}
\newlabel{cuon:cuon_dia:MyXmlrpc:getMyServer}{{253.2.1}{623}{Methods\relax }{subsubsection.253.2.1}{}}
\newlabel{cuon:cuon_dia:MyXmlrpc:test}{{253.2.1}{623}{Methods\relax }{subsubsection.253.2.1}{}}
\@writefile{toc}{\contentsline {subsection}{\numberline {253.3}Class CuonDia}{623}{subsection.253.3}}
\newlabel{cuon:cuon_dia:CuonDia}{{253.3}{623}{Class CuonDia\relax }{subsection.253.3}{}}
\@writefile{toc}{\contentsline {subsubsection}{\numberline {253.3.1}Methods}{623}{subsubsection.253.3.1}}
\newlabel{cuon:cuon_dia:CuonDia:__init__}{{253.3.1}{623}{Methods\relax }{subsubsection.253.3.1}{}}
\newlabel{cuon:cuon_dia:CuonDia:on_ok}{{253.3.1}{623}{Methods\relax }{subsubsection.253.3.1}{}}
\newlabel{cuon:cuon_dia:CuonDia:on_delete}{{253.3.1}{623}{Methods\relax }{subsubsection.253.3.1}{}}
\newlabel{cuon:cuon_dia:CuonDia:createCuonObject}{{253.3.1}{623}{Methods\relax }{subsubsection.253.3.1}{}}
\@writefile{toc}{\contentsline {subsection}{\numberline {253.4}Class PropInfo}{623}{subsection.253.4}}
\newlabel{cuon:cuon_dia:PropInfo}{{253.4}{623}{Class PropInfo\relax }{subsection.253.4}{}}
\@writefile{toc}{\contentsline {subsubsection}{\numberline {253.4.1}Methods}{623}{subsubsection.253.4.1}}
\newlabel{cuon:cuon_dia:PropInfo:__init__}{{253.4.1}{623}{Methods\relax }{subsubsection.253.4.1}{}}
\newlabel{cuon:cuon_dia:PropInfo:__str__}{{253.4.1}{623}{Methods\relax }{subsubsection.253.4.1}{}}
\newlabel{cuon:cuon_dia:PropInfo:Add}{{253.4.1}{623}{Methods\relax }{subsubsection.253.4.1}{}}
\@setckpt{cuon.cuon_dia-module}{
\setcounter{page}{624}
\setcounter{equation}{0}
\setcounter{enumi}{1}
\setcounter{enumii}{0}
\setcounter{enumiii}{0}
\setcounter{enumiv}{0}
\setcounter{footnote}{0}
\setcounter{mpfootnote}{0}
\setcounter{part}{0}
\setcounter{section}{253}
\setcounter{subsection}{4}
\setcounter{subsubsection}{1}
\setcounter{paragraph}{0}
\setcounter{subparagraph}{0}
\setcounter{figure}{0}
\setcounter{table}{240}
\setcounter{LT@tables}{240}
\setcounter{LT@chunks}{4}
\setcounter{Item}{2}
\setcounter{Hfootnote}{0}
\setcounter{bookmark@seq@number}{957}
\setcounter{section@level}{3}
}
