\relax 
\gdef \LT@ccxv {\LT@entry 
    {1}{152.92793pt}\LT@entry 
    {1}{258.72162pt}\LT@entry 
    {1}{12.0pt}}
\@writefile{toc}{\contentsline {section}{\numberline {224}Package cuon.Think}{568}{section.224}}
\newlabel{cuon:Think}{{224}{568}{Package cuon.Think\relax }{section.224}{}}
\@writefile{toc}{\contentsline {subsection}{\numberline {224.1}Modules}{568}{subsection.224.1}}
\@writefile{toc}{\contentsline {subsection}{\numberline {224.2}Variables}{568}{subsection.224.2}}
\@setckpt{cuon.Think-module}{
\setcounter{page}{569}
\setcounter{equation}{0}
\setcounter{enumi}{0}
\setcounter{enumii}{0}
\setcounter{enumiii}{0}
\setcounter{enumiv}{0}
\setcounter{footnote}{0}
\setcounter{mpfootnote}{0}
\setcounter{part}{0}
\setcounter{section}{224}
\setcounter{subsection}{2}
\setcounter{subsubsection}{0}
\setcounter{paragraph}{0}
\setcounter{subparagraph}{0}
\setcounter{figure}{0}
\setcounter{table}{215}
\setcounter{LT@tables}{215}
\setcounter{LT@chunks}{4}
\setcounter{Item}{0}
\setcounter{Hfootnote}{0}
\setcounter{bookmark@seq@number}{849}
\setcounter{section@level}{2}
}
