\relax 
\gdef \LT@xcix {\LT@entry 
    {1}{152.92793pt}\LT@entry 
    {1}{258.72162pt}\LT@entry 
    {1}{12.0pt}}
\@writefile{toc}{\contentsline {section}{\numberline {104}Module cuon.Finances.InvoiceBook.SingleListOfInvoice}{285}{section.104}}
\newlabel{cuon:Finances:InvoiceBook:SingleListOfInvoice}{{104}{285}{Module cuon.Finances.InvoiceBook.SingleListOfInvoice\relax }{section.104}{}}
\@writefile{toc}{\contentsline {subsection}{\numberline {104.1}Variables}{285}{subsection.104.1}}
\@writefile{toc}{\contentsline {subsection}{\numberline {104.2}Class SingleListOfInvoice}{285}{subsection.104.2}}
\newlabel{cuon:Finances:InvoiceBook:SingleListOfInvoice:SingleListOfInvoice}{{104.2}{285}{Class SingleListOfInvoice\relax }{subsection.104.2}{}}
\@writefile{toc}{\contentsline {subsubsection}{\numberline {104.2.1}Methods}{285}{subsubsection.104.2.1}}
\@setckpt{cuon.Finances.InvoiceBook.SingleListOfInvoice-module}{
\setcounter{page}{287}
\setcounter{equation}{0}
\setcounter{enumi}{0}
\setcounter{enumii}{0}
\setcounter{enumiii}{0}
\setcounter{enumiv}{0}
\setcounter{footnote}{0}
\setcounter{mpfootnote}{0}
\setcounter{part}{0}
\setcounter{section}{104}
\setcounter{subsection}{2}
\setcounter{subsubsection}{1}
\setcounter{paragraph}{0}
\setcounter{subparagraph}{0}
\setcounter{figure}{0}
\setcounter{table}{99}
\setcounter{LT@tables}{99}
\setcounter{LT@chunks}{4}
\setcounter{Item}{0}
\setcounter{Hfootnote}{0}
\setcounter{bookmark@seq@number}{392}
\setcounter{section@level}{3}
}
