\relax 
\gdef \LT@lxxv {\LT@entry 
    {1}{152.92793pt}\LT@entry 
    {1}{258.72162pt}\LT@entry 
    {1}{12.0pt}}
\@writefile{toc}{\contentsline {section}{\numberline {79}Module cuon.Databases.xbase}{225}{section.79}}
\newlabel{cuon:Databases:xbase}{{79}{225}{Module cuon.Databases.xbase\relax }{section.79}{}}
\@writefile{toc}{\contentsline {subsection}{\numberline {79.1}Functions}{225}{subsection.79.1}}
\newlabel{cuon:Databases:xbase:dbfreader}{{79.1}{225}{Functions\relax }{subsection.79.1}{}}
\newlabel{cuon:Databases:xbase:dbfwriter}{{79.1}{225}{Functions\relax }{subsection.79.1}{}}
\@writefile{toc}{\contentsline {subsection}{\numberline {79.2}Variables}{225}{subsection.79.2}}
\@setckpt{cuon.Databases.xbase-module}{
\setcounter{page}{226}
\setcounter{equation}{0}
\setcounter{enumi}{0}
\setcounter{enumii}{0}
\setcounter{enumiii}{0}
\setcounter{enumiv}{0}
\setcounter{footnote}{0}
\setcounter{mpfootnote}{0}
\setcounter{part}{0}
\setcounter{section}{79}
\setcounter{subsection}{2}
\setcounter{subsubsection}{0}
\setcounter{paragraph}{0}
\setcounter{subparagraph}{0}
\setcounter{figure}{0}
\setcounter{table}{75}
\setcounter{LT@tables}{75}
\setcounter{LT@chunks}{4}
\setcounter{Item}{0}
\setcounter{Hfootnote}{0}
\setcounter{bookmark@seq@number}{300}
\setcounter{section@level}{2}
}
