\relax 
\gdef \LT@lxxi {\LT@entry 
    {1}{152.92793pt}\LT@entry 
    {1}{258.72162pt}\LT@entry 
    {1}{12.0pt}}
\@writefile{toc}{\contentsline {section}{\numberline {75}Module cuon.Databases.dumps}{213}{section.75}}
\newlabel{cuon:Databases:dumps}{{75}{213}{Module cuon.Databases.dumps\relax }{section.75}{}}
\@writefile{toc}{\contentsline {subsection}{\numberline {75.1}Variables}{213}{subsection.75.1}}
\@writefile{toc}{\contentsline {subsection}{\numberline {75.2}Class dumps}{213}{subsection.75.2}}
\newlabel{cuon:Databases:dumps:dumps}{{75.2}{213}{Class dumps\relax }{subsection.75.2}{}}
\@writefile{toc}{\contentsline {subsubsection}{\numberline {75.2.1}Methods}{213}{subsubsection.75.2.1}}
\newlabel{cuon:Databases:dumps:dumps:checkType}{{75.2.1}{213}{Methods\relax }{subsubsection.75.2.1}{}}
\newlabel{cuon:Databases:dumps:dumps:doCompress}{{75.2.1}{213}{Methods\relax }{subsubsection.75.2.1}{}}
\newlabel{cuon:Databases:dumps:dumps:doDecode}{{75.2.1}{213}{Methods\relax }{subsubsection.75.2.1}{}}
\newlabel{cuon:Databases:dumps:dumps:doEncode}{{75.2.1}{213}{Methods\relax }{subsubsection.75.2.1}{}}
\newlabel{cuon:Databases:dumps:dumps:doUncompress}{{75.2.1}{213}{Methods\relax }{subsubsection.75.2.1}{}}
\newlabel{cuon:Databases:dumps:dumps:formatDate}{{75.2.1}{213}{Methods\relax }{subsubsection.75.2.1}{}}
\newlabel{cuon:Databases:dumps:dumps:getActualDateTime}{{75.2.1}{213}{Methods\relax }{subsubsection.75.2.1}{}}
\newlabel{cuon:Databases:dumps:dumps:getCheckedValue}{{75.2.1}{213}{Methods\relax }{subsubsection.75.2.1}{}}
\newlabel{cuon:Databases:dumps:dumps:getDateTime}{{75.2.1}{213}{Methods\relax }{subsubsection.75.2.1}{}}
\newlabel{cuon:Databases:dumps:dumps:getFirstDayOfMonth}{{75.2.1}{214}{Methods\relax }{subsubsection.75.2.1}{}}
\newlabel{cuon:Databases:dumps:dumps:getFirstDayOfMonthAsSeconds}{{75.2.1}{214}{Methods\relax }{subsubsection.75.2.1}{}}
\newlabel{cuon:Databases:dumps:dumps:getFirstDayOfYearAsSeconds}{{75.2.1}{214}{Methods\relax }{subsubsection.75.2.1}{}}
\newlabel{cuon:Databases:dumps:dumps:getFirstLastDayOfCurrentYearAsSeconds}{{75.2.1}{214}{Methods\relax }{subsubsection.75.2.1}{}}
\newlabel{cuon:Databases:dumps:dumps:getFirstLastDayOfHalfYearAsSeconds}{{75.2.1}{214}{Methods\relax }{subsubsection.75.2.1}{}}
\newlabel{cuon:Databases:dumps:dumps:getFirstLastDayOfLastMonthAsSeconds}{{75.2.1}{214}{Methods\relax }{subsubsection.75.2.1}{}}
\newlabel{cuon:Databases:dumps:dumps:getFirstOfMonth}{{75.2.1}{214}{Methods\relax }{subsubsection.75.2.1}{}}
\newlabel{cuon:Databases:dumps:dumps:getFirstOfMonth2}{{75.2.1}{214}{Methods\relax }{subsubsection.75.2.1}{}}
\newlabel{cuon:Databases:dumps:dumps:getFirstOfYear}{{75.2.1}{214}{Methods\relax }{subsubsection.75.2.1}{}}
\newlabel{cuon:Databases:dumps:dumps:getLastDayOfMonth}{{75.2.1}{214}{Methods\relax }{subsubsection.75.2.1}{}}
\newlabel{cuon:Databases:dumps:dumps:getLastDayOfMonthAsSeconds}{{75.2.1}{214}{Methods\relax }{subsubsection.75.2.1}{}}
\newlabel{cuon:Databases:dumps:dumps:getLastDayOfYearAsSeconds}{{75.2.1}{214}{Methods\relax }{subsubsection.75.2.1}{}}
\newlabel{cuon:Databases:dumps:dumps:getLastOfHalfYear}{{75.2.1}{214}{Methods\relax }{subsubsection.75.2.1}{}}
\newlabel{cuon:Databases:dumps:dumps:getLastOfMonth}{{75.2.1}{214}{Methods\relax }{subsubsection.75.2.1}{}}
\newlabel{cuon:Databases:dumps:dumps:getLastOfYear}{{75.2.1}{214}{Methods\relax }{subsubsection.75.2.1}{}}
\newlabel{cuon:Databases:dumps:dumps:getNewUUID}{{75.2.1}{214}{Methods\relax }{subsubsection.75.2.1}{}}
\newlabel{cuon:Databases:dumps:dumps:getSeconds}{{75.2.1}{214}{Methods\relax }{subsubsection.75.2.1}{}}
\newlabel{cuon:Databases:dumps:dumps:getTime}{{75.2.1}{214}{Methods\relax }{subsubsection.75.2.1}{}}
\newlabel{cuon:Databases:dumps:dumps:getTimeString}{{75.2.1}{214}{Methods\relax }{subsubsection.75.2.1}{}}
\newlabel{cuon:Databases:dumps:dumps:normalizeXML}{{75.2.1}{214}{Methods\relax }{subsubsection.75.2.1}{}}
\newlabel{cuon:Databases:dumps:dumps:saveTmpData}{{75.2.1}{215}{Methods\relax }{subsubsection.75.2.1}{}}
\newlabel{cuon:Databases:dumps:dumps:showPdf}{{75.2.1}{215}{Methods\relax }{subsubsection.75.2.1}{}}
\newlabel{cuon:Databases:dumps:dumps:startExternalPrg}{{75.2.1}{215}{Methods\relax }{subsubsection.75.2.1}{}}
\newlabel{cuon:Databases:dumps:dumps:writeEmailLog}{{75.2.1}{215}{Methods\relax }{subsubsection.75.2.1}{}}
\@setckpt{cuon.Databases.dumps-module}{
\setcounter{page}{216}
\setcounter{equation}{0}
\setcounter{enumi}{0}
\setcounter{enumii}{0}
\setcounter{enumiii}{0}
\setcounter{enumiv}{0}
\setcounter{footnote}{0}
\setcounter{mpfootnote}{0}
\setcounter{part}{0}
\setcounter{section}{75}
\setcounter{subsection}{2}
\setcounter{subsubsection}{1}
\setcounter{paragraph}{0}
\setcounter{subparagraph}{0}
\setcounter{figure}{0}
\setcounter{table}{71}
\setcounter{LT@tables}{71}
\setcounter{LT@chunks}{4}
\setcounter{Item}{0}
\setcounter{Hfootnote}{0}
\setcounter{bookmark@seq@number}{285}
\setcounter{section@level}{3}
}
