\relax 
\gdef \LT@ccxxxix {\LT@entry 
    {1}{152.92793pt}\LT@entry 
    {1}{258.72162pt}\LT@entry 
    {1}{12.0pt}}
\@writefile{toc}{\contentsline {section}{\numberline {250}Module cuon.XML.MyXML}{616}{section.250}}
\newlabel{cuon:XML:MyXML}{{250}{616}{Module cuon.XML.MyXML\relax }{section.250}{}}
\@writefile{toc}{\contentsline {subsection}{\numberline {250.1}Variables}{616}{subsection.250.1}}
\@writefile{toc}{\contentsline {subsection}{\numberline {250.2}Class MyXML}{616}{subsection.250.2}}
\newlabel{cuon:XML:MyXML:MyXML}{{250.2}{616}{Class MyXML\relax }{subsection.250.2}{}}
\@writefile{toc}{\contentsline {subsubsection}{\numberline {250.2.1}Methods}{616}{subsubsection.250.2.1}}
\newlabel{cuon:XML:MyXML:MyXML:NotTextNodeError}{{250.2.1}{616}{Methods\relax }{subsubsection.250.2.1}{}}
\newlabel{cuon:XML:MyXML:MyXML:addElement}{{250.2.1}{616}{Methods\relax }{subsubsection.250.2.1}{}}
\newlabel{cuon:XML:MyXML:MyXML:addElementToNode}{{250.2.1}{616}{Methods\relax }{subsubsection.250.2.1}{}}
\newlabel{cuon:XML:MyXML:MyXML:append2doc}{{250.2.1}{616}{Methods\relax }{subsubsection.250.2.1}{}}
\newlabel{cuon:XML:MyXML:MyXML:createDoc}{{250.2.1}{616}{Methods\relax }{subsubsection.250.2.1}{}}
\newlabel{cuon:XML:MyXML:MyXML:dic2xml}{{250.2.1}{616}{Methods\relax }{subsubsection.250.2.1}{}}
\newlabel{cuon:XML:MyXML:MyXML:elementtodict}{{250.2.1}{617}{Methods\relax }{subsubsection.250.2.1}{}}
\newlabel{cuon:XML:MyXML:MyXML:getAttributValue}{{250.2.1}{617}{Methods\relax }{subsubsection.250.2.1}{}}
\newlabel{cuon:XML:MyXML:MyXML:getColumnAt}{{250.2.1}{617}{Methods\relax }{subsubsection.250.2.1}{}}
\newlabel{cuon:XML:MyXML:MyXML:getColumnSpecification}{{250.2.1}{617}{Methods\relax }{subsubsection.250.2.1}{}}
\newlabel{cuon:XML:MyXML:MyXML:getData}{{250.2.1}{617}{Methods\relax }{subsubsection.250.2.1}{}}
\newlabel{cuon:XML:MyXML:MyXML:getDoc2String}{{250.2.1}{617}{Methods\relax }{subsubsection.250.2.1}{}}
\newlabel{cuon:XML:MyXML:MyXML:getEntries}{{250.2.1}{617}{Methods\relax }{subsubsection.250.2.1}{}}
\newlabel{cuon:XML:MyXML:MyXML:getEntry}{{250.2.1}{617}{Methods\relax }{subsubsection.250.2.1}{}}
\newlabel{cuon:XML:MyXML:MyXML:getEntryAt}{{250.2.1}{617}{Methods\relax }{subsubsection.250.2.1}{}}
\newlabel{cuon:XML:MyXML:MyXML:getEntrySpecification}{{250.2.1}{617}{Methods\relax }{subsubsection.250.2.1}{}}
\newlabel{cuon:XML:MyXML:MyXML:getForeignKey}{{250.2.1}{617}{Methods\relax }{subsubsection.250.2.1}{}}
\newlabel{cuon:XML:MyXML:MyXML:getListOfEntries}{{250.2.1}{617}{Methods\relax }{subsubsection.250.2.1}{}}
\newlabel{cuon:XML:MyXML:MyXML:getListOfForeignKeys}{{250.2.1}{617}{Methods\relax }{subsubsection.250.2.1}{}}
\newlabel{cuon:XML:MyXML:MyXML:getListOfSequences}{{250.2.1}{617}{Methods\relax }{subsubsection.250.2.1}{}}
\newlabel{cuon:XML:MyXML:MyXML:getListOfTables}{{250.2.1}{617}{Methods\relax }{subsubsection.250.2.1}{}}
\newlabel{cuon:XML:MyXML:MyXML:getNode}{{250.2.1}{617}{Methods\relax }{subsubsection.250.2.1}{}}
\newlabel{cuon:XML:MyXML:MyXML:getNodeData}{{250.2.1}{617}{Methods\relax }{subsubsection.250.2.1}{}}
\newlabel{cuon:XML:MyXML:MyXML:getNodes}{{250.2.1}{617}{Methods\relax }{subsubsection.250.2.1}{}}
\newlabel{cuon:XML:MyXML:MyXML:getNumberOfEntries}{{250.2.1}{617}{Methods\relax }{subsubsection.250.2.1}{}}
\newlabel{cuon:XML:MyXML:MyXML:getNumberOfFields}{{250.2.1}{617}{Methods\relax }{subsubsection.250.2.1}{}}
\newlabel{cuon:XML:MyXML:MyXML:getRootElement}{{250.2.1}{618}{Methods\relax }{subsubsection.250.2.1}{}}
\newlabel{cuon:XML:MyXML:MyXML:getRootNode}{{250.2.1}{618}{Methods\relax }{subsubsection.250.2.1}{}}
\newlabel{cuon:XML:MyXML:MyXML:getSequence}{{250.2.1}{618}{Methods\relax }{subsubsection.250.2.1}{}}
\newlabel{cuon:XML:MyXML:MyXML:getSingleNode}{{250.2.1}{618}{Methods\relax }{subsubsection.250.2.1}{}}
\newlabel{cuon:XML:MyXML:MyXML:getTable}{{250.2.1}{618}{Methods\relax }{subsubsection.250.2.1}{}}
\newlabel{cuon:XML:MyXML:MyXML:getTableSpecification}{{250.2.1}{618}{Methods\relax }{subsubsection.250.2.1}{}}
\newlabel{cuon:XML:MyXML:MyXML:getTextFromNode}{{250.2.1}{618}{Methods\relax }{subsubsection.250.2.1}{}}
\newlabel{cuon:XML:MyXML:MyXML:nodeToDic}{{250.2.1}{618}{Methods\relax }{subsubsection.250.2.1}{}}
\newlabel{cuon:XML:MyXML:MyXML:readDocument}{{250.2.1}{618}{Methods\relax }{Item.2}{}}
\newlabel{cuon:XML:MyXML:MyXML:readXmlString}{{250.2.1}{618}{Methods\relax }{Item.2}{}}
\newlabel{cuon:XML:MyXML:MyXML:remove_whilespace_nodes}{{250.2.1}{618}{Methods\relax }{Item.2}{}}
\newlabel{cuon:XML:MyXML:MyXML:test}{{250.2.1}{618}{Methods\relax }{Item.2}{}}
\newlabel{cuon:XML:MyXML:MyXML:xmltodict}{{250.2.1}{618}{Methods\relax }{Item.2}{}}
\@setckpt{cuon.XML.MyXML-module}{
\setcounter{page}{620}
\setcounter{equation}{0}
\setcounter{enumi}{1}
\setcounter{enumii}{0}
\setcounter{enumiii}{0}
\setcounter{enumiv}{0}
\setcounter{footnote}{0}
\setcounter{mpfootnote}{0}
\setcounter{part}{0}
\setcounter{section}{250}
\setcounter{subsection}{2}
\setcounter{subsubsection}{1}
\setcounter{paragraph}{0}
\setcounter{subparagraph}{0}
\setcounter{figure}{0}
\setcounter{table}{239}
\setcounter{LT@tables}{239}
\setcounter{LT@chunks}{4}
\setcounter{Item}{2}
\setcounter{Hfootnote}{0}
\setcounter{bookmark@seq@number}{943}
\setcounter{section@level}{3}
}
