\relax 
\@writefile{toc}{\contentsline {section}{\numberline {64}Package cuon.Databases}{188}{section.64}}
\newlabel{cuon:Databases}{{64}{188}{Package cuon.Databases\relax }{section.64}{}}
\@writefile{toc}{\contentsline {subsection}{\numberline {64.1}Modules}{188}{subsection.64.1}}
\@setckpt{cuon.Databases-module}{
\setcounter{page}{189}
\setcounter{equation}{0}
\setcounter{enumi}{0}
\setcounter{enumii}{0}
\setcounter{enumiii}{0}
\setcounter{enumiv}{0}
\setcounter{footnote}{0}
\setcounter{mpfootnote}{0}
\setcounter{part}{0}
\setcounter{section}{64}
\setcounter{subsection}{1}
\setcounter{subsubsection}{0}
\setcounter{paragraph}{0}
\setcounter{subparagraph}{0}
\setcounter{figure}{0}
\setcounter{table}{60}
\setcounter{LT@tables}{60}
\setcounter{LT@chunks}{4}
\setcounter{Item}{0}
\setcounter{Hfootnote}{0}
\setcounter{bookmark@seq@number}{241}
\setcounter{section@level}{2}
}
