\relax 
\gdef \LT@cxcvii {\LT@entry 
    {1}{152.92793pt}\LT@entry 
    {1}{258.72162pt}\LT@entry 
    {1}{12.0pt}}
\@writefile{toc}{\contentsline {section}{\numberline {206}Package cuon.Staff}{529}{section.206}}
\newlabel{cuon:Staff}{{206}{529}{Package cuon.Staff\relax }{section.206}{}}
\@writefile{toc}{\contentsline {subsection}{\numberline {206.1}Modules}{529}{subsection.206.1}}
\@writefile{toc}{\contentsline {subsection}{\numberline {206.2}Variables}{529}{subsection.206.2}}
\@setckpt{cuon.Staff-module}{
\setcounter{page}{530}
\setcounter{equation}{0}
\setcounter{enumi}{0}
\setcounter{enumii}{0}
\setcounter{enumiii}{0}
\setcounter{enumiv}{0}
\setcounter{footnote}{0}
\setcounter{mpfootnote}{0}
\setcounter{part}{0}
\setcounter{section}{206}
\setcounter{subsection}{2}
\setcounter{subsubsection}{0}
\setcounter{paragraph}{0}
\setcounter{subparagraph}{0}
\setcounter{figure}{0}
\setcounter{table}{197}
\setcounter{LT@tables}{197}
\setcounter{LT@chunks}{4}
\setcounter{Item}{0}
\setcounter{Hfootnote}{0}
\setcounter{bookmark@seq@number}{781}
\setcounter{section@level}{2}
}
