\relax 
\gdef \LT@ccv {\LT@entry 
    {1}{152.92793pt}\LT@entry 
    {1}{258.72162pt}\LT@entry 
    {1}{12.0pt}}
\@writefile{toc}{\contentsline {section}{\numberline {214}Module cuon.Stats.stats}{546}{section.214}}
\newlabel{cuon:Stats:stats}{{214}{546}{Module cuon.Stats.stats\relax }{section.214}{}}
\@writefile{toc}{\contentsline {subsection}{\numberline {214.1}Variables}{546}{subsection.214.1}}
\@writefile{toc}{\contentsline {subsection}{\numberline {214.2}Class statswindow}{546}{subsection.214.2}}
\newlabel{cuon:Stats:stats:statswindow}{{214.2}{546}{Class statswindow\relax }{subsection.214.2}{}}
\@writefile{toc}{\contentsline {subsubsection}{\numberline {214.2.1}Methods}{546}{subsubsection.214.2.1}}
\newlabel{cuon:Stats:stats:statswindow:on_quit1_activate}{{214.2.1}{546}{Methods\relax }{subsubsection.214.2.1}{}}
\newlabel{cuon:Stats:stats:statswindow:on_adr_caller1_activate}{{214.2.1}{546}{Methods\relax }{subsubsection.214.2.1}{}}
\newlabel{cuon:Stats:stats:statswindow:on_adr_rep1_activate}{{214.2.1}{547}{Methods\relax }{subsubsection.214.2.1}{}}
\newlabel{cuon:Stats:stats:statswindow:on_adr_salesman1_activate}{{214.2.1}{547}{Methods\relax }{subsubsection.214.2.1}{}}
\newlabel{cuon:Stats:stats:statswindow:on_order_global1_activate}{{214.2.1}{547}{Methods\relax }{subsubsection.214.2.1}{}}
\newlabel{cuon:Stats:stats:statswindow:on_order_caller1_activate}{{214.2.1}{547}{Methods\relax }{subsubsection.214.2.1}{}}
\newlabel{cuon:Stats:stats:statswindow:on_order_representant1_activate}{{214.2.1}{547}{Methods\relax }{subsubsection.214.2.1}{}}
\newlabel{cuon:Stats:stats:statswindow:on_order_salesman1_activate}{{214.2.1}{547}{Methods\relax }{subsubsection.214.2.1}{}}
\newlabel{cuon:Stats:stats:statswindow:on_order_misc1_activate}{{214.2.1}{547}{Methods\relax }{subsubsection.214.2.1}{}}
\newlabel{cuon:Stats:stats:statswindow:on_project_misc1_activate}{{214.2.1}{547}{Methods\relax }{subsubsection.214.2.1}{}}
\newlabel{cuon:Stats:stats:statswindow:on_articles_misc1_activate}{{214.2.1}{547}{Methods\relax }{subsubsection.214.2.1}{}}
\newlabel{cuon:Stats:stats:statswindow:on_invoice_taxvat1_activate}{{214.2.1}{547}{Methods\relax }{subsubsection.214.2.1}{}}
\@setckpt{cuon.Stats.stats-module}{
\setcounter{page}{549}
\setcounter{equation}{0}
\setcounter{enumi}{0}
\setcounter{enumii}{0}
\setcounter{enumiii}{0}
\setcounter{enumiv}{0}
\setcounter{footnote}{0}
\setcounter{mpfootnote}{0}
\setcounter{part}{0}
\setcounter{section}{214}
\setcounter{subsection}{2}
\setcounter{subsubsection}{1}
\setcounter{paragraph}{0}
\setcounter{subparagraph}{0}
\setcounter{figure}{0}
\setcounter{table}{205}
\setcounter{LT@tables}{205}
\setcounter{LT@chunks}{4}
\setcounter{Item}{0}
\setcounter{Hfootnote}{0}
\setcounter{bookmark@seq@number}{812}
\setcounter{section@level}{3}
}
