\relax 
\gdef \LT@lvii {\LT@entry 
    {1}{152.92793pt}\LT@entry 
    {1}{258.72162pt}\LT@entry 
    {1}{12.0pt}}
\@writefile{toc}{\contentsline {section}{\numberline {60}Package cuon.DMS}{177}{section.60}}
\newlabel{cuon:DMS}{{60}{177}{Package cuon.DMS\relax }{section.60}{}}
\@writefile{toc}{\contentsline {subsection}{\numberline {60.1}Modules}{177}{subsection.60.1}}
\@writefile{toc}{\contentsline {subsection}{\numberline {60.2}Variables}{177}{subsection.60.2}}
\@setckpt{cuon.DMS-module}{
\setcounter{page}{178}
\setcounter{equation}{0}
\setcounter{enumi}{0}
\setcounter{enumii}{0}
\setcounter{enumiii}{0}
\setcounter{enumiv}{0}
\setcounter{footnote}{0}
\setcounter{mpfootnote}{0}
\setcounter{part}{0}
\setcounter{section}{60}
\setcounter{subsection}{2}
\setcounter{subsubsection}{0}
\setcounter{paragraph}{0}
\setcounter{subparagraph}{0}
\setcounter{figure}{0}
\setcounter{table}{57}
\setcounter{LT@tables}{57}
\setcounter{LT@chunks}{4}
\setcounter{Item}{0}
\setcounter{Hfootnote}{0}
\setcounter{bookmark@seq@number}{227}
\setcounter{section@level}{2}
}
