\relax 
\@writefile{toc}{\contentsline {section}{\numberline {228}Package cuon.TypeDefs}{577}{section.228}}
\newlabel{cuon:TypeDefs}{{228}{577}{Package cuon.TypeDefs\relax }{section.228}{}}
\@writefile{toc}{\contentsline {subsection}{\numberline {228.1}Modules}{577}{subsection.228.1}}
\@setckpt{cuon.TypeDefs-module}{
\setcounter{page}{578}
\setcounter{equation}{0}
\setcounter{enumi}{0}
\setcounter{enumii}{0}
\setcounter{enumiii}{0}
\setcounter{enumiv}{0}
\setcounter{footnote}{0}
\setcounter{mpfootnote}{0}
\setcounter{part}{0}
\setcounter{section}{228}
\setcounter{subsection}{1}
\setcounter{subsubsection}{0}
\setcounter{paragraph}{0}
\setcounter{subparagraph}{0}
\setcounter{figure}{0}
\setcounter{table}{218}
\setcounter{LT@tables}{218}
\setcounter{LT@chunks}{4}
\setcounter{Item}{0}
\setcounter{Hfootnote}{0}
\setcounter{bookmark@seq@number}{863}
\setcounter{section@level}{2}
}
