\relax 
\gdef \LT@cxxi {\LT@entry 
    {1}{152.92793pt}\LT@entry 
    {1}{258.72162pt}\LT@entry 
    {1}{12.0pt}}
\@writefile{toc}{\contentsline {section}{\numberline {126}Module cuon.Graves.SingleGraveHoliday}{342}{section.126}}
\newlabel{cuon:Graves:SingleGraveHoliday}{{126}{342}{Module cuon.Graves.SingleGraveHoliday\relax }{section.126}{}}
\@writefile{toc}{\contentsline {subsection}{\numberline {126.1}Variables}{342}{subsection.126.1}}
\@writefile{toc}{\contentsline {subsection}{\numberline {126.2}Class SingleGraveHoliday}{342}{subsection.126.2}}
\newlabel{cuon:Graves:SingleGraveHoliday:SingleGraveHoliday}{{126.2}{342}{Class SingleGraveHoliday\relax }{subsection.126.2}{}}
\@writefile{toc}{\contentsline {subsubsection}{\numberline {126.2.1}Methods}{342}{subsubsection.126.2.1}}
\@setckpt{cuon.Graves.SingleGraveHoliday-module}{
\setcounter{page}{344}
\setcounter{equation}{0}
\setcounter{enumi}{0}
\setcounter{enumii}{0}
\setcounter{enumiii}{0}
\setcounter{enumiv}{0}
\setcounter{footnote}{0}
\setcounter{mpfootnote}{0}
\setcounter{part}{0}
\setcounter{section}{126}
\setcounter{subsection}{2}
\setcounter{subsubsection}{1}
\setcounter{paragraph}{0}
\setcounter{subparagraph}{0}
\setcounter{figure}{0}
\setcounter{table}{121}
\setcounter{LT@tables}{121}
\setcounter{LT@chunks}{4}
\setcounter{Item}{0}
\setcounter{Hfootnote}{0}
\setcounter{bookmark@seq@number}{478}
\setcounter{section@level}{3}
}
