\relax 
\gdef \LT@ccxvii {\LT@entry 
    {1}{152.92793pt}\LT@entry 
    {1}{258.72162pt}\LT@entry 
    {1}{12.0pt}}
\@writefile{toc}{\contentsline {section}{\numberline {226}Module cuon.Think.SingleThink}{571}{section.226}}
\newlabel{cuon:Think:SingleThink}{{226}{571}{Module cuon.Think.SingleThink\relax }{section.226}{}}
\@writefile{toc}{\contentsline {subsection}{\numberline {226.1}Variables}{571}{subsection.226.1}}
\@writefile{toc}{\contentsline {subsection}{\numberline {226.2}Class SingleThink}{571}{subsection.226.2}}
\newlabel{cuon:Think:SingleThink:SingleThink}{{226.2}{571}{Class SingleThink\relax }{subsection.226.2}{}}
\@writefile{toc}{\contentsline {subsubsection}{\numberline {226.2.1}Methods}{571}{subsubsection.226.2.1}}
\@setckpt{cuon.Think.SingleThink-module}{
\setcounter{page}{573}
\setcounter{equation}{0}
\setcounter{enumi}{0}
\setcounter{enumii}{0}
\setcounter{enumiii}{0}
\setcounter{enumiv}{0}
\setcounter{footnote}{0}
\setcounter{mpfootnote}{0}
\setcounter{part}{0}
\setcounter{section}{226}
\setcounter{subsection}{2}
\setcounter{subsubsection}{1}
\setcounter{paragraph}{0}
\setcounter{subparagraph}{0}
\setcounter{figure}{0}
\setcounter{table}{217}
\setcounter{LT@tables}{217}
\setcounter{LT@chunks}{4}
\setcounter{Item}{0}
\setcounter{Hfootnote}{0}
\setcounter{bookmark@seq@number}{857}
\setcounter{section@level}{3}
}
