\relax 
\gdef \LT@clxii {\LT@entry 
    {1}{152.92793pt}\LT@entry 
    {1}{258.72162pt}\LT@entry 
    {1}{12.0pt}}
\@writefile{toc}{\contentsline {section}{\numberline {171}Module cuon.Order.standard\_pickup\_note}{441}{section.171}}
\newlabel{cuon:Order:standard_pickup_note}{{171}{441}{Module cuon.Order.standard\_pickup\_note\relax }{section.171}{}}
\@writefile{toc}{\contentsline {subsection}{\numberline {171.1}Variables}{441}{subsection.171.1}}
\@writefile{toc}{\contentsline {subsection}{\numberline {171.2}Class standard\_pickup\_note}{441}{subsection.171.2}}
\newlabel{cuon:Order:standard_pickup_note:standard_pickup_note}{{171.2}{441}{Class standard\_pickup\_note\relax }{subsection.171.2}{}}
\@writefile{toc}{\contentsline {subsubsection}{\numberline {171.2.1}Methods}{441}{subsubsection.171.2.1}}
\newlabel{cuon:Order:standard_pickup_note:standard_pickup_note:__init__}{{171.2.1}{441}{Methods\relax }{subsubsection.171.2.1}{}}
\newlabel{cuon:Order:standard_pickup_note:standard_pickup_note:on_ok_button1_clicked}{{171.2.1}{441}{Methods\relax }{subsubsection.171.2.1}{}}
\@setckpt{cuon.Order.standard_pickup_note-module}{
\setcounter{page}{442}
\setcounter{equation}{0}
\setcounter{enumi}{0}
\setcounter{enumii}{0}
\setcounter{enumiii}{0}
\setcounter{enumiv}{0}
\setcounter{footnote}{0}
\setcounter{mpfootnote}{0}
\setcounter{part}{0}
\setcounter{section}{171}
\setcounter{subsection}{2}
\setcounter{subsubsection}{1}
\setcounter{paragraph}{0}
\setcounter{subparagraph}{0}
\setcounter{figure}{0}
\setcounter{table}{162}
\setcounter{LT@tables}{162}
\setcounter{LT@chunks}{4}
\setcounter{Item}{0}
\setcounter{Hfootnote}{0}
\setcounter{bookmark@seq@number}{649}
\setcounter{section@level}{3}
}
