\relax 
\@writefile{toc}{\contentsline {section}{\numberline {2}Package cuon}{36}{section.2}}
\newlabel{cuon}{{2}{36}{Package cuon\relax }{section.2}{}}
\@writefile{toc}{\contentsline {subsection}{\numberline {2.1}Modules}{36}{subsection.2.1}}
\gdef \LT@ii {\LT@entry 
    {1}{152.92793pt}\LT@entry 
    {1}{258.72162pt}\LT@entry 
    {1}{12.0pt}}
\@writefile{toc}{\contentsline {subsection}{\numberline {2.2}Variables}{41}{subsection.2.2}}
\@setckpt{cuon-module}{
\setcounter{page}{42}
\setcounter{equation}{0}
\setcounter{enumi}{0}
\setcounter{enumii}{0}
\setcounter{enumiii}{0}
\setcounter{enumiv}{0}
\setcounter{footnote}{0}
\setcounter{mpfootnote}{0}
\setcounter{part}{0}
\setcounter{section}{2}
\setcounter{subsection}{2}
\setcounter{subsubsection}{0}
\setcounter{paragraph}{0}
\setcounter{subparagraph}{0}
\setcounter{figure}{0}
\setcounter{table}{2}
\setcounter{LT@tables}{2}
\setcounter{LT@chunks}{4}
\setcounter{Item}{0}
\setcounter{Hfootnote}{0}
\setcounter{bookmark@seq@number}{9}
\setcounter{section@level}{2}
}
