\relax 
\gdef \LT@cix {\LT@entry 
    {1}{152.92793pt}\LT@entry 
    {1}{258.72162pt}\LT@entry 
    {1}{12.0pt}}
\@writefile{toc}{\contentsline {section}{\numberline {114}Module cuon.Garden.SingleBotanyFamily}{308}{section.114}}
\newlabel{cuon:Garden:SingleBotanyFamily}{{114}{308}{Module cuon.Garden.SingleBotanyFamily\relax }{section.114}{}}
\@writefile{toc}{\contentsline {subsection}{\numberline {114.1}Variables}{308}{subsection.114.1}}
\@writefile{toc}{\contentsline {subsection}{\numberline {114.2}Class SingleBotanyFamily}{308}{subsection.114.2}}
\newlabel{cuon:Garden:SingleBotanyFamily:SingleBotanyFamily}{{114.2}{308}{Class SingleBotanyFamily\relax }{subsection.114.2}{}}
\@writefile{toc}{\contentsline {subsubsection}{\numberline {114.2.1}Methods}{308}{subsubsection.114.2.1}}
\@setckpt{cuon.Garden.SingleBotanyFamily-module}{
\setcounter{page}{310}
\setcounter{equation}{0}
\setcounter{enumi}{0}
\setcounter{enumii}{0}
\setcounter{enumiii}{0}
\setcounter{enumiv}{0}
\setcounter{footnote}{0}
\setcounter{mpfootnote}{0}
\setcounter{part}{0}
\setcounter{section}{114}
\setcounter{subsection}{2}
\setcounter{subsubsection}{1}
\setcounter{paragraph}{0}
\setcounter{subparagraph}{0}
\setcounter{figure}{0}
\setcounter{table}{109}
\setcounter{LT@tables}{109}
\setcounter{LT@chunks}{4}
\setcounter{Item}{0}
\setcounter{Hfootnote}{0}
\setcounter{bookmark@seq@number}{431}
\setcounter{section@level}{3}
}
