\relax 
\gdef \LT@clxxiii {\LT@entry 
    {1}{152.92793pt}\LT@entry 
    {1}{258.72162pt}\LT@entry 
    {1}{12.0pt}}
\@writefile{toc}{\contentsline {section}{\numberline {182}Module cuon.Project.SingleProjectPhases}{463}{section.182}}
\newlabel{cuon:Project:SingleProjectPhases}{{182}{463}{Module cuon.Project.SingleProjectPhases\relax }{section.182}{}}
\@writefile{toc}{\contentsline {subsection}{\numberline {182.1}Variables}{463}{subsection.182.1}}
\@writefile{toc}{\contentsline {subsection}{\numberline {182.2}Class SingleProjectPhases}{463}{subsection.182.2}}
\newlabel{cuon:Project:SingleProjectPhases:SingleProjectPhases}{{182.2}{463}{Class SingleProjectPhases\relax }{subsection.182.2}{}}
\@writefile{toc}{\contentsline {subsubsection}{\numberline {182.2.1}Methods}{463}{subsubsection.182.2.1}}
\newlabel{cuon:Project:SingleProjectPhases:SingleProjectPhases:getInfoForID}{{182.2.1}{463}{Methods\relax }{subsubsection.182.2.1}{}}
\@setckpt{cuon.Project.SingleProjectPhases-module}{
\setcounter{page}{465}
\setcounter{equation}{0}
\setcounter{enumi}{0}
\setcounter{enumii}{0}
\setcounter{enumiii}{0}
\setcounter{enumiv}{0}
\setcounter{footnote}{0}
\setcounter{mpfootnote}{0}
\setcounter{part}{0}
\setcounter{section}{182}
\setcounter{subsection}{2}
\setcounter{subsubsection}{1}
\setcounter{paragraph}{0}
\setcounter{subparagraph}{0}
\setcounter{figure}{0}
\setcounter{table}{173}
\setcounter{LT@tables}{173}
\setcounter{LT@chunks}{4}
\setcounter{Item}{0}
\setcounter{Hfootnote}{0}
\setcounter{bookmark@seq@number}{690}
\setcounter{section@level}{3}
}
