\relax 
\gdef \LT@lxviii {\LT@entry 
    {1}{152.92793pt}\LT@entry 
    {1}{258.72162pt}\LT@entry 
    {1}{12.0pt}}
\@writefile{toc}{\contentsline {section}{\numberline {72}Module cuon.Databases.cyr\_load\_table}{205}{section.72}}
\newlabel{cuon:Databases:cyr_load_table}{{72}{205}{Module cuon.Databases.cyr\_load\_table\relax }{section.72}{}}
\@writefile{toc}{\contentsline {subsection}{\numberline {72.1}Variables}{205}{subsection.72.1}}
\@writefile{toc}{\contentsline {subsection}{\numberline {72.2}Class cyr\_load\_table}{205}{subsection.72.2}}
\newlabel{cuon:Databases:cyr_load_table:cyr_load_table}{{72.2}{205}{Class cyr\_load\_table\relax }{subsection.72.2}{}}
\@writefile{toc}{\contentsline {subsubsection}{\numberline {72.2.1}Methods}{205}{subsubsection.72.2.1}}
\newlabel{cuon:Databases:cyr_load_table:cyr_load_table:getListOfTableNames}{{72.2.1}{205}{Methods\relax }{subsubsection.72.2.1}{}}
\newlabel{cuon:Databases:cyr_load_table:cyr_load_table:getListOfSequenceNames}{{72.2.1}{205}{Methods\relax }{subsubsection.72.2.1}{}}
\newlabel{cuon:Databases:cyr_load_table:cyr_load_table:getListOfForeignKeyNames}{{72.2.1}{205}{Methods\relax }{subsubsection.72.2.1}{}}
\newlabel{cuon:Databases:cyr_load_table:cyr_load_table:getForeignKeyDefinition}{{72.2.1}{205}{Methods\relax }{subsubsection.72.2.1}{}}
\newlabel{cuon:Databases:cyr_load_table:cyr_load_table:getDatabaseDescription}{{72.2.1}{205}{Methods\relax }{subsubsection.72.2.1}{}}
\newlabel{cuon:Databases:cyr_load_table:cyr_load_table:getSequenceDefinition}{{72.2.1}{206}{Methods\relax }{subsubsection.72.2.1}{}}
\newlabel{cuon:Databases:cyr_load_table:cyr_load_table:getTableDefinition}{{72.2.1}{206}{Methods\relax }{subsubsection.72.2.1}{}}
\newlabel{cuon:Databases:cyr_load_table:cyr_load_table:saveTable}{{72.2.1}{206}{Methods\relax }{subsubsection.72.2.1}{}}
\newlabel{cuon:Databases:cyr_load_table:cyr_load_table:loadTable}{{72.2.1}{206}{Methods\relax }{subsubsection.72.2.1}{}}
\newlabel{cuon:Databases:cyr_load_table:cyr_load_table:loadLocalTable}{{72.2.1}{206}{Methods\relax }{subsubsection.72.2.1}{}}
\newlabel{cuon:Databases:cyr_load_table:cyr_load_table:loadTableOld}{{72.2.1}{206}{Methods\relax }{subsubsection.72.2.1}{}}
\@setckpt{cuon.Databases.cyr_load_table-module}{
\setcounter{page}{208}
\setcounter{equation}{0}
\setcounter{enumi}{0}
\setcounter{enumii}{0}
\setcounter{enumiii}{0}
\setcounter{enumiv}{0}
\setcounter{footnote}{0}
\setcounter{mpfootnote}{0}
\setcounter{part}{0}
\setcounter{section}{72}
\setcounter{subsection}{2}
\setcounter{subsubsection}{1}
\setcounter{paragraph}{0}
\setcounter{subparagraph}{0}
\setcounter{figure}{0}
\setcounter{table}{68}
\setcounter{LT@tables}{68}
\setcounter{LT@chunks}{4}
\setcounter{Item}{0}
\setcounter{Hfootnote}{0}
\setcounter{bookmark@seq@number}{273}
\setcounter{section@level}{3}
}
