\relax 
\gdef \LT@cxxxix {\LT@entry 
    {1}{152.92793pt}\LT@entry 
    {1}{258.72162pt}\LT@entry 
    {1}{12.0pt}}
\@writefile{toc}{\contentsline {section}{\numberline {144}Module cuon.Leasing.leasing}{386}{section.144}}
\newlabel{cuon:Leasing:leasing}{{144}{386}{Module cuon.Leasing.leasing\relax }{section.144}{}}
\@writefile{toc}{\contentsline {subsection}{\numberline {144.1}Variables}{386}{subsection.144.1}}
\@writefile{toc}{\contentsline {subsection}{\numberline {144.2}Class leasingwindow}{386}{subsection.144.2}}
\newlabel{cuon:Leasing:leasing:leasingwindow}{{144.2}{386}{Class leasingwindow\relax }{subsection.144.2}{}}
\@writefile{toc}{\contentsline {subsubsection}{\numberline {144.2.1}Methods}{386}{subsubsection.144.2.1}}
\newlabel{cuon:Leasing:leasing:leasingwindow:on_quit1_activate}{{144.2.1}{386}{Methods\relax }{subsubsection.144.2.1}{}}
\newlabel{cuon:Leasing:leasing:leasingwindow:on_save1_activate}{{144.2.1}{387}{Methods\relax }{subsubsection.144.2.1}{}}
\newlabel{cuon:Leasing:leasing:leasingwindow:on_new1_activate}{{144.2.1}{387}{Methods\relax }{subsubsection.144.2.1}{}}
\newlabel{cuon:Leasing:leasing:leasingwindow:on_edit1_activate}{{144.2.1}{387}{Methods\relax }{subsubsection.144.2.1}{}}
\newlabel{cuon:Leasing:leasing:leasingwindow:on_delete1_activate}{{144.2.1}{387}{Methods\relax }{subsubsection.144.2.1}{}}
\newlabel{cuon:Leasing:leasing:leasingwindow:on_parts_list_save_activate}{{144.2.1}{387}{Methods\relax }{subsubsection.144.2.1}{}}
\newlabel{cuon:Leasing:leasing:leasingwindow:on_parts_list_new_activate}{{144.2.1}{387}{Methods\relax }{subsubsection.144.2.1}{}}
\newlabel{cuon:Leasing:leasing:leasingwindow:on_parts_list_edit_activate}{{144.2.1}{387}{Methods\relax }{subsubsection.144.2.1}{}}
\newlabel{cuon:Leasing:leasing:leasingwindow:on_parts_list_delete_activate}{{144.2.1}{387}{Methods\relax }{subsubsection.144.2.1}{}}
\newlabel{cuon:Leasing:leasing:leasingwindow:on_PurchaseSave1_activate}{{144.2.1}{387}{Methods\relax }{subsubsection.144.2.1}{}}
\newlabel{cuon:Leasing:leasing:leasingwindow:on_PurchaseNew1_activate}{{144.2.1}{387}{Methods\relax }{subsubsection.144.2.1}{}}
\newlabel{cuon:Leasing:leasing:leasingwindow:on_PurchaseEdit1_activate}{{144.2.1}{387}{Methods\relax }{subsubsection.144.2.1}{}}
\newlabel{cuon:Leasing:leasing:leasingwindow:on_PurchaseDelete1_activate}{{144.2.1}{387}{Methods\relax }{subsubsection.144.2.1}{}}
\newlabel{cuon:Leasing:leasing:leasingwindow:on_SalesSave1_activate}{{144.2.1}{387}{Methods\relax }{subsubsection.144.2.1}{}}
\newlabel{cuon:Leasing:leasing:leasingwindow:on_SalesNew1_activate}{{144.2.1}{387}{Methods\relax }{subsubsection.144.2.1}{}}
\newlabel{cuon:Leasing:leasing:leasingwindow:on_SalesEdit1_activate}{{144.2.1}{387}{Methods\relax }{subsubsection.144.2.1}{}}
\newlabel{cuon:Leasing:leasing:leasingwindow:on_SalesDelete1_activate}{{144.2.1}{387}{Methods\relax }{subsubsection.144.2.1}{}}
\newlabel{cuon:Leasing:leasing:leasingwindow:on_WebshopSave1_activate}{{144.2.1}{387}{Methods\relax }{subsubsection.144.2.1}{}}
\newlabel{cuon:Leasing:leasing:leasingwindow:on_WebshopNew1_activate}{{144.2.1}{387}{Methods\relax }{subsubsection.144.2.1}{}}
\newlabel{cuon:Leasing:leasing:leasingwindow:on_WebshopEdit1_activate}{{144.2.1}{387}{Methods\relax }{subsubsection.144.2.1}{}}
\newlabel{cuon:Leasing:leasing:leasingwindow:on_WebshopClear1_activate}{{144.2.1}{387}{Methods\relax }{subsubsection.144.2.1}{}}
\newlabel{cuon:Leasing:leasing:leasingwindow:on_bChooseCategory_clicked}{{144.2.1}{388}{Methods\relax }{subsubsection.144.2.1}{}}
\newlabel{cuon:Leasing:leasing:leasingwindow:on_StockSave1_activate}{{144.2.1}{388}{Methods\relax }{subsubsection.144.2.1}{}}
\newlabel{cuon:Leasing:leasing:leasingwindow:on_StockNew1_activate}{{144.2.1}{388}{Methods\relax }{subsubsection.144.2.1}{}}
\newlabel{cuon:Leasing:leasing:leasingwindow:on_StockEdit1_activate}{{144.2.1}{388}{Methods\relax }{subsubsection.144.2.1}{}}
\newlabel{cuon:Leasing:leasing:leasingwindow:on_StockClear1_activate}{{144.2.1}{388}{Methods\relax }{subsubsection.144.2.1}{}}
\newlabel{cuon:Leasing:leasing:leasingwindow:on_liLeasingNumber1_activate}{{144.2.1}{388}{Methods\relax }{subsubsection.144.2.1}{}}
\newlabel{cuon:Leasing:leasing:leasingwindow:on_one_standard1_activate}{{144.2.1}{388}{Methods\relax }{subsubsection.144.2.1}{}}
\newlabel{cuon:Leasing:leasing:leasingwindow:on_sp101_activate}{{144.2.1}{388}{Methods\relax }{subsubsection.144.2.1}{}}
\newlabel{cuon:Leasing:leasing:leasingwindow:on_sp102_activate}{{144.2.1}{388}{Methods\relax }{subsubsection.144.2.1}{}}
\newlabel{cuon:Leasing:leasing:leasingwindow:on_two_standard1_activate}{{144.2.1}{388}{Methods\relax }{subsubsection.144.2.1}{}}
\newlabel{cuon:Leasing:leasing:leasingwindow:on_sp201_activate}{{144.2.1}{388}{Methods\relax }{subsubsection.144.2.1}{}}
\newlabel{cuon:Leasing:leasing:leasingwindow:on_sp202_activate}{{144.2.1}{388}{Methods\relax }{subsubsection.144.2.1}{}}
\newlabel{cuon:Leasing:leasing:leasingwindow:on_three_standard1_activate}{{144.2.1}{388}{Methods\relax }{subsubsection.144.2.1}{}}
\newlabel{cuon:Leasing:leasing:leasingwindow:on_sp301_activate}{{144.2.1}{388}{Methods\relax }{subsubsection.144.2.1}{}}
\newlabel{cuon:Leasing:leasing:leasingwindow:on_sp302_activate}{{144.2.1}{388}{Methods\relax }{subsubsection.144.2.1}{}}
\newlabel{cuon:Leasing:leasing:leasingwindow:on_four_standard1_activate}{{144.2.1}{388}{Methods\relax }{subsubsection.144.2.1}{}}
\newlabel{cuon:Leasing:leasing:leasingwindow:on_sp401_activate}{{144.2.1}{388}{Methods\relax }{subsubsection.144.2.1}{}}
\newlabel{cuon:Leasing:leasing:leasingwindow:on_sp402_activate}{{144.2.1}{388}{Methods\relax }{subsubsection.144.2.1}{}}
\newlabel{cuon:Leasing:leasing:leasingwindow:on_tbNew_clicked}{{144.2.1}{388}{Methods\relax }{subsubsection.144.2.1}{}}
\newlabel{cuon:Leasing:leasing:leasingwindow:on_tbEdit_clicked}{{144.2.1}{388}{Methods\relax }{subsubsection.144.2.1}{}}
\newlabel{cuon:Leasing:leasing:leasingwindow:on_tbSave_clicked}{{144.2.1}{389}{Methods\relax }{subsubsection.144.2.1}{}}
\newlabel{cuon:Leasing:leasing:leasingwindow:on_chooseLeasing_activate}{{144.2.1}{389}{Methods\relax }{subsubsection.144.2.1}{}}
\newlabel{cuon:Leasing:leasing:leasingwindow:on_tree1_row_activated}{{144.2.1}{389}{Methods\relax }{subsubsection.144.2.1}{}}
\newlabel{cuon:Leasing:leasing:leasingwindow:on_bChooseVendor_clicked}{{144.2.1}{389}{Methods\relax }{subsubsection.144.2.1}{}}
\newlabel{cuon:Leasing:leasing:leasingwindow:on_eAddressNumber_changed}{{144.2.1}{389}{Methods\relax }{subsubsection.144.2.1}{}}
\newlabel{cuon:Leasing:leasing:leasingwindow:on_bSearch_clicked}{{144.2.1}{389}{Methods\relax }{subsubsection.144.2.1}{}}
\newlabel{cuon:Leasing:leasing:leasingwindow:on_eFindNumber_editing_done}{{144.2.1}{389}{Methods\relax }{subsubsection.144.2.1}{}}
\newlabel{cuon:Leasing:leasing:leasingwindow:on_eFindNumber_key_press_event}{{144.2.1}{389}{Methods\relax }{subsubsection.144.2.1}{}}
\newlabel{cuon:Leasing:leasing:leasingwindow:on_eFindDesignation_editing_done}{{144.2.1}{389}{Methods\relax }{subsubsection.144.2.1}{}}
\newlabel{cuon:Leasing:leasing:leasingwindow:on_eFindDesignation_key_press_event}{{144.2.1}{389}{Methods\relax }{subsubsection.144.2.1}{}}
\newlabel{cuon:Leasing:leasing:leasingwindow:on_eFindMaterialGroupID_key_press_event}{{144.2.1}{389}{Methods\relax }{subsubsection.144.2.1}{}}
\newlabel{cuon:Leasing:leasing:leasingwindow:searchLeasing}{{144.2.1}{389}{Methods\relax }{subsubsection.144.2.1}{}}
\newlabel{cuon:Leasing:leasing:leasingwindow:on_bChooseMaterialGroup_clicked}{{144.2.1}{389}{Methods\relax }{subsubsection.144.2.1}{}}
\newlabel{cuon:Leasing:leasing:leasingwindow:on_eCategoryNr_changed}{{144.2.1}{389}{Methods\relax }{subsubsection.144.2.1}{}}
\newlabel{cuon:Leasing:leasing:leasingwindow:on_bSearchAssociated_clicked}{{144.2.1}{389}{Methods\relax }{subsubsection.144.2.1}{}}
\newlabel{cuon:Leasing:leasing:leasingwindow:on_eAssociatedNr_changed}{{144.2.1}{389}{Methods\relax }{subsubsection.144.2.1}{}}
\newlabel{cuon:Leasing:leasing:leasingwindow:on_bGotoAssociated_clicked}{{144.2.1}{389}{Methods\relax }{subsubsection.144.2.1}{}}
\newlabel{cuon:Leasing:leasing:leasingwindow:on_cbAssociatedWith_changed}{{144.2.1}{389}{Methods\relax }{subsubsection.144.2.1}{}}
\newlabel{cuon:Leasing:leasing:leasingwindow:on_bQuickAppend_clicked}{{144.2.1}{389}{Methods\relax }{subsubsection.144.2.1}{}}
\newlabel{cuon:Leasing:leasing:leasingwindow:on_bChooseManufactor_clicked}{{144.2.1}{389}{Methods\relax }{subsubsection.144.2.1}{}}
\newlabel{cuon:Leasing:leasing:leasingwindow:on_eManufactorNumber_changed}{{144.2.1}{390}{Methods\relax }{subsubsection.144.2.1}{}}
\newlabel{cuon:Leasing:leasing:leasingwindow:on_bShowDMS_clicked}{{144.2.1}{390}{Methods\relax }{subsubsection.144.2.1}{}}
\newlabel{cuon:Leasing:leasing:leasingwindow:refreshTree}{{144.2.1}{390}{Methods\relax }{subsubsection.144.2.1}{}}
\newlabel{cuon:Leasing:leasing:leasingwindow:tabChanged}{{144.2.1}{390}{Methods\relax }{subsubsection.144.2.1}{}}
\@setckpt{cuon.Leasing.leasing-module}{
\setcounter{page}{392}
\setcounter{equation}{0}
\setcounter{enumi}{0}
\setcounter{enumii}{0}
\setcounter{enumiii}{0}
\setcounter{enumiv}{0}
\setcounter{footnote}{0}
\setcounter{mpfootnote}{0}
\setcounter{part}{0}
\setcounter{section}{144}
\setcounter{subsection}{2}
\setcounter{subsubsection}{1}
\setcounter{paragraph}{0}
\setcounter{subparagraph}{0}
\setcounter{figure}{0}
\setcounter{table}{139}
\setcounter{LT@tables}{139}
\setcounter{LT@chunks}{4}
\setcounter{Item}{0}
\setcounter{Hfootnote}{0}
\setcounter{bookmark@seq@number}{548}
\setcounter{section@level}{3}
}
