\relax 
\gdef \LT@xiv {\LT@entry 
    {1}{152.92793pt}\LT@entry 
    {1}{258.72162pt}\LT@entry 
    {1}{12.0pt}}
\@writefile{toc}{\contentsline {section}{\numberline {15}Module cuon.Addresses.SingleMisc}{63}{section.15}}
\newlabel{cuon:Addresses:SingleMisc}{{15}{63}{Module cuon.Addresses.SingleMisc\relax }{section.15}{}}
\@writefile{toc}{\contentsline {subsection}{\numberline {15.1}Variables}{63}{subsection.15.1}}
\@writefile{toc}{\contentsline {subsection}{\numberline {15.2}Class SingleMisc}{63}{subsection.15.2}}
\newlabel{cuon:Addresses:SingleMisc:SingleMisc}{{15.2}{63}{Class SingleMisc\relax }{subsection.15.2}{}}
\@writefile{toc}{\contentsline {subsubsection}{\numberline {15.2.1}Methods}{63}{subsubsection.15.2.1}}
\@setckpt{cuon.Addresses.SingleMisc-module}{
\setcounter{page}{65}
\setcounter{equation}{0}
\setcounter{enumi}{0}
\setcounter{enumii}{0}
\setcounter{enumiii}{0}
\setcounter{enumiv}{0}
\setcounter{footnote}{0}
\setcounter{mpfootnote}{0}
\setcounter{part}{0}
\setcounter{section}{15}
\setcounter{subsection}{2}
\setcounter{subsubsection}{1}
\setcounter{paragraph}{0}
\setcounter{subparagraph}{0}
\setcounter{figure}{0}
\setcounter{table}{14}
\setcounter{LT@tables}{14}
\setcounter{LT@chunks}{4}
\setcounter{Item}{0}
\setcounter{Hfootnote}{0}
\setcounter{bookmark@seq@number}{57}
\setcounter{section@level}{3}
}
