\relax 
\gdef \LT@lviii {\LT@entry 
    {1}{152.92793pt}\LT@entry 
    {1}{258.72162pt}\LT@entry 
    {1}{12.0pt}}
\@writefile{toc}{\contentsline {section}{\numberline {61}Module cuon.DMS.SingleDMS}{178}{section.61}}
\newlabel{cuon:DMS:SingleDMS}{{61}{178}{Module cuon.DMS.SingleDMS\relax }{section.61}{}}
\@writefile{toc}{\contentsline {subsection}{\numberline {61.1}Variables}{178}{subsection.61.1}}
\@writefile{toc}{\contentsline {subsection}{\numberline {61.2}Class SingleDMS}{178}{subsection.61.2}}
\newlabel{cuon:DMS:SingleDMS:SingleDMS}{{61.2}{178}{Class SingleDMS\relax }{subsection.61.2}{}}
\@writefile{toc}{\contentsline {subsubsection}{\numberline {61.2.1}Methods}{178}{subsubsection.61.2.1}}
\newlabel{cuon:DMS:SingleDMS:SingleDMS:createTmpFile}{{61.2.1}{178}{Methods\relax }{subsubsection.61.2.1}{}}
\newlabel{cuon:DMS:SingleDMS:SingleDMS:loadDocument}{{61.2.1}{178}{Methods\relax }{subsubsection.61.2.1}{}}
\newlabel{cuon:DMS:SingleDMS:SingleDMS:loadNotes0SaveDocument}{{61.2.1}{178}{Methods\relax }{subsubsection.61.2.1}{}}
\newlabel{cuon:DMS:SingleDMS:SingleDMS:getOrigin}{{61.2.1}{179}{Methods\relax }{subsubsection.61.2.1}{}}
\newlabel{cuon:DMS:SingleDMS:SingleDMS:setAllWidgetsVisible}{{61.2.1}{179}{Methods\relax }{subsubsection.61.2.1}{}}
\newlabel{cuon:DMS:SingleDMS:SingleDMS:setReadWidgetsVisible}{{61.2.1}{179}{Methods\relax }{subsubsection.61.2.1}{}}
\newlabel{cuon:DMS:SingleDMS:SingleDMS:setWriteWidgetsVisible}{{61.2.1}{179}{Methods\relax }{subsubsection.61.2.1}{}}
\newlabel{cuon:DMS:SingleDMS:SingleDMS:checkPermissions}{{61.2.1}{179}{Methods\relax }{subsubsection.61.2.1}{}}
\newlabel{cuon:DMS:SingleDMS:SingleDMS:loadMainLogo}{{61.2.1}{179}{Methods\relax }{subsubsection.61.2.1}{}}
\newlabel{cuon:DMS:SingleDMS:SingleDMS:loadDocumentForID}{{61.2.1}{179}{Methods\relax }{subsubsection.61.2.1}{}}
\@setckpt{cuon.DMS.SingleDMS-module}{
\setcounter{page}{181}
\setcounter{equation}{0}
\setcounter{enumi}{0}
\setcounter{enumii}{0}
\setcounter{enumiii}{0}
\setcounter{enumiv}{0}
\setcounter{footnote}{0}
\setcounter{mpfootnote}{0}
\setcounter{part}{0}
\setcounter{section}{61}
\setcounter{subsection}{2}
\setcounter{subsubsection}{1}
\setcounter{paragraph}{0}
\setcounter{subparagraph}{0}
\setcounter{figure}{0}
\setcounter{table}{58}
\setcounter{LT@tables}{58}
\setcounter{LT@chunks}{4}
\setcounter{Item}{0}
\setcounter{Hfootnote}{0}
\setcounter{bookmark@seq@number}{231}
\setcounter{section@level}{3}
}
