\relax 
\gdef \LT@ccxl {\LT@entry 
    {1}{152.92793pt}\LT@entry 
    {1}{258.72162pt}\LT@entry 
    {1}{12.0pt}}
\@writefile{toc}{\contentsline {section}{\numberline {252}Module cuon.XMLRPC.xmlrpc}{621}{section.252}}
\newlabel{cuon:XMLRPC:xmlrpc}{{252}{621}{Module cuon.XMLRPC.xmlrpc\relax }{section.252}{}}
\@writefile{toc}{\contentsline {subsection}{\numberline {252.1}Variables}{621}{subsection.252.1}}
\@writefile{toc}{\contentsline {subsection}{\numberline {252.2}Class myXmlRpc}{621}{subsection.252.2}}
\newlabel{cuon:XMLRPC:xmlrpc:myXmlRpc}{{252.2}{621}{Class myXmlRpc\relax }{subsection.252.2}{}}
\@writefile{toc}{\contentsline {subsubsection}{\numberline {252.2.1}Methods}{621}{subsubsection.252.2.1}}
\newlabel{cuon:XMLRPC:xmlrpc:myXmlRpc:callRP}{{252.2.1}{621}{Methods\relax }{subsubsection.252.2.1}{}}
\newlabel{cuon:XMLRPC:xmlrpc:myXmlRpc:getHelpServer}{{252.2.1}{621}{Methods\relax }{subsubsection.252.2.1}{}}
\newlabel{cuon:XMLRPC:xmlrpc:myXmlRpc:getInfoOfTable}{{252.2.1}{621}{Methods\relax }{subsubsection.252.2.1}{}}
\newlabel{cuon:XMLRPC:xmlrpc:myXmlRpc:getMyServer}{{252.2.1}{621}{Methods\relax }{subsubsection.252.2.1}{}}
\newlabel{cuon:XMLRPC:xmlrpc:myXmlRpc:getServer}{{252.2.1}{622}{Methods\relax }{subsubsection.252.2.1}{}}
\newlabel{cuon:XMLRPC:xmlrpc:myXmlRpc:getServer2}{{252.2.1}{622}{Methods\relax }{subsubsection.252.2.1}{}}
\newlabel{cuon:XMLRPC:xmlrpc:myXmlRpc:getZopeServer}{{252.2.1}{622}{Methods\relax }{subsubsection.252.2.1}{}}
\newlabel{cuon:XMLRPC:xmlrpc:myXmlRpc:test}{{252.2.1}{622}{Methods\relax }{subsubsection.252.2.1}{}}
\@setckpt{cuon.XMLRPC.xmlrpc-module}{
\setcounter{page}{623}
\setcounter{equation}{0}
\setcounter{enumi}{1}
\setcounter{enumii}{0}
\setcounter{enumiii}{0}
\setcounter{enumiv}{0}
\setcounter{footnote}{0}
\setcounter{mpfootnote}{0}
\setcounter{part}{0}
\setcounter{section}{252}
\setcounter{subsection}{2}
\setcounter{subsubsection}{1}
\setcounter{paragraph}{0}
\setcounter{subparagraph}{0}
\setcounter{figure}{0}
\setcounter{table}{240}
\setcounter{LT@tables}{240}
\setcounter{LT@chunks}{4}
\setcounter{Item}{2}
\setcounter{Hfootnote}{0}
\setcounter{bookmark@seq@number}{949}
\setcounter{section@level}{3}
}
