\relax 
\gdef \LT@lxx {\LT@entry 
    {1}{152.92793pt}\LT@entry 
    {1}{258.72162pt}\LT@entry 
    {1}{12.0pt}}
\@writefile{toc}{\contentsline {section}{\numberline {74}Module cuon.Databases.databases}{209}{section.74}}
\newlabel{cuon:Databases:databases}{{74}{209}{Module cuon.Databases.databases\relax }{section.74}{}}
\@writefile{toc}{\contentsline {subsection}{\numberline {74.1}Variables}{209}{subsection.74.1}}
\@writefile{toc}{\contentsline {subsection}{\numberline {74.2}Class databaseswindow}{209}{subsection.74.2}}
\newlabel{cuon:Databases:databases:databaseswindow}{{74.2}{209}{Class databaseswindow\relax }{subsection.74.2}{}}
\@writefile{toc}{\contentsline {subsubsection}{\numberline {74.2.1}Methods}{210}{subsubsection.74.2.1}}
\newlabel{cuon:Databases:databases:databaseswindow:on_start_complete_update1_activate}{{74.2.1}{210}{Methods\relax }{subsubsection.74.2.1}{}}
\newlabel{cuon:Databases:databases:databaseswindow:on_save_client1_activate}{{74.2.1}{210}{Methods\relax }{subsubsection.74.2.1}{}}
\newlabel{cuon:Databases:databases:databaseswindow:on_close1_activate}{{74.2.1}{210}{Methods\relax }{subsubsection.74.2.1}{}}
\newlabel{cuon:Databases:databases:databaseswindow:on_dbcheck1_activate}{{74.2.1}{210}{Methods\relax }{subsubsection.74.2.1}{}}
\newlabel{cuon:Databases:databases:databaseswindow:on_trigger1_activate}{{74.2.1}{210}{Methods\relax }{subsubsection.74.2.1}{}}
\newlabel{cuon:Databases:databases:databaseswindow:on_load_defaults1_activate}{{74.2.1}{210}{Methods\relax }{subsubsection.74.2.1}{}}
\newlabel{cuon:Databases:databases:databaseswindow:on_grants1_activate}{{74.2.1}{210}{Methods\relax }{subsubsection.74.2.1}{}}
\newlabel{cuon:Databases:databases:databaseswindow:on_import_zipcode1_activate}{{74.2.1}{210}{Methods\relax }{subsubsection.74.2.1}{}}
\newlabel{cuon:Databases:databases:databaseswindow:on_fd_ok_button1_clicked}{{74.2.1}{210}{Methods\relax }{subsubsection.74.2.1}{}}
\newlabel{cuon:Databases:databases:databaseswindow:on_fd_cancel_button1_clicked}{{74.2.1}{210}{Methods\relax }{subsubsection.74.2.1}{}}
\newlabel{cuon:Databases:databases:databaseswindow:on_import_generic1_activate}{{74.2.1}{210}{Methods\relax }{subsubsection.74.2.1}{}}
\newlabel{cuon:Databases:databases:databaseswindow:on_import_generic2_activate}{{74.2.1}{210}{Methods\relax }{subsubsection.74.2.1}{}}
\newlabel{cuon:Databases:databases:databaseswindow:startCheck}{{74.2.1}{210}{Methods\relax }{subsubsection.74.2.1}{}}
\newlabel{cuon:Databases:databases:databaseswindow:startCheckSequences}{{74.2.1}{210}{Methods\relax }{subsubsection.74.2.1}{}}
\newlabel{cuon:Databases:databases:databaseswindow:dbcheck}{{74.2.1}{210}{Methods\relax }{subsubsection.74.2.1}{}}
\newlabel{cuon:Databases:databases:databaseswindow:createTable}{{74.2.1}{210}{Methods\relax }{subsubsection.74.2.1}{}}
\newlabel{cuon:Databases:databases:databaseswindow:checkColumn}{{74.2.1}{210}{Methods\relax }{subsubsection.74.2.1}{}}
\newlabel{cuon:Databases:databases:databaseswindow:getSqlField}{{74.2.1}{211}{Methods\relax }{subsubsection.74.2.1}{}}
\newlabel{cuon:Databases:databases:databaseswindow:createColumn}{{74.2.1}{211}{Methods\relax }{subsubsection.74.2.1}{}}
\newlabel{cuon:Databases:databases:databaseswindow:modifyColumn}{{74.2.1}{211}{Methods\relax }{subsubsection.74.2.1}{}}
\newlabel{cuon:Databases:databases:databaseswindow:startXMLCheck}{{74.2.1}{211}{Methods\relax }{subsubsection.74.2.1}{}}
\newlabel{cuon:Databases:databases:databaseswindow:saveGladeFiles}{{74.2.1}{211}{Methods\relax }{subsubsection.74.2.1}{}}
\newlabel{cuon:Databases:databases:databaseswindow:saveReportFiles}{{74.2.1}{211}{Methods\relax }{subsubsection.74.2.1}{}}
\newlabel{cuon:Databases:databases:databaseswindow:importZip}{{74.2.1}{211}{Methods\relax }{subsubsection.74.2.1}{}}
\newlabel{cuon:Databases:databases:databaseswindow:setGrants}{{74.2.1}{211}{Methods\relax }{subsubsection.74.2.1}{}}
\newlabel{cuon:Databases:databases:databaseswindow:createProcedureAndTrigger}{{74.2.1}{211}{Methods\relax }{subsubsection.74.2.1}{}}
\newlabel{cuon:Databases:databases:databaseswindow:on_checkGardenSchedules_activate}{{74.2.1}{211}{Methods\relax }{subsubsection.74.2.1}{}}
\@setckpt{cuon.Databases.databases-module}{
\setcounter{page}{213}
\setcounter{equation}{0}
\setcounter{enumi}{0}
\setcounter{enumii}{0}
\setcounter{enumiii}{0}
\setcounter{enumiv}{0}
\setcounter{footnote}{0}
\setcounter{mpfootnote}{0}
\setcounter{part}{0}
\setcounter{section}{74}
\setcounter{subsection}{2}
\setcounter{subsubsection}{1}
\setcounter{paragraph}{0}
\setcounter{subparagraph}{0}
\setcounter{figure}{0}
\setcounter{table}{70}
\setcounter{LT@tables}{70}
\setcounter{LT@chunks}{4}
\setcounter{Item}{0}
\setcounter{Hfootnote}{0}
\setcounter{bookmark@seq@number}{281}
\setcounter{section@level}{3}
}
