\relax 
\gdef \LT@clx {\LT@entry 
    {1}{152.92793pt}\LT@entry 
    {1}{258.72162pt}\LT@entry 
    {1}{12.0pt}}
\@writefile{toc}{\contentsline {section}{\numberline {169}Module cuon.Order.standard\_delivery\_note}{439}{section.169}}
\newlabel{cuon:Order:standard_delivery_note}{{169}{439}{Module cuon.Order.standard\_delivery\_note\relax }{section.169}{}}
\@writefile{toc}{\contentsline {subsection}{\numberline {169.1}Variables}{439}{subsection.169.1}}
\@writefile{toc}{\contentsline {subsection}{\numberline {169.2}Class standard\_delivery\_note}{439}{subsection.169.2}}
\newlabel{cuon:Order:standard_delivery_note:standard_delivery_note}{{169.2}{439}{Class standard\_delivery\_note\relax }{subsection.169.2}{}}
\@writefile{toc}{\contentsline {subsubsection}{\numberline {169.2.1}Methods}{439}{subsubsection.169.2.1}}
\newlabel{cuon:Order:standard_delivery_note:standard_delivery_note:__init__}{{169.2.1}{439}{Methods\relax }{subsubsection.169.2.1}{}}
\newlabel{cuon:Order:standard_delivery_note:standard_delivery_note:on_ok_button1_clicked}{{169.2.1}{439}{Methods\relax }{subsubsection.169.2.1}{}}
\@setckpt{cuon.Order.standard_delivery_note-module}{
\setcounter{page}{440}
\setcounter{equation}{0}
\setcounter{enumi}{0}
\setcounter{enumii}{0}
\setcounter{enumiii}{0}
\setcounter{enumiv}{0}
\setcounter{footnote}{0}
\setcounter{mpfootnote}{0}
\setcounter{part}{0}
\setcounter{section}{169}
\setcounter{subsection}{2}
\setcounter{subsubsection}{1}
\setcounter{paragraph}{0}
\setcounter{subparagraph}{0}
\setcounter{figure}{0}
\setcounter{table}{160}
\setcounter{LT@tables}{160}
\setcounter{LT@chunks}{4}
\setcounter{Item}{0}
\setcounter{Hfootnote}{0}
\setcounter{bookmark@seq@number}{641}
\setcounter{section@level}{3}
}
