\relax 
\gdef \LT@cxcviii {\LT@entry 
    {1}{152.92793pt}\LT@entry 
    {1}{258.72162pt}\LT@entry 
    {1}{12.0pt}}
\@writefile{toc}{\contentsline {section}{\numberline {207}Module cuon.Staff.SingleStaff}{530}{section.207}}
\newlabel{cuon:Staff:SingleStaff}{{207}{530}{Module cuon.Staff.SingleStaff\relax }{section.207}{}}
\@writefile{toc}{\contentsline {subsection}{\numberline {207.1}Variables}{530}{subsection.207.1}}
\@writefile{toc}{\contentsline {subsection}{\numberline {207.2}Class SingleStaff}{530}{subsection.207.2}}
\newlabel{cuon:Staff:SingleStaff:SingleStaff}{{207.2}{530}{Class SingleStaff\relax }{subsection.207.2}{}}
\@writefile{toc}{\contentsline {subsubsection}{\numberline {207.2.1}Methods}{530}{subsubsection.207.2.1}}
\newlabel{cuon:Staff:SingleStaff:SingleStaff:getAddress}{{207.2.1}{530}{Methods\relax }{subsubsection.207.2.1}{}}
\newlabel{cuon:Staff:SingleStaff:SingleStaff:getAddressEntry}{{207.2.1}{530}{Methods\relax }{subsubsection.207.2.1}{}}
\newlabel{cuon:Staff:SingleStaff:SingleStaff:getFullName}{{207.2.1}{530}{Methods\relax }{subsubsection.207.2.1}{}}
\@setckpt{cuon.Staff.SingleStaff-module}{
\setcounter{page}{532}
\setcounter{equation}{0}
\setcounter{enumi}{0}
\setcounter{enumii}{0}
\setcounter{enumiii}{0}
\setcounter{enumiv}{0}
\setcounter{footnote}{0}
\setcounter{mpfootnote}{0}
\setcounter{part}{0}
\setcounter{section}{207}
\setcounter{subsection}{2}
\setcounter{subsubsection}{1}
\setcounter{paragraph}{0}
\setcounter{subparagraph}{0}
\setcounter{figure}{0}
\setcounter{table}{198}
\setcounter{LT@tables}{198}
\setcounter{LT@chunks}{4}
\setcounter{Item}{0}
\setcounter{Hfootnote}{0}
\setcounter{bookmark@seq@number}{785}
\setcounter{section@level}{3}
}
