\relax 
\gdef \LT@cxxxvi {\LT@entry 
    {1}{152.92793pt}\LT@entry 
    {1}{258.72162pt}\LT@entry 
    {1}{12.0pt}}
\@writefile{toc}{\contentsline {section}{\numberline {141}Module cuon.Help.help}{380}{section.141}}
\newlabel{cuon:Help:help}{{141}{380}{Module cuon.Help.help\relax }{section.141}{}}
\@writefile{toc}{\contentsline {subsection}{\numberline {141.1}Variables}{380}{subsection.141.1}}
\@writefile{toc}{\contentsline {subsection}{\numberline {141.2}Class helpwindow}{380}{subsection.141.2}}
\newlabel{cuon:Help:help:helpwindow}{{141.2}{380}{Class helpwindow\relax }{subsection.141.2}{}}
\@writefile{toc}{\contentsline {subsubsection}{\numberline {141.2.1}Methods}{380}{subsubsection.141.2.1}}
\newlabel{cuon:Help:help:helpwindow:on_tBack_clicked}{{141.2.1}{380}{Methods\relax }{subsubsection.141.2.1}{}}
\newlabel{cuon:Help:help:helpwindow:on_tForward_clicked}{{141.2.1}{380}{Methods\relax }{subsubsection.141.2.1}{}}
\newlabel{cuon:Help:help:helpwindow:on_tRelaod_clicked}{{141.2.1}{381}{Methods\relax }{subsubsection.141.2.1}{}}
\newlabel{cuon:Help:help:helpwindow:on_tQuit_clicked}{{141.2.1}{381}{Methods\relax }{subsubsection.141.2.1}{}}
\newlabel{cuon:Help:help:helpwindow:on_quit1_activate}{{141.2.1}{381}{Methods\relax }{subsubsection.141.2.1}{}}
\@setckpt{cuon.Help.help-module}{
\setcounter{page}{383}
\setcounter{equation}{0}
\setcounter{enumi}{0}
\setcounter{enumii}{0}
\setcounter{enumiii}{0}
\setcounter{enumiv}{0}
\setcounter{footnote}{0}
\setcounter{mpfootnote}{0}
\setcounter{part}{0}
\setcounter{section}{141}
\setcounter{subsection}{2}
\setcounter{subsubsection}{1}
\setcounter{paragraph}{0}
\setcounter{subparagraph}{0}
\setcounter{figure}{0}
\setcounter{table}{136}
\setcounter{LT@tables}{136}
\setcounter{LT@chunks}{4}
\setcounter{Item}{0}
\setcounter{Hfootnote}{0}
\setcounter{bookmark@seq@number}{537}
\setcounter{section@level}{3}
}
