\relax 
\gdef \LT@cc {\LT@entry 
    {1}{152.92793pt}\LT@entry 
    {1}{258.72162pt}\LT@entry 
    {1}{12.0pt}}
\@writefile{toc}{\contentsline {section}{\numberline {209}Module cuon.Staff.SingleStaffFee}{534}{section.209}}
\newlabel{cuon:Staff:SingleStaffFee}{{209}{534}{Module cuon.Staff.SingleStaffFee\relax }{section.209}{}}
\@writefile{toc}{\contentsline {subsection}{\numberline {209.1}Variables}{534}{subsection.209.1}}
\@writefile{toc}{\contentsline {subsection}{\numberline {209.2}Class SingleStaffFee}{534}{subsection.209.2}}
\newlabel{cuon:Staff:SingleStaffFee:SingleStaffFee}{{209.2}{534}{Class SingleStaffFee\relax }{subsection.209.2}{}}
\@writefile{toc}{\contentsline {subsubsection}{\numberline {209.2.1}Methods}{534}{subsubsection.209.2.1}}
\@setckpt{cuon.Staff.SingleStaffFee-module}{
\setcounter{page}{536}
\setcounter{equation}{0}
\setcounter{enumi}{0}
\setcounter{enumii}{0}
\setcounter{enumiii}{0}
\setcounter{enumiv}{0}
\setcounter{footnote}{0}
\setcounter{mpfootnote}{0}
\setcounter{part}{0}
\setcounter{section}{209}
\setcounter{subsection}{2}
\setcounter{subsubsection}{1}
\setcounter{paragraph}{0}
\setcounter{subparagraph}{0}
\setcounter{figure}{0}
\setcounter{table}{200}
\setcounter{LT@tables}{200}
\setcounter{LT@chunks}{4}
\setcounter{Item}{0}
\setcounter{Hfootnote}{0}
\setcounter{bookmark@seq@number}{793}
\setcounter{section@level}{3}
}
