\relax 
\gdef \LT@cxviii {\LT@entry 
    {1}{152.92793pt}\LT@entry 
    {1}{258.72162pt}\LT@entry 
    {1}{12.0pt}}
\@writefile{toc}{\contentsline {section}{\numberline {123}Package cuon.Graves}{337}{section.123}}
\newlabel{cuon:Graves}{{123}{337}{Package cuon.Graves\relax }{section.123}{}}
\@writefile{toc}{\contentsline {subsection}{\numberline {123.1}Modules}{337}{subsection.123.1}}
\@writefile{toc}{\contentsline {subsection}{\numberline {123.2}Variables}{337}{subsection.123.2}}
\@setckpt{cuon.Graves-module}{
\setcounter{page}{338}
\setcounter{equation}{0}
\setcounter{enumi}{0}
\setcounter{enumii}{0}
\setcounter{enumiii}{0}
\setcounter{enumiv}{0}
\setcounter{footnote}{0}
\setcounter{mpfootnote}{0}
\setcounter{part}{0}
\setcounter{section}{123}
\setcounter{subsection}{2}
\setcounter{subsubsection}{0}
\setcounter{paragraph}{0}
\setcounter{subparagraph}{0}
\setcounter{figure}{0}
\setcounter{table}{118}
\setcounter{LT@tables}{118}
\setcounter{LT@chunks}{4}
\setcounter{Item}{0}
\setcounter{Hfootnote}{0}
\setcounter{bookmark@seq@number}{466}
\setcounter{section@level}{2}
}
