digraph "cuon/Editor/Editor.hpp"
{
  edge [fontname="Helvetica",fontsize="10",labelfontname="Helvetica",labelfontsize="10"];
  node [fontname="Helvetica",fontsize="10",shape=record];
  Node1 [label="cuon/Editor/Editor.hpp",height=0.2,width=0.4,color="black", fillcolor="grey75", style="filled", fontcolor="black"];
  Node1 -> Node2 [color="midnightblue",fontsize="10",style="solid",fontname="Helvetica"];
  Node2 [label="gtkmm.h",height=0.2,width=0.4,color="grey75", fillcolor="white", style="filled"];
  Node1 -> Node3 [color="midnightblue",fontsize="10",style="solid",fontname="Helvetica"];
  Node3 [label="iostream",height=0.2,width=0.4,color="grey75", fillcolor="white", style="filled"];
  Node1 -> Node4 [color="midnightblue",fontsize="10",style="solid",fontname="Helvetica"];
  Node4 [label="ctype.h",height=0.2,width=0.4,color="grey75", fillcolor="white", style="filled"];
  Node1 -> Node5 [color="midnightblue",fontsize="10",style="solid",fontname="Helvetica"];
  Node5 [label="stdio.h",height=0.2,width=0.4,color="grey75", fillcolor="white", style="filled"];
  Node1 -> Node6 [color="midnightblue",fontsize="10",style="solid",fontname="Helvetica"];
  Node6 [label="stdlib.h",height=0.2,width=0.4,color="grey75", fillcolor="white", style="filled"];
  Node1 -> Node7 [color="midnightblue",fontsize="10",style="solid",fontname="Helvetica"];
  Node7 [label="unistd.h",height=0.2,width=0.4,color="grey75", fillcolor="white", style="filled"];
  Node1 -> Node8 [color="midnightblue",fontsize="10",style="solid",fontname="Helvetica"];
  Node8 [label="global.hpp",height=0.2,width=0.4,color="black", fillcolor="white", style="filled",URL="$d9/d3a/global_8hpp.html"];
  Node8 -> Node9 [color="midnightblue",fontsize="10",style="solid",fontname="Helvetica"];
  Node9 [label="time.h",height=0.2,width=0.4,color="grey75", fillcolor="white", style="filled"];
  Node8 -> Node10 [color="midnightblue",fontsize="10",style="solid",fontname="Helvetica"];
  Node10 [label="map",height=0.2,width=0.4,color="grey75", fillcolor="white", style="filled"];
  Node8 -> Node11 [color="midnightblue",fontsize="10",style="solid",fontname="Helvetica"];
  Node11 [label="cuon/User/User.hpp",height=0.2,width=0.4,color="black", fillcolor="white", style="filled",URL="$de/dfd/User_8hpp.html"];
  Node11 -> Node3 [color="midnightblue",fontsize="10",style="solid",fontname="Helvetica"];
  Node11 -> Node12 [color="midnightblue",fontsize="10",style="solid",fontname="Helvetica"];
  Node12 [label="string",height=0.2,width=0.4,color="grey75", fillcolor="white", style="filled"];
  Node11 -> Node10 [color="midnightblue",fontsize="10",style="solid",fontname="Helvetica"];
  Node11 -> Node13 [color="midnightblue",fontsize="10",style="solid",fontname="Helvetica"];
  Node13 [label="vector",height=0.2,width=0.4,color="grey75", fillcolor="white", style="filled"];
  Node11 -> Node14 [color="midnightblue",fontsize="10",style="solid",fontname="Helvetica"];
  Node14 [label="ctime",height=0.2,width=0.4,color="grey75", fillcolor="white", style="filled"];
  Node11 -> Node2 [color="midnightblue",fontsize="10",style="solid",fontname="Helvetica"];
  Node11 -> Node15 [color="midnightblue",fontsize="10",style="solid",fontname="Helvetica"];
  Node15 [label="cuon/Databases/datatypes.hpp",height=0.2,width=0.4,color="black", fillcolor="white", style="filled",URL="$d2/df0/datatypes_8hpp.html"];
  Node15 -> Node3 [color="midnightblue",fontsize="10",style="solid",fontname="Helvetica"];
  Node15 -> Node12 [color="midnightblue",fontsize="10",style="solid",fontname="Helvetica"];
  Node15 -> Node10 [color="midnightblue",fontsize="10",style="solid",fontname="Helvetica"];
  Node15 -> Node13 [color="midnightblue",fontsize="10",style="solid",fontname="Helvetica"];
  Node15 -> Node14 [color="midnightblue",fontsize="10",style="solid",fontname="Helvetica"];
  Node15 -> Node2 [color="midnightblue",fontsize="10",style="solid",fontname="Helvetica"];
  Node15 -> Node16 [color="midnightblue",fontsize="10",style="solid",fontname="Helvetica"];
  Node16 [label="cuon/TypeDefs/basics.hpp",height=0.2,width=0.4,color="black", fillcolor="white", style="filled",URL="$de/df9/basics_8hpp.html"];
  Node16 -> Node3 [color="midnightblue",fontsize="10",style="solid",fontname="Helvetica"];
  Node16 -> Node17 [color="midnightblue",fontsize="10",style="solid",fontname="Helvetica"];
  Node17 [label="sstream",height=0.2,width=0.4,color="grey75", fillcolor="white", style="filled"];
  Node16 -> Node6 [color="midnightblue",fontsize="10",style="solid",fontname="Helvetica"];
  Node16 -> Node5 [color="midnightblue",fontsize="10",style="solid",fontname="Helvetica"];
  Node16 -> Node4 [color="midnightblue",fontsize="10",style="solid",fontname="Helvetica"];
  Node16 -> Node7 [color="midnightblue",fontsize="10",style="solid",fontname="Helvetica"];
  Node16 -> Node12 [color="midnightblue",fontsize="10",style="solid",fontname="Helvetica"];
  Node16 -> Node10 [color="midnightblue",fontsize="10",style="solid",fontname="Helvetica"];
  Node16 -> Node13 [color="midnightblue",fontsize="10",style="solid",fontname="Helvetica"];
  Node16 -> Node18 [color="midnightblue",fontsize="10",style="solid",fontname="Helvetica"];
  Node18 [label="locale.h",height=0.2,width=0.4,color="grey75", fillcolor="white", style="filled"];
  Node16 -> Node14 [color="midnightblue",fontsize="10",style="solid",fontname="Helvetica"];
  Node15 -> Node19 [color="midnightblue",fontsize="10",style="solid",fontname="Helvetica"];
  Node19 [label="libintl.h",height=0.2,width=0.4,color="grey75", fillcolor="white", style="filled"];
  Node15 -> Node18 [color="midnightblue",fontsize="10",style="solid",fontname="Helvetica"];
  Node8 -> Node5 [color="midnightblue",fontsize="10",style="solid",fontname="Helvetica"];
  Node8 -> Node7 [color="midnightblue",fontsize="10",style="solid",fontname="Helvetica"];
  Node1 -> Node20 [color="midnightblue",fontsize="10",style="solid",fontname="Helvetica"];
  Node20 [label="cuon/Editor/editor\l_view.hpp",height=0.2,width=0.4,color="black", fillcolor="white", style="filled",URL="$d0/d7c/editor__view_8hpp.html"];
  Node20 -> Node2 [color="midnightblue",fontsize="10",style="solid",fontname="Helvetica"];
  Node20 -> Node3 [color="midnightblue",fontsize="10",style="solid",fontname="Helvetica"];
  Node20 -> Node4 [color="midnightblue",fontsize="10",style="solid",fontname="Helvetica"];
  Node20 -> Node5 [color="midnightblue",fontsize="10",style="solid",fontname="Helvetica"];
  Node20 -> Node6 [color="midnightblue",fontsize="10",style="solid",fontname="Helvetica"];
  Node20 -> Node7 [color="midnightblue",fontsize="10",style="solid",fontname="Helvetica"];
  Node20 -> Node8 [color="midnightblue",fontsize="10",style="solid",fontname="Helvetica"];
  Node20 -> Node21 [color="midnightblue",fontsize="10",style="solid",fontname="Helvetica"];
  Node21 [label="gtksourceviewmm.h",height=0.2,width=0.4,color="grey75", fillcolor="white", style="filled"];
}
