digraph "SingleOrderGet"
{
  edge [fontname="Helvetica",fontsize="10",labelfontname="Helvetica",labelfontsize="10"];
  node [fontname="Helvetica",fontsize="10",shape=record];
  Node1 [label="{SingleOrderGet\n|+ orderID\l+ pickupNumber\l+ addressNumber\l+ partnerNumber\l+ forwardingAgencyNumber\l+ contactPersonNumber\l|+ SingleOrderGet()\l+ ~SingleOrderGet()\l+ readNonWidgetEntries()\l+ getPickupNumber()\l+ getAddressNumber()\l+ getPartnerNumber()\l+ getForwardingAgencyNumber()\l+ getContactPersonNumber()\l}",height=0.2,width=0.4,color="black", fillcolor="grey75", style="filled", fontcolor="black"];
  Node2 -> Node1 [dir="back",color="midnightblue",fontsize="10",style="solid",arrowtail="onormal",fontname="Helvetica"];
  Node2 [label="{Singledata\n|+ sNameOfTable\l+ sSort\l+ sWhere\l+ sep_info_1\l+ sep_info_2\l+ sep_info_3\l+ tmp_ID\l+ ModulNumber\l+ selection_signal_handler\l+ base64\l+ a1\l+ h1\l+ t1\l+ c1\l+ liSearchfields\l+ sData\l+ ID\l+ sTree\l+ dicFields\l+ dicEntries\l+ liHeader\l+ renderer\l+ view\l+ pTree1\l+ dataEntries\l+ listStore\l+ selection\l+ row\l+ iter\l+ path\l+ pStatusbar\l+ pColumn\l+ aFields\l|+ Singledata()\l+ ~Singledata()\l+ loadEntryField()\l+ load()\l+ newData()\l+ save()\l+ newRecord()\l+ init()\l+ saveValues()\l+ saveValuesBE()\l+ deleteRecord()\l+ setDicEntries()\l+ getListEntries()\l+ setLiFields()\l+ setTree1()\l+ setListEntries()\l+ clearAllFields()\l+ clearAllOtherFields()\l+ fillEntries()\l+ fillOtherEntries()\l+ fillExtraEntries()\l+ treeSelectRow()\l+ setNullIter()\l+ readEntries()\l+ readExtraEntries()\l+ on_selection_changed()\l+ setWindow()\l+ setTreeFields()\l+ setStatusbar()\l+ getStatusbar()\l+ setSearchString()\l+ postFindData()\l+ readNonWidgetEntries()\l+ showPDF()\l+ setListstore()\l+ getFileExe()\l+ decodeData()\l}",height=0.2,width=0.4,color="black", fillcolor="white", style="filled",URL="$d2/d58/classSingledata.html"];
  Node3 -> Node2 [dir="back",color="midnightblue",fontsize="10",style="solid",arrowtail="onormal",fontname="Helvetica"];
  Node3 [label="{datatypes\n|+ dicValues\l+ dicValuesBE\l+ ResultSet\l|+ datatypes()\l+ ~datatypes()\l}",height=0.2,width=0.4,color="black", fillcolor="white", style="filled",URL="$de/d1c/classdatatypes.html"];
  Node4 -> Node3 [dir="back",color="midnightblue",fontsize="10",style="solid",arrowtail="onormal",fontname="Helvetica"];
  Node4 [label="{basics\n|+ MN\l+ mime_type\l|+ basics()\l+ ~basics()\l+ printlog()\l+ printlog()\l+ printlog()\l+ printlog()\l+ printlog()\l+ printlog()\l+ printlog()\l+ file_exists()\l+ stripchars()\l+ replaceAll()\l+ getNullUUID()\l+ getNewUUID()\l+ executePrg()\l+ getRandomFilename()\l+ writeFile()\l+ readFile()\l+ getDateTime()\l+ getDate()\l+ getDate()\l+ String2Int()\l+ Int2String()\l+ getActualDateTime()\l+ map2vector()\l+ split()\l+ deleteCache()\l}",height=0.2,width=0.4,color="black", fillcolor="white", style="filled",URL="$d3/d15/classbasics.html"];
  Node5 -> Node2 [color="grey25",fontsize="10",style="solid",label=" +firstRecord" ,arrowhead="odiamond",fontname="Helvetica"];
  Node5 [label="{Record\n|+ info\l+ row_int\l+ row_float\l+ row_string\l+ row_date\l|+ Record()\l+ ~Record()\l+ record2Vector()\l+ is_empty()\l+ getStringValue()\l+ addMap()\l}",height=0.2,width=0.4,color="black", fillcolor="white", style="filled",URL="$db/d3a/classRecord.html"];
  Node4 -> Node5 [dir="back",color="firebrick4",fontsize="10",style="solid",arrowtail="onormal",fontname="Helvetica"];
  Node6 -> Node2 [color="grey25",fontsize="10",style="solid",label=" +x1" ,arrowhead="odiamond",fontname="Helvetica"];
  Node6 [label="{myXmlRpc\n||+ myXmlRpc()\l+ ~myXmlRpc()\l+ addUser()\l+ add()\l+ add()\l+ add()\l+ add()\l+ add()\l+ add()\l+ add()\l+ add()\l+ add()\l+ add()\l+ add()\l+ add()\l+ add()\l+ add()\l+ add()\l+ callRP()\l+ callRP()\l+ callRP()\l+ callRP()\l+ callRP()\l+ callRP()\l+ callRP()\l+ callRP()\l+ callRP()\l+ callRP()\l+ callRP()\l}",height=0.2,width=0.4,color="black", fillcolor="white", style="filled",URL="$da/d2a/classmyXmlRpc.html"];
  Node7 -> Node6 [dir="back",color="midnightblue",fontsize="10",style="solid",arrowtail="onormal",fontname="Helvetica"];
  Node7 [label="{mXmlRpc\n|+ serverUrl\l+ a1\l+ v1\l|+ mXmlRpc()\l+ callrp()\l}",height=0.2,width=0.4,color="black", fillcolor="white", style="filled",URL="$da/d06/classmXmlRpc.html"];
  Node3 -> Node7 [dir="back",color="midnightblue",fontsize="10",style="solid",arrowtail="onormal",fontname="Helvetica"];
  Node8 -> Node2 [color="grey25",fontsize="10",style="solid",label=" +cols" ,arrowhead="odiamond",fontname="Helvetica"];
  Node8 [label="{Columns\n|+ iCol\l+ sCol\l+ fCol\l+ bCol\l|+ Columns()\l+ ~Columns()\l+ addColumn()\l+ getStringColumn()\l+ getIntColumn()\l+ getBoolColumn()\l+ getFloatColumn()\l}",height=0.2,width=0.4,color="black", fillcolor="white", style="filled",URL="$dc/dd0/classColumns.html"];
  Node9 -> Node8 [dir="back",color="midnightblue",fontsize="10",style="solid",arrowtail="onormal",fontname="Helvetica"];
  Node9 [label="{Gtk::TreeModel::ColumnRecord\n||}",height=0.2,width=0.4,color="grey75", fillcolor="white", style="filled"];
  Node10 -> Node2 [color="grey25",fontsize="10",style="solid",label=" +newEntry" ,arrowhead="odiamond",fontname="Helvetica"];
  Node10 [label="{listEntry\n|+ sNameOfTable\l+ sWhere\l+ sSort\l+ liFields\l+ dicEntries\l+ bDistinct\l|+ listEntry()\l+ ~listEntry()\l}",height=0.2,width=0.4,color="black", fillcolor="white", style="filled",URL="$d6/d73/classlistEntry.html"];
  Node11 -> Node2 [color="grey25",fontsize="10",style="solid",label=" +glx" ,arrowhead="odiamond",fontname="Helvetica"];
  Node11 [label="{gladeXml\n|+ ItemFunc\l+ tabOption\l+ window\l+ dialog\l+ pWindow\l+ pDialog\l+ tree1Name\l+ menuItems\l+ toolbarItems\l+ v_new\l+ v_save\l+ v_delete\l+ v_end\l+ v_tnew\l+ v_tsave\l+ v_tdelete\l+ v_tend\l+ pWin\l+ pMainWindow\l+ pDia\l+ pNotebook\l+ pNotebook2\l+ pTree1\l+ pTreeAll\l+ pTreeView\l+ pMenuItem\l+ pEnd\l+ pNew\l+ pEdit\l+ pSave\l+ pDelete\l+ pItem\l+ pButton\l+ pToolButton\l+ pFileChooser\l+ pEntry\l+ pTextview\l+ pStatusbar\l+ pToolbar\l+ pScrollWindow\l|+ gladeXml()\l+ ~gladeXml()\l+ loadGlade()\l+ loadGlade()\l+ init()\l+ setTitle()\l+ loadEntries()\l+ fetchDefaultGUI()\l+ setText()\l+ setText()\l+ setText()\l+ setText()\l+ setText()\l+ setRawTextline()\l+ setRawTextline()\l+ setRawTextline()\l+ getText()\l+ getText()\l+ initKeys()\l+ onNotebook1PageSwitch()\l+ onNotebook2PageSwitch()\l+ on_tree1_row_activated()\l+ on_end_activate()\l+ on_edit_activate()\l+ on_new_activate()\l+ on_save_activate()\l+ on_delete_activate()\l+ tabChanged()\l+ tabChanged2()\l+ on_signal_connect()\l+ connectMenuItem()\l+ connectSignal()\l+ connectToolbarSignal()\l+ expandEditMenu()\l+ on_new1_activate()\l+ on_save1_activate()\l+ on_edit1_activate()\l+ on_delete1_activate()\l+ getWidget()\l+ getWidget()\l+ getWidget()\l+ getWidget()\l+ getWidget()\l+ getWidget()\l+ getWidget()\l+ getFilename()\l+ setComboBoxEntries()\l+ getCBActive()\l+ getCBState()\l+ enableMenuItem()\l+ getPrefix()\l+ QuestionMsg()\l+ InfoMsg()\l+ ErrorMsg()\l}",height=0.2,width=0.4,color="black", fillcolor="white", style="filled",URL="$d9/d64/classgladeXml.html"];
  Node4 -> Node11 [dir="back",color="midnightblue",fontsize="10",style="solid",arrowtail="onormal",fontname="Helvetica"];
  Node6 -> Node11 [color="grey25",fontsize="10",style="solid",label=" +x1" ,arrowhead="odiamond",fontname="Helvetica"];
  Node12 -> Node11 [color="grey25",fontsize="10",style="solid",label=" +Cache" ,arrowhead="odiamond",fontname="Helvetica"];
  Node12 [label="{localCache\n|+ cacheOK\l+ options\l+ dbStatusKeys\l+ dbStatus\l+ path2CacheKeys\l+ path2Cache\l+ rO\l+ wO\l+ rOKeys\l+ wOKeys\l|+ localCache()\l+ ~localCache()\l+ getCache()\l+ writeCache()\l+ getKCache()\l+ writeKCache()\l+ getSCache()\l+ writeSCache()\l}",height=0.2,width=0.4,color="black", fillcolor="white", style="filled",URL="$da/d70/classlocalCache.html"];
  Node3 -> Node12 [dir="back",color="midnightblue",fontsize="10",style="solid",arrowtail="onormal",fontname="Helvetica"];
  Node13 -> Node11 [color="grey25",fontsize="10",style="solid",label=" +oEntries" ,arrowhead="odiamond",fontname="Helvetica"];
  Node13 [label="{setOfEntries\n|+ Entries\l|+ setOfEntries()\l+ ~setOfEntries()\l+ addEntry()\l+ setDic()\l+ getDicEntries()\l+ getEntries()\l}",height=0.2,width=0.4,color="black", fillcolor="white", style="filled",URL="$d6/df5/classsetOfEntries.html"];
  Node14 -> Node2 [color="grey25",fontsize="10",style="solid",label=" +_entry" ,arrowhead="odiamond",fontname="Helvetica"];
  Node14 [label="{dataEntry\n|+ nameOfEntry\l+ typeOfEntry\l+ bDuty\l+ Round\l+ nextWidget\l+ verifyType\l+ SqlField\l|+ dataEntry()\l+ ~dataEntry()\l+ set_nameOfEntry()\l+ get_nameOfEntry()\l+ set_typeOfEntry()\l+ get_typeOfEntry()\l+ set_verifyTypeOfEntry()\l+ get_verifyTypeOfEntry()\l+ set_nameOfSql()\l+ get_nameOfSql()\l+ set_Round()\l+ get_Round()\l}",height=0.2,width=0.4,color="black", fillcolor="white", style="filled",URL="$dc/ddf/classdataEntry.html"];
  Node13 -> Node2 [color="grey25",fontsize="10",style="solid",label=" +oEntries" ,arrowhead="odiamond",fontname="Helvetica"];
}
