digraph "cuon/User" {
  compound=true
  node [ fontsize="10", fontname="Helvetica"];
  edge [ labelfontsize="10", labelfontname="Helvetica"];
  subgraph clusterdir_7dd51dae3eff17d6b1d69ff1243e6faa {
    graph [ bgcolor="#ddddee", pencolor="black", label="cuon" fontname="Helvetica", fontsize="10", URL="dir_7dd51dae3eff17d6b1d69ff1243e6faa.html"]
  dir_8f8c86e9ce18c8f76965f74d789a6654 [shape=box, label="User", style="filled", fillcolor="#eeeeff", pencolor="black", URL="dir_8f8c86e9ce18c8f76965f74d789a6654.html"];
  }
  dir_753bdfd444fcfbe4c5b9a400253e7b5e [shape=box label="XMLRPC" URL="dir_753bdfd444fcfbe4c5b9a400253e7b5e.html"];
  dir_e851883a7612ddb00cd7d252a9b14001 [shape=box label="Databases" URL="dir_e851883a7612ddb00cd7d252a9b14001.html"];
  dir_8f8c86e9ce18c8f76965f74d789a6654->dir_753bdfd444fcfbe4c5b9a400253e7b5e [headlabel="1", labeldistance=1.5 headhref="dir_000041_000043.html"];
  dir_8f8c86e9ce18c8f76965f74d789a6654->dir_e851883a7612ddb00cd7d252a9b14001 [headlabel="2", labeldistance=1.5 headhref="dir_000041_000026.html"];
  dir_753bdfd444fcfbe4c5b9a400253e7b5e->dir_e851883a7612ddb00cd7d252a9b14001 [headlabel="2", labeldistance=1.5 headhref="dir_000043_000026.html"];
  dir_e851883a7612ddb00cd7d252a9b14001->dir_753bdfd444fcfbe4c5b9a400253e7b5e [headlabel="1", labeldistance=1.5 headhref="dir_000026_000043.html"];
}
