digraph "CMakeFiles/3.5.0-rc3" {
  compound=true
  node [ fontsize="10", fontname="Helvetica"];
  edge [ labelfontsize="10", labelfontname="Helvetica"];
  subgraph clusterdir_017ad5e908c41501f6a06b5119b37293 {
    graph [ bgcolor="#ddddee", pencolor="black", label="CMakeFiles" fontname="Helvetica", fontsize="10", URL="dir_017ad5e908c41501f6a06b5119b37293.html"]
  subgraph clusterdir_3ceb6a712baeb26ab82b7cdd36d45047 {
    graph [ bgcolor="#eeeeff", pencolor="black", label="" URL="dir_3ceb6a712baeb26ab82b7cdd36d45047.html"];
    dir_3ceb6a712baeb26ab82b7cdd36d45047 [shape=plaintext label="3.5.0-rc3"];
    dir_632d363da555d892c7dc7486d82e199f [shape=box label="CompilerIdCXX" color="black" fillcolor="white" style="filled" URL="dir_632d363da555d892c7dc7486d82e199f.html"];
  }
  }
}
