digraph "Pluma/src/Pluma" {
  compound=true
  node [ fontsize="10", fontname="Helvetica"];
  edge [ labelfontsize="10", labelfontname="Helvetica"];
  subgraph clusterdir_512afd389bb6de731a75c9e7b3e48d40 {
    graph [ bgcolor="#ddddee", pencolor="black", label="src" fontname="Helvetica", fontsize="10", URL="dir_512afd389bb6de731a75c9e7b3e48d40.html"]
  dir_54e63e3bd39ba28e466f624064eab50f [shape=box, label="Pluma", style="filled", fillcolor="#eeeeff", pencolor="black", URL="dir_54e63e3bd39ba28e466f624064eab50f.html"];
  }
  dir_e5a3f3e97e23f36b15287640042688b6 [shape=box label="include" fillcolor="white" style="filled" color="red" URL="dir_e5a3f3e97e23f36b15287640042688b6.html"];
  dir_54e63e3bd39ba28e466f624064eab50f->dir_e5a3f3e97e23f36b15287640042688b6 [headlabel="6", labeldistance=1.5 headhref="dir_000075_000072.html"];
}
