digraph "cuon/Staff" {
  compound=true
  node [ fontsize="10", fontname="Helvetica"];
  edge [ labelfontsize="10", labelfontname="Helvetica"];
  subgraph clusterdir_7dd51dae3eff17d6b1d69ff1243e6faa {
    graph [ bgcolor="#ddddee", pencolor="black", label="cuon" fontname="Helvetica", fontsize="10", URL="dir_7dd51dae3eff17d6b1d69ff1243e6faa.html"]
  dir_c92ef1f563d352dc37240f22b2bb7f9d [shape=box, label="Staff", style="filled", fillcolor="#eeeeff", pencolor="black", URL="dir_c92ef1f563d352dc37240f22b2bb7f9d.html"];
  }
  dir_1d4014fdca724aa9b4cf8145646d6761 [shape=box label="DMS" URL="dir_1d4014fdca724aa9b4cf8145646d6761.html"];
  dir_317f75867e6dafb66f3bda00ea85c505 [shape=box label="Pluma" fillcolor="white" style="filled" color="red" URL="dir_317f75867e6dafb66f3bda00ea85c505.html"];
  dir_e851883a7612ddb00cd7d252a9b14001 [shape=box label="Databases" URL="dir_e851883a7612ddb00cd7d252a9b14001.html"];
  dir_65dfe220c26cc3c1ae6942d58d3b773e [shape=box label="Windows" URL="dir_65dfe220c26cc3c1ae6942d58d3b773e.html"];
  dir_1d4014fdca724aa9b4cf8145646d6761->dir_e851883a7612ddb00cd7d252a9b14001 [headlabel="1", labeldistance=1.5 headhref="dir_000027_000026.html"];
  dir_1d4014fdca724aa9b4cf8145646d6761->dir_65dfe220c26cc3c1ae6942d58d3b773e [headlabel="1", labeldistance=1.5 headhref="dir_000027_000042.html"];
  dir_e851883a7612ddb00cd7d252a9b14001->dir_65dfe220c26cc3c1ae6942d58d3b773e [headlabel="6", labeldistance=1.5 headhref="dir_000026_000042.html"];
  dir_65dfe220c26cc3c1ae6942d58d3b773e->dir_e851883a7612ddb00cd7d252a9b14001 [headlabel="3", labeldistance=1.5 headhref="dir_000042_000026.html"];
  dir_c92ef1f563d352dc37240f22b2bb7f9d->dir_1d4014fdca724aa9b4cf8145646d6761 [headlabel="4", labeldistance=1.5 headhref="dir_000038_000027.html"];
  dir_c92ef1f563d352dc37240f22b2bb7f9d->dir_317f75867e6dafb66f3bda00ea85c505 [headlabel="2", labeldistance=1.5 headhref="dir_000038_000071.html"];
  dir_c92ef1f563d352dc37240f22b2bb7f9d->dir_e851883a7612ddb00cd7d252a9b14001 [headlabel="1", labeldistance=1.5 headhref="dir_000038_000026.html"];
  dir_c92ef1f563d352dc37240f22b2bb7f9d->dir_65dfe220c26cc3c1ae6942d58d3b773e [headlabel="1", labeldistance=1.5 headhref="dir_000038_000042.html"];
}
