digraph "CMakeFiles/3.5.0-rc3/CompilerIdCXX" {
  compound=true
  node [ fontsize="10", fontname="Helvetica"];
  edge [ labelfontsize="10", labelfontname="Helvetica"];
  subgraph clusterdir_3ceb6a712baeb26ab82b7cdd36d45047 {
    graph [ bgcolor="#ddddee", pencolor="black", label="3.5.0-rc3" fontname="Helvetica", fontsize="10", URL="dir_3ceb6a712baeb26ab82b7cdd36d45047.html"]
  dir_632d363da555d892c7dc7486d82e199f [shape=box, label="CompilerIdCXX", style="filled", fillcolor="#eeeeff", pencolor="black", URL="dir_632d363da555d892c7dc7486d82e199f.html"];
  }
}
