digraph "Pluma/include/Pluma/Provider.hpp"
{
  edge [fontname="Helvetica",fontsize="10",labelfontname="Helvetica",labelfontsize="10"];
  node [fontname="Helvetica",fontsize="10",shape=record];
  Node1 [label="Pluma/include/Pluma\l/Provider.hpp",height=0.2,width=0.4,color="black", fillcolor="grey75", style="filled", fontcolor="black"];
  Node1 -> Node2 [dir="back",color="midnightblue",fontsize="10",style="solid"];
  Node2 [label="Pluma/include/Pluma\l/Host.hpp",height=0.2,width=0.4,color="black", fillcolor="white", style="filled",URL="$d6/d32/Host_8hpp.html"];
  Node2 -> Node3 [dir="back",color="midnightblue",fontsize="10",style="solid"];
  Node3 [label="Pluma/include/Pluma\l/PluginManager.hpp",height=0.2,width=0.4,color="black", fillcolor="white", style="filled",URL="$da/daa/PluginManager_8hpp.html"];
  Node3 -> Node4 [dir="back",color="midnightblue",fontsize="10",style="solid"];
  Node4 [label="Pluma/include/Pluma\l/Pluma.hpp",height=0.2,width=0.4,color="black", fillcolor="white", style="filled",URL="$d3/da1/Pluma_8hpp.html"];
  Node4 -> Node5 [dir="back",color="midnightblue",fontsize="10",style="solid"];
  Node5 [label="cuon/Order/order.hpp",height=0.2,width=0.4,color="black", fillcolor="white", style="filled",URL="$d6/d6f/order_8hpp.html"];
  Node5 -> Node6 [dir="back",color="midnightblue",fontsize="10",style="solid"];
  Node6 [label="cuon/Cashdesk/cashdesk.cpp",height=0.2,width=0.4,color="black", fillcolor="white", style="filled",URL="$d7/df9/cashdesk_8cpp.html"];
  Node5 -> Node7 [dir="back",color="midnightblue",fontsize="10",style="solid"];
  Node7 [label="cuon/Garden/hibernation.cpp",height=0.2,width=0.4,color="black", fillcolor="white", style="filled",URL="$da/d73/hibernation_8cpp.html"];
  Node5 -> Node8 [dir="back",color="midnightblue",fontsize="10",style="solid"];
  Node8 [label="cuon/Order/order.cpp",height=0.2,width=0.4,color="black", fillcolor="white", style="filled",URL="$de/d4f/order_8cpp.html"];
  Node4 -> Node9 [dir="back",color="midnightblue",fontsize="10",style="solid"];
  Node9 [label="cuon_window.hpp",height=0.2,width=0.4,color="black", fillcolor="white", style="filled",URL="$d5/d18/cuon__window_8hpp.html"];
  Node9 -> Node5 [dir="back",color="midnightblue",fontsize="10",style="solid"];
  Node9 -> Node10 [dir="back",color="midnightblue",fontsize="10",style="solid"];
  Node10 [label="cuon/Cashdesk/cashdesk.hpp",height=0.2,width=0.4,color="black", fillcolor="white", style="filled",URL="$d3/d08/cashdesk_8hpp.html"];
  Node9 -> Node11 [dir="back",color="midnightblue",fontsize="10",style="solid"];
  Node11 [label="cuon/Enquiry/enquiry.hpp",height=0.2,width=0.4,color="black", fillcolor="white", style="filled",URL="$dc/d50/enquiry_8hpp.html"];
  Node11 -> Node12 [dir="back",color="midnightblue",fontsize="10",style="solid"];
  Node12 [label="cuon/Enquiry/enquiry.cpp",height=0.2,width=0.4,color="black", fillcolor="white", style="filled",URL="$db/d47/enquiry_8cpp.html"];
  Node9 -> Node13 [dir="back",color="midnightblue",fontsize="10",style="solid"];
  Node13 [label="cuon/Garden/botany.hpp",height=0.2,width=0.4,color="black", fillcolor="white", style="filled",URL="$d1/ddd/botany_8hpp.html"];
  Node13 -> Node14 [dir="back",color="midnightblue",fontsize="10",style="solid"];
  Node14 [label="cuon/Garden/botany.cpp",height=0.2,width=0.4,color="black", fillcolor="white", style="filled",URL="$db/df7/botany_8cpp.html"];
  Node9 -> Node15 [dir="back",color="midnightblue",fontsize="10",style="solid"];
  Node15 [label="cuon/Garden/hibernation.hpp",height=0.2,width=0.4,color="black", fillcolor="white", style="filled",URL="$df/d90/hibernation_8hpp.html"];
  Node15 -> Node7 [dir="back",color="midnightblue",fontsize="10",style="solid"];
  Node15 -> Node15 [dir="back",color="midnightblue",fontsize="10",style="solid"];
  Node9 -> Node16 [dir="back",color="midnightblue",fontsize="10",style="solid"];
  Node16 [label="cuon/Graves/grave.hpp",height=0.2,width=0.4,color="black", fillcolor="white", style="filled",URL="$dd/d2c/grave_8hpp.html"];
  Node16 -> Node17 [dir="back",color="midnightblue",fontsize="10",style="solid"];
  Node17 [label="cuon/Graves/grave.cpp",height=0.2,width=0.4,color="black", fillcolor="white", style="filled",URL="$dd/d6e/grave_8cpp.html"];
  Node9 -> Node18 [dir="back",color="midnightblue",fontsize="10",style="solid"];
  Node18 [label="cuon/Project/project.hpp",height=0.2,width=0.4,color="black", fillcolor="white", style="filled",URL="$d1/d8e/project_8hpp.html"];
  Node18 -> Node19 [dir="back",color="midnightblue",fontsize="10",style="solid"];
  Node19 [label="cuon/Project/project.cpp",height=0.2,width=0.4,color="black", fillcolor="white", style="filled",URL="$df/d18/project_8cpp.html"];
  Node9 -> Node20 [dir="back",color="midnightblue",fontsize="10",style="solid"];
  Node20 [label="cuon/Proposal/proposal.hpp",height=0.2,width=0.4,color="black", fillcolor="white", style="filled",URL="$d1/d37/proposal_8hpp.html"];
  Node20 -> Node21 [dir="back",color="midnightblue",fontsize="10",style="solid"];
  Node21 [label="cuon/Proposal/proposal.cpp",height=0.2,width=0.4,color="black", fillcolor="white", style="filled",URL="$d7/df6/proposal_8cpp.html"];
  Node9 -> Node22 [dir="back",color="midnightblue",fontsize="10",style="solid"];
  Node22 [label="cuon/Sourcenavigator\l/sourcenavigator.hpp",height=0.2,width=0.4,color="black", fillcolor="white", style="filled",URL="$d7/d60/sourcenavigator_8hpp.html"];
  Node22 -> Node23 [dir="back",color="midnightblue",fontsize="10",style="solid"];
  Node23 [label="cuon/Sourcenavigator\l/sourcenavigator.cpp",height=0.2,width=0.4,color="black", fillcolor="white", style="filled",URL="$dd/da6/sourcenavigator_8cpp.html"];
  Node9 -> Node24 [dir="back",color="midnightblue",fontsize="10",style="solid"];
  Node24 [label="cuon/Staff/staff.hpp",height=0.2,width=0.4,color="black", fillcolor="white", style="filled",URL="$d8/d5f/staff_8hpp.html"];
  Node24 -> Node25 [dir="back",color="midnightblue",fontsize="10",style="solid"];
  Node25 [label="cuon/Staff/staff.cpp",height=0.2,width=0.4,color="black", fillcolor="white", style="filled",URL="$de/db2/staff_8cpp.html"];
  Node9 -> Node26 [dir="back",color="midnightblue",fontsize="10",style="solid"];
  Node26 [label="cuon/Stock/stock.hpp",height=0.2,width=0.4,color="black", fillcolor="white", style="filled",URL="$dd/dd5/stock_8hpp.html"];
  Node26 -> Node27 [dir="back",color="midnightblue",fontsize="10",style="solid"];
  Node27 [label="cuon/Stock/stock.cpp",height=0.2,width=0.4,color="black", fillcolor="white", style="filled",URL="$d4/d14/stock_8cpp.html"];
  Node9 -> Node28 [dir="back",color="midnightblue",fontsize="10",style="solid"];
  Node28 [label="cuon_window.cpp",height=0.2,width=0.4,color="black", fillcolor="white", style="filled",URL="$de/d98/cuon__window_8cpp.html"];
  Node9 -> Node29 [dir="back",color="midnightblue",fontsize="10",style="solid"];
  Node29 [label="cuonClient.hpp",height=0.2,width=0.4,color="black", fillcolor="white", style="filled",URL="$d4/d51/cuonClient_8hpp.html"];
  Node29 -> Node30 [dir="back",color="midnightblue",fontsize="10",style="solid"];
  Node30 [label="cuonClient.cpp",height=0.2,width=0.4,color="black", fillcolor="white", style="filled",URL="$d4/d14/cuonClient_8cpp.html",tooltip="CPP Client Mainprogram. "];
  Node9 -> Node30 [dir="back",color="midnightblue",fontsize="10",style="solid"];
  Node4 -> Node10 [dir="back",color="midnightblue",fontsize="10",style="solid"];
  Node4 -> Node11 [dir="back",color="midnightblue",fontsize="10",style="solid"];
  Node4 -> Node13 [dir="back",color="midnightblue",fontsize="10",style="solid"];
  Node4 -> Node15 [dir="back",color="midnightblue",fontsize="10",style="solid"];
  Node4 -> Node16 [dir="back",color="midnightblue",fontsize="10",style="solid"];
  Node4 -> Node18 [dir="back",color="midnightblue",fontsize="10",style="solid"];
  Node4 -> Node20 [dir="back",color="midnightblue",fontsize="10",style="solid"];
  Node4 -> Node22 [dir="back",color="midnightblue",fontsize="10",style="solid"];
  Node4 -> Node24 [dir="back",color="midnightblue",fontsize="10",style="solid"];
  Node4 -> Node26 [dir="back",color="midnightblue",fontsize="10",style="solid"];
  Node4 -> Node30 [dir="back",color="midnightblue",fontsize="10",style="solid"];
  Node4 -> Node31 [dir="back",color="midnightblue",fontsize="10",style="solid"];
  Node31 [label="Pluma/include/Pluma\l/Connector.hpp",height=0.2,width=0.4,color="black", fillcolor="white", style="filled",URL="$dd/d44/Connector_8hpp.html"];
  Node31 -> Node6 [dir="back",color="midnightblue",fontsize="10",style="solid"];
  Node31 -> Node12 [dir="back",color="midnightblue",fontsize="10",style="solid"];
  Node31 -> Node14 [dir="back",color="midnightblue",fontsize="10",style="solid"];
  Node31 -> Node7 [dir="back",color="midnightblue",fontsize="10",style="solid"];
  Node31 -> Node17 [dir="back",color="midnightblue",fontsize="10",style="solid"];
  Node31 -> Node8 [dir="back",color="midnightblue",fontsize="10",style="solid"];
  Node31 -> Node19 [dir="back",color="midnightblue",fontsize="10",style="solid"];
  Node31 -> Node21 [dir="back",color="midnightblue",fontsize="10",style="solid"];
  Node31 -> Node23 [dir="back",color="midnightblue",fontsize="10",style="solid"];
  Node31 -> Node25 [dir="back",color="midnightblue",fontsize="10",style="solid"];
  Node31 -> Node27 [dir="back",color="midnightblue",fontsize="10",style="solid"];
  Node31 -> Node28 [dir="back",color="midnightblue",fontsize="10",style="solid"];
  Node3 -> Node32 [dir="back",color="midnightblue",fontsize="10",style="solid"];
  Node32 [label="Pluma/src/Pluma/PluginManager.cpp",height=0.2,width=0.4,color="black", fillcolor="white", style="filled",URL="$da/dc5/PluginManager_8cpp.html"];
  Node2 -> Node33 [dir="back",color="midnightblue",fontsize="10",style="solid"];
  Node33 [label="Pluma/src/Pluma/Host.cpp",height=0.2,width=0.4,color="black", fillcolor="white", style="filled",URL="$de/d57/Host_8cpp.html"];
  Node2 -> Node34 [dir="back",color="midnightblue",fontsize="10",style="solid"];
  Node34 [label="Pluma/src/Pluma/Provider.cpp",height=0.2,width=0.4,color="black", fillcolor="white", style="filled",URL="$d7/de0/Provider_8cpp.html"];
  Node1 -> Node4 [dir="back",color="midnightblue",fontsize="10",style="solid"];
  Node1 -> Node34 [dir="back",color="midnightblue",fontsize="10",style="solid"];
}
