digraph "windows"
{
  edge [fontname="Helvetica",fontsize="10",labelfontname="Helvetica",labelfontsize="10"];
  node [fontname="Helvetica",fontsize="10",shape=record];
  Node1 [label="{windows\n|+ ModulNumber\l+ liModule\l+ oldTab\l+ currentID\l+ sWhereStandard\l+ chooseEntry\l+ chooseMenuItem\l+ pMenuItem\l+ chooseButton\l+ m_ClipboardStore\l|+ windows()\l+ ~windows()\l+ tabChanged()\l+ tabChanged2()\l+ onKeyPressAction()\l+ setNotebookPages()\l+ doKeyAction()\l+ doNormalKeyEvents()\l+ initKeys()\l+ closeWindow()\l+ getList()\l+ setChooseButton()\l+ setChooseValue()\l+ setChooseEntry()\l}",height=0.2,width=0.4,color="black", fillcolor="grey75", style="filled", fontcolor="black"];
  Node2 -> Node1 [dir="back",color="midnightblue",fontsize="10",style="solid",arrowtail="onormal"];
  Node2 [label="{gladeXml\n|+ ItemFunc\l+ oEntries\l+ tabOption\l+ x1\l+ Cache\l+ window\l+ dialog\l+ pWindow\l+ pDialog\l+ tree1Name\l+ menuItems\l+ toolbarItems\l+ v_new\l+ v_save\l+ v_delete\l+ v_end\l+ v_tnew\l+ v_tsave\l+ v_tdelete\l+ v_tend\l+ pWin\l+ pMainWindow\l+ pDia\l+ pNotebook\l+ pNotebook2\l+ pTree1\l+ pTreeAll\l+ pTreeView\l+ pMenuItem\l+ pEnd\l+ pNew\l+ pEdit\l+ pSave\l+ pDelete\l+ pItem\l+ pButton\l+ pToolButton\l+ pFileChooser\l+ pEntry\l+ pTextview\l+ pStatusbar\l+ pToolbar\l+ pScrollWindow\l|+ gladeXml()\l+ ~gladeXml()\l+ loadGlade()\l+ loadGlade()\l+ init()\l+ setTitle()\l+ loadEntries()\l+ fetchDefaultGUI()\l+ setText()\l+ setText()\l+ setText()\l+ setText()\l+ setText()\l+ setRawTextline()\l+ setRawTextline()\l+ setRawTextline()\l+ getText()\l+ getText()\l+ initKeys()\l+ onNotebook1PageSwitch()\l+ onNotebook2PageSwitch()\l+ on_tree1_row_activated()\l+ on_end_activate()\l+ on_edit_activate()\l+ on_new_activate()\l+ on_save_activate()\l+ on_delete_activate()\l+ tabChanged()\l+ tabChanged2()\l+ on_signal_connect()\l+ connectMenuItem()\l+ connectSignal()\l+ connectToolbarSignal()\l+ expandEditMenu()\l+ on_new1_activate()\l+ on_save1_activate()\l+ on_edit1_activate()\l+ on_delete1_activate()\l+ getWidget()\l+ getWidget()\l+ getWidget()\l+ getWidget()\l+ getWidget()\l+ getWidget()\l+ getWidget()\l+ getFilename()\l+ setComboBoxEntries()\l+ getCBActive()\l+ getCBState()\l+ enableMenuItem()\l+ getPrefix()\l+ QuestionMsg()\l+ InfoMsg()\l+ ErrorMsg()\l}",height=0.2,width=0.4,color="black", fillcolor="white", style="filled",URL="$d9/d64/classgladeXml.html"];
  Node3 -> Node2 [dir="back",color="midnightblue",fontsize="10",style="solid",arrowtail="onormal"];
  Node3 [label="{basics\n|+ MN\l+ mime_type\l|+ basics()\l+ ~basics()\l+ printlog()\l+ printlog()\l+ printlog()\l+ printlog()\l+ printlog()\l+ printlog()\l+ printlog()\l+ file_exists()\l+ stripchars()\l+ replaceAll()\l+ getNullUUID()\l+ getNewUUID()\l+ executePrg()\l+ getRandomFilename()\l+ writeFile()\l+ readFile()\l+ getDateTime()\l+ getDate()\l+ getDate()\l+ String2Int()\l+ Int2String()\l+ getActualDateTime()\l+ map2vector()\l+ split()\l+ deleteCache()\l}",height=0.2,width=0.4,color="black", fillcolor="white", style="filled",URL="$d3/d15/classbasics.html"];
  Node1 -> Node4 [dir="back",color="midnightblue",fontsize="10",style="solid",arrowtail="onormal"];
  Node4 [label="{addresses\n|+ addressID\l+ tvGrave\l+ tvHibernation\l+ tabadr_Graves\l+ tabadr_Hibernation\l+ singleAddress\l+ singlePartner\l+ singleMisc\l+ singleBank\l+ singleNote\l+ singleSchedul\l+ singleDMS\l|+ addresses()\l+ ~addresses()\l+ on_new_activate()\l+ on_save_activate()\l+ on_delete_activate()\l+ on_chooseAddress_activate()\l+ on_row_activated()\l+ on_newsletter_email\l_activate()\l+ on_bSearch_clicked()\l+ tabChanged()\l+ on_newsletter_print\l_activate()\l+ on_bLetter_clicked()\l+ on_liAddressesPhone1\l_activate()\l+ on_bShowDMS_clicked()\l+ on_bGeneratePartner\l_clicked()\l+ on_tbGrave_clicked()\l+ on_tbHibernation_clicked()\l+ getExternInfo()\l+ getAddressInfos()\l}",height=0.2,width=0.4,color="black", fillcolor="white", style="filled",URL="$d5/dfc/classaddresses.html"];
  Node1 -> Node5 [dir="back",color="midnightblue",fontsize="10",style="solid",arrowtail="onormal"];
  Node5 [label="{articles\n|+ singleArticle\l+ singleAddress\l|+ articles()\l+ ~articles()\l+ on_new_activate()\l+ on_save_activate()\l+ on_delete_activate()\l+ on_chooseArticle_activate()\l+ on_liArticlesNumber1\l_activate()\l+ on_bSearch_clicked()\l+ tabChanged()\l}",height=0.2,width=0.4,color="black", fillcolor="white", style="filled",URL="$d9/d1b/classarticles.html"];
  Node1 -> Node6 [dir="back",color="midnightblue",fontsize="10",style="solid",arrowtail="onormal"];
  Node6 [label="{botany\n|+ singleBotanyDivisio\l|+ botany()\l+ ~botany()\l+ on_new_activate()\l+ on_save_activate()\l+ on_delete_activate()\l+ initAll()\l+ on_bSearch_clicked()\l+ tabChanged()\l}",height=0.2,width=0.4,color="black", fillcolor="white", style="filled",URL="$d2/dd4/classbotany.html"];
  Node1 -> Node7 [dir="back",color="midnightblue",fontsize="10",style="solid",arrowtail="onormal"];
  Node7 [label="{contact\n|+ addressID\l+ singleAddress\l+ singlePartner\l+ singleMisc\l+ singleBank\l+ singleNote\l+ singleContact\l|+ contact()\l+ ~contact()\l+ on_new_activate()\l+ on_save_activate()\l+ on_delete_activate()\l+ on_chooseAddress_activate()\l+ on_bSearch_clicked()\l+ tabChanged()\l}",height=0.2,width=0.4,color="black", fillcolor="white", style="filled",URL="$dc/d87/classcontact.html"];
  Node1 -> Node8 [dir="back",color="midnightblue",fontsize="10",style="solid",arrowtail="onormal"];
  Node8 [label="{cuonclients\n|+ __pad0__\l+ __pad1__\l+ singleClient\l+ singleAddress\l|+ cuonclients()\l+ ~cuonclients()\l+ on_new_activate()\l+ on_save_activate()\l+ on_delete_activate()\l+ on_bSearch_clicked()\l+ tabChanged()\l+ cuonclients()\l+ ~cuonclients()\l+ on_new_activate()\l+ on_save_activate()\l+ on_delete_activate()\l+ on_bSearch_clicked()\l+ tabChanged()\l+ checkClientID()\l+ setClientID()\l+ loadProfileID()\l}",height=0.2,width=0.4,color="black", fillcolor="white", style="filled",URL="$d4/db5/classcuonclients.html"];
  Node1 -> Node8 [dir="back",color="midnightblue",fontsize="10",style="solid",arrowtail="onormal"];
  Node1 -> Node9 [dir="back",color="midnightblue",fontsize="10",style="solid",arrowtail="onormal"];
  Node9 [label="{data\n|+ sFile\l|+ data()\l+ ~data()\l+ on_bImport_clicked()\l+ on_bExport_clicked()\l+ on_filechooser_ctrl\l_file_activated()\l+ on_filechooser_ctrl\l_selection_changed()\l+ setNewFilename()\l+ getFileData()\l}",height=0.2,width=0.4,color="black", fillcolor="white", style="filled",URL="$d4/d92/classdata.html"];
  Node1 -> Node10 [dir="back",color="midnightblue",fontsize="10",style="solid",arrowtail="onormal"];
  Node10 [label="{dms\n|+ oDocumentTools\l+ sepInfo\l+ singleDMS\l+ lastDoc\l+ dicVars\l|+ dms()\l+ ~dms()\l+ tabChanged()\l+ on_bView_clicked()\l+ on_bImport_clicked()\l+ on_row_activated()\l+ on_new_activate()\l+ on_save_activate()\l+ on_delete_activate()\l+ on_bSearch_clicked()\l}",height=0.2,width=0.4,color="black", fillcolor="white", style="filled",URL="$d9/df9/classdms.html"];
  Node1 -> Node11 [dir="back",color="midnightblue",fontsize="10",style="solid",arrowtail="onormal"];
  Node11 [label="{enquiry\n|+ singleEnquiry\l+ singleArticle\l|+ enquiry()\l+ ~enquiry()\l+ initOrder()\l+ on_new_activate()\l+ on_save_activate()\l+ on_delete_activate()\l+ on_bSearch_clicked()\l+ tabChanged()\l}",height=0.2,width=0.4,color="black", fillcolor="white", style="filled",URL="$d2/dab/classenquiry.html"];
  Node1 -> Node12 [dir="back",color="midnightblue",fontsize="10",style="solid",arrowtail="onormal"];
  Node12 [label="{grave\n|+ singleGrave\l|+ grave()\l+ ~grave()\l+ on_new_activate()\l+ on_save_activate()\l+ on_delete_activate()\l+ initAll()\l+ on_bSearch_clicked()\l+ tabChanged()\l}",height=0.2,width=0.4,color="black", fillcolor="white", style="filled",URL="$d5/d90/classgrave.html"];
  Node1 -> Node13 [dir="back",color="midnightblue",fontsize="10",style="solid",arrowtail="onormal"];
  Node13 [label="{hibernation\n|+ addressid\l+ newHibernation\l+ hibernation_id\l+ allInvoices\l+ singleHibernation\l+ singleOrder\l+ singleArticle\l+ singleAddress\l+ singleOrderPosition\l+ singleOrderPayment\l+ singleOrderGet\l+ singleDMS\l+ dT\l|+ hibernation()\l+ ~hibernation()\l+ tabChanged()\l+ initHibernation()\l+ on_new_activate()\l+ on_save_activate()\l+ on_delete_activate()\l}",height=0.2,width=0.4,color="black", fillcolor="white", style="filled",URL="$d6/d7a/classhibernation.html"];
  Node1 -> Node14 [dir="back",color="midnightblue",fontsize="10",style="solid",arrowtail="onormal"];
  Node14 [label="{lists_addresses\n|+ values\l|+ lists_addresses()\l+ ~lists_addresses()\l+ getValues()\l}",height=0.2,width=0.4,color="black", fillcolor="white", style="filled",URL="$de/dd4/classlists__addresses.html"];
  Node1 -> Node15 [dir="back",color="midnightblue",fontsize="10",style="solid",arrowtail="onormal"];
  Node15 [label="{lists_articles\n|+ values\l|+ lists_articles()\l+ ~lists_articles()\l+ getValues()\l}",height=0.2,width=0.4,color="black", fillcolor="white", style="filled",URL="$d4/d82/classlists__articles.html"];
  Node1 -> Node16 [dir="back",color="midnightblue",fontsize="10",style="solid",arrowtail="onormal"];
  Node16 [label="{login\n|+ gLogin\l+ pDlg\l+ pEnd1\l+ pUserID\l+ pPassword\l+ pOK\l+ pCancel\l+ Mainwindow\l|+ login()\l+ ~login()\l+ initLogin()\l+ encodeSha512()\l+ sendLoginData()\l+ on_TUserID_key_press\l_event()\l+ on_TPassword_key_press\l_event()\l+ on_okbutton1_clicked()\l+ on_cancelbutton1_clicked()\l+ setMainwindow()\l}",height=0.2,width=0.4,color="black", fillcolor="white", style="filled",URL="$d8/da6/classlogin.html"];
  Node1 -> Node17 [dir="back",color="midnightblue",fontsize="10",style="solid",arrowtail="onormal"];
  Node17 [label="{MainWindow\n|+ Version\l+ pDlg\l+ plIndex\l+ aw\l+ st\l+ bo\l+ ob\l+ en\l+ pro\l+ t1\l+ time_contact\l+ time_schedul\l+ time_imap_dms\l+ providers\l+ myPluginsName\l|+ MainWindow()\l+ ~MainWindow()\l+ start()\l+ on_delete_event()\l+ on_end_activate()\l+ on_login_activate()\l+ on_addresses1_activate()\l+ on_articles1_activate()\l+ on_mi_staff1_activate()\l+ on_botany1_activate()\l+ on_dms1_activate()\l+ on_stock1_activate()\l+ on_enquiry_activate()\l+ on_proposal1_activate()\l+ on_order1_activate()\l+ on_hibernation_activate()\l+ on_graves_activate()\l+ on_project1_activate()\l+ on_mi_sourcenavigator\l_activate()\l+ on_import_data1_activate()\l+ on_delete_cache_activate()\l+ on_eUserName_changed()\l+ checkMenus()\l+ startTiming()\l+ checkContact()\l+ checkImap()\l+ checkSchedul()\l+ startXmlRpcServer()\l}",height=0.2,width=0.4,color="black", fillcolor="white", style="filled",URL="$d6/d1a/classMainWindow.html"];
  Node1 -> Node18 [dir="back",color="midnightblue",fontsize="10",style="solid",arrowtail="onormal"];
  Node18 [label="{order\n|+ singleOrder\l+ singleArticle\l+ singleOrderPosition\l+ singleAddress\l+ singleOrderPayment\l+ singleOrderGet\l+ singleDMS\l+ dT\l+ cashUser\l+ cashDeskPrinter\l|+ order()\l+ ~order()\l+ initOrder()\l+ on_new_activate()\l+ on_save_activate()\l+ on_delete_activate()\l+ on_bSearch_clicked()\l+ tabChanged()\l+ on_PositionSave1_activate()\l+ on_PositionEdit1_activate()\l+ on_PositionNew1_activate()\l+ on_PositionDelete1\l_activate()\l+ order()\l+ ~order()\l+ initOrder()\l+ on_new_activate()\l+ on_save_activate()\l+ on_delete_activate()\l+ on_print_invoice1_activate()\l+ printInvoice()\l+ on_bSearch_clicked()\l+ tabChanged()\l+ on_PositionSave1_activate()\l+ on_PositionEdit1_activate()\l+ on_PositionNew1_activate()\l+ on_PositionDelete1\l_activate()\l+ on_JournalAccount_activate()\l+ on_order_dup_activate()\l+ on_bArticleSearch_clicked()\l+ on_eArticleID_changed()\l+ on_bSearchCustom_clicked()\l+ on_eAddressNumber_changed()\l+ on_all_open_invoice1\l_activate()\l+ on_print_delivery_note1\l_activate()\l+ on_print_pickup_note1\l_activate()\l+ on_DMS_activate()\l+ on_bSearchStaff_clicked()\l+ on_eStaffNumber_changed()\l}",height=0.2,width=0.4,color="black", fillcolor="white", style="filled",URL="$de/d48/classorder.html"];
  Node1 -> Node18 [dir="back",color="midnightblue",fontsize="10",style="solid",arrowtail="onormal"];
  Node1 -> Node19 [dir="back",color="midnightblue",fontsize="10",style="solid",arrowtail="onormal"];
  Node19 [label="{project\n|+ addressID\l+ singleProject\l+ singleProjectPhases\l+ singleProjectTasks\l+ singleProjectProgramming\l+ singleSourcefile\l+ singleDMS\l+ singleAddress\l|+ project()\l+ ~project()\l+ initAll()\l+ on_new_activate()\l+ on_save_activate()\l+ on_delete_activate()\l+ on_bSearch_clicked()\l+ tabChanged()\l+ on_eAddressNumber_changed()\l}",height=0.2,width=0.4,color="black", fillcolor="white", style="filled",URL="$d1/dee/classproject.html"];
  Node1 -> Node20 [dir="back",color="midnightblue",fontsize="10",style="solid",arrowtail="onormal"];
  Node20 [label="{proposal\n|+ singleProposal\l+ singleArticle\l|+ proposal()\l+ ~proposal()\l+ initAll()\l+ on_new_activate()\l+ on_save_activate()\l+ on_delete_activate()\l+ on_bSearch_clicked()\l+ tabChanged()\l}",height=0.2,width=0.4,color="black", fillcolor="white", style="filled",URL="$d5/de1/classproposal.html"];
  Node1 -> Node21 [dir="back",color="midnightblue",fontsize="10",style="solid",arrowtail="onormal"];
  Node21 [label="{send_email\n||+ send_email()\l+ ~send_email()\l}",height=0.2,width=0.4,color="black", fillcolor="white", style="filled",URL="$d6/d64/classsend__email.html"];
  Node1 -> Node22 [dir="back",color="midnightblue",fontsize="10",style="solid",arrowtail="onormal"];
  Node22 [label="{sourcenavigator\n|+ addressID\l+ singleSourcenavigator\l+ singleSourcenavigatorPart\l+ singleSourcenavigatorModule\l+ singleSourcenavigatorFile\l+ singleDMS\l+ singleAddress\l|+ sourcenavigator()\l+ ~sourcenavigator()\l+ on_new_activate()\l+ on_save_activate()\l+ on_delete_activate()\l+ on_bSearch_clicked()\l+ on_bEdit_clicked()\l+ tabChanged()\l+ on_eAddressNumber_changed()\l+ on_bProjectDMS_clicked()\l+ initAll()\l+ on_tvProject_activated()\l+ on_tvPart_activated()\l+ on_tvModul_activated()\l+ on_tvFiles_activated()\l}",height=0.2,width=0.4,color="black", fillcolor="white", style="filled",URL="$d6/d69/classsourcenavigator.html"];
  Node1 -> Node23 [dir="back",color="midnightblue",fontsize="10",style="solid",arrowtail="onormal"];
  Node23 [label="{staff\n|+ singleStaff\l|+ staff()\l+ ~staff()\l+ initAll()\l+ tabChanged()\l}",height=0.2,width=0.4,color="black", fillcolor="white", style="filled",URL="$dd/db7/classstaff.html"];
  Node1 -> Node24 [dir="back",color="midnightblue",fontsize="10",style="solid",arrowtail="onormal"];
  Node24 [label="{stock\n|+ singleStock\l+ singleStockGoods\l+ singleArticle\l+ pButton1\l|+ stock()\l+ ~stock()\l+ initAll()\l+ on_new_activate()\l+ on_save_activate()\l+ on_delete_activate()\l+ on_reorganize_stock\l_activate()\l+ on_bArticleSearch_clicked()\l+ on_eArticleID_changed()\l+ on_bSearch_clicked()\l+ tabChanged()\l}",height=0.2,width=0.4,color="black", fillcolor="white", style="filled",URL="$da/d69/classstock.html"];
}
