Fontconfig warning: "/etc/fonts/conf.d/50-user.conf", line 14: reading configurations from ~/.fonts.conf is deprecated.
Fontconfig warning: "/etc/fonts/conf.d/50-user.conf", line 14: reading configurations from ~/.fonts.conf is deprecated.

(process:13171): GLib-CRITICAL **: g_slice_set_config: assertion 'sys_page_size == 0' failed

(evince:14628): Gtk-WARNING **: GTK+ module /usr/lib/gtk-2.0/modules/libcanberra-gtk-module.so cannot be loaded.
GTK+ 2.x symbols detected. Using GTK+ 2.x and GTK+ 3 in the same process is not supported.
Gtk-Message: Failed to load module "canberra-gtk-module"

(evince:14628): Gtk-WARNING **: Theme parsing error: gtk-widgets.css:715:13: Not using units is deprecated. Assuming 'px'.

(evince:14628): GLib-GObject-WARNING **: The property GtkSettings:gtk-menu-images is deprecated and shouldn't be used anymore. It will be removed in a future version.

(evince:19906): Gtk-WARNING **: gtk_widget_size_allocate(): attempt to allocate widget with width -71 and height 19

(evince:26708): Gtk-WARNING **: gtk_widget_size_allocate(): attempt to allocate widget with width -71 and height 19

(evince:7670): Gtk-WARNING **: gtk_widget_size_allocate(): attempt to allocate widget with width -90 and height 23

(evince:2475): Gtk-WARNING **: gtk_widget_size_allocate(): attempt to allocate widget with width -54 and height 23

(evince:2812): Gtk-WARNING **: gtk_widget_size_allocate(): attempt to allocate widget with width -54 and height 23

(evince:3671): Gtk-WARNING **: gtk_widget_size_allocate(): attempt to allocate widget with width -54 and height 23
