digraph "cuon/Project/project.hpp"
{
  edge [fontname="Helvetica",fontsize="10",labelfontname="Helvetica",labelfontsize="10"];
  node [fontname="Helvetica",fontsize="10",shape=record];
  Node1 [label="cuon/Project/project.hpp",height=0.2,width=0.4,color="black", fillcolor="grey75", style="filled", fontcolor="black"];
  Node1 -> Node2 [color="midnightblue",fontsize="10",style="solid"];
  Node2 [label="gtkmm.h",height=0.2,width=0.4,color="grey75", fillcolor="white", style="filled"];
  Node1 -> Node3 [color="midnightblue",fontsize="10",style="solid"];
  Node3 [label="iostream",height=0.2,width=0.4,color="grey75", fillcolor="white", style="filled"];
  Node1 -> Node4 [color="midnightblue",fontsize="10",style="solid"];
  Node4 [label="ctype.h",height=0.2,width=0.4,color="grey75", fillcolor="white", style="filled"];
  Node1 -> Node5 [color="midnightblue",fontsize="10",style="solid"];
  Node5 [label="stdio.h",height=0.2,width=0.4,color="grey75", fillcolor="white", style="filled"];
  Node1 -> Node6 [color="midnightblue",fontsize="10",style="solid"];
  Node6 [label="stdlib.h",height=0.2,width=0.4,color="grey75", fillcolor="white", style="filled"];
  Node1 -> Node7 [color="midnightblue",fontsize="10",style="solid"];
  Node7 [label="unistd.h",height=0.2,width=0.4,color="grey75", fillcolor="white", style="filled"];
  Node1 -> Node8 [color="midnightblue",fontsize="10",style="solid"];
  Node8 [label="global.hpp",height=0.2,width=0.4,color="black", fillcolor="white", style="filled",URL="$d9/d3a/global_8hpp.html"];
  Node8 -> Node9 [color="midnightblue",fontsize="10",style="solid"];
  Node9 [label="time.h",height=0.2,width=0.4,color="grey75", fillcolor="white", style="filled"];
  Node8 -> Node10 [color="midnightblue",fontsize="10",style="solid"];
  Node10 [label="map",height=0.2,width=0.4,color="grey75", fillcolor="white", style="filled"];
  Node8 -> Node11 [color="midnightblue",fontsize="10",style="solid"];
  Node11 [label="cuon/User/User.hpp",height=0.2,width=0.4,color="black", fillcolor="white", style="filled",URL="$de/dfd/User_8hpp.html"];
  Node11 -> Node3 [color="midnightblue",fontsize="10",style="solid"];
  Node11 -> Node12 [color="midnightblue",fontsize="10",style="solid"];
  Node12 [label="string",height=0.2,width=0.4,color="grey75", fillcolor="white", style="filled"];
  Node11 -> Node10 [color="midnightblue",fontsize="10",style="solid"];
  Node11 -> Node13 [color="midnightblue",fontsize="10",style="solid"];
  Node13 [label="vector",height=0.2,width=0.4,color="grey75", fillcolor="white", style="filled"];
  Node11 -> Node14 [color="midnightblue",fontsize="10",style="solid"];
  Node14 [label="ctime",height=0.2,width=0.4,color="grey75", fillcolor="white", style="filled"];
  Node11 -> Node2 [color="midnightblue",fontsize="10",style="solid"];
  Node11 -> Node15 [color="midnightblue",fontsize="10",style="solid"];
  Node15 [label="cuon/Databases/datatypes.hpp",height=0.2,width=0.4,color="black", fillcolor="white", style="filled",URL="$d2/df0/datatypes_8hpp.html"];
  Node15 -> Node3 [color="midnightblue",fontsize="10",style="solid"];
  Node15 -> Node12 [color="midnightblue",fontsize="10",style="solid"];
  Node15 -> Node10 [color="midnightblue",fontsize="10",style="solid"];
  Node15 -> Node13 [color="midnightblue",fontsize="10",style="solid"];
  Node15 -> Node14 [color="midnightblue",fontsize="10",style="solid"];
  Node15 -> Node2 [color="midnightblue",fontsize="10",style="solid"];
  Node15 -> Node16 [color="midnightblue",fontsize="10",style="solid"];
  Node16 [label="cuon/TypeDefs/basics.hpp",height=0.2,width=0.4,color="black", fillcolor="white", style="filled",URL="$de/df9/basics_8hpp.html"];
  Node16 -> Node3 [color="midnightblue",fontsize="10",style="solid"];
  Node16 -> Node17 [color="midnightblue",fontsize="10",style="solid"];
  Node17 [label="sstream",height=0.2,width=0.4,color="grey75", fillcolor="white", style="filled"];
  Node16 -> Node6 [color="midnightblue",fontsize="10",style="solid"];
  Node16 -> Node5 [color="midnightblue",fontsize="10",style="solid"];
  Node16 -> Node4 [color="midnightblue",fontsize="10",style="solid"];
  Node16 -> Node7 [color="midnightblue",fontsize="10",style="solid"];
  Node16 -> Node12 [color="midnightblue",fontsize="10",style="solid"];
  Node16 -> Node10 [color="midnightblue",fontsize="10",style="solid"];
  Node16 -> Node13 [color="midnightblue",fontsize="10",style="solid"];
  Node16 -> Node18 [color="midnightblue",fontsize="10",style="solid"];
  Node18 [label="locale.h",height=0.2,width=0.4,color="grey75", fillcolor="white", style="filled"];
  Node16 -> Node14 [color="midnightblue",fontsize="10",style="solid"];
  Node15 -> Node19 [color="midnightblue",fontsize="10",style="solid"];
  Node19 [label="libintl.h",height=0.2,width=0.4,color="grey75", fillcolor="white", style="filled"];
  Node15 -> Node18 [color="midnightblue",fontsize="10",style="solid"];
  Node8 -> Node5 [color="midnightblue",fontsize="10",style="solid"];
  Node8 -> Node7 [color="midnightblue",fontsize="10",style="solid"];
  Node1 -> Node20 [color="midnightblue",fontsize="10",style="solid"];
  Node20 [label="cuon/Windows/windows.hpp",height=0.2,width=0.4,color="black", fillcolor="white", style="filled",URL="$d5/d34/windows_8hpp.html"];
  Node20 -> Node3 [color="midnightblue",fontsize="10",style="solid"];
  Node20 -> Node12 [color="midnightblue",fontsize="10",style="solid"];
  Node20 -> Node10 [color="midnightblue",fontsize="10",style="solid"];
  Node20 -> Node13 [color="midnightblue",fontsize="10",style="solid"];
  Node20 -> Node14 [color="midnightblue",fontsize="10",style="solid"];
  Node20 -> Node2 [color="midnightblue",fontsize="10",style="solid"];
  Node20 -> Node21 [color="midnightblue",fontsize="10",style="solid"];
  Node21 [label="cuon/Windows/gladeXml.hpp",height=0.2,width=0.4,color="black", fillcolor="white", style="filled",URL="$d3/d72/gladeXml_8hpp.html"];
  Node21 -> Node3 [color="midnightblue",fontsize="10",style="solid"];
  Node21 -> Node12 [color="midnightblue",fontsize="10",style="solid"];
  Node21 -> Node10 [color="midnightblue",fontsize="10",style="solid"];
  Node21 -> Node13 [color="midnightblue",fontsize="10",style="solid"];
  Node21 -> Node14 [color="midnightblue",fontsize="10",style="solid"];
  Node21 -> Node2 [color="midnightblue",fontsize="10",style="solid"];
  Node21 -> Node22 [color="midnightblue",fontsize="10",style="solid"];
  Node22 [label="cuon/XMLRPC/xmlrpc.hpp",height=0.2,width=0.4,color="black", fillcolor="white", style="filled",URL="$dc/df8/xmlrpc_8hpp.html"];
  Node22 -> Node23 [color="midnightblue",fontsize="10",style="solid"];
  Node23 [label="xmlrpc-c/girerr.hpp",height=0.2,width=0.4,color="grey75", fillcolor="white", style="filled"];
  Node22 -> Node24 [color="midnightblue",fontsize="10",style="solid"];
  Node24 [label="xmlrpc-c/base.hpp",height=0.2,width=0.4,color="grey75", fillcolor="white", style="filled"];
  Node22 -> Node25 [color="midnightblue",fontsize="10",style="solid"];
  Node25 [label="xmlrpc-c/client_simple.hpp",height=0.2,width=0.4,color="grey75", fillcolor="white", style="filled"];
  Node22 -> Node3 [color="midnightblue",fontsize="10",style="solid"];
  Node22 -> Node12 [color="midnightblue",fontsize="10",style="solid"];
  Node22 -> Node10 [color="midnightblue",fontsize="10",style="solid"];
  Node22 -> Node15 [color="midnightblue",fontsize="10",style="solid"];
  Node22 -> Node8 [color="midnightblue",fontsize="10",style="solid"];
  Node21 -> Node26 [color="midnightblue",fontsize="10",style="solid"];
  Node26 [label="cuon/Windows/setOfEntries.hpp",height=0.2,width=0.4,color="black", fillcolor="white", style="filled",URL="$d6/db9/setOfEntries_8hpp.html"];
  Node26 -> Node2 [color="midnightblue",fontsize="10",style="solid"];
  Node26 -> Node3 [color="midnightblue",fontsize="10",style="solid"];
  Node26 -> Node4 [color="midnightblue",fontsize="10",style="solid"];
  Node26 -> Node5 [color="midnightblue",fontsize="10",style="solid"];
  Node26 -> Node6 [color="midnightblue",fontsize="10",style="solid"];
  Node26 -> Node7 [color="midnightblue",fontsize="10",style="solid"];
  Node26 -> Node8 [color="midnightblue",fontsize="10",style="solid"];
  Node26 -> Node27 [color="midnightblue",fontsize="10",style="solid"];
  Node27 [label="cuon/Windows/dataEntry.hpp",height=0.2,width=0.4,color="black", fillcolor="white", style="filled",URL="$d0/d46/dataEntry_8hpp.html"];
  Node27 -> Node2 [color="midnightblue",fontsize="10",style="solid"];
  Node27 -> Node3 [color="midnightblue",fontsize="10",style="solid"];
  Node27 -> Node4 [color="midnightblue",fontsize="10",style="solid"];
  Node27 -> Node5 [color="midnightblue",fontsize="10",style="solid"];
  Node27 -> Node6 [color="midnightblue",fontsize="10",style="solid"];
  Node27 -> Node7 [color="midnightblue",fontsize="10",style="solid"];
  Node27 -> Node8 [color="midnightblue",fontsize="10",style="solid"];
  Node21 -> Node15 [color="midnightblue",fontsize="10",style="solid"];
  Node21 -> Node16 [color="midnightblue",fontsize="10",style="solid"];
  Node21 -> Node28 [color="midnightblue",fontsize="10",style="solid"];
  Node28 [label="cuon/Databases/localCache.hpp",height=0.2,width=0.4,color="black", fillcolor="white", style="filled",URL="$d1/d7f/localCache_8hpp.html"];
  Node28 -> Node3 [color="midnightblue",fontsize="10",style="solid"];
  Node28 -> Node12 [color="midnightblue",fontsize="10",style="solid"];
  Node28 -> Node10 [color="midnightblue",fontsize="10",style="solid"];
  Node28 -> Node13 [color="midnightblue",fontsize="10",style="solid"];
  Node28 -> Node14 [color="midnightblue",fontsize="10",style="solid"];
  Node28 -> Node29 [color="midnightblue",fontsize="10",style="solid"];
  Node29 [label="leveldb/db.h",height=0.2,width=0.4,color="grey75", fillcolor="white", style="filled"];
  Node28 -> Node15 [color="midnightblue",fontsize="10",style="solid"];
  Node20 -> Node22 [color="midnightblue",fontsize="10",style="solid"];
  Node20 -> Node26 [color="midnightblue",fontsize="10",style="solid"];
  Node1 -> Node30 [color="midnightblue",fontsize="10",style="solid"];
  Node30 [label="cuon/Project/SingleProject.hpp",height=0.2,width=0.4,color="black", fillcolor="white", style="filled",URL="$d3/d76/SingleProject_8hpp.html"];
  Node30 -> Node2 [color="midnightblue",fontsize="10",style="solid"];
  Node30 -> Node3 [color="midnightblue",fontsize="10",style="solid"];
  Node30 -> Node4 [color="midnightblue",fontsize="10",style="solid"];
  Node30 -> Node5 [color="midnightblue",fontsize="10",style="solid"];
  Node30 -> Node6 [color="midnightblue",fontsize="10",style="solid"];
  Node30 -> Node7 [color="midnightblue",fontsize="10",style="solid"];
  Node30 -> Node8 [color="midnightblue",fontsize="10",style="solid"];
  Node30 -> Node31 [color="midnightblue",fontsize="10",style="solid"];
  Node31 [label="cuon/Databases/Singledata.hpp",height=0.2,width=0.4,color="black", fillcolor="white", style="filled",URL="$dd/d56/Singledata_8hpp.html"];
  Node31 -> Node3 [color="midnightblue",fontsize="10",style="solid"];
  Node31 -> Node12 [color="midnightblue",fontsize="10",style="solid"];
  Node31 -> Node10 [color="midnightblue",fontsize="10",style="solid"];
  Node31 -> Node13 [color="midnightblue",fontsize="10",style="solid"];
  Node31 -> Node14 [color="midnightblue",fontsize="10",style="solid"];
  Node31 -> Node2 [color="midnightblue",fontsize="10",style="solid"];
  Node31 -> Node15 [color="midnightblue",fontsize="10",style="solid"];
  Node31 -> Node26 [color="midnightblue",fontsize="10",style="solid"];
  Node31 -> Node22 [color="midnightblue",fontsize="10",style="solid"];
  Node31 -> Node27 [color="midnightblue",fontsize="10",style="solid"];
  Node31 -> Node21 [color="midnightblue",fontsize="10",style="solid"];
  Node31 -> Node32 [color="midnightblue",fontsize="10",style="solid"];
  Node32 [label="cuon/Encoder/smallBase64.hpp",height=0.2,width=0.4,color="grey75", fillcolor="white", style="filled"];
  Node1 -> Node33 [color="midnightblue",fontsize="10",style="solid"];
  Node33 [label="cuon/Project/SingleProject\lPhases.hpp",height=0.2,width=0.4,color="black", fillcolor="white", style="filled",URL="$dc/d50/SingleProjectPhases_8hpp.html"];
  Node33 -> Node2 [color="midnightblue",fontsize="10",style="solid"];
  Node33 -> Node3 [color="midnightblue",fontsize="10",style="solid"];
  Node33 -> Node4 [color="midnightblue",fontsize="10",style="solid"];
  Node33 -> Node5 [color="midnightblue",fontsize="10",style="solid"];
  Node33 -> Node6 [color="midnightblue",fontsize="10",style="solid"];
  Node33 -> Node7 [color="midnightblue",fontsize="10",style="solid"];
  Node33 -> Node8 [color="midnightblue",fontsize="10",style="solid"];
  Node33 -> Node31 [color="midnightblue",fontsize="10",style="solid"];
  Node1 -> Node34 [color="midnightblue",fontsize="10",style="solid"];
  Node34 [label="cuon/Project/SingleProject\lTasks.hpp",height=0.2,width=0.4,color="black", fillcolor="white", style="filled",URL="$d9/d82/SingleProjectTasks_8hpp.html"];
  Node34 -> Node2 [color="midnightblue",fontsize="10",style="solid"];
  Node34 -> Node3 [color="midnightblue",fontsize="10",style="solid"];
  Node34 -> Node4 [color="midnightblue",fontsize="10",style="solid"];
  Node34 -> Node5 [color="midnightblue",fontsize="10",style="solid"];
  Node34 -> Node6 [color="midnightblue",fontsize="10",style="solid"];
  Node34 -> Node7 [color="midnightblue",fontsize="10",style="solid"];
  Node34 -> Node8 [color="midnightblue",fontsize="10",style="solid"];
  Node34 -> Node31 [color="midnightblue",fontsize="10",style="solid"];
  Node1 -> Node35 [color="midnightblue",fontsize="10",style="solid"];
  Node35 [label="cuon/Project/SingleProject\lMaterialResources.hpp",height=0.2,width=0.4,color="black", fillcolor="white", style="filled",URL="$d5/d9a/SingleProjectMaterialResources_8hpp.html"];
  Node35 -> Node2 [color="midnightblue",fontsize="10",style="solid"];
  Node35 -> Node3 [color="midnightblue",fontsize="10",style="solid"];
  Node35 -> Node4 [color="midnightblue",fontsize="10",style="solid"];
  Node35 -> Node5 [color="midnightblue",fontsize="10",style="solid"];
  Node35 -> Node6 [color="midnightblue",fontsize="10",style="solid"];
  Node35 -> Node7 [color="midnightblue",fontsize="10",style="solid"];
  Node35 -> Node8 [color="midnightblue",fontsize="10",style="solid"];
  Node35 -> Node31 [color="midnightblue",fontsize="10",style="solid"];
  Node1 -> Node36 [color="midnightblue",fontsize="10",style="solid"];
  Node36 [label="cuon/Project/SingleProject\lStaffResources.hpp",height=0.2,width=0.4,color="black", fillcolor="white", style="filled",URL="$d1/d9b/SingleProjectStaffResources_8hpp.html"];
  Node36 -> Node2 [color="midnightblue",fontsize="10",style="solid"];
  Node36 -> Node3 [color="midnightblue",fontsize="10",style="solid"];
  Node36 -> Node4 [color="midnightblue",fontsize="10",style="solid"];
  Node36 -> Node5 [color="midnightblue",fontsize="10",style="solid"];
  Node36 -> Node6 [color="midnightblue",fontsize="10",style="solid"];
  Node36 -> Node7 [color="midnightblue",fontsize="10",style="solid"];
  Node36 -> Node8 [color="midnightblue",fontsize="10",style="solid"];
  Node36 -> Node31 [color="midnightblue",fontsize="10",style="solid"];
  Node1 -> Node37 [color="midnightblue",fontsize="10",style="solid"];
  Node37 [label="cuon/Project/SingleProject\lProgramming.hpp",height=0.2,width=0.4,color="black", fillcolor="white", style="filled",URL="$de/d9a/SingleProjectProgramming_8hpp.html"];
  Node37 -> Node2 [color="midnightblue",fontsize="10",style="solid"];
  Node37 -> Node3 [color="midnightblue",fontsize="10",style="solid"];
  Node37 -> Node4 [color="midnightblue",fontsize="10",style="solid"];
  Node37 -> Node5 [color="midnightblue",fontsize="10",style="solid"];
  Node37 -> Node6 [color="midnightblue",fontsize="10",style="solid"];
  Node37 -> Node7 [color="midnightblue",fontsize="10",style="solid"];
  Node37 -> Node8 [color="midnightblue",fontsize="10",style="solid"];
  Node37 -> Node31 [color="midnightblue",fontsize="10",style="solid"];
  Node1 -> Node38 [color="midnightblue",fontsize="10",style="solid"];
  Node38 [label="cuon/Project/SingleSourcefile.hpp",height=0.2,width=0.4,color="black", fillcolor="white", style="filled",URL="$dc/d4c/SingleSourcefile_8hpp.html"];
  Node38 -> Node2 [color="midnightblue",fontsize="10",style="solid"];
  Node38 -> Node3 [color="midnightblue",fontsize="10",style="solid"];
  Node38 -> Node4 [color="midnightblue",fontsize="10",style="solid"];
  Node38 -> Node5 [color="midnightblue",fontsize="10",style="solid"];
  Node38 -> Node6 [color="midnightblue",fontsize="10",style="solid"];
  Node38 -> Node7 [color="midnightblue",fontsize="10",style="solid"];
  Node38 -> Node8 [color="midnightblue",fontsize="10",style="solid"];
  Node38 -> Node31 [color="midnightblue",fontsize="10",style="solid"];
  Node1 -> Node39 [color="midnightblue",fontsize="10",style="solid"];
  Node39 [label="cuon/DMS/dms.hpp",height=0.2,width=0.4,color="black", fillcolor="white", style="filled",URL="$d7/d32/dms_8hpp.html"];
  Node39 -> Node2 [color="midnightblue",fontsize="10",style="solid"];
  Node39 -> Node3 [color="midnightblue",fontsize="10",style="solid"];
  Node39 -> Node4 [color="midnightblue",fontsize="10",style="solid"];
  Node39 -> Node5 [color="midnightblue",fontsize="10",style="solid"];
  Node39 -> Node6 [color="midnightblue",fontsize="10",style="solid"];
  Node39 -> Node7 [color="midnightblue",fontsize="10",style="solid"];
  Node39 -> Node8 [color="midnightblue",fontsize="10",style="solid"];
  Node39 -> Node20 [color="midnightblue",fontsize="10",style="solid"];
  Node39 -> Node40 [color="midnightblue",fontsize="10",style="solid"];
  Node40 [label="cuon/DMS/SingleDMS.hpp",height=0.2,width=0.4,color="black", fillcolor="white", style="filled",URL="$db/d51/SingleDMS_8hpp.html"];
  Node40 -> Node2 [color="midnightblue",fontsize="10",style="solid"];
  Node40 -> Node3 [color="midnightblue",fontsize="10",style="solid"];
  Node40 -> Node4 [color="midnightblue",fontsize="10",style="solid"];
  Node40 -> Node5 [color="midnightblue",fontsize="10",style="solid"];
  Node40 -> Node6 [color="midnightblue",fontsize="10",style="solid"];
  Node40 -> Node7 [color="midnightblue",fontsize="10",style="solid"];
  Node40 -> Node8 [color="midnightblue",fontsize="10",style="solid"];
  Node40 -> Node31 [color="midnightblue",fontsize="10",style="solid"];
  Node40 -> Node32 [color="midnightblue",fontsize="10",style="solid"];
  Node39 -> Node41 [color="midnightblue",fontsize="10",style="solid"];
  Node41 [label="cuon/DMS/documentTools.hpp",height=0.2,width=0.4,color="black", fillcolor="white", style="filled",URL="$df/d9c/documentTools_8hpp.html"];
  Node41 -> Node2 [color="midnightblue",fontsize="10",style="solid"];
  Node41 -> Node3 [color="midnightblue",fontsize="10",style="solid"];
  Node41 -> Node4 [color="midnightblue",fontsize="10",style="solid"];
  Node41 -> Node5 [color="midnightblue",fontsize="10",style="solid"];
  Node41 -> Node6 [color="midnightblue",fontsize="10",style="solid"];
  Node41 -> Node7 [color="midnightblue",fontsize="10",style="solid"];
  Node41 -> Node8 [color="midnightblue",fontsize="10",style="solid"];
  Node41 -> Node40 [color="midnightblue",fontsize="10",style="solid"];
  Node41 -> Node16 [color="midnightblue",fontsize="10",style="solid"];
  Node1 -> Node42 [color="midnightblue",fontsize="10",style="solid"];
  Node42 [label="cuon/Addresses/SingleAddress.hpp",height=0.2,width=0.4,color="black", fillcolor="white", style="filled",URL="$d5/dbe/SingleAddress_8hpp.html"];
  Node42 -> Node31 [color="midnightblue",fontsize="10",style="solid"];
  Node1 -> Node43 [color="midnightblue",fontsize="10",style="solid"];
  Node43 [label="Pluma/Pluma.hpp",height=0.2,width=0.4,color="black", fillcolor="white", style="filled",URL="$d3/da1/Pluma_8hpp.html"];
  Node43 -> Node44 [color="midnightblue",fontsize="10",style="solid"];
  Node44 [label="Pluma/Config.hpp",height=0.2,width=0.4,color="black", fillcolor="white", style="filled",URL="$df/db4/Config_8hpp.html"];
  Node43 -> Node45 [color="midnightblue",fontsize="10",style="solid"];
  Node45 [label="Pluma/Provider.hpp",height=0.2,width=0.4,color="black", fillcolor="white", style="filled",URL="$d1/d9e/Provider_8hpp.html"];
  Node45 -> Node44 [color="midnightblue",fontsize="10",style="solid"];
  Node45 -> Node12 [color="midnightblue",fontsize="10",style="solid"];
  Node43 -> Node46 [color="midnightblue",fontsize="10",style="solid"];
  Node46 [label="Pluma/PluginManager.hpp",height=0.2,width=0.4,color="black", fillcolor="white", style="filled",URL="$da/daa/PluginManager_8hpp.html"];
  Node46 -> Node44 [color="midnightblue",fontsize="10",style="solid"];
  Node46 -> Node47 [color="midnightblue",fontsize="10",style="solid"];
  Node47 [label="Pluma/Host.hpp",height=0.2,width=0.4,color="black", fillcolor="white", style="filled",URL="$d6/d32/Host_8hpp.html"];
  Node47 -> Node44 [color="midnightblue",fontsize="10",style="solid"];
  Node47 -> Node45 [color="midnightblue",fontsize="10",style="solid"];
  Node47 -> Node13 [color="midnightblue",fontsize="10",style="solid"];
  Node47 -> Node48 [color="midnightblue",fontsize="10",style="solid"];
  Node48 [label="list",height=0.2,width=0.4,color="grey75", fillcolor="white", style="filled"];
  Node47 -> Node10 [color="midnightblue",fontsize="10",style="solid"];
  Node46 -> Node12 [color="midnightblue",fontsize="10",style="solid"];
  Node46 -> Node10 [color="midnightblue",fontsize="10",style="solid"];
  Node43 -> Node49 [color="midnightblue",fontsize="10",style="solid"];
  Node49 [label="Pluma/Pluma.inl",height=0.2,width=0.4,color="grey75", fillcolor="white", style="filled"];
  Node1 -> Node50 [color="midnightblue",fontsize="10",style="solid"];
  Node50 [label="cuon_window.hpp",height=0.2,width=0.4,color="black", fillcolor="white", style="filled",URL="$d5/d18/cuon__window_8hpp.html"];
  Node50 -> Node43 [color="midnightblue",fontsize="10",style="solid"];
  Node50 -> Node3 [color="midnightblue",fontsize="10",style="solid"];
  Node50 -> Node4 [color="midnightblue",fontsize="10",style="solid"];
  Node50 -> Node5 [color="midnightblue",fontsize="10",style="solid"];
  Node50 -> Node12 [color="midnightblue",fontsize="10",style="solid"];
  Node50 -> Node6 [color="midnightblue",fontsize="10",style="solid"];
}
