digraph "cuon/Cashdesk/cashdesk.hpp"
{
  edge [fontname="Helvetica",fontsize="10",labelfontname="Helvetica",labelfontsize="10"];
  node [fontname="Helvetica",fontsize="10",shape=record];
  Node1 [label="cuon/Cashdesk/cashdesk.hpp",height=0.2,width=0.4,color="black", fillcolor="grey75", style="filled", fontcolor="black"];
  Node1 -> Node2 [color="midnightblue",fontsize="10",style="solid",fontname="Helvetica"];
  Node2 [label="Pluma/Pluma.hpp",height=0.2,width=0.4,color="black", fillcolor="white", style="filled",URL="$d3/da1/Pluma_8hpp.html"];
  Node2 -> Node3 [color="midnightblue",fontsize="10",style="solid",fontname="Helvetica"];
  Node3 [label="Pluma/Config.hpp",height=0.2,width=0.4,color="black", fillcolor="white", style="filled",URL="$df/db4/Config_8hpp.html"];
  Node2 -> Node4 [color="midnightblue",fontsize="10",style="solid",fontname="Helvetica"];
  Node4 [label="Pluma/Provider.hpp",height=0.2,width=0.4,color="black", fillcolor="white", style="filled",URL="$d1/d9e/Provider_8hpp.html"];
  Node4 -> Node3 [color="midnightblue",fontsize="10",style="solid",fontname="Helvetica"];
  Node4 -> Node5 [color="midnightblue",fontsize="10",style="solid",fontname="Helvetica"];
  Node5 [label="string",height=0.2,width=0.4,color="grey75", fillcolor="white", style="filled"];
  Node2 -> Node6 [color="midnightblue",fontsize="10",style="solid",fontname="Helvetica"];
  Node6 [label="Pluma/PluginManager.hpp",height=0.2,width=0.4,color="black", fillcolor="white", style="filled",URL="$da/daa/PluginManager_8hpp.html"];
  Node6 -> Node3 [color="midnightblue",fontsize="10",style="solid",fontname="Helvetica"];
  Node6 -> Node7 [color="midnightblue",fontsize="10",style="solid",fontname="Helvetica"];
  Node7 [label="Pluma/Host.hpp",height=0.2,width=0.4,color="black", fillcolor="white", style="filled",URL="$d6/d32/Host_8hpp.html"];
  Node7 -> Node3 [color="midnightblue",fontsize="10",style="solid",fontname="Helvetica"];
  Node7 -> Node4 [color="midnightblue",fontsize="10",style="solid",fontname="Helvetica"];
  Node7 -> Node8 [color="midnightblue",fontsize="10",style="solid",fontname="Helvetica"];
  Node8 [label="vector",height=0.2,width=0.4,color="grey75", fillcolor="white", style="filled"];
  Node7 -> Node9 [color="midnightblue",fontsize="10",style="solid",fontname="Helvetica"];
  Node9 [label="list",height=0.2,width=0.4,color="grey75", fillcolor="white", style="filled"];
  Node7 -> Node10 [color="midnightblue",fontsize="10",style="solid",fontname="Helvetica"];
  Node10 [label="map",height=0.2,width=0.4,color="grey75", fillcolor="white", style="filled"];
  Node6 -> Node5 [color="midnightblue",fontsize="10",style="solid",fontname="Helvetica"];
  Node6 -> Node10 [color="midnightblue",fontsize="10",style="solid",fontname="Helvetica"];
  Node2 -> Node11 [color="midnightblue",fontsize="10",style="solid",fontname="Helvetica"];
  Node11 [label="Pluma/Pluma.inl",height=0.2,width=0.4,color="grey75", fillcolor="white", style="filled"];
  Node1 -> Node12 [color="midnightblue",fontsize="10",style="solid",fontname="Helvetica"];
  Node12 [label="cuon_window.hpp",height=0.2,width=0.4,color="black", fillcolor="white", style="filled",URL="$d5/d18/cuon__window_8hpp.html"];
  Node12 -> Node2 [color="midnightblue",fontsize="10",style="solid",fontname="Helvetica"];
  Node12 -> Node13 [color="midnightblue",fontsize="10",style="solid",fontname="Helvetica"];
  Node13 [label="iostream",height=0.2,width=0.4,color="grey75", fillcolor="white", style="filled"];
  Node12 -> Node14 [color="midnightblue",fontsize="10",style="solid",fontname="Helvetica"];
  Node14 [label="ctype.h",height=0.2,width=0.4,color="grey75", fillcolor="white", style="filled"];
  Node12 -> Node15 [color="midnightblue",fontsize="10",style="solid",fontname="Helvetica"];
  Node15 [label="stdio.h",height=0.2,width=0.4,color="grey75", fillcolor="white", style="filled"];
  Node12 -> Node5 [color="midnightblue",fontsize="10",style="solid",fontname="Helvetica"];
  Node12 -> Node16 [color="midnightblue",fontsize="10",style="solid",fontname="Helvetica"];
  Node16 [label="stdlib.h",height=0.2,width=0.4,color="grey75", fillcolor="white", style="filled"];
  Node1 -> Node17 [color="midnightblue",fontsize="10",style="solid",fontname="Helvetica"];
  Node17 [label="gtkmm.h",height=0.2,width=0.4,color="grey75", fillcolor="white", style="filled"];
  Node1 -> Node13 [color="midnightblue",fontsize="10",style="solid",fontname="Helvetica"];
  Node1 -> Node14 [color="midnightblue",fontsize="10",style="solid",fontname="Helvetica"];
  Node1 -> Node15 [color="midnightblue",fontsize="10",style="solid",fontname="Helvetica"];
  Node1 -> Node16 [color="midnightblue",fontsize="10",style="solid",fontname="Helvetica"];
  Node1 -> Node18 [color="midnightblue",fontsize="10",style="solid",fontname="Helvetica"];
  Node18 [label="unistd.h",height=0.2,width=0.4,color="grey75", fillcolor="white", style="filled"];
  Node1 -> Node19 [color="midnightblue",fontsize="10",style="solid",fontname="Helvetica"];
  Node19 [label="global.hpp",height=0.2,width=0.4,color="black", fillcolor="white", style="filled",URL="$d9/d3a/global_8hpp.html"];
  Node19 -> Node20 [color="midnightblue",fontsize="10",style="solid",fontname="Helvetica"];
  Node20 [label="time.h",height=0.2,width=0.4,color="grey75", fillcolor="white", style="filled"];
  Node19 -> Node10 [color="midnightblue",fontsize="10",style="solid",fontname="Helvetica"];
  Node19 -> Node21 [color="midnightblue",fontsize="10",style="solid",fontname="Helvetica"];
  Node21 [label="cuon/User/User.hpp",height=0.2,width=0.4,color="black", fillcolor="white", style="filled",URL="$de/dfd/User_8hpp.html"];
  Node21 -> Node13 [color="midnightblue",fontsize="10",style="solid",fontname="Helvetica"];
  Node21 -> Node5 [color="midnightblue",fontsize="10",style="solid",fontname="Helvetica"];
  Node21 -> Node10 [color="midnightblue",fontsize="10",style="solid",fontname="Helvetica"];
  Node21 -> Node8 [color="midnightblue",fontsize="10",style="solid",fontname="Helvetica"];
  Node21 -> Node22 [color="midnightblue",fontsize="10",style="solid",fontname="Helvetica"];
  Node22 [label="ctime",height=0.2,width=0.4,color="grey75", fillcolor="white", style="filled"];
  Node21 -> Node17 [color="midnightblue",fontsize="10",style="solid",fontname="Helvetica"];
  Node21 -> Node23 [color="midnightblue",fontsize="10",style="solid",fontname="Helvetica"];
  Node23 [label="cuon/Databases/datatypes.hpp",height=0.2,width=0.4,color="black", fillcolor="white", style="filled",URL="$d2/df0/datatypes_8hpp.html"];
  Node23 -> Node13 [color="midnightblue",fontsize="10",style="solid",fontname="Helvetica"];
  Node23 -> Node5 [color="midnightblue",fontsize="10",style="solid",fontname="Helvetica"];
  Node23 -> Node10 [color="midnightblue",fontsize="10",style="solid",fontname="Helvetica"];
  Node23 -> Node8 [color="midnightblue",fontsize="10",style="solid",fontname="Helvetica"];
  Node23 -> Node22 [color="midnightblue",fontsize="10",style="solid",fontname="Helvetica"];
  Node23 -> Node17 [color="midnightblue",fontsize="10",style="solid",fontname="Helvetica"];
  Node23 -> Node24 [color="midnightblue",fontsize="10",style="solid",fontname="Helvetica"];
  Node24 [label="cuon/TypeDefs/basics.hpp",height=0.2,width=0.4,color="black", fillcolor="white", style="filled",URL="$de/df9/basics_8hpp.html"];
  Node24 -> Node13 [color="midnightblue",fontsize="10",style="solid",fontname="Helvetica"];
  Node24 -> Node25 [color="midnightblue",fontsize="10",style="solid",fontname="Helvetica"];
  Node25 [label="sstream",height=0.2,width=0.4,color="grey75", fillcolor="white", style="filled"];
  Node24 -> Node16 [color="midnightblue",fontsize="10",style="solid",fontname="Helvetica"];
  Node24 -> Node15 [color="midnightblue",fontsize="10",style="solid",fontname="Helvetica"];
  Node24 -> Node14 [color="midnightblue",fontsize="10",style="solid",fontname="Helvetica"];
  Node24 -> Node18 [color="midnightblue",fontsize="10",style="solid",fontname="Helvetica"];
  Node24 -> Node5 [color="midnightblue",fontsize="10",style="solid",fontname="Helvetica"];
  Node24 -> Node10 [color="midnightblue",fontsize="10",style="solid",fontname="Helvetica"];
  Node24 -> Node8 [color="midnightblue",fontsize="10",style="solid",fontname="Helvetica"];
  Node24 -> Node26 [color="midnightblue",fontsize="10",style="solid",fontname="Helvetica"];
  Node26 [label="locale.h",height=0.2,width=0.4,color="grey75", fillcolor="white", style="filled"];
  Node24 -> Node22 [color="midnightblue",fontsize="10",style="solid",fontname="Helvetica"];
  Node23 -> Node27 [color="midnightblue",fontsize="10",style="solid",fontname="Helvetica"];
  Node27 [label="libintl.h",height=0.2,width=0.4,color="grey75", fillcolor="white", style="filled"];
  Node23 -> Node26 [color="midnightblue",fontsize="10",style="solid",fontname="Helvetica"];
  Node19 -> Node15 [color="midnightblue",fontsize="10",style="solid",fontname="Helvetica"];
  Node19 -> Node18 [color="midnightblue",fontsize="10",style="solid",fontname="Helvetica"];
  Node1 -> Node28 [color="midnightblue",fontsize="10",style="solid",fontname="Helvetica"];
  Node28 [label="cuon/Windows/windows.hpp",height=0.2,width=0.4,color="black", fillcolor="white", style="filled",URL="$d5/d34/windows_8hpp.html"];
  Node28 -> Node13 [color="midnightblue",fontsize="10",style="solid",fontname="Helvetica"];
  Node28 -> Node5 [color="midnightblue",fontsize="10",style="solid",fontname="Helvetica"];
  Node28 -> Node10 [color="midnightblue",fontsize="10",style="solid",fontname="Helvetica"];
  Node28 -> Node8 [color="midnightblue",fontsize="10",style="solid",fontname="Helvetica"];
  Node28 -> Node22 [color="midnightblue",fontsize="10",style="solid",fontname="Helvetica"];
  Node28 -> Node17 [color="midnightblue",fontsize="10",style="solid",fontname="Helvetica"];
  Node28 -> Node29 [color="midnightblue",fontsize="10",style="solid",fontname="Helvetica"];
  Node29 [label="cuon/Windows/gladeXml.hpp",height=0.2,width=0.4,color="black", fillcolor="white", style="filled",URL="$d3/d72/gladeXml_8hpp.html"];
  Node29 -> Node13 [color="midnightblue",fontsize="10",style="solid",fontname="Helvetica"];
  Node29 -> Node5 [color="midnightblue",fontsize="10",style="solid",fontname="Helvetica"];
  Node29 -> Node10 [color="midnightblue",fontsize="10",style="solid",fontname="Helvetica"];
  Node29 -> Node8 [color="midnightblue",fontsize="10",style="solid",fontname="Helvetica"];
  Node29 -> Node22 [color="midnightblue",fontsize="10",style="solid",fontname="Helvetica"];
  Node29 -> Node17 [color="midnightblue",fontsize="10",style="solid",fontname="Helvetica"];
  Node29 -> Node30 [color="midnightblue",fontsize="10",style="solid",fontname="Helvetica"];
  Node30 [label="cuon/XMLRPC/xmlrpc.hpp",height=0.2,width=0.4,color="black", fillcolor="white", style="filled",URL="$dc/df8/xmlrpc_8hpp.html"];
  Node30 -> Node31 [color="midnightblue",fontsize="10",style="solid",fontname="Helvetica"];
  Node31 [label="xmlrpc-c/girerr.hpp",height=0.2,width=0.4,color="grey75", fillcolor="white", style="filled"];
  Node30 -> Node32 [color="midnightblue",fontsize="10",style="solid",fontname="Helvetica"];
  Node32 [label="xmlrpc-c/base.hpp",height=0.2,width=0.4,color="grey75", fillcolor="white", style="filled"];
  Node30 -> Node33 [color="midnightblue",fontsize="10",style="solid",fontname="Helvetica"];
  Node33 [label="xmlrpc-c/client_simple.hpp",height=0.2,width=0.4,color="grey75", fillcolor="white", style="filled"];
  Node30 -> Node13 [color="midnightblue",fontsize="10",style="solid",fontname="Helvetica"];
  Node30 -> Node5 [color="midnightblue",fontsize="10",style="solid",fontname="Helvetica"];
  Node30 -> Node10 [color="midnightblue",fontsize="10",style="solid",fontname="Helvetica"];
  Node30 -> Node23 [color="midnightblue",fontsize="10",style="solid",fontname="Helvetica"];
  Node30 -> Node19 [color="midnightblue",fontsize="10",style="solid",fontname="Helvetica"];
  Node29 -> Node34 [color="midnightblue",fontsize="10",style="solid",fontname="Helvetica"];
  Node34 [label="cuon/Windows/setOfEntries.hpp",height=0.2,width=0.4,color="black", fillcolor="white", style="filled",URL="$d6/db9/setOfEntries_8hpp.html"];
  Node34 -> Node17 [color="midnightblue",fontsize="10",style="solid",fontname="Helvetica"];
  Node34 -> Node13 [color="midnightblue",fontsize="10",style="solid",fontname="Helvetica"];
  Node34 -> Node14 [color="midnightblue",fontsize="10",style="solid",fontname="Helvetica"];
  Node34 -> Node15 [color="midnightblue",fontsize="10",style="solid",fontname="Helvetica"];
  Node34 -> Node16 [color="midnightblue",fontsize="10",style="solid",fontname="Helvetica"];
  Node34 -> Node18 [color="midnightblue",fontsize="10",style="solid",fontname="Helvetica"];
  Node34 -> Node19 [color="midnightblue",fontsize="10",style="solid",fontname="Helvetica"];
  Node34 -> Node35 [color="midnightblue",fontsize="10",style="solid",fontname="Helvetica"];
  Node35 [label="cuon/Windows/dataEntry.hpp",height=0.2,width=0.4,color="black", fillcolor="white", style="filled",URL="$d0/d46/dataEntry_8hpp.html"];
  Node35 -> Node17 [color="midnightblue",fontsize="10",style="solid",fontname="Helvetica"];
  Node35 -> Node13 [color="midnightblue",fontsize="10",style="solid",fontname="Helvetica"];
  Node35 -> Node14 [color="midnightblue",fontsize="10",style="solid",fontname="Helvetica"];
  Node35 -> Node15 [color="midnightblue",fontsize="10",style="solid",fontname="Helvetica"];
  Node35 -> Node16 [color="midnightblue",fontsize="10",style="solid",fontname="Helvetica"];
  Node35 -> Node18 [color="midnightblue",fontsize="10",style="solid",fontname="Helvetica"];
  Node35 -> Node19 [color="midnightblue",fontsize="10",style="solid",fontname="Helvetica"];
  Node29 -> Node23 [color="midnightblue",fontsize="10",style="solid",fontname="Helvetica"];
  Node29 -> Node24 [color="midnightblue",fontsize="10",style="solid",fontname="Helvetica"];
  Node29 -> Node36 [color="midnightblue",fontsize="10",style="solid",fontname="Helvetica"];
  Node36 [label="cuon/Databases/localCache.hpp",height=0.2,width=0.4,color="black", fillcolor="white", style="filled",URL="$d1/d7f/localCache_8hpp.html"];
  Node36 -> Node13 [color="midnightblue",fontsize="10",style="solid",fontname="Helvetica"];
  Node36 -> Node5 [color="midnightblue",fontsize="10",style="solid",fontname="Helvetica"];
  Node36 -> Node10 [color="midnightblue",fontsize="10",style="solid",fontname="Helvetica"];
  Node36 -> Node8 [color="midnightblue",fontsize="10",style="solid",fontname="Helvetica"];
  Node36 -> Node22 [color="midnightblue",fontsize="10",style="solid",fontname="Helvetica"];
  Node36 -> Node37 [color="midnightblue",fontsize="10",style="solid",fontname="Helvetica"];
  Node37 [label="leveldb/db.h",height=0.2,width=0.4,color="grey75", fillcolor="white", style="filled"];
  Node36 -> Node23 [color="midnightblue",fontsize="10",style="solid",fontname="Helvetica"];
  Node28 -> Node30 [color="midnightblue",fontsize="10",style="solid",fontname="Helvetica"];
  Node28 -> Node34 [color="midnightblue",fontsize="10",style="solid",fontname="Helvetica"];
  Node1 -> Node38 [color="midnightblue",fontsize="10",style="solid",fontname="Helvetica"];
  Node38 [label="cuon/Articles/SingleArticle.hpp",height=0.2,width=0.4,color="black", fillcolor="white", style="filled",URL="$db/d95/SingleArticle_8hpp.html"];
  Node38 -> Node17 [color="midnightblue",fontsize="10",style="solid",fontname="Helvetica"];
  Node38 -> Node13 [color="midnightblue",fontsize="10",style="solid",fontname="Helvetica"];
  Node38 -> Node14 [color="midnightblue",fontsize="10",style="solid",fontname="Helvetica"];
  Node38 -> Node15 [color="midnightblue",fontsize="10",style="solid",fontname="Helvetica"];
  Node38 -> Node16 [color="midnightblue",fontsize="10",style="solid",fontname="Helvetica"];
  Node38 -> Node18 [color="midnightblue",fontsize="10",style="solid",fontname="Helvetica"];
  Node38 -> Node19 [color="midnightblue",fontsize="10",style="solid",fontname="Helvetica"];
  Node38 -> Node39 [color="midnightblue",fontsize="10",style="solid",fontname="Helvetica"];
  Node39 [label="cuon/Databases/Singledata.hpp",height=0.2,width=0.4,color="black", fillcolor="white", style="filled",URL="$dd/d56/Singledata_8hpp.html"];
  Node39 -> Node13 [color="midnightblue",fontsize="10",style="solid",fontname="Helvetica"];
  Node39 -> Node5 [color="midnightblue",fontsize="10",style="solid",fontname="Helvetica"];
  Node39 -> Node10 [color="midnightblue",fontsize="10",style="solid",fontname="Helvetica"];
  Node39 -> Node8 [color="midnightblue",fontsize="10",style="solid",fontname="Helvetica"];
  Node39 -> Node22 [color="midnightblue",fontsize="10",style="solid",fontname="Helvetica"];
  Node39 -> Node17 [color="midnightblue",fontsize="10",style="solid",fontname="Helvetica"];
  Node39 -> Node23 [color="midnightblue",fontsize="10",style="solid",fontname="Helvetica"];
  Node39 -> Node34 [color="midnightblue",fontsize="10",style="solid",fontname="Helvetica"];
  Node39 -> Node30 [color="midnightblue",fontsize="10",style="solid",fontname="Helvetica"];
  Node39 -> Node35 [color="midnightblue",fontsize="10",style="solid",fontname="Helvetica"];
  Node39 -> Node29 [color="midnightblue",fontsize="10",style="solid",fontname="Helvetica"];
  Node39 -> Node40 [color="midnightblue",fontsize="10",style="solid",fontname="Helvetica"];
  Node40 [label="cuon/Encoder/smallBase64.hpp",height=0.2,width=0.4,color="grey75", fillcolor="white", style="filled"];
  Node1 -> Node41 [color="midnightblue",fontsize="10",style="solid",fontname="Helvetica"];
  Node41 [label="cuon/Order/SingleOrder.hpp",height=0.2,width=0.4,color="black", fillcolor="white", style="filled",URL="$d0/df3/SingleOrder_8hpp.html"];
  Node41 -> Node17 [color="midnightblue",fontsize="10",style="solid",fontname="Helvetica"];
  Node41 -> Node13 [color="midnightblue",fontsize="10",style="solid",fontname="Helvetica"];
  Node41 -> Node14 [color="midnightblue",fontsize="10",style="solid",fontname="Helvetica"];
  Node41 -> Node15 [color="midnightblue",fontsize="10",style="solid",fontname="Helvetica"];
  Node41 -> Node16 [color="midnightblue",fontsize="10",style="solid",fontname="Helvetica"];
  Node41 -> Node18 [color="midnightblue",fontsize="10",style="solid",fontname="Helvetica"];
  Node41 -> Node19 [color="midnightblue",fontsize="10",style="solid",fontname="Helvetica"];
  Node41 -> Node39 [color="midnightblue",fontsize="10",style="solid",fontname="Helvetica"];
  Node1 -> Node42 [color="midnightblue",fontsize="10",style="solid",fontname="Helvetica"];
  Node42 [label="cuon/Order/SingleOrderPosition.hpp",height=0.2,width=0.4,color="black", fillcolor="white", style="filled",URL="$db/da6/SingleOrderPosition_8hpp.html"];
  Node42 -> Node17 [color="midnightblue",fontsize="10",style="solid",fontname="Helvetica"];
  Node42 -> Node13 [color="midnightblue",fontsize="10",style="solid",fontname="Helvetica"];
  Node42 -> Node14 [color="midnightblue",fontsize="10",style="solid",fontname="Helvetica"];
  Node42 -> Node15 [color="midnightblue",fontsize="10",style="solid",fontname="Helvetica"];
  Node42 -> Node16 [color="midnightblue",fontsize="10",style="solid",fontname="Helvetica"];
  Node42 -> Node18 [color="midnightblue",fontsize="10",style="solid",fontname="Helvetica"];
  Node42 -> Node19 [color="midnightblue",fontsize="10",style="solid",fontname="Helvetica"];
  Node42 -> Node39 [color="midnightblue",fontsize="10",style="solid",fontname="Helvetica"];
}
